{
    "declination": 0.816702791256574,
    "distance": 605.0,
    "rightascension": 5.2095080059986065,
    "stars": [
        {
            "magH": 11.832,
            "magJ": 12.148,
            "magK": 11.766,
            "mass": 1.94864167328409e+30,
            "name": "Kepler-318",
            "planets": [
                {
                    "description": "Kepler-318 b has been discovered by the Kepler spacecraft and was originally classified as a planet candidate. A new statistical analysis led by a team at NASA Ames Research Center has validated the planet with more than 99 percent confidence. Although many parameters of Kepler-318 b are still unknown, the object is highly unlikely to be a false positive.",
                    "discoverymethod": "transit",
                    "discoveryyear": "2014",
                    "istransiting": "1",
                    "lastupdate": "14/02/26",
                    "name": "Kepler-318 b",
                    "orbit": {
                        "period": 402858.57600000006,
                        "transitTime": 295711066.6560173
                    },
                    "radius": 30685796.24
                },
                {
                    "description": "Kepler-318 c has been discovered by the Kepler spacecraft and was originally classified as a planet candidate. A new statistical analysis led by a team at NASA Ames Research Center has validated the planet with more than 99 percent confidence. Although many parameters of Kepler-318 c are still unknown, the object is highly unlikely to be a false positive.",
                    "discoverymethod": "transit",
                    "discoveryyear": "2014",
                    "istransiting": "1",
                    "lastupdate": "14/02/26",
                    "name": "Kepler-318 c",
                    "orbit": {
                        "period": 1020816.6048,
                        "transitTime": 295625345.75999826
                    },
                    "radius": 23975557.12
                }
            ],
            "radius": 827187300.0,
            "temperature": 5746.0
        }
    ]
}