{
    "declination": 0.6846454665214511,
    "distance": 704.771,
    "rightascension": 5.088629025460689,
    "stars": [
        {
            "magH": 12.576,
            "magJ": 12.874,
            "magK": 12.51,
            "mass": 1.986421460827353e+30,
            "name": "KOI-1860",
            "planets": [
                {
                    "description": "The planet Kepler-416 b has been confirmed by transit timing variations.",
                    "discoverymethod": "transit",
                    "discoveryyear": "2014",
                    "istransiting": "1",
                    "lastupdate": "15/03/18",
                    "name": "KOI-1860 b",
                    "orbit": {
                        "period": 545961.6,
                        "semiMajorAxis": 6851582478.06,
                        "transitTime": 295551122.9759842
                    },
                    "radius": 15799732.0
                },
                {
                    "description": "The planet Kepler-416 c has been confirmed by transit timing variations.",
                    "discoverymethod": "transit",
                    "discoveryyear": "2014",
                    "istransiting": "1",
                    "lastupdate": "15/03/18",
                    "name": "KOI-1860 c",
                    "orbit": {
                        "period": 1054857.5999999999,
                        "semiMajorAxis": 15528258978.66,
                        "transitTime": 315258284.7360179
                    },
                    "radius": 16228684.0
                },
                {
                    "description": "The planet candidate KOI-1860.03 has not yet been confirmed as a planet.",
                    "discoverymethod": "transit",
                    "discoveryyear": "2014",
                    "istransiting": "1",
                    "lastupdate": "15/03/18",
                    "name": "KOI-1860.03",
                    "orbit": {
                        "period": 265805.4599712,
                        "semiMajorAxis": 6193351846.98,
                        "transitTime": 314691632.0640072
                    },
                    "radius": 10723800.0
                },
                {
                    "description": "The planet candidate KOI-1860.04 has not yet been confirmed as a planet.",
                    "discoverymethod": "transit",
                    "discoveryyear": "2014",
                    "istransiting": "1",
                    "lastupdate": "15/03/18",
                    "name": "KOI-1860.04",
                    "orbit": {
                        "period": 2146479.2553600003,
                        "semiMajorAxis": 24937965045.69,
                        "transitTime": 284141217.6000148
                    },
                    "radius": 9365452.0
                }
            ],
            "radius": 747877500.0
        }
    ]
}