datetime_jd,incl,Omega,w,e,a,M
#Earth
290044800.0,0.29227819435032687,1.1485952135823716,4.9213457913439855,1.005437618161786,-1052823681.2087168,0.19259736848649608
290131200.0,0.292690101847018,1.0884222688862872,4.9821923322281405,1.005556453131299,-1064256180.8969032,0.23943758329886933
