{
    "declination": 0.8560209723246743,
    "distance": 101.3,
    "rightascension": 4.322598780772623,
    "stars": [
        {
            "magV": 10.5,
            "mass": 1.9685257719910705e+30,
            "name": "TOI-2260",
            "planets": [
                {
                    "description": "The parameters listed here were imported into the Open Exoplanet Catalogue from the exoplanet.eu website.",
                    "discoverymethod": "transit",
                    "discoveryyear": "2022",
                    "istransiting": "1",
                    "lastupdate": "22/01/30",
                    "mass": 2.0879370570696554e+25,
                    "name": "TOI-2260 b",
                    "orbit": {
                        "period": 30453.649919999996,
                        "semiMajorAxis": 1451099345.79
                    },
                    "radius": 10330594.0,
                    "temperature": 2609.0
                }
            ],
            "radius": 653958000.0,
            "temperature": 5534.0
        }
    ]
}