{
    "declination": -1.1168089747896235,
    "distance": 160.0,
    "rightascension": 1.5208794520389297,
    "stars": [
        {
            "magB": 10.73,
            "magH": 9.008,
            "magI": 9.742,
            "magJ": 9.272,
            "magK": 8.944,
            "magR": 9.93,
            "magV": 10.3,
            "mass": 2.4855123383725636e+30,
            "metallicity": 0.04,
            "name": "WASP-62",
            "planets": [
                {
                    "description": "This planet has been announced at the Extreme Solar Systems II conference in Jackson Hole by the WASP team.",
                    "discoverymethod": "transit",
                    "discoveryyear": "2011",
                    "istransiting": "1",
                    "lastupdate": "12/04/24",
                    "mass": 1.0819310204815486e+27,
                    "name": "WASP-62 b",
                    "orbit": {
                        "eccentricity": 0.0,
                        "inclination": 1.541125729510993,
                        "period": 381192.73919999995,
                        "semiMajorAxis": 8482199268.690001,
                        "transitTime": 372461131.00799024
                    },
                    "radius": 99373880.0,
                    "temperature": 1305.2
                }
            ],
            "radius": 890496000.0,
            "spectraltype": "F7",
            "temperature": 6230.0
        }
    ]
}