{
    "declination": -0.5098703065903202,
    "distance": 7380.0,
    "rightascension": 4.727294092196721,
    "stars": [
        {
            "mass": 1.4913074030235383e+30,
            "name": "MOA-2011-BLG-028L",
            "planets": [
                {
                    "description": "MOA-2011-BLG-028Lb is a Neptune-mass planet orbiting a star in the galactic bulge.",
                    "discoverymethod": "microlensing",
                    "discoveryyear": "2015",
                    "lastupdate": "18/09/19",
                    "mass": 1.7842371214958874e+26,
                    "name": "MOA-2011-BLG-028L b",
                    "orbit": {
                        "separationMeters": 619335184698.0
                    }
                }
            ]
        }
    ]
}