{
    "declination": 0.35708797899223227,
    "distance": 86.25,
    "rightascension": 0.9960019609641574,
    "stars": [
        {
            "magH": 10.318,
            "magJ": 10.933,
            "magK": 10.106,
            "magV": 14.162,
            "mass": 6.959434547443177e+29,
            "name": "K2-89",
            "planets": [
                {
                    "description": "This planet was discovered by Crossfield et al. 2016. The discovery was made with a space based telescope (0.95 m Kepler Telescope). The parameters listed here are those reported by Crossfield et al. 2016 and were imported into the Open Exoplanet Catalogue from the NASA Exoplanet Archive.",
                    "discoverymethod": "transit",
                    "discoveryyear": "2016",
                    "istransiting": "1",
                    "lastupdate": "16/07/18",
                    "name": "K2-89 b",
                    "orbit": {
                        "period": 94696.6464,
                        "semiMajorAxis": 2187120869.634,
                        "transitTime": 477058170.2399969
                    },
                    "radius": 3932060.0
                }
            ],
            "radius": 222624000.0,
            "temperature": 3691.0
        }
    ]
}