{
    "declination": 0.8356809997606003,
    "distance": 1017.85,
    "rightascension": 5.102926195461021,
    "stars": [
        {
            "magH": 13.72,
            "magJ": 14.114,
            "magK": 13.63,
            "mass": 1.8134298020766226e+30,
            "name": "Kepler-226",
            "planets": [
                {
                    "description": "Kepler-226 c has been discovered by the Kepler spacecraft and was originally classified as a planet candidate. A new statistical analysis led by a team at NASA Ames Research Center has validated the planet with more than 99 percent confidence. Although many parameters of Kepler-226 c are still unknown, the object is highly unlikely to be a false positive.",
                    "discoverymethod": "transit",
                    "discoveryyear": "2014",
                    "istransiting": "1",
                    "lastupdate": "14/02/26",
                    "name": "Kepler-226 c",
                    "orbit": {
                        "period": 462201.55199999997,
                        "transitTime": 298970437.53598183
                    },
                    "radius": 14789550.04
                },
                {
                    "description": "Kepler-226 b has been discovered by the Kepler spacecraft and was originally classified as a planet candidate. A new statistical analysis led by a team at NASA Ames Research Center has validated the planet with more than 99 percent confidence. Although many parameters of Kepler-226 b are still unknown, the object is highly unlikely to be a false positive.",
                    "discoverymethod": "transit",
                    "discoveryyear": "2014",
                    "istransiting": "1",
                    "lastupdate": "14/02/26",
                    "name": "Kepler-226 b",
                    "orbit": {
                        "period": 340502.1408,
                        "transitTime": 295884867.1679914
                    },
                    "radius": 10098244.999999998
                },
                {
                    "description": "Kepler-226 d has been discovered by the Kepler spacecraft and was originally classified as a planet candidate. A new statistical analysis led by a team at NASA Ames Research Center has validated the planet with more than 99 percent confidence. Although many parameters of Kepler-226 d are still unknown, the object is highly unlikely to be a false positive.",
                    "discoverymethod": "transit",
                    "discoveryyear": "2014",
                    "istransiting": "1",
                    "lastupdate": "14/02/26",
                    "name": "Kepler-226 d",
                    "orbit": {
                        "period": 700621.4016000001,
                        "transitTime": 295600607.7120021
                    },
                    "radius": 7948480.5600000005
                }
            ],
            "radius": 557951400.0,
            "temperature": 5571.0
        }
    ]
}