{
    "declination": 0.7291717881325053,
    "distance": 1034.02,
    "rightascension": 4.966608017815551,
    "stars": [
        {
            "magH": 12.421,
            "magJ": 12.681,
            "magK": 12.349,
            "mass": 2.3662077461306806e+30,
            "metallicity": 0.05,
            "name": "Kepler-1370",
            "planets": [
                {
                    "description": "This planet was discovered by the NASA Kepler spacecraft and is part of the May 10th 2016 data release. Although not many details are known about this particular system yet, it has a very low probability of being a false positive.",
                    "discoverymethod": "transit",
                    "discoveryyear": "2016",
                    "istransiting": "1",
                    "lastupdate": "16/05/10",
                    "name": "Kepler-1370 b",
                    "orbit": {
                        "period": 1750824.14976
                    },
                    "radius": 11724688.0
                },
                {
                    "description": "This planet was discovered by the NASA Kepler spacecraft and is part of the May 10th 2016 data release. Although not many details are known about this particular system yet, it has a very low probability of being a false positive.",
                    "discoverymethod": "transit",
                    "discoveryyear": "2016",
                    "istransiting": "1",
                    "lastupdate": "16/05/10",
                    "name": "Kepler-1370 c",
                    "orbit": {
                        "period": 642938.7856320001
                    },
                    "radius": 8078596.0
                }
            ],
            "radius": 897453000.0,
            "temperature": 6202.0
        }
    ]
}