{
    "declination": -0.21271206124926434,
    "distance": 108.4,
    "rightascension": 5.835755776281126,
    "stars": [
        {
            "magB": 13.505,
            "magH": 9.811,
            "magJ": 10.374,
            "magK": 9.688,
            "magV": 12.397,
            "mass": 1.360072351557467e+30,
            "metallicity": -0.29,
            "name": "K2-62",
            "planets": [
                {
                    "description": "This planet was announced as part of a batch of 149 validated planets from the K2 mission.",
                    "discoverymethod": "transit",
                    "discoveryyear": "2018",
                    "istransiting": "1",
                    "lastupdate": "18/07/24",
                    "name": "K2-62 b",
                    "orbit": {
                        "inclination": 1.5550883635269475,
                        "period": 576440.9280000001,
                        "transitTime": 469859239.2959833
                    },
                    "radius": 12310922.399999999
                },
                {
                    "description": "This planet was announced as part of a batch of 149 validated planets from the K2 mission.",
                    "discoverymethod": "transit",
                    "discoveryyear": "2018",
                    "istransiting": "1",
                    "lastupdate": "18/07/24",
                    "name": "K2-62 c",
                    "orbit": {
                        "inclination": 1.5639895427121187,
                        "period": 1399438.0799999998,
                        "transitTime": 470624670.7199827
                    },
                    "radius": 12053551.2
                }
            ],
            "radius": 450813600.0
        }
    ]
}