{
    "declination": 0.8696207921438613,
    "distance": 1125.08,
    "rightascension": 5.058582709694268,
    "stars": [
        {
            "magH": 13.4,
            "magJ": 13.81,
            "magK": 13.35,
            "mass": 1.8253602613008107e+30,
            "name": "Kepler-325",
            "planets": [
                {
                    "description": "Kepler-325 b has been discovered by the Kepler spacecraft and was originally classified as a planet candidate. A new statistical analysis led by a team at NASA Ames Research Center has validated the planet with more than 99 percent confidence. Although many parameters of Kepler-325 b are still unknown, the object is highly unlikely to be a false positive.",
                    "discoverymethod": "transit",
                    "discoveryyear": "2014",
                    "istransiting": "1",
                    "lastupdate": "14/02/26",
                    "name": "Kepler-325 b",
                    "orbit": {
                        "period": 392639.52959999995,
                        "transitTime": 295781768.6400175
                    },
                    "radius": 18958963.48
                },
                {
                    "description": "Kepler-325 c has been discovered by the Kepler spacecraft and was originally classified as a planet candidate. A new statistical analysis led by a team at NASA Ames Research Center has validated the planet with more than 99 percent confidence. Although many parameters of Kepler-325 c are still unknown, the object is highly unlikely to be a false positive.",
                    "discoverymethod": "transit",
                    "discoveryyear": "2014",
                    "istransiting": "1",
                    "lastupdate": "14/02/26",
                    "name": "Kepler-325 c",
                    "orbit": {
                        "period": 1102651.6608,
                        "transitTime": 296544685.82398295
                    },
                    "radius": 16548253.24
                },
                {
                    "description": "Kepler-325 d has been discovered by the Kepler spacecraft and was originally classified as a planet candidate. A new statistical analysis led by a team at NASA Ames Research Center has validated the planet with more than 99 percent confidence. Although many parameters of Kepler-325 d are still unknown, the object is highly unlikely to be a false positive.",
                    "discoverymethod": "transit",
                    "discoveryyear": "2014",
                    "istransiting": "1",
                    "lastupdate": "14/02/26",
                    "name": "Kepler-325 d",
                    "orbit": {
                        "period": 3344991.9839999997,
                        "transitTime": 295706669.76001114
                    },
                    "radius": 18176841.0
                }
            ],
            "radius": 697787099.9999999,
            "temperature": 5752.0
        }
    ]
}