{
    "declination": 0.015644937489404726,
    "distance": 350.343,
    "rightascension": 1.4687672876053945,
    "stars": [
        {
            "magH": 10.976,
            "magI": 12.2972,
            "magJ": 11.286,
            "magK": 10.936,
            "magV": 12.475,
            "mass": 2.107714462939934e+30,
            "metallicity": 0.239,
            "name": "TOI-2796",
            "planets": [
                {
                    "description": "This planet was discovered by Yee et al. 2023. The discovery was made with a space based telescope (0.1 m TESS Telescope). The parameters listed here have been imported into the Open Exoplanet Catalogue from the NASA Exoplanet Archive.",
                    "discoverymethod": "transit",
                    "discoveryyear": "2023",
                    "istransiting": "1",
                    "lastupdate": "23/10/15",
                    "mass": 8.351748228278622e+26,
                    "name": "TOI-2796 b",
                    "orbit": {
                        "eccentricity": 0.0,
                        "inclination": 1.4873695885495677,
                        "period": 415454.25312,
                        "semiMajorAxis": 8512118842.83,
                        "transitTime": 646443834.0480075
                    },
                    "radius": 110097680.0,
                    "temperature": 1205.0
                }
            ],
            "radius": 744399000.0,
            "temperature": 5764.0
        }
    ]
}