{
    "declination": 0.20703483438101625,
    "distance": 21.8182,
    "rightascension": 2.39459173373622,
    "stars": [
        {
            "magH": 10.17,
            "magI": 16.0743,
            "magJ": 10.739,
            "magK": 9.899,
            "magV": 15.33,
            "mass": 3.181455793116882e+29,
            "metallicity": -0.13,
            "name": "K2-415",
            "planets": [
                {
                    "description": "This planet was discovered by Hirano et al. 2023. The discovery was made with a space based telescope (0.95 m Kepler Telescope). The parameters listed here have been imported into the Open Exoplanet Catalogue from the NASA Exoplanet Archive.",
                    "discoverymethod": "transit",
                    "discoveryyear": "2023",
                    "istransiting": "1",
                    "lastupdate": "23/10/15",
                    "mass": 4.479574049713079e+25,
                    "name": "K2-415 b",
                    "orbit": {
                        "inclination": 1.558928087881335,
                        "period": 347152.55616000004,
                        "semiMajorAxis": 4039142508.9,
                        "transitTime": 566401348.2239842
                    },
                    "radius": 6505772.0,
                    "temperature": 412.4
                }
            ],
            "radius": 139140000.0,
            "spectraltype": "M5V",
            "temperature": 3173.0
        }
    ]
}