{
    "declination": -0.9188506767022356,
    "distance": 32.36,
    "rightascension": 3.808615322183974,
    "stars": [
        {
            "magH": 7.397,
            "magJ": 8.039,
            "magK": 7.242,
            "magV": 10.542,
            "mass": 1.3123505146607137e+30,
            "name": "HIP 71135",
            "planets": [
                {
                    "description": "This planet was discovered by Feng et al. 2019. This was a ground based discovery. The parameters listed here are those reported by Feng et al. 2019 and were imported into the Open Exoplanet Catalogue from the NASA Exoplanet Archive.",
                    "discoverymethod": "RV",
                    "discoveryyear": "2019",
                    "lastupdate": "19/05/23",
                    "mass": 1.1227406993242739e+26,
                    "name": "HIP 71135 b",
                    "orbit": {
                        "eccentricity": 0.21,
                        "periapsisArgument": 2.0176006153054447,
                        "period": 7533216.0,
                        "semiMajorAxis": 50115286684.5
                    }
                }
            ],
            "spectraltype": "M1",
            "temperature": 4146.0
        }
    ]
}