{
    "declination": -0.8835238871612663,
    "distance": 56.2,
    "rightascension": 1.1556046852435615,
    "stars": [
        {
            "magB": 8.44,
            "magH": 6.13,
            "magJ": 6.395,
            "magK": 6.006,
            "magR": 7.7,
            "magV": 7.71,
            "mass": 2.107714462939934e+30,
            "metallicity": 0.36,
            "name": "HD 28254",
            "planets": [
                {
                    "discoverymethod": "RV",
                    "discoveryyear": "2009",
                    "lastupdate": "10/09/08",
                    "mass": 2.2018245329098183e+27,
                    "name": "HD 28254 b",
                    "orbit": {
                        "eccentricity": 0.81,
                        "period": 96422400.0,
                        "semiMajorAxis": 321635422005.0
                    },
                    "temperature": 196.8
                }
            ],
            "radius": 1029636000.0,
            "spectraltype": "G1IV/V",
            "temperature": 5664.0
        }
    ]
}