{
    "declination": 0.7684149665848834,
    "distance": 417.0,
    "rightascension": 5.189690388663038,
    "stars": [
        {
            "age": 2.9,
            "magH": 11.965,
            "magJ": 12.564,
            "magK": 11.847,
            "mass": 1.405805778583522e+30,
            "metallicity": 0.0,
            "name": "Kepler-437",
            "planets": [
                {
                    "description": "This planet has been discovered by the Kepler spacecraft. The results were announced at the AAS meeting in 2015.",
                    "discoverymethod": "transit",
                    "discoveryyear": "2015",
                    "istransiting": "1",
                    "lastupdate": "15/01/28",
                    "name": "Kepler-437 b",
                    "orbit": {
                        "eccentricity": 0.02,
                        "inclination": 1.5690509975429023,
                        "period": 5758613.568,
                        "semiMajorAxis": 43084186761.6,
                        "transitTime": 356502608.6399853
                    },
                    "radius": 13654972.0
                }
            ],
            "radius": 473076000.00000006,
            "temperature": 4551.0
        }
    ]
}