{
    "declination": -0.595283326487155,
    "distance": 217.193,
    "rightascension": 4.7355145929736135,
    "stars": [
        {
            "magH": 10.068,
            "magJ": 10.348,
            "magK": 9.914,
            "magV": 11.635,
            "mass": 2.028178068112012e+30,
            "metallicity": 0.148,
            "name": "TOI-3331 A",
            "planets": [
                {
                    "description": "This planet was discovered by Yee et al. 2022. The discovery was made with a space based telescope (0.1 m TESS Telescope). The parameters listed here have been imported into the Open Exoplanet Catalogue from the NASA Exoplanet Archive.",
                    "discoverymethod": "transit",
                    "discoveryyear": "2022",
                    "istransiting": "1",
                    "lastupdate": "22/09/15",
                    "mass": 4.308742835952835e+27,
                    "name": "TOI-3331 A b",
                    "orbit": {
                        "eccentricity": 0.0,
                        "inclination": 1.4905111812031575,
                        "period": 174357.19584000003,
                        "semiMajorAxis": 4703357054.808001,
                        "transitTime": 676266019.1999942
                    },
                    "radius": 82787736.0,
                    "temperature": 1488.0
                }
            ],
            "radius": 660915000.0,
            "temperature": 5609.0
        }
    ]
}