{
    "declination": 0.7769885329250448,
    "distance": 66.0,
    "rightascension": 4.957775560969677,
    "stars": [
        {
            "age": 6.0,
            "magB": 10.45,
            "magH": 8.0,
            "magJ": 8.356,
            "magK": 7.942,
            "magV": 9.77,
            "mass": 1.596693126170535e+30,
            "metallicity": -0.32,
            "name": "Kepler-37",
            "planets": [
                {
                    "description": "Kepler-37 b is a tiny planet, about the size of our Moon. Due to the high irradiation it has probably a rocky surface with no atmosphere or water, similar to Mercury. NASA has given the planetary system the alternative identifier UGA-1785 in honor of the University of Georgia.",
                    "discoverymethod": "transit",
                    "discoveryyear": "2013",
                    "istransiting": "1",
                    "lastupdate": "15/06/09",
                    "name": "Kepler-37 b",
                    "orbit": {
                        "eccentricity": 0.08,
                        "inclination": 1.5468853160425742,
                        "period": 1154935.4112,
                        "semiMajorAxis": 15004666431.210001,
                        "transitTime": 300026826.1439949
                    },
                    "radius": 1930284.0
                },
                {
                    "description": "Kepler-37 is a three planet system discovered by Kepler. The planet Kepler-37 c is about three quaters the size of Earth. NASA has given the planetary system the alternative identifier UGA-1785 in honor of the University of Georgia.",
                    "discoverymethod": "transit",
                    "discoveryyear": "2013",
                    "istransiting": "1",
                    "lastupdate": "15/06/09",
                    "name": "Kepler-37 c",
                    "orbit": {
                        "eccentricity": 0.09,
                        "inclination": 1.5545647647513492,
                        "period": 1840482.9504,
                        "semiMajorAxis": 20464988711.760002,
                        "transitTime": 300701217.0239836
                    },
                    "radius": 4732770.399999999
                },
                {
                    "description": "Kepler-37 d is the outermost planet in a three planet system discovered by Kepler. It is twice as big as Earth and therefore the largest known planet in the system. NASA has given the planetary system the alternative identifier UGA-1785 in honor of the University of Georgia.",
                    "discoverymethod": "transit",
                    "discoveryyear": "2013",
                    "istransiting": "1",
                    "lastupdate": "15/06/09",
                    "name": "Kepler-37 d",
                    "orbit": {
                        "eccentricity": 0.15,
                        "inclination": 1.559189887269134,
                        "period": 3438044.9568,
                        "semiMajorAxis": 31056517957.32,
                        "transitTime": 299267981.85598254
                    },
                    "radius": 12965002.708
                },
                {
                    "description": "The fourth planet in the Kepler-37 system was discovered by transit timing variations. Very little is known of its properties.",
                    "discoverymethod": "timing",
                    "discoveryyear": "2014",
                    "istransiting": "0",
                    "lastupdate": "15/03/18",
                    "name": "Kepler-37 e",
                    "orbit": {
                        "period": 4423334.399999999,
                        "semiMajorAxis": 37519145971.560005
                    }
                }
            ],
            "radius": 535689000.0,
            "temperature": 5417.0
        }
    ]
}