{
    "declination": 0.5917596497474142,
    "distance": 85.6,
    "rightascension": 2.4572651981783973,
    "stars": [
        {
            "magV": 8.45,
            "mass": 2.1474826603538953e+30,
            "metallicity": 0.17,
            "name": "HD 80869",
            "planets": [
                {
                    "description": "The parameters listed here were imported into the Open Exoplanet Catalogue from the exoplanet.eu website.",
                    "discoverymethod": "RV",
                    "discoveryyear": "2021",
                    "lastupdate": "21/07/14",
                    "mass": 9.224885543053206e+27,
                    "name": "HD 80869 b",
                    "orbit": {
                        "eccentricity": 0.862,
                        "periapsisArgument": 1.085594794740473,
                        "period": 147890880.0,
                        "semiMajorAxis": 430542671874.60004
                    },
                    "temperature": 203.2
                }
            ],
            "radius": 738833400.0,
            "spectraltype": "G1V",
            "temperature": 58.37
        }
    ]
}