{
    "declination": 0.9602801544472801,
    "distance": 177.4,
    "rightascension": 1.588322341367006,
    "stars": [
        {
            "magV": 15.0,
            "mass": 1.2725823172467527e+30,
            "metallicity": 0.0,
            "name": "TOI-3757",
            "planets": [
                {
                    "description": "The parameters listed here were imported into the Open Exoplanet Catalogue from the exoplanet.eu website.",
                    "discoverymethod": "transit",
                    "discoveryyear": "2022",
                    "istransiting": "1",
                    "lastupdate": "22/03/15",
                    "mass": 5.09456641924996e+26,
                    "name": "TOI-3757 b",
                    "orbit": {
                        "eccentricity": 0.14,
                        "inclination": 1.5142476590302805,
                        "periapsisArgument": 2.2689280275926285,
                        "period": 297108.25920000003,
                        "semiMajorAxis": 5752038128.415
                    },
                    "radius": 76496440.0,
                    "temperature": 759.0
                }
            ],
            "radius": 431334000.0,
            "temperature": 3913.0
        }
    ]
}