{
    "declination": 0.716700064784227,
    "distance": 713.733,
    "rightascension": 4.980006132357153,
    "stars": [
        {
            "magH": 13.257,
            "magI": 14.751,
            "magJ": 13.685,
            "magK": 13.149,
            "magV": 15.286,
            "mass": 1.8094529823352264e+30,
            "metallicity": 0.14,
            "name": "Kepler-1932",
            "planets": [
                {
                    "description": "This planet was discovered by Valizadegan et al. 2022. The discovery was made with a space based telescope (0.95 m Kepler Telescope). The parameters listed here have been imported into the Open Exoplanet Catalogue from the NASA Exoplanet Archive.",
                    "discoverymethod": "transit",
                    "discoveryyear": "2021",
                    "istransiting": "1",
                    "lastupdate": "22/02/01",
                    "mass": 1.7348858819651504e+25,
                    "name": "Kepler-1932 b",
                    "orbit": {
                        "eccentricity": 0.0,
                        "inclination": 1.5083135395734997,
                        "period": 45288.894528,
                        "semiMajorAxis": 1840053809.6100001,
                        "transitTime": 295496760.96000373
                    },
                    "radius": 9651420.0,
                    "temperature": 1891.0
                }
            ],
            "radius": 570474000.0,
            "temperature": 5278.0
        }
    ]
}