{
    "declination": 0.027346696233009962,
    "distance": 422.1,
    "rightascension": 3.260321933904644,
    "stars": [
        {
            "magH": 11.18,
            "magJ": 11.425,
            "magK": 11.115,
            "magV": 12.536,
            "mass": 2.2667872525957778e+30,
            "metallicity": 0.16,
            "name": "K2-259",
            "planets": [
                {
                    "description": "This planet was discovered by Livingston et al. 2018. The discovery was made with a space based telescope (0.95 m Kepler Telescope). The parameters listed here are those reported by Livingston et al. 2018 and were imported into the Open Exoplanet Catalogue from the NASA Exoplanet Archive.",
                    "discoverymethod": "transit",
                    "discoveryyear": "2018",
                    "istransiting": "1",
                    "lastupdate": "18/07/12",
                    "name": "K2-259 b",
                    "orbit": {
                        "period": 1337509.152,
                        "semiMajorAxis": 19013889365.969997,
                        "transitTime": 521960492.1600044
                    },
                    "radius": 14798844.0,
                    "temperature": 795.0
                }
            ],
            "radius": 786140999.9999999,
            "temperature": 6059.0
        }
    ]
}