{
    "declination": -0.12870044280941745,
    "distance": 269.3,
    "rightascension": 3.5324361157722066,
    "stars": [
        {
            "magB": 12.884,
            "magH": 10.558,
            "magJ": 10.881,
            "magK": 10.479,
            "magV": 12.157,
            "mass": 1.9386996239305996e+30,
            "metallicity": -0.01,
            "name": "K2-197",
            "planets": [
                {
                    "description": "This planet was announced as part of a batch of 149 validated planets from the K2 mission.",
                    "discoverymethod": "transit",
                    "discoveryyear": "2018",
                    "istransiting": "1",
                    "lastupdate": "18/07/24",
                    "name": "K2-197 b",
                    "orbit": {
                        "inclination": 1.5446163880149817,
                        "period": 722126.88,
                        "transitTime": 490206211.20001674
                    },
                    "radius": 15942716.0
                }
            ],
            "radius": 633087000.0
        }
    ]
}