{
    "declination": 0.8261170647593148,
    "distance": 980.0,
    "rightascension": 5.021465708789962,
    "stars": [
        {
            "magB": 12.24,
            "magH": 11.068,
            "magI": 11.65,
            "magJ": 11.202,
            "magK": 10.988,
            "magR": 12.16,
            "magV": 12.12,
            "mass": 3.006475724495453e+30,
            "metallicity": 0.12,
            "name": "Kepler-14",
            "planets": [
                {
                    "description": "This planet was discovered with the Kepler spacecraft. The host star is in a close visual binary. The object was previously known as KOI-98 (Kepler Object of Interest).",
                    "discoverymethod": "transit",
                    "discoveryyear": "2011",
                    "istransiting": "1",
                    "lastupdate": "11/06/29",
                    "mass": 1.5944246617622824e+28,
                    "name": "Kepler-14 b",
                    "orbit": {
                        "eccentricity": 0.035,
                        "inclination": 1.5707963267948966,
                        "period": 586666.6272,
                        "transitTime": 296057148.7679869
                    },
                    "radius": 81214912.0
                }
            ],
            "radius": 1424793600.0,
            "spectraltype": "F",
            "temperature": 6395.0
        }
    ]
}