{
    "declination": 0.042202432195688935,
    "distance": 140.0,
    "rightascension": 0.5721497338650388,
    "stars": [
        {
            "magH": 9.473,
            "magJ": 9.906,
            "magK": 9.339,
            "magV": 11.6,
            "mass": 1.6702642913863629e+30,
            "metallicity": 0.24,
            "name": "WASP-156",
            "planets": [
                {
                    "description": "This planet was discovered by Demangeon et al. 2018. This was a ground based discovery. The parameters listed here are those reported by Demangeon et al. 2018 and were imported into the Open Exoplanet Catalogue from the NASA Exoplanet Archive.",
                    "discoverymethod": "transit",
                    "discoveryyear": "2017",
                    "istransiting": "1",
                    "lastupdate": "17/10/26",
                    "mass": 2.4295994845901446e+26,
                    "name": "WASP-156 b",
                    "orbit": {
                        "eccentricity": 0.007,
                        "inclination": 1.5550883635269475,
                        "period": 331445.0016,
                        "semiMajorAxis": 6776783542.71,
                        "transitTime": 270709084.7999945
                    },
                    "radius": 36460920.0,
                    "temperature": 970.0
                }
            ],
            "radius": 528732000.0,
            "spectraltype": "K3",
            "temperature": 4910.0
        }
    ]
}