{
    "declination": 0.5806392310888273,
    "distance": 5.58,
    "rightascension": 1.8099760802274794,
    "stars": [
        {
            "magH": 5.526,
            "magI": 7.5,
            "magJ": 6.104,
            "magK": 5.275,
            "magV": 10.02,
            "mass": 7.158275534512984e+29,
            "metallicity": -0.03,
            "name": "GJ 251",
            "planets": [
                {
                    "description": "This planet was discovered by Stock et al. 2020. This was a ground based discovery. The parameters listed here are those reported by Stock et al. 2020 and were imported into the Open Exoplanet Catalogue from the NASA Exoplanet Archive.",
                    "discoverymethod": "RV",
                    "discoveryyear": "2020",
                    "lastupdate": "21/03/04",
                    "mass": 2.3897388680460876e+25,
                    "name": "GJ 251 b",
                    "orbit": {
                        "eccentricity": 0.1,
                        "periapsisArgument": 1.3753194505715316,
                        "period": 1230163.2,
                        "semiMajorAxis": 12237105823.26
                    },
                    "temperature": 351.0
                }
            ],
            "radius": 250452000.0,
            "spectraltype": "M3.0V",
            "temperature": 3451.0
        }
    ]
}