{
    "declination": 0.7449333373718137,
    "distance": 874.46,
    "rightascension": 4.998797517909163,
    "stars": [
        {
            "magH": 13.58,
            "magJ": 14.054,
            "magK": 13.45,
            "mass": 1.5867510768170447e+30,
            "name": "Kepler-290",
            "planets": [
                {
                    "description": "Kepler-290 c has been discovered by the Kepler spacecraft and was originally classified as a planet candidate. A new statistical analysis led by a team at NASA Ames Research Center has validated the planet with more than 99 percent confidence. Although many parameters of Kepler-290 c are still unknown, the object is highly unlikely to be a false positive.",
                    "discoverymethod": "transit",
                    "discoveryyear": "2014",
                    "istransiting": "1",
                    "lastupdate": "14/02/26",
                    "name": "Kepler-290 c",
                    "orbit": {
                        "period": 3176954.784,
                        "transitTime": 298321329.02399004
                    },
                    "radius": 17590606.599999998
                },
                {
                    "description": "Kepler-290 b has been discovered by the Kepler spacecraft and was originally classified as a planet candidate. A new statistical analysis led by a team at NASA Ames Research Center has validated the planet with more than 99 percent confidence. Although many parameters of Kepler-290 b are still unknown, the object is highly unlikely to be a false positive.",
                    "discoverymethod": "transit",
                    "discoveryyear": "2014",
                    "istransiting": "1",
                    "lastupdate": "14/02/26",
                    "name": "Kepler-290 b",
                    "orbit": {
                        "period": 1260519.5808,
                        "transitTime": 296389508.8319957
                    },
                    "radius": 14658719.68
                }
            ],
            "radius": 516905100.0,
            "temperature": 5147.0
        }
    ]
}