{
    "declination": -0.5214607472646058,
    "distance": 3320.0,
    "rightascension": 4.68548182108311,
    "stars": [
        {
            "mass": 1.5111915017305188e+30,
            "name": "KMT-2019-BLG-0842L",
            "planets": [
                {
                    "description": "This planet was discovered by Jung et al. 2019. This was a ground based discovery. The parameters listed here are those reported by Jung et al. 2019 and were imported into the Open Exoplanet Catalogue from the NASA Exoplanet Archive.",
                    "discoverymethod": "microlensing",
                    "discoveryyear": "2020",
                    "lastupdate": "20/10/08",
                    "mass": 6.138534947784787e+25,
                    "name": "KMT-2019-BLG-0842L b",
                    "orbit": {
                        "semiMajorAxis": 495168952017.0
                    }
                }
            ]
        }
    ]
}