{
    "declination": 0.7708585594069967,
    "distance": 1577.36,
    "rightascension": 5.139722201227063,
    "stars": [
        {
            "magH": 13.907,
            "magJ": 14.3,
            "magK": 13.811,
            "mass": 2.107714462939934e+30,
            "name": "Kepler-266",
            "planets": [
                {
                    "description": "Kepler-266 b has been discovered by the Kepler spacecraft and was originally classified as a planet candidate. A new statistical analysis led by a team at NASA Ames Research Center has validated the planet with more than 99 percent confidence. Although many parameters of Kepler-266 b are still unknown, the object is highly unlikely to be a false positive.",
                    "discoverymethod": "transit",
                    "discoveryyear": "2014",
                    "istransiting": "1",
                    "lastupdate": "14/02/26",
                    "name": "Kepler-266 b",
                    "orbit": {
                        "period": 571823.712,
                        "transitTime": 315262333.4399879
                    },
                    "radius": 16157192.0
                },
                {
                    "description": "Kepler-266 c has been discovered by the Kepler spacecraft and was originally classified as a planet candidate. A new statistical analysis led by a team at NASA Ames Research Center has validated the planet with more than 99 percent confidence. Although many parameters of Kepler-266 c are still unknown, the object is highly unlikely to be a false positive.",
                    "discoverymethod": "transit",
                    "discoveryyear": "2014",
                    "istransiting": "1",
                    "lastupdate": "14/02/26",
                    "name": "Kepler-266 c",
                    "orbit": {
                        "period": 9307319.1264,
                        "transitTime": 314727851.8080041
                    },
                    "radius": 25343914.0
                }
            ],
            "radius": 715179600.0,
            "temperature": 5885.0
        }
    ]
}