{
    "declination": 0.891118212283912,
    "distance": 1174.48,
    "rightascension": 5.072307528055227,
    "stars": [
        {
            "magH": 11.072,
            "magJ": 11.564,
            "magK": 10.97,
            "name": "Kepler-391",
            "planets": [
                {
                    "description": "Kepler-391 b has been discovered by the Kepler spacecraft and was originally classified as a planet candidate. A new statistical analysis led by a team at NASA Ames Research Center has validated the planet with more than 99 percent confidence. Although many parameters of Kepler-391 b are still unknown, the object is highly unlikely to be a false positive.",
                    "discoverymethod": "transit",
                    "discoveryyear": "2014",
                    "istransiting": "1",
                    "lastupdate": "14/02/26",
                    "name": "Kepler-391 b",
                    "orbit": {
                        "period": 640807.632,
                        "transitTime": 296046048.0959907
                    },
                    "radius": 20848497.04
                },
                {
                    "description": "Kepler-391 c has been discovered by the Kepler spacecraft and was originally classified as a planet candidate. A new statistical analysis led by a team at NASA Ames Research Center has validated the planet with more than 99 percent confidence. Although many parameters of Kepler-391 c are still unknown, the object is highly unlikely to be a false positive.",
                    "discoverymethod": "transit",
                    "discoveryyear": "2014",
                    "istransiting": "1",
                    "lastupdate": "14/02/26",
                    "name": "Kepler-391 c",
                    "orbit": {
                        "period": 1769941.5839999998,
                        "transitTime": 296820625.823991
                    },
                    "radius": 23063319.2
                }
            ],
            "radius": 2482953300.0,
            "temperature": 4940.0
        }
    ]
}