{
    "declination": -1.264522533172921,
    "distance": 100.96,
    "rightascension": 3.2597154610783967,
    "stars": [
        {
            "magV": 15.0,
            "mass": 3.380296780186687e+29,
            "name": "TOI-1227",
            "planets": [
                {
                    "description": "The parameters listed here were imported into the Open Exoplanet Catalogue from the exoplanet.eu website.",
                    "discoverymethod": "RV",
                    "discoveryyear": "2021",
                    "istransiting": "1",
                    "lastupdate": "21/10/20",
                    "name": "TOI-1227 b",
                    "orbit": {
                        "inclination": 1.5458555717838975,
                        "period": 2364247.008,
                        "semiMajorAxis": 13254371344.02
                    },
                    "radius": 61054168.0
                }
            ],
            "radius": 389592000.00000006,
            "spectraltype": "M4.5V",
            "temperature": 3072.0
        }
    ]
}