{
    "declination": 0.674341893465687,
    "distance": 1709.4,
    "rightascension": 5.15163017546993,
    "stars": [
        {
            "magH": 13.914,
            "magI": 15.371,
            "magJ": 14.284,
            "magK": 13.81,
            "magV": 15.906,
            "mass": 2.0878303642329535e+30,
            "metallicity": 0.14,
            "name": "Kepler-1980",
            "planets": [
                {
                    "description": "This planet was discovered by Valizadegan et al. 2023. The discovery was made with a space based telescope (0.95 m Kepler Telescope). The parameters listed here have been imported into the Open Exoplanet Catalogue from the NASA Exoplanet Archive.",
                    "discoverymethod": "transit",
                    "discoveryyear": "2023",
                    "istransiting": "1",
                    "lastupdate": "23/10/15",
                    "mass": 3.3027367993647276e+25,
                    "name": "Kepler-1980 b",
                    "orbit": {
                        "eccentricity": 0.0,
                        "inclination": 1.5697491292437,
                        "period": 2853422.0265599997,
                        "semiMajorAxis": 30652603706.43,
                        "transitTime": 298037663.9999807
                    },
                    "radius": 18158968.0,
                    "temperature": 564.0
                }
            ],
            "radius": 688743000.0,
            "temperature": 5819.0
        }
    ]
}