{
    "declination": -0.10091467264204225,
    "distance": 294.6,
    "rightascension": 3.207065829773915,
    "stars": [
        {
            "magB": 13.609,
            "magH": 11.023,
            "magJ": 11.398,
            "magK": 10.98,
            "magR": 12.78,
            "magV": 12.823,
            "mass": 1.869105278456168e+30,
            "metallicity": 0.13,
            "name": "K2-157",
            "planets": [
                {
                    "description": "This planet was announced as part of a batch of 149 validated planets from the K2 mission.",
                    "discoverymethod": "transit",
                    "discoveryyear": "2018",
                    "istransiting": "1",
                    "lastupdate": "18/07/24",
                    "name": "K2-157 b",
                    "orbit": {
                        "inclination": 1.3439035240356338,
                        "period": 31558.2048,
                        "transitTime": 521711184.9600166
                    },
                    "radius": 6763143.2
                }
            ],
            "radius": 609433200.0
        }
    ]
}