{
    "declination": 0.6925120164652946,
    "distance": 583.6,
    "rightascension": 4.994470235828232,
    "stars": [
        {
            "magH": 12.886,
            "magJ": 13.32,
            "magK": 12.796,
            "mass": 1.7080440789296258e+30,
            "name": "Kepler-121",
            "planets": [
                {
                    "description": "Kepler-121 b has been discovered by the Kepler spacecraft and was originally classified as a planet candidate. A new statistical analysis led by a team at NASA Ames Research Center has validated the planet with more than 99 percent confidence. Although many parameters of Kepler-121 b are still unknown, the object is highly unlikely to be a false positive.",
                    "discoverymethod": "transit",
                    "discoveryyear": "2014",
                    "istransiting": "1",
                    "lastupdate": "14/02/26",
                    "name": "Kepler-121 b",
                    "orbit": {
                        "period": 274529.2608,
                        "transitTime": 295745287.96800524
                    },
                    "radius": 15244954.08
                },
                {
                    "description": "Kepler-121 c has been discovered by the Kepler spacecraft and was originally classified as a planet candidate. A new statistical analysis led by a team at NASA Ames Research Center has validated the planet with more than 99 percent confidence. Although many parameters of Kepler-121 c are still unknown, the object is highly unlikely to be a false positive.",
                    "discoverymethod": "transit",
                    "discoveryyear": "2014",
                    "istransiting": "1",
                    "lastupdate": "14/02/26",
                    "name": "Kepler-121 c",
                    "orbit": {
                        "period": 3543092.1504,
                        "transitTime": 296830203.2640159
                    },
                    "radius": 14789550.04
                }
            ],
            "radius": 487685699.99999994,
            "temperature": 5311.0
        }
    ]
}