{
    "declination": 0.6692222609931703,
    "distance": 191.0,
    "rightascension": 5.002783719021025,
    "stars": [
        {
            "age": 2.75,
            "magB": 11.32,
            "magH": 9.532,
            "magJ": 9.764,
            "magK": 9.493,
            "magR": 10.598,
            "magV": 10.77,
            "mass": 2.505396437079544e+30,
            "metallicity": 0.11,
            "name": "Kepler-25",
            "planets": [
                {
                    "description": "This planet candidate was discovered with the Kepler spacecraft. Its host star gets periodically fainter whenever the planet is in front of the star. Because there are multiple phenomena that can create a signal that looks similar to a planetary transit, the candidates have to be confirmed with another method. For Kepler-25 the planetary nature of the companions has been confirmed by transit timing variations, caused by other planets in the system, and a stability analysis. However, the mass of the planets is not well constrained yet.",
                    "discoverymethod": "transit",
                    "discoveryyear": "2012",
                    "istransiting": "1",
                    "lastupdate": "15/06/09",
                    "name": "Kepler-25 b",
                    "orbit": {
                        "eccentricity": 0.05,
                        "period": 539009.5881599999,
                        "semiMajorAxis": 10172655207.6,
                        "transitTime": 296266688.6400014
                    },
                    "radius": 17236721.2,
                    "temperature": 1220.6
                },
                {
                    "description": "This planet candidate was discovered with the Kepler spacecraft. Its host star gets periodically fainter whenever the planet is in front of the star. Because there are multiple phenomena that can create a signal that looks similar to a planetary transit, the candidates have to be confirmed with another method. For Kepler-25 the planetary nature of the companions has been confirmed by transit timing variations, caused by other planets in the system, and a stability analysis. However, the mass of the planets is not well constrained yet. The orbit is aligned at 26.9 degrees from the stellar equator.",
                    "discoverymethod": "transit",
                    "discoveryyear": "2012",
                    "istransiting": "1",
                    "lastupdate": "15/06/09",
                    "name": "Kepler-25 c",
                    "orbit": {
                        "eccentricity": 0.01,
                        "period": 1099039.77792,
                        "semiMajorAxis": 16455765777.0,
                        "transitTime": 297353125.4400104
                    },
                    "radius": 32872021.599999998,
                    "spinorbitalignment": 0.16406094968746698,
                    "temperature": 959.7
                },
                {
                    "description": "This planet has been discovered during a radial velocity follow up of stars observed by Kepler which host planet candidates. Although other planets in this system are transiting, this one is not.",
                    "discoverymethod": "RV",
                    "discoveryyear": "2014",
                    "istransiting": "0",
                    "lastupdate": "19/06/13",
                    "mass": 4.289761589979474e+26,
                    "name": "Kepler-25 d",
                    "orbit": {
                        "eccentricity": 0.13,
                        "period": 10575360.0,
                        "transitTime": 360331200.0
                    }
                }
            ],
            "radius": 932238000.0,
            "spectraltype": "F",
            "temperature": 6354.0
        }
    ]
}