{
    "declination": 0.837176651906078,
    "distance": 681.77,
    "rightascension": 5.028658726964001,
    "stars": [
        {
            "magH": 13.05,
            "magJ": 13.53,
            "magK": 12.959,
            "mass": 1.6762295209984568e+30,
            "name": "Kepler-195",
            "planets": [
                {
                    "description": "Kepler-195 b has been discovered by the Kepler spacecraft and was originally classified as a planet candidate. A new statistical analysis led by a team at NASA Ames Research Center has validated the planet with more than 99 percent confidence. Although many parameters of Kepler-195 b are still unknown, the object is highly unlikely to be a false positive.",
                    "discoverymethod": "transit",
                    "discoveryyear": "2014",
                    "istransiting": "1",
                    "lastupdate": "14/02/26",
                    "name": "Kepler-195 b",
                    "orbit": {
                        "period": 717800.1407999999,
                        "transitTime": 298915591.6800186
                    },
                    "radius": 13225305.079999998
                },
                {
                    "description": "Kepler-195 c has been discovered by the Kepler spacecraft and was originally classified as a planet candidate. A new statistical analysis led by a team at NASA Ames Research Center has validated the planet with more than 99 percent confidence. Although many parameters of Kepler-195 c are still unknown, the object is highly unlikely to be a false positive.",
                    "discoverymethod": "transit",
                    "discoveryyear": "2014",
                    "istransiting": "1",
                    "lastupdate": "14/02/26",
                    "name": "Kepler-195 c",
                    "orbit": {
                        "period": 2945968.9632,
                        "transitTime": 297416199.16798174
                    },
                    "radius": 10098244.999999998
                }
            ],
            "radius": 539167500.0,
            "temperature": 5329.0
        }
    ]
}