{
    "declination": 0.3915622600359966,
    "distance": 373.5,
    "rightascension": 0.9230852245918724,
    "stars": [
        {
            "magB": 13.276,
            "magH": 10.426,
            "magJ": 10.786,
            "magK": 10.292,
            "magV": 12.403,
            "mass": 1.8909777870338465e+30,
            "metallicity": 0.09,
            "name": "K2-178",
            "planets": [
                {
                    "description": "This planet was announced as part of a batch of 149 validated planets from the K2 mission.",
                    "discoverymethod": "transit",
                    "discoveryyear": "2018",
                    "istransiting": "1",
                    "lastupdate": "18/07/24",
                    "name": "K2-178 b",
                    "orbit": {
                        "inclination": 1.546361717266976,
                        "period": 755811.648,
                        "transitTime": 477432282.24000335
                    },
                    "radius": 22705859.2
                }
            ],
            "radius": 617085900.0
        }
    ]
}