{
    "binaries": [
        {
            "stars": [
                {
                    "magB": 6.684,
                    "magH": 4.38,
                    "magI": 5.1,
                    "magJ": 4.91,
                    "magK": 4.21,
                    "magR": 5.4,
                    "magV": 5.94,
                    "mass": 2.9428466086331156e+30,
                    "metallicity": 0.27,
                    "name": "HD 38529 A",
                    "orbit": {
                        "positionAngle": 5.323254218582705,
                        "separationArcsec": 284.0,
                        "separationMeters": 1675496151840000.0
                    },
                    "planets": [
                        {
                            "description": "The star system HD 38529 contains a yellow subgiant (the planet hosting star) and a red dwarf. The binary separation is 12000 astronomical units. A debris disc has been detected around the planet hosting star beyond 86 astronomical units.",
                            "discoverymethod": "RV",
                            "discoveryyear": "2000",
                            "lastupdate": "12/12/08",
                            "mass": 1.4805371859221195e+27,
                            "name": "HD 38529 A b",
                            "orbit": {
                                "eccentricity": 0.248,
                                "inclination": 0.9948376736367679,
                                "period": 1236418.56,
                                "semiMajorAxis": 19597321061.7
                            }
                        },
                        {
                            "description": "The star system HD 38529 contains a yellow subgiant (the planet hosting star) and a red dwarf. The binary separation is 12000 astronomical units. A debris disc has been detected around the planet hosting star beyond 86 astronomical units.",
                            "discoverymethod": "RV",
                            "discoveryyear": "2002",
                            "lastupdate": "12/12/08",
                            "mass": 3.359680537284809e+28,
                            "name": "HD 38529 A c",
                            "orbit": {
                                "eccentricity": 0.36,
                                "inclination": 0.8429940287132611,
                                "period": 184443264.00000003,
                                "semiMajorAxis": 552764132236.5
                            }
                        }
                    ],
                    "radius": 1697508000.0,
                    "spectraltype": "G4 IV"
                },
                {
                    "mass": 9.942049353490255e+29,
                    "name": "HD 38529 B",
                    "spectraltype": "M3.0V"
                }
            ]
        }
    ],
    "declination": 0.02038641529065599,
    "distance": 39.28,
    "rightascension": 1.5121823527487535
}