{
    "declination": -0.6132505215090742,
    "distance": 2740.0,
    "rightascension": 4.685845431343942,
    "stars": [
        {
            "mass": 7.754798495722399e+29,
            "name": "KMT-2019-BLG-1216L",
            "planets": [
                {
                    "description": "This planet was discovered by Jung et al. 2023. This was a ground based discovery. The parameters listed here have been imported into the Open Exoplanet Catalogue from the NASA Exoplanet Archive.",
                    "discoverymethod": "microlensing",
                    "discoveryyear": "2023",
                    "lastupdate": "23/10/15",
                    "mass": 1.7842371214958874e+26,
                    "name": "KMT-2019-BLG-1216L b",
                    "orbit": {
                        "semiMajorAxis": 365018804508.0
                    },
                    "radius": 38105236.0
                }
            ]
        }
    ]
}