{
    "declination": 0.8303403916363024,
    "distance": 651.999,
    "rightascension": 4.938336396465789,
    "stars": [
        {
            "magH": 11.22,
            "magI": 12.54,
            "magJ": 11.534,
            "magK": 11.187,
            "magV": 12.711,
            "mass": 1.988409870698051e+30,
            "metallicity": 0.01,
            "name": "Kepler-511",
            "planets": [
                {
                    "description": "This planet was discovered by Morton et al. 2016. The discovery was made with a space based telescope (0.95 m Kepler Telescope). The parameters listed here have been imported into the Open Exoplanet Catalogue from the NASA Exoplanet Archive.",
                    "discoverymethod": "transit",
                    "discoveryyear": "2016",
                    "istransiting": "1",
                    "lastupdate": "22/09/15",
                    "mass": 1.9740495812294926e+26,
                    "name": "Kepler-511 b",
                    "orbit": {
                        "eccentricity": 0.0,
                        "inclination": 1.5674802012161073,
                        "period": 25629511.536,
                        "semiMajorAxis": 128489611144.23,
                        "transitTime": 319003728.8832173
                    },
                    "radius": 40535964.0,
                    "temperature": 332.0
                },
                {
                    "description": "This planet was discovered by Valizadegan et al. 2022. The discovery was made with a space based telescope (0.95 m Kepler Telescope). The parameters listed here have been imported into the Open Exoplanet Catalogue from the NASA Exoplanet Archive.",
                    "discoverymethod": "transit",
                    "discoveryyear": "2021",
                    "istransiting": "1",
                    "lastupdate": "22/09/15",
                    "mass": 9.832285414200742e+25,
                    "name": "Kepler-511 c",
                    "orbit": {
                        "eccentricity": 0.0,
                        "inclination": 1.5702727280192983,
                        "period": 2300788.751616,
                        "semiMajorAxis": 25760753334.539997,
                        "transitTime": 300714877.7280003
                    },
                    "radius": 26880992.0,
                    "temperature": 742.0
                }
            ],
            "radius": 834840000.0,
            "temperature": 5770.0
        }
    ]
}