{
    "declination": 0.6984578931386559,
    "distance": 430.0,
    "rightascension": 4.874048764264904,
    "stars": [
        {
            "magH": 11.138,
            "magJ": 11.408,
            "magK": 11.051,
            "magV": 12.8,
            "mass": 2.6644692267353885e+30,
            "metallicity": 0.34,
            "name": "WASP-153",
            "planets": [
                {
                    "description": "This planet was discovered by Demangeon et al. 2018. This was a ground based discovery. The parameters listed here are those reported by Demangeon et al. 2018 and were imported into the Open Exoplanet Catalogue from the NASA Exoplanet Archive.",
                    "discoverymethod": "transit",
                    "discoveryyear": "2017",
                    "istransiting": "1",
                    "lastupdate": "17/10/26",
                    "mass": 7.402685929610598e+26,
                    "name": "WASP-153 b",
                    "orbit": {
                        "eccentricity": 0.009,
                        "inclination": 1.467821900927231,
                        "period": 287937.4176,
                        "semiMajorAxis": 7180697793.6,
                        "transitTime": 138070828.7999913
                    },
                    "radius": 110812600.0,
                    "temperature": 1700.0
                }
            ],
            "radius": 1203561000.0,
            "spectraltype": "G0",
            "temperature": 5914.0
        }
    ]
}