{
    "declination": -1.1071399147289807,
    "distance": 557.0,
    "rightascension": 5.178186887202117,
    "stars": [
        {
            "age": 2.13,
            "magB": 13.26,
            "magH": 11.192,
            "magJ": 11.439,
            "magK": 11.118,
            "magR": 12.55,
            "magV": 12.56,
            "mass": 2.618735799709333e+30,
            "metallicity": 0.21,
            "name": "HATS-35",
            "planets": [
                {
                    "description": "Data for this planet was imported from the exoplanet.eu database.",
                    "discoverymethod": "transit",
                    "discoveryyear": "2016",
                    "istransiting": "1",
                    "lastupdate": "16/07/11",
                    "mass": 2.3195082579446536e+27,
                    "name": "HATS-35 b",
                    "orbit": {
                        "eccentricity": 0.0,
                        "inclination": 1.5166911199830724,
                        "period": 157333.82112,
                        "semiMajorAxis": 4785635883.693
                    },
                    "radius": 104664288.0
                }
            ],
            "radius": 996938100.0,
            "temperature": 6300.0
        }
    ]
}