{
    "declination": 0.7344203854075203,
    "distance": 470.92,
    "rightascension": 4.973639025801774,
    "stars": [
        {
            "magH": 12.3,
            "magJ": 12.752,
            "magK": 12.235,
            "name": "Kepler-196",
            "planets": [
                {
                    "description": "Kepler-196 b has been discovered by the Kepler spacecraft and was originally classified as a planet candidate. A new statistical analysis led by a team at NASA Ames Research Center has validated the planet with more than 99 percent confidence. Although many parameters of Kepler-196 b are still unknown, the object is highly unlikely to be a false positive.",
                    "discoverymethod": "transit",
                    "discoveryyear": "2014",
                    "istransiting": "1",
                    "lastupdate": "14/02/26",
                    "name": "Kepler-196 b",
                    "orbit": {
                        "period": 1791926.1504,
                        "transitTime": 299092449.8879805
                    },
                    "radius": 12378839.8
                },
                {
                    "description": "Kepler-196 c has been discovered by the Kepler spacecraft and was originally classified as a planet candidate. A new statistical analysis led by a team at NASA Ames Research Center has validated the planet with more than 99 percent confidence. Although many parameters of Kepler-196 c are still unknown, the object is highly unlikely to be a false positive.",
                    "discoverymethod": "transit",
                    "discoveryyear": "2014",
                    "istransiting": "1",
                    "lastupdate": "14/02/26",
                    "name": "Kepler-196 c",
                    "orbit": {
                        "period": 4097756.4768,
                        "transitTime": 302836687.20000386
                    },
                    "radius": 14593661.96
                }
            ],
            "radius": 544037400.0,
            "temperature": 5128.0
        }
    ]
}