{
    "declination": 0.5913597279114943,
    "distance": 155.0,
    "rightascension": 2.445258227405918,
    "stars": [
        {
            "magB": 11.21,
            "magH": 9.182,
            "magJ": 9.442,
            "magK": 9.119,
            "magV": 10.42,
            "mass": 2.3602425165185866e+30,
            "metallicity": 0.0,
            "name": "WASP-13",
            "planets": [
                {
                    "discoverymethod": "transit",
                    "discoveryyear": "2008",
                    "istransiting": "1",
                    "lastupdate": "14/03/20",
                    "mass": 9.490622986680253e+26,
                    "name": "WASP-13 b",
                    "orbit": {
                        "eccentricity": 0.0,
                        "inclination": 1.4910347799787558,
                        "period": 376100.3664,
                        "semiMajorAxis": 8046869464.953,
                        "transitTime": 348279635.5199933
                    },
                    "radius": 100589244.0,
                    "temperature": 1203.3
                }
            ],
            "radius": 1084596300.0,
            "spectraltype": "G1V",
            "temperature": 5989.0
        }
    ]
}