{
    "declination": -0.6846095650987376,
    "distance": 140.0,
    "rightascension": 5.428717243980942,
    "stars": [
        {
            "magB": 9.98,
            "magH": 8.414,
            "magJ": 8.648,
            "magK": 8.396,
            "magV": 9.51,
            "mass": 2.537210995010713e+30,
            "name": "WASP-7",
            "planets": [
                {
                    "discoverymethod": "transit",
                    "discoveryyear": "2008",
                    "istransiting": "1",
                    "lastupdate": "12/04/08",
                    "mass": 1.8221996134426084e+27,
                    "name": "WASP-7 b",
                    "orbit": {
                        "eccentricity": 0.0,
                        "inclination": 1.518960048010665,
                        "period": 428081.03424,
                        "semiMajorAxis": 9230188622.19,
                        "transitTime": 337144457.9520151
                    },
                    "radius": 95084360.0,
                    "temperature": 1359.5
                }
            ],
            "radius": 996242400.0,
            "spectraltype": "F5V",
            "temperature": 6400.0
        }
    ]
}