{
    "declination": -1.366225838655241,
    "distance": 35.8,
    "rightascension": 2.0043545553027173,
    "stars": [
        {
            "magB": 10.42,
            "magH": 7.18,
            "magJ": 7.596,
            "magK": 6.998,
            "magV": 9.37,
            "mass": 1.5907278965584408e+30,
            "metallicity": 0.11,
            "name": "HD 63454",
            "planets": [
                {
                    "discoverymethod": "RV",
                    "discoveryyear": "2005",
                    "lastupdate": "11/06/01",
                    "mass": 7.212873469876992e+26,
                    "name": "HD 63454 b",
                    "orbit": {
                        "eccentricity": 2e-05,
                        "period": 243479.4336,
                        "semiMajorAxis": 5385523345.2
                    },
                    "temperature": 926.7
                }
            ],
            "spectraltype": "K4 V",
            "temperature": 4841.0
        }
    ]
}