{
    "declination": -0.22663306285998105,
    "distance": 84.56,
    "rightascension": 1.7352058987282442,
    "stars": [
        {
            "magH": 3.962,
            "magJ": 4.504,
            "magK": 4.055,
            "magV": 6.11,
            "mass": 4.354617616828731e+30,
            "metallicity": -0.07,
            "name": "HD 47366",
            "planets": [
                {
                    "description": "This planet was discovered by Sato et al. 2016. This was a ground based discovery. The parameters listed here are those reported by Marshall et al. 2019 and were imported into the Open Exoplanet Catalogue from the NASA Exoplanet Archive.",
                    "discoverymethod": "RV",
                    "discoveryyear": "2016",
                    "lastupdate": "19/09/26",
                    "mass": 4.365686573872916e+27,
                    "name": "HD 47366 b",
                    "orbit": {
                        "eccentricity": 0.06,
                        "periapsisArgument": 0.10611601852125524,
                        "period": 31030559.999999996,
                        "semiMajorAxis": 191485274496.0
                    }
                },
                {
                    "description": "This planet was discovered by Sato et al. 2016. This was a ground based discovery. The parameters listed here are those reported by Marshall et al. 2019 and were imported into the Open Exoplanet Catalogue from the NASA Exoplanet Archive.",
                    "discoverymethod": "RV",
                    "discoveryyear": "2016",
                    "lastupdate": "19/09/26",
                    "mass": 3.5684742429917747e+27,
                    "name": "HD 47366 c",
                    "orbit": {
                        "eccentricity": 0.1,
                        "periapsisArgument": 0.8546877347016232,
                        "period": 58998240.0,
                        "semiMajorAxis": 294707805279.0
                    }
                }
            ],
            "radius": 4313340000.0,
            "spectraltype": "K1III",
            "temperature": 4914.0
        }
    ]
}