{
    "declination": 0.46862609166686536,
    "distance": 128.1,
    "rightascension": 1.2102207571996497,
    "stars": [
        {
            "magV": 15.7,
            "mass": 3.2808762866517843e+28,
            "metallicity": 0.01,
            "name": "2M0437",
            "planets": [
                {
                    "description": "The parameters listed here were imported into the Open Exoplanet Catalogue from the exoplanet.eu website.",
                    "discoverymethod": "imaging",
                    "discoveryyear": "2021",
                    "lastupdate": "21/10/19",
                    "mass": 7.592498389344202e+27,
                    "name": "2M0437 b",
                    "orbit": {
                        "semiMajorAxis": 17652548742600.0
                    },
                    "temperature": 1450.0
                }
            ],
            "radius": 584388000.0,
            "temperature": 3100.0
        }
    ]
}