{
    "declination": -0.15747706887566654,
    "distance": 255.0,
    "rightascension": 5.905642482900051,
    "stars": [
        {
            "age": 3.09,
            "magB": 11.915,
            "magR": 10.7,
            "magV": 10.872,
            "mass": 3.042267102168018e+30,
            "metallicity": 0.32,
            "name": "K2-39",
            "planets": [
                {
                    "description": "Data for this planet was imported from the exoplanet.eu database.",
                    "discoverymethod": "transit",
                    "discoveryyear": "2016",
                    "istransiting": "1",
                    "lastupdate": "17/02/02",
                    "mass": 2.372655746670063e+26,
                    "name": "K2-39 b",
                    "orbit": {
                        "eccentricity": 0.152,
                        "inclination": 1.3962634015954636,
                        "period": 397909.152,
                        "semiMajorAxis": 9275067983.4
                    },
                    "radius": 52189160.0
                }
            ],
            "radius": 2699316000.0,
            "temperature": 4881.0
        }
    ]
}