{
    "declination": 0.6684077740089062,
    "distance": 710.724,
    "rightascension": 5.112069379091391,
    "stars": [
        {
            "magH": 13.66,
            "magI": 15.366,
            "magJ": 14.175,
            "magK": 13.585,
            "magV": 16.117,
            "mass": 1.372002810781655e+30,
            "metallicity": -0.14,
            "name": "Kepler-1845",
            "planets": [
                {
                    "description": "This planet was discovered by Valizadegan et al. 2022. The discovery was made with a space based telescope (0.95 m Kepler Telescope). The parameters listed here have been imported into the Open Exoplanet Catalogue from the NASA Exoplanet Archive.",
                    "discoverymethod": "transit",
                    "discoveryyear": "2021",
                    "istransiting": "1",
                    "lastupdate": "22/02/01",
                    "mass": 3.891155424538903e+25,
                    "name": "Kepler-1845 b",
                    "orbit": {
                        "eccentricity": 0.0,
                        "inclination": 1.5702727280192983,
                        "period": 1002801.571488,
                        "semiMajorAxis": 13239411556.949999,
                        "transitTime": 295739819.71200854
                    },
                    "radius": 15585256.0,
                    "temperature": 584.0
                }
            ],
            "radius": 486989999.99999994,
            "temperature": 4703.0
        }
    ]
}