{
    "declination": -0.008097923394643644,
    "distance": 308.0,
    "rightascension": 0.7267395889167115,
    "stars": [
        {
            "magB": 12.28,
            "magR": 11.4,
            "magV": 11.81,
            "mass": 2.425860042251622e+30,
            "metallicity": -0.09,
            "name": "WASP-138",
            "planets": [
                {
                    "description": "Data for this planet was imported from the exoplanet.eu database.",
                    "discoverymethod": "transit",
                    "discoveryyear": "2016",
                    "istransiting": "1",
                    "lastupdate": "16/07/27",
                    "mass": 2.3157120087499815e+27,
                    "name": "WASP-138 b",
                    "orbit": {
                        "inclination": 1.5446163880149817,
                        "period": 314015.0112,
                        "semiMajorAxis": 7390134812.58
                    }
                }
            ],
            "radius": 946152000.0000001,
            "spectraltype": "F9",
            "temperature": 6272.0
        }
    ]
}