{
    "declination": 0.5957733291290933,
    "distance": 37.1,
    "rightascension": 1.6141727038065028,
    "stars": [
        {
            "age": 4.1,
            "magB": 9.24,
            "magH": 6.687,
            "magJ": 7.045,
            "magK": 6.584,
            "magR": 7.9,
            "mass": 1.6503801926793823e+30,
            "metallicity": -0.09,
            "name": "HD 42012",
            "planets": [
                {
                    "description": "Data for this planet was imported from the exoplanet.eu database.",
                    "discoverymethod": "RV",
                    "discoveryyear": "2017",
                    "lastupdate": "17/06/29",
                    "mass": 3.036999355737681e+27,
                    "name": "HD 42012 b",
                    "orbit": {
                        "eccentricity": 0.0,
                        "period": 74088000.0,
                        "semiMajorAxis": 249828444069.0
                    }
                }
            ],
            "radius": 570474000.0,
            "spectraltype": "K0",
            "temperature": 5405.0
        }
    ]
}