{
    "declination": -0.7506709594195723,
    "distance": 46.2122,
    "rightascension": 5.99644225548735,
    "stars": [
        {
            "magH": 7.67,
            "magJ": 8.195,
            "magK": 7.557,
            "magV": 9.95,
            "mass": 1.5111915017305188e+30,
            "metallicity": -0.1,
            "name": "HIP 113103",
            "planets": [
                {
                    "description": "This planet was discovered by Lowson et al. 2023. The discovery was made with a space based telescope (0.1 m TESS Telescope). The parameters listed here have been imported into the Open Exoplanet Catalogue from the NASA Exoplanet Archive.",
                    "discoverymethod": "transit",
                    "discoveryyear": "2023",
                    "istransiting": "1",
                    "lastupdate": "23/10/15",
                    "mass": 2.3916369926434237e+25,
                    "name": "HIP 113103 b",
                    "orbit": {
                        "eccentricity": 0.17,
                        "inclination": 1.539903999034597,
                        "periapsisArgument": -0.17453292519943295,
                        "period": 657530.1792,
                        "semiMajorAxis": 10320757099.592999,
                        "transitTime": 585886746.239984
                    },
                    "radius": 11653196.0,
                    "temperature": 721.0
                },
                {
                    "description": "This planet was discovered by Lowson et al. 2023. The discovery was made with a space based telescope (0.1 m TESS Telescope). The parameters listed here have been imported into the Open Exoplanet Catalogue from the NASA Exoplanet Archive.",
                    "discoverymethod": "transit",
                    "discoveryyear": "2023",
                    "istransiting": "1",
                    "lastupdate": "23/10/15",
                    "mass": 3.796249194672101e+25,
                    "name": "HIP 113103 c",
                    "orbit": {
                        "eccentricity": 0.17,
                        "inclination": 1.5575318244797396,
                        "periapsisArgument": -1.2217304763960306,
                        "period": 1230823.9871999999,
                        "semiMajorAxis": 15676360870.653,
                        "transitTime": 586876829.7600031
                    },
                    "radius": 15299288.0,
                    "temperature": 585.0
                }
            ],
            "radius": 514818000.0,
            "temperature": 4930.0
        }
    ]
}