{
    "declination": 0.7779398382086274,
    "distance": 25.0,
    "rightascension": 2.1379585205229743,
    "stars": [
        {
            "name": "2MASS J0809+4434",
            "planets": [
                {
                    "description": "The parameters listed here were imported into the Open Exoplanet Catalogue from the exoplanet.eu website.",
                    "discoverymethod": "imaging",
                    "discoveryyear": "2022",
                    "lastupdate": "22/01/23",
                    "mass": 2.4675619765368657e+28,
                    "name": "2MASS J0809+4434",
                    "radius": 96514200.0,
                    "temperature": 1253.0
                }
            ]
        }
    ]
}