{
    "declination": 1.45887708851076,
    "distance": 111.276,
    "rightascension": 0.8021242353957271,
    "stars": [
        {
            "magH": 8.58,
            "magJ": 8.905,
            "magK": 8.462,
            "magV": 10.218,
            "mass": 1.988409870698051e+30,
            "metallicity": 0.26,
            "name": "TOI-1669",
            "planets": [
                {
                    "description": "This planet was discovered by Van Zandt et al. 2023. This was a ground based discovery. The parameters listed here have been imported into the Open Exoplanet Catalogue from the NASA Exoplanet Archive.",
                    "discoverymethod": "RV",
                    "discoveryyear": "2023",
                    "lastupdate": "23/02/22",
                    "mass": 1.0876253942735569e+27,
                    "name": "TOI-1669 b",
                    "orbit": {
                        "eccentricity": 0.14,
                        "period": 43372800.0
                    },
                    "radius": 90079920.0
                }
            ],
            "radius": 744399000.0,
            "temperature": 5542.3
        }
    ]
}