{
    "declination": 1.1227342861514458,
    "distance": 78.5,
    "rightascension": 2.2698601548590203,
    "stars": [
        {
            "age": 4.604,
            "magB": 5.787,
            "magH": 1.94,
            "magI": 3.09,
            "magJ": 2.48,
            "magK": 1.88,
            "magR": 3.72,
            "magV": 5.787,
            "mass": 2.453697780441395e+30,
            "metallicity": -0.25,
            "name": "4 UMa",
            "planets": [
                {
                    "description": "4 Ursae Majoris is also known as Muscida, a name that is shared with 3 Ursae Majoris and Omicron Ursae Majoris.",
                    "discoverymethod": "RV",
                    "discoveryyear": "2007",
                    "lastupdate": "15/09/20",
                    "mass": 1.3476684641085958e+28,
                    "name": "4 UMa b",
                    "orbit": {
                        "eccentricity": 0.432,
                        "meanAnomalyAtEpoch": 2.2490117015468876,
                        "periapsisArgument": 0.4155628948998498,
                        "period": 23267520.0,
                        "semiMajorAxis": 130150147509.0
                    },
                    "temperature": 877.3
                }
            ],
            "radius": 12599127000.0,
            "spectraltype": "K1III",
            "temperature": 4415.0
        }
    ]
}