{
    "declination": 0.3386329082059934,
    "distance": 182.69,
    "rightascension": 2.3836657180915526,
    "stars": [
        {
            "magB": 10.94,
            "magH": 8.908,
            "magJ": 9.144,
            "magK": 8.837,
            "magV": 10.154,
            "mass": 2.3264395487167196e+30,
            "metallicity": 0.1,
            "name": "EPIC 211945201",
            "planets": [
                {
                    "description": "This planet was discovered by Chakraborty et al. 2018. The discovery was made with a space based telescope (0.95 m Kepler Telescope). The parameters listed here are those reported by Livingston et al. 2018 and were imported into the Open Exoplanet Catalogue from the NASA Exoplanet Archive.",
                    "discoverymethod": "transit",
                    "discoveryyear": "2018",
                    "istransiting": "1",
                    "lastupdate": "18/10/26",
                    "name": "EPIC 211945201 b",
                    "orbit": {
                        "period": 1684126.944,
                        "semiMajorAxis": 22334962095.51,
                        "transitTime": 485077660.1279855
                    },
                    "radius": 36746888.0,
                    "temperature": 817.0
                }
            ],
            "radius": 967022999.9999999,
            "spectraltype": "G0",
            "temperature": 6069.0
        }
    ]
}