{
    "declination": -0.6301949157738579,
    "distance": 701.0,
    "rightascension": 0.7313979017791054,
    "stars": [
        {
            "magB": 10.426,
            "magH": 8.586,
            "magI": 9.37,
            "magJ": 8.849,
            "magK": 8.512,
            "magR": 9.818,
            "magV": 9.94,
            "mass": 1.5907278965584408e+30,
            "metallicity": -2.09,
            "name": "HIP 13044",
            "planets": [
                {
                    "description": "According to a new paper by Jones and Jenkins, a reanalysis of the original data shows no evidence for this planet. It is therefore listed as controversial.",
                    "discoverymethod": "RV",
                    "discoveryyear": "2010",
                    "lastupdate": "14/01/05",
                    "mass": 2.3726557466700632e+27,
                    "name": "HIP 13044 b",
                    "orbit": {
                        "eccentricity": 0.25,
                        "period": 1399680.0,
                        "semiMajorAxis": 17353353001.2
                    },
                    "temperature": 2011.0
                }
            ],
            "radius": 4661190000.0,
            "spectraltype": "F2",
            "temperature": 6025.0
        }
    ]
}