{
    "declination": -0.40371387884874443,
    "distance": 1666.0,
    "rightascension": 5.123601213063836,
    "stars": [
        {
            "magB": 13.061,
            "magH": 10.273,
            "magJ": 10.653,
            "magK": 10.198,
            "magV": 12.809,
            "mass": 1.9009198363873366e+30,
            "metallicity": 0.13,
            "name": "K2-201",
            "planets": [
                {
                    "description": "This planet was announced as part of a batch of 149 validated planets from the K2 mission.",
                    "discoverymethod": "transit",
                    "discoveryyear": "2018",
                    "istransiting": "1",
                    "lastupdate": "18/07/24",
                    "name": "K2-201 b",
                    "orbit": {
                        "inclination": 1.4730578886832142,
                        "period": 91565.856,
                        "transitTime": 497446626.2400001
                    },
                    "radius": 8929350.799999999
                },
                {
                    "description": "This planet was announced as part of a batch of 149 validated planets from the K2 mission.",
                    "discoverymethod": "transit",
                    "discoveryyear": "2018",
                    "istransiting": "1",
                    "lastupdate": "18/07/24",
                    "name": "K2-201 c",
                    "orbit": {
                        "inclination": 1.5580554232553379,
                        "period": 1968183.36,
                        "transitTime": 498984451.19998455
                    },
                    "radius": 20982902.0
                }
            ],
            "radius": 610824600.0
        }
    ]
}