{
    "declination": -1.2251301804597476,
    "distance": 97.0,
    "rightascension": 3.025633007176111,
    "stars": [
        {
            "age": 0.005,
            "magB": 6.71,
            "magH": 5.96,
            "magI": 6.64,
            "magJ": 6.425,
            "magK": 5.83,
            "magR": 6.7,
            "magV": 6.7,
            "mass": 4.772183689675322e+30,
            "name": "HD 100546",
            "planets": [
                {
                    "age": 0.0055,
                    "description": "HD 100546 is a Herbig Ae/Be star. High contrast observations of the circumstellar disk reveal an emmision source at a distance of 68 astronomical units. The most likely explanation is a planet in the process of forming. HD 100546b has, as of the 2nd November, 2014, been confirmed to be a planet. HD 100546b is a unique laboratory to study the formation process of a new planetary system, with one giant planet currently forming in the disk and a second planet possibly oribitin in the disk gap at a smaller separation.",
                    "discoverymethod": "imaging",
                    "discoveryyear": "2013",
                    "lastupdate": "14/12/26",
                    "magK": 13.59,
                    "mass": 3.3217180453380884e+28,
                    "name": "HD 100546 b",
                    "orbit": {
                        "semiMajorAxis": 7928687147100.0
                    },
                    "radius": 428952000.0,
                    "temperature": 1028.0
                },
                {
                    "name": "HD 100546 c",
                    "orbit": {
                        "semiMajorAxis": 2019571254450.0
                    }
                }
            ],
            "spectraltype": "B9Vne",
            "temperature": 10500.0
        }
    ]
}