{
    "declination": 0.3989822670059038,
    "distance": 24.6,
    "planets": [
        {
            "description": "PSO J318-22 is a free floating planetary mass object. It was discovered using the Pan-STARRS1 survey and is part of the beta Pictoris moving group. Evolutionary models give the object a temperature of 1160K and a mass about 6 times that of Jupiter, making PSO J318-22 one of the lowest mass free-floating objects in the solar neighborhood.",
            "discoverymethod": "imaging",
            "discoveryyear": "2013",
            "lastupdate": "13/10/03",
            "mass": 1.2337809882684328e+28,
            "name": "PSO J318.5-22",
            "radius": 109382760.0,
            "temperature": 1160.0
        }
    ],
    "rightascension": 5.559455444019271
}