{
    "declination": 0.03649192577711478,
    "distance": 292.8,
    "rightascension": 4.563745105756506,
    "stars": [
        {
            "magV": 9.45,
            "mass": 2.0480621668189925e+30,
            "metallicity": 0.1,
            "name": "BD+02.3313",
            "planets": [
                {
                    "description": "The parameters listed here were imported into the Open Exoplanet Catalogue from the exoplanet.eu website.",
                    "discoverymethod": "RV",
                    "discoveryyear": "2021",
                    "lastupdate": "21/01/28",
                    "mass": 6.472604876915932e+28,
                    "name": "BD+02.3313 b",
                    "orbit": {
                        "eccentricity": 0.47,
                        "periapsisArgument": 6.13134166225608,
                        "period": 120355200.0,
                        "semiMajorAxis": 369506740629.0
                    }
                }
            ],
            "radius": 5892579000.0,
            "spectraltype": "K2",
            "temperature": 4425.0
        }
    ]
}