{
    "declination": -0.34818602507479873,
    "distance": 225.0,
    "rightascension": 5.161703757763511,
    "stars": [
        {
            "magB": 12.9,
            "magH": 20.214,
            "magJ": 10.608,
            "magK": 10.129,
            "magV": 12.5,
            "mass": 1.7299165875073044e+30,
            "metallicity": -0.07,
            "name": "WASP-67",
            "planets": [
                {
                    "description": "This planet has been announced at the Extreme Solar Systems II conference in Jackson Hole by the WASP team.",
                    "discoverymethod": "transit",
                    "discoveryyear": "2011",
                    "istransiting": "1",
                    "lastupdate": "12/04/24",
                    "mass": 7.972123308811412e+26,
                    "name": "WASP-67 b",
                    "orbit": {
                        "eccentricity": 0.0,
                        "inclination": 1.4974924982111346,
                        "period": 398685.888,
                        "semiMajorAxis": 7734209915.190001,
                        "transitTime": 369781200.0
                    },
                    "radius": 100088800.0,
                    "temperature": 940.6
                }
            ],
            "radius": 605259000.0,
            "spectraltype": "K0V",
            "temperature": 5200.0
        }
    ]
}