{
    "declination": -0.9892665370919158,
    "distance": 64.2,
    "rightascension": 4.499729461302929,
    "stars": [
        {
            "magB": 7.93,
            "magH": 5.588,
            "magJ": 5.938,
            "magK": 5.509,
            "magV": 7.25,
            "mass": 3.4160881578592516e+30,
            "metallicity": -0.31,
            "name": "HD 154857",
            "planets": [
                {
                    "description": "HD 114613 b is a Jupiter-mass planet in a multiplanery system. A stability analysis shows that the system is stable for at least 100 million years. The planet was discovered by the Anglo-Australian Planet Search group.",
                    "discoverymethod": "RV",
                    "discoveryyear": "2004",
                    "lastupdate": "14/01/25",
                    "mass": 4.2517990980327536e+27,
                    "name": "HD 154857 b",
                    "orbit": {
                        "eccentricity": 0.46,
                        "periapsisArgument": 0.9948376736367679,
                        "period": 35303040.0,
                        "semiMajorAxis": 193130851073.69998
                    },
                    "temperature": 336.0
                },
                {
                    "description": "HD 154857 c is a Jupiter analogue with a period of 9.5 years. The planet is part of a multi-planetary system and was discovered by the Anglo-Australian Planet Search group.",
                    "discoverymethod": "RV",
                    "discoveryyear": "2014",
                    "lastupdate": "14/01/25",
                    "mass": 4.8971614611270106e+27,
                    "name": "HD 154857 c",
                    "orbit": {
                        "eccentricity": 0.06,
                        "periapsisArgument": 6.14355896702004,
                        "period": 298252800.0,
                        "semiMajorAxis": 801844586952.0
                    }
                }
            ],
            "radius": 1607067000.0,
            "spectraltype": "G5V",
            "temperature": 5508.0
        }
    ]
}