{
    "binaries": [
        {
            "stars": [
                {
                    "age": 3.1,
                    "magB": 4.63,
                    "magH": 2.96,
                    "magI": 3.5,
                    "magJ": 3.17,
                    "magK": 2.86,
                    "magR": 3.8,
                    "magV": 4.09,
                    "mass": 2.5252805357865246e+30,
                    "metallicity": 0.09,
                    "name": "Upsilon Andromedae A",
                    "orbit": {
                        "positionAngle": 2.6179938779914944,
                        "separationArcsec": 52.0,
                        "separationMeters": 104718509490000.0
                    },
                    "planets": [
                        {
                            "description": "The binary star Upsilon Andromedae is only 40 light years away from Earth. The system hosts at least 3 jovian planets. It was the first multiple planet system to be discovered around a main sequence star.",
                            "discoverymethod": "RV",
                            "discoveryyear": "1996",
                            "lastupdate": "15/03/16",
                            "mass": 3.37866178325817e+27,
                            "name": "Upsilon Andromedae A b",
                            "orbit": {
                                "ascendingNodeLongitude": 0.1270599695451872,
                                "eccentricity": 0.011769,
                                "inclination": 0.4012511950334963,
                                "periapsisArgument": 0.8925613794699001,
                                "period": 398922.624,
                                "semiMajorAxis": 8887310302.5456
                            },
                            "temperature": 1440.1
                        },
                        {
                            "description": "The binary star Upsilon Andromedae is only 40 light years away from Earth. The system hosts at least 3 jovian planets. It was the first multiple planet system to be discovered around a main sequence star.",
                            "discoverymethod": "RV",
                            "discoveryyear": "1999",
                            "lastupdate": "15/03/16",
                            "mass": 2.0461783159282625e+28,
                            "name": "Upsilon Andromedae A c",
                            "orbit": {
                                "ascendingNodeLongitude": 4.473977004562264,
                                "eccentricity": 0.247042,
                                "inclination": 0.17610372152622786,
                                "periapsisArgument": 4.341331981410695,
                                "period": 20824128.0,
                                "semiMajorAxis": 124402597316.706
                            },
                            "temperature": 375.6
                        },
                        {
                            "description": "The binary star Upsilon Andromedae is only 40 light years away from Earth. The system hosts at least 3 jovian planets. It was the first multiple planet system to be discovered around a main sequence star.",
                            "discoverymethod": "RV",
                            "discoveryyear": "1999",
                            "lastupdate": "15/03/16",
                            "mass": 1.6817383932397406e+28,
                            "name": "Upsilon Andromedae A d",
                            "orbit": {
                                "ascendingNodeLongitude": 0.17400932642383465,
                                "eccentricity": 0.24909,
                                "inclination": 0.4939281783143953,
                                "periapsisArgument": 4.420395396526039,
                                "period": 110814048.0,
                                "semiMajorAxis": 379012039735.40735
                            },
                            "temperature": 218.0
                        },
                        {
                            "description": "The detection of the fourth planet in the Upsilon Andromedae system has been questioned due to the presence of an unaccounted-for instrumental shift in earlier reductions of the radial velocity data from the Lick observatory.",
                            "discoverymethod": "RV",
                            "discoveryyear": "2010",
                            "lastupdate": "15/03/16",
                            "mass": 2.0101139485788773e+27,
                            "name": "Upsilon Andromedae A e",
                            "orbit": {
                                "eccentricity": 0.00536,
                                "period": 332541504.0,
                                "semiMajorAxis": 784730590543.9199
                            },
                            "temperature": 150.6
                        }
                    ],
                    "radius": 1134686700.0,
                    "spectraltype": "F8 V",
                    "temperature": 6212.0
                },
                {
                    "mass": 3.777978754326297e+29,
                    "name": "Upsilon Andromedae B"
                }
            ]
        }
    ],
    "declination": 0.722750539524474,
    "distance": 13.47,
    "rightascension": 0.4223696789826277
}