{
    "declination": -0.9802088915633719,
    "distance": 52.38,
    "rightascension": 1.5731802647479904,
    "stars": [
        {
            "age": 2.0,
            "magB": 9.42,
            "magH": 7.284,
            "magJ": 7.606,
            "magK": 7.277,
            "magV": 8.82,
            "mass": 1.829337081042207e+30,
            "metallicity": -0.43,
            "name": "HD 41248",
            "planets": [
                {
                    "description": "The planetary system HD 41248 consists of at least two planets. Both planets are most likely Super-Earths. Their period ratio is close to the integer ratio 7:5, a second order commensurability.",
                    "discoverymethod": "RV",
                    "discoveryyear": "2013",
                    "lastupdate": "13/04/30",
                    "mass": 7.3442445713832175e+25,
                    "name": "HD 41248 b",
                    "orbit": {
                        "eccentricity": 0.15,
                        "period": 1586044.8,
                        "semiMajorAxis": 20494908285.9
                    }
                },
                {
                    "description": "The planetary system HD 41248 consists of at least two planets. Both planets are most likely Super-Earths. Their period ratio is close to the integer ratio 7:5, a second order commensurability.",
                    "discoverymethod": "RV",
                    "discoveryyear": "2013",
                    "lastupdate": "13/04/30",
                    "mass": 5.135000269422412e+25,
                    "name": "HD 41248 c",
                    "orbit": {
                        "eccentricity": 0.18,
                        "period": 2215987.2,
                        "semiMajorAxis": 25730833760.399998
                    }
                }
            ],
            "radius": 542646000.0,
            "spectraltype": "G2V",
            "temperature": 5713.0
        }
    ]
}