{
    "declination": 0.8597312194285027,
    "distance": 1539.69,
    "rightascension": 5.083379780474597,
    "stars": [
        {
            "magH": 13.56,
            "magJ": 13.878,
            "magK": 13.56,
            "mass": 2.3900686645790573e+30,
            "name": "Kepler-372",
            "planets": [
                {
                    "description": "Kepler-372 c has been discovered by the Kepler spacecraft and was originally classified as a planet candidate. A new statistical analysis led by a team at NASA Ames Research Center has validated the planet with more than 99 percent confidence. Although many parameters of Kepler-372 c are still unknown, the object is highly unlikely to be a false positive.",
                    "discoverymethod": "transit",
                    "discoveryyear": "2014",
                    "istransiting": "1",
                    "lastupdate": "14/02/26",
                    "name": "Kepler-372 c",
                    "orbit": {
                        "period": 1732645.1232,
                        "transitTime": 295926942.2399953
                    },
                    "radius": 13616366.319999998
                },
                {
                    "description": "Kepler-372 d has been discovered by the Kepler spacecraft and was originally classified as a planet candidate. A new statistical analysis led by a team at NASA Ames Research Center has validated the planet with more than 99 percent confidence. Although many parameters of Kepler-372 d are still unknown, the object is highly unlikely to be a false positive.",
                    "discoverymethod": "transit",
                    "discoveryyear": "2014",
                    "istransiting": "1",
                    "lastupdate": "14/02/26",
                    "name": "Kepler-372 d",
                    "orbit": {
                        "period": 2599997.8752,
                        "transitTime": 297002663.7120053
                    },
                    "radius": 11010482.92
                },
                {
                    "description": "Kepler-372 b has been discovered by the Kepler spacecraft and was originally classified as a planet candidate. A new statistical analysis led by a team at NASA Ames Research Center has validated the planet with more than 99 percent confidence. Although many parameters of Kepler-372 b are still unknown, the object is highly unlikely to be a false positive.",
                    "discoverymethod": "transit",
                    "discoveryyear": "2014",
                    "istransiting": "1",
                    "lastupdate": "14/02/26",
                    "name": "Kepler-372 b",
                    "orbit": {
                        "period": 591813.3888,
                        "transitTime": 295762811.61598563
                    },
                    "radius": 8860718.48
                }
            ],
            "radius": 791010900.0,
            "temperature": 6509.0
        }
    ]
}