{
    "declination": 0.8592775259375837,
    "distance": 734.49,
    "rightascension": 4.956436842527961,
    "stars": [
        {
            "magH": 12.824,
            "magJ": 13.146,
            "magK": 12.706,
            "mass": 1.9287575745771094e+30,
            "name": "Kepler-301",
            "planets": [
                {
                    "description": "Kepler-301 b has been discovered by the Kepler spacecraft and was originally classified as a planet candidate. A new statistical analysis led by a team at NASA Ames Research Center has validated the planet with more than 99 percent confidence. Although many parameters of Kepler-301 b are still unknown, the object is highly unlikely to be a false positive.",
                    "discoverymethod": "transit",
                    "discoveryyear": "2014",
                    "istransiting": "1",
                    "lastupdate": "14/02/26",
                    "name": "Kepler-301 b",
                    "orbit": {
                        "period": 216738.9792,
                        "transitTime": 295791272.64000624
                    },
                    "radius": 8795660.76
                },
                {
                    "description": "Kepler-301 d has been discovered by the Kepler spacecraft and was originally classified as a planet candidate. A new statistical analysis led by a team at NASA Ames Research Center has validated the planet with more than 99 percent confidence. Although many parameters of Kepler-301 d are still unknown, the object is highly unlikely to be a false positive.",
                    "discoverymethod": "transit",
                    "discoveryyear": "2014",
                    "istransiting": "1",
                    "lastupdate": "14/02/26",
                    "name": "Kepler-301 d",
                    "orbit": {
                        "period": 1188107.3952000001,
                        "transitTime": 296620900.1279935
                    },
                    "radius": 11401544.16
                },
                {
                    "description": "Kepler-301 c has been discovered by the Kepler spacecraft and was originally classified as a planet candidate. A new statistical analysis led by a team at NASA Ames Research Center has validated the planet with more than 99 percent confidence. Although many parameters of Kepler-301 c are still unknown, the object is highly unlikely to be a false positive.",
                    "discoverymethod": "transit",
                    "discoveryyear": "2014",
                    "istransiting": "1",
                    "lastupdate": "14/02/26",
                    "name": "Kepler-301 c",
                    "orbit": {
                        "period": 468203.8464,
                        "transitTime": 295500499.4879857
                    },
                    "radius": 8795660.76
                }
            ],
            "radius": 626130000.0,
            "temperature": 5815.0
        }
    ]
}