datetime_jd,incl,Omega,w,e,a,M
#Jupiter
-657936000.0,0.06941833764754343,2.0956371942015553,5.202146018418604,1.317947806897777,-1093291372.63334,-7.233147899757184
-657849600.0,0.06937485821539896,2.0958179788591607,5.201590878387453,1.318306299354161,-1093300564.629726,-6.382637484762998
-657763200.0,0.06943507580502205,2.095572885997834,5.201628232496933,1.318446573746761,-1093841144.0712903,-5.528980819781482
-657676800.0,0.0693473357679595,2.0959089642778235,5.201005454218073,1.318755799846776,-1093415564.5262473,-4.681145385700896
-657590400.0,0.06934133378176695,2.0959176078009505,5.20073391877303,1.31895626714566,-1093662129.8127036,-3.829757455647034
-657504000.0,0.06937642892292305,2.0958249296659845,5.201181613271413,1.318679433959814,-1093494931.5705576,-2.979822678388275
-657417600.0,0.06932608438011148,2.0959339758522426,5.200646233018885,1.319034869305346,-1093379058.1011195,-2.1298328612801725
-657331200.0,0.06939303579401503,2.095858922752286,5.201322510555552,1.318574212565056,-1093544781.9141815,-1.2787874653666487
-657244800.0,0.06938313476982376,2.0958473384960783,5.201205825605803,1.318686406151359,-1093410642.8129184,-0.42849982055790703
-657158400.0,0.07099789676040613,2.0889762377752614,5.208506690532693,1.319154105664975,-1092221542.7968516,0.42276610265041054
-657072000.0,0.06988503450001302,2.0694165933302284,5.228864152915141,1.319746911568104,-1091346640.1518466,1.2762524327125868
-656985600.0,0.06986195775578063,2.0688971345877984,5.229552038698334,1.319785198653849,-1091803655.843472,2.1281380076419367
-656899200.0,0.06985753112870845,2.068705152755238,5.229409179571721,1.319544291832795,-1091672149.530314,2.980872508130161
-656812800.0,0.06988436779926722,2.069751174080802,5.228099894340463,1.319262309383316,-1092074278.491739,3.831612422511168
-656726400.0,0.06984249244695909,2.0679998513504603,5.229835236263241,1.319320558401394,-1091509826.1995583,4.686653343105684
-656640000.0,0.06985639400194411,2.0686175316659767,5.229136009277014,1.319220089148886,-1091714160.3771334,5.53813958539781
-656553600.0,0.0698250016560264,2.0671772006881644,5.231457986928208,1.320057337141302,-1091635451.8410697,6.39177122724737
-656467200.0,0.06987797915006153,2.0697113471416175,5.227630555236444,1.318791278940776,-1091969877.5911007,7.240993294822129
-656380800.0,0.06986685486721418,2.0691809172043922,5.22860587877968,1.319219931908145,-1092002886.7838576,8.093267852689506
-656294400.0,0.06986613248960459,2.0691197765563167,5.227474805468432,1.318065019214725,-1091879855.1746135,8.945840556947806
-656208000.0,0.06989371607942296,2.070580823668649,5.225935040485861,1.317963228000261,-1092151868.7564507,9.795366375029623
-656121600.0,0.06982486030880941,2.0668732211688123,5.228974094824975,1.317342722925841,-1091620836.1757686,10.652835036122319
-656035200.0,0.06983276551422603,2.0673157596852576,5.2288163014292675,1.317614850112938,-1091786935.5165932,11.503694719261885
-655948800.0,0.06976700465207938,2.0636232357233246,5.233949619736361,1.319092697648878,-1091633589.0834603,12.359128671174217
-655862400.0,0.06985539859655843,2.0686436573402314,5.227283361959821,1.317379664772767,-1092083545.998881,13.204472099976849
-655776000.0,0.06982895871388736,2.0671443887743224,5.229535734968537,1.318153560503652,-1092100643.0106485,14.056905966789675
-655689600.0,0.06985605320745025,2.068695600694651,5.225918122494509,1.316027771548492,-1092148470.7240016,14.906766445600708
-655603200.0,0.06989105267942142,2.07074115943456,5.224006361820455,1.316145373460653,-1092450543.5624425,15.754086361005518
