{
    "declination": -0.62575415093052,
    "distance": 3.29,
    "rightascension": 6.046986656103666,
    "stars": [
        {
            "magB": 8.82,
            "magH": 3.608,
            "magI": 5.315,
            "magJ": 4.338,
            "magK": 3.465,
            "magV": 7.335,
            "mass": 9.74320836642045e+29,
            "metallicity": -0.06,
            "name": "GJ 887",
            "planets": [
                {
                    "description": "This planet was discovered by Jeffers et al. 2020. This was a ground based discovery. The parameters listed here are those reported by Jeffers et al. 2020 and were imported into the Open Exoplanet Catalogue from the NASA Exoplanet Archive.",
                    "discoverymethod": "RV",
                    "discoveryyear": "2020",
                    "lastupdate": "20/07/09",
                    "mass": 2.5074225930809224e+25,
                    "name": "GJ 887 b",
                    "orbit": {
                        "eccentricity": 0.0,
                        "period": 800236.8,
                        "semiMajorAxis": 10172655207.6
                    },
                    "temperature": 468.0
                },
                {
                    "description": "This planet was discovered by Jeffers et al. 2020. This was a ground based discovery. The parameters listed here are those reported by Jeffers et al. 2020 and were imported into the Open Exoplanet Catalogue from the NASA Exoplanet Archive.",
                    "discoverymethod": "RV",
                    "discoveryyear": "2020",
                    "lastupdate": "20/07/09",
                    "mass": 4.5384159122304965e+25,
                    "name": "GJ 887 c",
                    "orbit": {
                        "period": 1882569.6,
                        "semiMajorAxis": 17951744484.0
                    },
                    "temperature": 352.0
                }
            ],
            "radius": 326979000.0,
            "spectraltype": "M1V",
            "temperature": 3688.0
        }
    ]
}