datetime_jd,incl,Omega,w,e,a,M
#Saturn
-580089600.0,0.06849276495350216,1.0598315003569556,1.5437902175908829,1.484235414952684,-332864483.23725206,-33.64024535473061
-580003200.0,0.06898943490232148,1.0533297924639629,1.551056130716645,1.483039661298499,-332877415.46649426,-30.867397849684334
-579916800.0,0.06930189431210505,1.0493278156208439,1.5556622429221865,1.482103072464355,-332899018.3230657,-28.09422919077719
-579830400.0,0.06942325494766116,1.0477943192500445,1.5576495558742944,1.481406635827149,-332932965.0868453,-25.320686678445114
-579744000.0,0.06935618677290135,1.048633219812467,1.5569668927285163,1.481170336707009,-332963106.1874189,-22.548425515371918
-579657600.0,0.06925020123163803,1.0499483971037855,1.5557572418317787,1.481011706051008,-332996376.3208853,-19.776650180593293
-579571200.0,0.0690103896222042,1.0529095234895178,1.5527073429275486,1.48114447818233,-333030372.2801451,-17.00572102673786
-579484800.0,0.06870205592648211,1.0566960308129498,1.5486577360544156,1.481531200883625,-333055675.89490974,-14.236055047044639
-579398400.0,0.06845004537116976,1.0597575613270929,1.5452912446673754,1.481972111762231,-333062596.7578806,-11.467615687816368
-579312000.0,0.06824758500541855,1.0621543431991867,1.5425989808268012,1.482389103102794,-333056514.8105875,-8.699659873582227
-579225600.0,0.06816533689218209,1.063086141431614,1.5414687754934127,1.482666396913987,-333028314.6275811,-5.931890678614733
-579139200.0,0.0681527808650883,1.0632148765173923,1.541303289236823,1.482740360132227,-332984015.6045528,-3.1635570983815295
-579052800.0,0.06813039634945,1.0633520119135635,1.5413450482323017,1.482537815621016,-333007751.56599736,-0.3941059790884445
-578966400.0,0.06811164312245087,1.06334528250109,1.5412722141498207,1.482546214138045,-332978722.54274005,2.375240004355337
-578880000.0,0.06802862734210977,1.0626601554560717,1.5418852939849357,1.482479563339804,-332958422.5084134,5.145010215196661
-578793600.0,0.06789849243013485,1.061389337792997,1.5430960141869658,1.482416341904169,-332936222.048712,7.915269076510295
-578707200.0,0.06770528556209715,1.0593559313281433,1.5451612215385992,1.482477541028906,-332907532.1979348,10.686315154129089
-578620800.0,0.06754520831943031,1.057590826335795,1.5470604396102499,1.482678876586019,-332886259.39143384,13.457714921976528
-578534400.0,0.06736437730941452,1.0555301283079819,1.5493448079176644,1.483014325700766,-332864976.1566283,16.229648745195803
-578448000.0,0.06723380042475242,1.0540058142735271,1.55126610875245,1.48360601654939,-332848206.72916937,19.001905477466398
-578361600.0,0.06728839491860197,1.054656474524799,1.5512230205923645,1.484508141602544,-332844646.4479543,21.77376246199706
-578275200.0,0.06751335395418939,1.057337980616857,1.5490585509081873,1.485274329127722,-332855027.6148386,24.54448173695934
-578188800.0,0.06786615853376504,1.0615328737467482,1.5453962907629712,1.486064958040099,-332872538.23353505,27.314366596684714
-578102400.0,0.06836775218558268,1.067436236502388,1.5397709694906592,1.486464486847935,-332900353.2364024,30.082624197912107
-578016000.0,0.06891112211955941,1.0737413489423164,1.533588354080827,1.486625569930705,-332930232.3377761,32.84993099134364
-577929600.0,0.06950557093513778,1.080523924292672,1.5266232876157442,1.486314058814595,-332963650.3997037,35.615901987884854
-577843200.0,0.07004387613998057,1.0865609985106968,1.5199192839777957,1.485254210994418,-332997258.85608923,38.38066829557985
-577756800.0,0.07013346813633371,1.0875561764837978,1.5178266525828599,1.483547776546686,-333014592.90263355,41.14645794062488
-577670400.0,0.06999609616870428,1.0860211640080977,1.5183447045875131,1.48197694640673,-333021846.9080061,43.91339038636861
-577584000.0,0.06950038543187988,1.0804002280302216,1.5228798737134108,1.480316936096337,-333016790.03354144,46.68194053050361
-577497600.0,0.06883578959688173,1.0726784381696517,1.529800000128275,1.479105447347147,-333004421.25479573,49.45203861493103
-577411200.0,0.06801440512372423,1.0628354205125627,1.5390711147569411,1.478257163389108,-332986190.02947515,52.22360256065353
-577324800.0,0.06707187711546476,1.0511169711230035,1.5505517932033908,1.477932149230911,-332962995.1511593,54.99675383405196
-577238400.0,0.06614386602926273,1.0391129969863842,1.5631109972944206,1.478838481849507,-332936233.71080565,57.77185193734345
-577152000.0,0.06573247604047636,1.0336329934941717,1.5695131911419167,1.480296048071045,-332923323.78852797,60.545218000345905
