{
    "declination": 0.7153862197084202,
    "distance": 816.592,
    "rightascension": 5.036583888942636,
    "stars": [
        {
            "magH": 12.588,
            "magI": 13.779,
            "magJ": 12.86,
            "magK": 12.505,
            "magV": 14.02,
            "mass": 2.1872508577678563e+30,
            "metallicity": -0.02,
            "name": "Kepler-1774",
            "planets": [
                {
                    "description": "This planet was discovered by Valizadegan et al. 2022. The discovery was made with a space based telescope (0.95 m Kepler Telescope). The parameters listed here have been imported into the Open Exoplanet Catalogue from the NASA Exoplanet Archive.",
                    "discoverymethod": "transit",
                    "discoveryyear": "2021",
                    "istransiting": "1",
                    "lastupdate": "22/02/01",
                    "mass": 6.111961203422082e+25,
                    "name": "Kepler-1774 b",
                    "orbit": {
                        "eccentricity": 0.0,
                        "inclination": 1.551597705022959,
                        "period": 5164197.253056,
                        "semiMajorAxis": 46315500768.72,
                        "transitTime": 296997376.0320157
                    },
                    "radius": 20303728.0,
                    "temperature": 522.0
                }
            ],
            "radius": 779184000.0000001,
            "temperature": 6214.0
        }
    ]
}