{
    "declination": 0.4592009743365192,
    "distance": 22.0016,
    "rightascension": 4.723370010261821,
    "stars": [
        {
            "magH": 5.203,
            "magJ": 5.553,
            "magK": 5.113,
            "magV": 7.01227,
            "mass": 1.829337081042207e+30,
            "metallicity": 0.197,
            "name": "HD 164922",
            "planets": [
                {
                    "description": "This planet was discovered by Rosenthal et al. 2021. This was a ground based discovery. The parameters listed here have been imported into the Open Exoplanet Catalogue from the NASA Exoplanet Archive.",
                    "discoverymethod": "RV",
                    "discoveryyear": "2021",
                    "lastupdate": "21/06/17",
                    "mass": 6.282792417182327e+25,
                    "name": "HD 164922 e",
                    "orbit": {
                        "eccentricity": 0.086,
                        "periapsisArgument": -0.29999940913754936,
                        "period": 3608323.1999999997,
                        "semiMajorAxis": 34287831964.44
                    },
                    "radius": 20589696.0
                },
                {
                    "description": "This planet was discovered by Fulton et al. 2016. This was a ground based discovery. The parameters listed here have been imported into the Open Exoplanet Catalogue from the NASA Exoplanet Archive.",
                    "discoverymethod": "RV",
                    "discoveryyear": "2016",
                    "lastupdate": "21/06/17",
                    "mass": 7.763329603104446e+25,
                    "name": "HD 164922 c",
                    "orbit": {
                        "eccentricity": 0.12,
                        "periapsisArgument": -0.5061454830783556,
                        "period": 6543936.0,
                        "semiMajorAxis": 51012873908.700005
                    },
                    "radius": 23377884.0,
                    "temperature": 400.5
                },
                {
                    "description": "This planet was discovered by Butler et al. 2006. This was a ground based discovery. The parameters listed here have been imported into the Open Exoplanet Catalogue from the NASA Exoplanet Archive.",
                    "discoverymethod": "RV",
                    "discoveryyear": "2005",
                    "lastupdate": "21/06/17",
                    "mass": 6.927585342897384e+26,
                    "name": "HD 164922 b",
                    "orbit": {
                        "eccentricity": 0.08,
                        "periapsisArgument": 2.0245819323134224,
                        "period": 104284800.0,
                        "semiMajorAxis": 323131400712.0
                    },
                    "radius": 85075480.0,
                    "temperature": 159.4
                },
                {
                    "description": "This planet was discovered by Benatti et al. 2020. This was a ground based discovery. The parameters listed here have been imported into the Open Exoplanet Catalogue from the NASA Exoplanet Archive.",
                    "discoverymethod": "RV",
                    "discoveryyear": "2020",
                    "lastupdate": "21/06/17",
                    "mass": 2.3897388680460876e+25,
                    "name": "HD 164922 d",
                    "orbit": {
                        "eccentricity": 0.12,
                        "periapsisArgument": -0.8377580409572782,
                        "period": 1076371.2,
                        "semiMajorAxis": 15408580682.099998
                    },
                    "radius": 11653196.0
                }
            ],
            "radius": 695700000.0,
            "spectraltype": "G9V",
            "temperature": 5393.43
        }
    ]
}