{
    "declination": 0.6769744317541116,
    "distance": 1030.81,
    "rightascension": 5.085889440311477,
    "stars": [
        {
            "magH": 13.903,
            "magI": 15.514,
            "magJ": 14.351,
            "magK": 13.896,
            "magV": 16.076,
            "mass": 1.710032488800324e+30,
            "metallicity": 0.07,
            "name": "Kepler-1600",
            "planets": [
                {
                    "description": "This planet was discovered by Morton et al. 2016. The discovery was made with a space based telescope (0.95 m Kepler Telescope). The parameters listed here have been imported into the Open Exoplanet Catalogue from the NASA Exoplanet Archive.",
                    "discoverymethod": "transit",
                    "discoveryyear": "2016",
                    "istransiting": "1",
                    "lastupdate": "22/09/15",
                    "mass": 5.941129989661838e+25,
                    "name": "Kepler-1600 b",
                    "orbit": {
                        "eccentricity": 0.0,
                        "inclination": 1.5707963267948966,
                        "period": 33382415.3472,
                        "semiMajorAxis": 145289452023.84,
                        "transitTime": 323254782.7199891
                    },
                    "radius": 19946268.0,
                    "temperature": 209.0
                },
                {
                    "description": "This planet was discovered by Valizadegan et al. 2022. The discovery was made with a space based telescope (0.95 m Kepler Telescope). The parameters listed here have been imported into the Open Exoplanet Catalogue from the NASA Exoplanet Archive.",
                    "discoverymethod": "transit",
                    "discoveryyear": "2021",
                    "istransiting": "1",
                    "lastupdate": "22/09/15",
                    "mass": 2.63839319029711e+25,
                    "name": "Kepler-1600 c",
                    "orbit": {
                        "eccentricity": 0.0,
                        "inclination": 1.5468853160425742,
                        "period": 630551.5139520001,
                        "semiMajorAxis": 10307293291.23,
                        "transitTime": 296037222.3360166
                    },
                    "radius": 12368116.0,
                    "temperature": 786.0
                }
            ],
            "radius": 570474000.0,
            "temperature": 5214.0
        }
    ]
}