{
    "declination": -0.6282882167729199,
    "distance": 212.48,
    "rightascension": 0.09141118324089,
    "stars": [
        {
            "magH": 10.365,
            "magJ": 10.753,
            "magK": 10.294,
            "magV": 12.0,
            "mass": 1.6901483900933434e+30,
            "metallicity": -0.03,
            "name": "WASP-45",
            "planets": [
                {
                    "description": "WASP-45 b is a Jupiter mass planet transiting in front of the limb of its host star. Emission from Ca H+K suggests that the star is chromospherically active.",
                    "discoverymethod": "transit",
                    "discoveryyear": "2011",
                    "istransiting": "1",
                    "lastupdate": "19/09/26",
                    "mass": 1.8297921118319526e+27,
                    "name": "WASP-45 b",
                    "orbit": {
                        "inclination": 1.4838789300455788,
                        "period": 270094.0896,
                        "semiMajorAxis": 5928563615.841,
                        "transitTime": 587057158.569619
                    },
                    "radius": 67631432.0,
                    "temperature": 1153.0
                }
            ],
            "radius": 591345000.0,
            "spectraltype": "K2V",
            "temperature": 5150.0
        }
    ]
}