{
    "declination": 0.8330748329123594,
    "distance": 313.46,
    "rightascension": 5.200572509277018,
    "stars": [
        {
            "magH": 11.485,
            "magJ": 11.955,
            "magK": 11.393,
            "mass": 1.9903982805687488e+30,
            "name": "Kepler-141",
            "planets": [
                {
                    "description": "Kepler-141 c has been discovered by the Kepler spacecraft and was originally classified as a planet candidate. A new statistical analysis led by a team at NASA Ames Research Center has validated the planet with more than 99 percent confidence. Although many parameters of Kepler-141 c are still unknown, the object is highly unlikely to be a false positive.",
                    "discoverymethod": "transit",
                    "discoveryyear": "2014",
                    "istransiting": "1",
                    "lastupdate": "14/02/26",
                    "name": "Kepler-141 c",
                    "orbit": {
                        "period": 605716.3584,
                        "transitTime": 299209765.53598344
                    },
                    "radius": 9186007.08
                },
                {
                    "description": "Kepler-141 b has been discovered by the Kepler spacecraft and was originally classified as a planet candidate. A new statistical analysis led by a team at NASA Ames Research Center has validated the planet with more than 99 percent confidence. Although many parameters of Kepler-141 b are still unknown, the object is highly unlikely to be a false positive.",
                    "discoverymethod": "transit",
                    "discoveryyear": "2014",
                    "istransiting": "1",
                    "lastupdate": "14/02/26",
                    "name": "Kepler-141 b",
                    "orbit": {
                        "period": 268503.12,
                        "transitTime": 295585682.1120098
                    },
                    "radius": 4495416.96
                }
            ],
            "radius": 547515900.0,
            "temperature": 4910.0
        }
    ]
}