{
    "declination": 0.35533449129561223,
    "distance": 696.1,
    "rightascension": 2.2776546738525996,
    "stars": [
        {
            "magH": 11.594,
            "magI": 12.8886,
            "magJ": 11.899,
            "magK": 11.557,
            "magV": 13.164,
            "mass": 2.2270190551818173e+30,
            "metallicity": -0.091,
            "name": "K2-375",
            "planets": [
                {
                    "description": "This planet was discovered by Christiansen et al. 2022. The discovery was made with a space based telescope (0.95 m Kepler Telescope). The parameters listed here have been imported into the Open Exoplanet Catalogue from the NASA Exoplanet Archive.",
                    "discoverymethod": "transit",
                    "discoveryyear": "2022",
                    "istransiting": "1",
                    "lastupdate": "22/03/01",
                    "mass": 3.37866178325817e+25,
                    "name": "K2-375 b",
                    "orbit": {
                        "inclination": 1.5354010495644514,
                        "period": 1248816.528,
                        "transitTime": 484085687.0399818
                    },
                    "radius": 14298400.0
                }
            ],
            "radius": 1071378000.0,
            "temperature": 5822.0
        }
    ]
}