{
    "binaries": [
        {
            "stars": [
                {
                    "magB": 8.76,
                    "magV": 8.1,
                    "mass": 2.386091844837661e+30,
                    "metallicity": 0.25,
                    "name": "HD 109749 A",
                    "orbit": {
                        "positionAngle": 3.1372293304598076,
                        "separationArcsec": 8.28,
                        "separationMeters": 73153358772300.0
                    },
                    "planets": [
                        {
                            "discoverymethod": "RV",
                            "discoveryyear": "2005",
                            "lastupdate": "10/12/23",
                            "mass": 5.314748872540942e+26,
                            "name": "HD 109749 A b",
                            "orbit": {
                                "eccentricity": 0.01,
                                "period": 452736.0,
                                "semiMajorAxis": 9499464789.45
                            },
                            "temperature": 1161.9
                        }
                    ],
                    "spectraltype": "G3 IV",
                    "temperature": 5610.0
                },
                {
                    "mass": 1.5509596991444798e+30,
                    "name": "HD 109749 B"
                }
            ]
        }
    ],
    "declination": -0.7123028046965635,
    "distance": 59.0,
    "rightascension": 3.3041991622339313
}