{
    "declination": 0.2883623293871409,
    "distance": 557.993,
    "rightascension": 2.258310607976329,
    "stars": [
        {
            "magH": 11.337,
            "magI": 12.4892,
            "magJ": 11.586,
            "magK": 11.281,
            "magV": 12.556,
            "mass": 2.4457441409586026e+30,
            "metallicity": 0.1,
            "name": "K2-335",
            "planets": [
                {
                    "description": "This planet was discovered by Pope et al. 2016. The discovery was made with a space based telescope (0.95 m Kepler Telescope). The parameters listed here have been imported into the Open Exoplanet Catalogue from the NASA Exoplanet Archive.",
                    "discoverymethod": "transit",
                    "discoveryyear": "2016",
                    "istransiting": "1",
                    "lastupdate": "21/10/03",
                    "mass": 3.3027367993647276e+25,
                    "name": "K2-335 b",
                    "orbit": {
                        "inclination": 1.5447385610626214,
                        "period": 1061269.4304,
                        "transitTime": 484160511.6863921
                    },
                    "radius": 14083924.0,
                    "temperature": 949.0
                }
            ],
            "radius": 925281000.0,
            "temperature": 6222.0
        }
    ]
}