{
    "declination": -0.5592034923389831,
    "distance": 7210.0,
    "rightascension": 4.679954945118461,
    "stars": [
        {
            "mass": 1.988409870698051e+29,
            "name": "MOA-2012-BLG-505L",
            "planets": [
                {
                    "description": "This planet was discovered by Nagakane et al. 2017. This was a ground based discovery. The parameters listed here are those reported by Nagakane et al. 2017 and were imported into the Open Exoplanet Catalogue from the NASA Exoplanet Archive.",
                    "discoverymethod": "microlensing",
                    "discoveryyear": "2017",
                    "lastupdate": "17/06/22",
                    "mass": 4.001246651184395e+25,
                    "name": "MOA-2012-BLG-505L b",
                    "orbit": {
                        "semiMajorAxis": 134638083630.0
                    }
                }
            ]
        }
    ]
}