{
    "declination": -0.3013076454038794,
    "distance": 131.0,
    "rightascension": 5.87761967277957,
    "stars": [
        {
            "magB": 8.48,
            "magH": 5.578,
            "magI": 8.66,
            "magJ": 6.025,
            "magK": 5.496,
            "magV": 7.6,
            "mass": 2.2866713513027586e+30,
            "metallicity": -0.21,
            "name": "HD 212771",
            "planets": [
                {
                    "discoverymethod": "RV",
                    "discoveryyear": "2010",
                    "lastupdate": "10/03/19",
                    "mass": 4.365686573872916e+27,
                    "name": "HD 212771 b",
                    "orbit": {
                        "eccentricity": 0.111,
                        "period": 32253120.0,
                        "semiMajorAxis": 182509402254.0
                    },
                    "temperature": 456.8
                }
            ],
            "radius": 3478500000.0,
            "spectraltype": "G8IV",
            "temperature": 5121.0
        }
    ]
}