{
    "declination": 0.37728688434988655,
    "distance": 280.71,
    "rightascension": 0.33152898569657296,
    "stars": [
        {
            "magH": 9.613,
            "magJ": 9.781,
            "magK": 9.532,
            "mass": 2.425860042251622e+30,
            "metallicity": -0.08,
            "name": "WASP-186",
            "planets": [
                {
                    "description": "This planet was discovered by Schanche et al. 2020. This was a ground based discovery. The parameters listed here are those reported by Schanche et al. 2020 and were imported into the Open Exoplanet Catalogue from the NASA Exoplanet Archive.",
                    "discoverymethod": "transit",
                    "discoveryyear": "2020",
                    "istransiting": "1",
                    "lastupdate": "20/12/17",
                    "mass": 8.010085800758133e+27,
                    "name": "WASP-186 b",
                    "orbit": {
                        "eccentricity": 0.33,
                        "periapsisArgument": 3.01941960595019,
                        "period": 434315.4336,
                        "semiMajorAxis": 8975872242.0,
                        "transitTime": 405442324.8000026
                    },
                    "radius": 79356120.0
                }
            ],
            "radius": 1022679000.0,
            "spectraltype": "F",
            "temperature": 6361.0
        }
    ]
}