{
    "declination": 0.8384599798999137,
    "distance": 1430.0,
    "rightascension": 5.04038944120471,
    "stars": [
        {
            "age": 5.3,
            "magB": 14.93,
            "magH": 12.99,
            "magI": 14.58,
            "magJ": 13.324,
            "magK": 13.01,
            "magR": 13.69,
            "magV": 14.29,
            "mass": 2.2449147440180995e+30,
            "metallicity": -0.04,
            "name": "Kepler-117",
            "planets": [
                {
                    "description": "Kepler-117 c has been discovered by the Kepler spacecraft and is the outermost planet in the system. A new statistical analysis led by a team at NASA Ames Research Center has validated the planet with more than 99 percent confidence.",
                    "discoverymethod": "transit",
                    "discoveryyear": "2014",
                    "istransiting": "1",
                    "lastupdate": "14/11/17",
                    "mass": 3.492549259098333e+27,
                    "name": "Kepler-117 c",
                    "orbit": {
                        "eccentricity": 0.0323,
                        "inclination": 1.564513141487717,
                        "period": 4388289.7824,
                        "semiMajorAxis": 41947242944.28,
                        "transitTime": 295844915.80798477
                    },
                    "radius": 78712692.0,
                    "temperature": 704.0
                },
                {
                    "description": "Kepler-117 b has been discovered by the Kepler spacecraft and is the innermost planet in the system. A new statistical analysis led by a team at NASA Ames Research Center has validated the planet with more than 99 percent confidence.",
                    "discoverymethod": "transit",
                    "discoveryyear": "2014",
                    "istransiting": "1",
                    "lastupdate": "14/11/17",
                    "mass": 1.7842371214958874e+26,
                    "name": "Kepler-117 b",
                    "orbit": {
                        "eccentricity": 0.0493,
                        "inclination": 1.548805178219768,
                        "period": 1623967.72992,
                        "semiMajorAxis": 21616892316.149998,
                        "transitTime": 296725272.1920088
                    },
                    "radius": 51402748.0,
                    "temperature": 984.0
                }
            ],
            "radius": 1117294200.0,
            "temperature": 6150.0
        }
    ]
}