{
    "declination": 0.8295535118822953,
    "distance": 648.69,
    "rightascension": 5.092375876482255,
    "stars": [
        {
            "magH": 12.921,
            "magJ": 13.322,
            "magK": 12.78,
            "name": "Kepler-362",
            "planets": [
                {
                    "description": "Kepler-362 c has been discovered by the Kepler spacecraft and was originally classified as a planet candidate. A new statistical analysis led by a team at NASA Ames Research Center has validated the planet with more than 99 percent confidence. Although many parameters of Kepler-362 c are still unknown, the object is highly unlikely to be a false positive.",
                    "discoverymethod": "transit",
                    "discoveryyear": "2014",
                    "istransiting": "1",
                    "lastupdate": "14/02/26",
                    "name": "Kepler-362 c",
                    "orbit": {
                        "period": 3271646.6784,
                        "transitTime": 295734916.5120095
                    },
                    "radius": 9446952.88
                },
                {
                    "description": "Kepler-362 b has been discovered by the Kepler spacecraft and was originally classified as a planet candidate. A new statistical analysis led by a team at NASA Ames Research Center has validated the planet with more than 99 percent confidence. Although many parameters of Kepler-362 b are still unknown, the object is highly unlikely to be a false positive.",
                    "discoverymethod": "transit",
                    "discoveryyear": "2014",
                    "istransiting": "1",
                    "lastupdate": "14/02/26",
                    "name": "Kepler-362 b",
                    "orbit": {
                        "period": 892268.8703999999,
                        "transitTime": 296168771.5200126
                    },
                    "radius": 5732943.4799999995
                }
            ],
            "radius": 502295400.0,
            "temperature": 5788.0
        }
    ]
}