{
    "declination": 0.7825716996365797,
    "distance": 1050.72,
    "rightascension": 5.208062487951079,
    "stars": [
        {
            "magH": 13.206,
            "magI": 14.659,
            "magJ": 13.586,
            "magK": 13.104,
            "magV": 15.152,
            "mass": 1.9287575745771094e+30,
            "metallicity": 0.16,
            "name": "Kepler-1893",
            "planets": [
                {
                    "description": "This planet was discovered by Valizadegan et al. 2022. The discovery was made with a space based telescope (0.95 m Kepler Telescope). The parameters listed here have been imported into the Open Exoplanet Catalogue from the NASA Exoplanet Archive.",
                    "discoverymethod": "transit",
                    "discoveryyear": "2021",
                    "istransiting": "1",
                    "lastupdate": "22/02/01",
                    "mass": 2.1258995490163765e+25,
                    "name": "Kepler-1893 b",
                    "orbit": {
                        "eccentricity": 0.0,
                        "inclination": 1.543569190463785,
                        "period": 361097.561952,
                        "semiMajorAxis": 7539732683.28,
                        "transitTime": 295690772.15998024
                    },
                    "radius": 10866784.0,
                    "temperature": 1194.0
                }
            ],
            "radius": 807012000.0,
            "temperature": 5633.0
        }
    ]
}