{
    "declination": 0.8443445373388883,
    "distance": 8.034,
    "rightascension": 3.102157040951854,
    "stars": [
        {
            "magV": 13.0,
            "mass": 3.380296780186687e+29,
            "name": "GJ 1151",
            "planets": [
                {
                    "description": "GJ 1151 c is a terrestrial-mass planet and the likely source of coherent low frequency radio emission from this system. No planetary transit is detected in the TESS data. The parameters listed here were imported into the Open Exoplanet Catalogue from the exoplanet.eu website.",
                    "discoverymethod": "RV",
                    "discoveryyear": "2021",
                    "lastupdate": "21/02/07",
                    "mass": 1.49951843189548e+25,
                    "name": "GJ 1151 c",
                    "orbit": {
                        "period": 174355.19999999998,
                        "semiMajorAxis": 2595523056.645
                    }
                }
            ],
            "radius": 139140000.0,
            "spectraltype": "M4.5"
        }
    ]
}