{
    "declination": 0.6553795587312073,
    "distance": 122.36,
    "rightascension": 0.6407582340618543,
    "stars": [
        {
            "magB": 8.41,
            "magH": 7.516,
            "magJ": 7.581,
            "magK": 7.468,
            "magV": 8.142,
            "mass": 2.9826148060470766e+30,
            "name": "WASP-33",
            "planets": [
                {
                    "description": "This planet was discovered by Collier Cameron et al. 2010. This was a ground based discovery. The parameters listed here are those reported by Chakrabarty & Sengupta 2019 and were imported into the Open Exoplanet Catalogue from the NASA Exoplanet Archive.",
                    "discoverymethod": "transit",
                    "discoveryyear": "2010",
                    "istransiting": "1",
                    "lastupdate": "19/07/11",
                    "mass": 3.9727747822243537e+27,
                    "name": "WASP-33 b",
                    "orbit": {
                        "inclination": 1.5119787310026875,
                        "period": 105396.768,
                        "semiMajorAxis": 3575389109.73
                    },
                    "radius": 113886756.0,
                    "temperature": 2782.0
                }
            ],
            "radius": 1001808000.0,
            "spectraltype": "A5",
            "temperature": 7430.0
        }
    ]
}