{
    "declination": -1.0398562939673544,
    "distance": 265.4,
    "rightascension": 5.038276472890194,
    "stars": [
        {
            "magH": 11.591,
            "magJ": 12.16,
            "magK": 11.427,
            "magV": 14.35,
            "mass": 1.4515392056095773e+30,
            "metallicity": 0.186,
            "name": "HATS-48 A",
            "planets": [
                {
                    "description": "This planet was discovered by Hartman et al. 2020. This was a ground based discovery. The parameters listed here are those reported by Hartman et al. 2020 and were imported into the Open Exoplanet Catalogue from the NASA Exoplanet Archive.",
                    "discoverymethod": "transit",
                    "discoveryyear": "2020",
                    "istransiting": "1",
                    "lastupdate": "20/02/27",
                    "mass": 4.612442771526603e+26,
                    "name": "HATS-48 A b",
                    "orbit": {
                        "eccentricity": 0.162,
                        "inclination": 1.5634659439365204,
                        "period": 270575.99423999997,
                        "semiMajorAxis": 5638343746.683001,
                        "transitTime": 480042739.00800794
                    },
                    "radius": 57193600.0,
                    "temperature": 955.0
                }
            ],
            "radius": 500904000.0,
            "temperature": 4546.0
        }
    ]
}