{
    "declination": 0.0742595102804438,
    "distance": 437.0,
    "rightascension": 3.1086196533783435,
    "stars": [
        {
            "magH": 12.55,
            "magJ": 13.07,
            "magK": 12.49,
            "magV": 14.66,
            "mass": 1.4316551069025968e+30,
            "metallicity": -0.46,
            "name": "EPIC 201736247",
            "planets": [
                {
                    "description": "This planet was discovered by the Kepler spacecraft during its extended K2 mission, Campaign 1.",
                    "discoverymethod": "transit",
                    "discoveryyear": "2015",
                    "istransiting": "1",
                    "lastupdate": "15/07/07",
                    "name": "EPIC 201736247 b",
                    "orbit": {
                        "period": 1020418.5599999999,
                        "semiMajorAxis": 13613406233.699999,
                        "transitTime": 455099117.75999665
                    },
                    "radius": 16300176.0,
                    "temperature": 676.0
                }
            ],
            "radius": 473076000.00000006,
            "temperature": 5131.0
        }
    ]
}