{
    "declination": 0.7072972115525585,
    "distance": 128.0,
    "rightascension": 5.1848433257142466,
    "stars": [
        {
            "age": 2.34,
            "magB": 11.25,
            "magH": 8.928,
            "magJ": 9.26,
            "magK": 8.868,
            "magV": 10.57,
            "mass": 1.988409870698051e+30,
            "metallicity": 0.04,
            "name": "Kepler-96",
            "planets": [
                {
                    "description": "This planet has been discovered by the Kepler spacecraft. It was confirmed using a combination of high resolution imaging and spectroscopy and Doppler spectroscopy. This analysis pushes the false probability below 1 percent and puts contraints on the planet's size and mass.",
                    "discoverymethod": "transit",
                    "discoveryyear": "2014",
                    "istransiting": "1",
                    "lastupdate": "14/02/24",
                    "mass": 7.165040730024123e+25,
                    "name": "Kepler-96 b",
                    "orbit": {
                        "period": 1403006.4
                    },
                    "radius": 17395290.456
                }
            ],
            "radius": 709614000.0,
            "temperature": 5690.0
        }
    ]
}