{
    "binaries": [
        {
            "name": "Gamma Leonis",
            "stars": [
                {
                    "magB": 3.13,
                    "magV": 2.01,
                    "mass": 2.4457441409586026e+30,
                    "metallicity": -0.51,
                    "name": "Gamma-1 Leonis",
                    "orbit": {
                        "positionAngle": 2.2165681500327987,
                        "separationArcsec": 4.6,
                        "separationMeters": 26478823113900.0
                    },
                    "planets": [
                        {
                            "discoverymethod": "RV",
                            "discoveryyear": "2009",
                            "lastupdate": "15/09/22",
                            "mass": 1.6665533964610523e+28,
                            "name": "Gamma Leonis b",
                            "orbit": {
                                "ascendingNodeLongitude": 2.7471482426390748,
                                "eccentricity": 0.144,
                                "inclination": 3.0037116426822412,
                                "meanAnomalyAtEpoch": 1.7595851502019846,
                                "periapsisArgument": 3.607595563872279,
                                "period": 37022400.0,
                                "semiMajorAxis": 178021466133.0
                            }
                        }
                    ],
                    "radius": 22178916000.0,
                    "spectraltype": "K0III",
                    "temperature": 4330.0
                },
                {
                    "magB": 3.4,
                    "magR": 2.2,
                    "magV": 4.225,
                    "name": "Gamma-2 Leonis",
                    "spectraltype": "G7IIIb"
                }
            ]
        }
    ],
    "declination": 0.3462952856554292,
    "distance": 38.5,
    "rightascension": 2.7051459488031524
}