{
    "declination": -0.5163702036129557,
    "distance": 7250.0,
    "rightascension": 4.607014726795532,
    "stars": [
        {
            "mass": 8.94784441814123e+29,
            "name": "OGLE-2017-BLG-1099",
            "planets": [
                {
                    "description": "The parameters listed here were imported into the Open Exoplanet Catalogue from the exoplanet.eu website.",
                    "discoverymethod": "microlensing",
                    "discoveryyear": "2021",
                    "lastupdate": "21/09/16",
                    "mass": 5.732336283954872e+27,
                    "name": "OGLE-2017-BLG-1099 b",
                    "orbit": {
                        "semiMajorAxis": 408402187011.0
                    }
                }
            ]
        }
    ]
}