{
    "declination": 0.7361898312312676,
    "distance": 771.8,
    "rightascension": 5.085723844926488,
    "stars": [
        {
            "magH": 12.914,
            "magJ": 13.289,
            "magK": 12.844,
            "mass": 1.9029082462580347e+30,
            "name": "Kepler-280",
            "planets": [
                {
                    "description": "Kepler-280 b has been discovered by the Kepler spacecraft and was originally classified as a planet candidate. A new statistical analysis led by a team at NASA Ames Research Center has validated the planet with more than 99 percent confidence. Although many parameters of Kepler-280 b are still unknown, the object is highly unlikely to be a false positive.",
                    "discoverymethod": "transit",
                    "discoveryyear": "2014",
                    "istransiting": "1",
                    "lastupdate": "14/02/26",
                    "name": "Kepler-280 b",
                    "orbit": {
                        "period": 184856.4288,
                        "transitTime": 295673984.6400127
                    },
                    "radius": 9446952.88
                },
                {
                    "description": "Kepler-280 c has been discovered by the Kepler spacecraft and was originally classified as a planet candidate. A new statistical analysis led by a team at NASA Ames Research Center has validated the planet with more than 99 percent confidence. Although many parameters of Kepler-280 c are still unknown, the object is highly unlikely to be a false positive.",
                    "discoverymethod": "transit",
                    "discoveryyear": "2014",
                    "istransiting": "1",
                    "lastupdate": "14/02/26",
                    "name": "Kepler-280 c",
                    "orbit": {
                        "period": 415332.6624,
                        "transitTime": 295759511.13599986
                    },
                    "radius": 13095189.64
                }
            ],
            "radius": 616390200.0,
            "temperature": 5744.0
        }
    ]
}