{
    "declination": -0.49701474461517914,
    "distance": 7700.0,
    "rightascension": 4.69343397748751,
    "stars": [
        {
            "mass": 1.710032488800324e+30,
            "name": "MOA-2011-BLG-293L",
            "planets": [
                {
                    "description": "MOA-2011-BLG-293L b is a planet discovered by gravitational microlensing. Using follow-up observations on Keck, astronomers have identified the planet to lie in or near the habitable zone. It could in principle have habitable moons. It is also the first planet to be identified as being in the Galactic bulge with good confidence.",
                    "discoverymethod": "microlensing",
                    "discoveryyear": "2012",
                    "lastupdate": "13/10/15",
                    "mass": 9.110998067213042e+27,
                    "name": "MOA-2011-BLG-293L b",
                    "orbit": {
                        "separationMeters": 164557657770.0
                    }
                }
            ],
            "radius": 570474000.0,
            "spectraltype": "G",
            "temperature": 5180.0
        }
    ]
}