{
    "declination": 0.324486575862198,
    "distance": 8.16,
    "rightascension": 4.6159120298953225,
    "stars": [
        {
            "magB": 11.109,
            "magH": 5.79,
            "magI": 7.55,
            "magJ": 6.36,
            "magK": 5.572,
            "magR": 8.599,
            "magV": 9.577,
            "mass": 8.351321456931814e+29,
            "metallicity": -0.3,
            "name": "Gl 686",
            "planets": [
                {
                    "description": "This planet was discovered by Affer et al. 2019. This was a ground based discovery. The parameters listed here are those reported by Lalitha et al. 2019 and were imported into the Open Exoplanet Catalogue from the NASA Exoplanet Archive.",
                    "discoverymethod": "RV",
                    "discoveryyear": "2018",
                    "istransiting": "1",
                    "lastupdate": "19/06/13",
                    "mass": 3.965182283835009e+25,
                    "name": "Gl 686 b",
                    "orbit": {
                        "eccentricity": 0.077,
                        "period": 1341912.96,
                        "semiMajorAxis": 13718124743.19,
                        "transitTime": -81017280.0000161
                    }
                }
            ],
            "radius": 292194000.0,
            "spectraltype": "M1",
            "temperature": 3663.0
        }
    ]
}