{
    "declination": 0.8419456651851616,
    "distance": 597.122,
    "rightascension": 5.180787202349228,
    "stars": [
        {
            "magB": 13.3,
            "magH": 11.706,
            "magJ": 12.001,
            "magK": 11.634,
            "magR": 12.5,
            "mass": 2.0878303642329535e+30,
            "metallicity": 0.34,
            "name": "Kepler-6",
            "planets": [
                {
                    "discoverymethod": "transit",
                    "discoveryyear": "2010",
                    "istransiting": "1",
                    "lastupdate": "15/12/03",
                    "mass": 1.271743480215154e+27,
                    "name": "Kepler-6 b",
                    "orbit": {
                        "eccentricity": 0.0,
                        "inclination": 1.514945790731078,
                        "period": 279480.0672,
                        "semiMajorAxis": 6832134754.869,
                        "transitTime": 294622821.50399834
                    },
                    "radius": 92939600.0,
                    "temperature": 1374.1
                }
            ],
            "radius": 897453000.0,
            "temperature": 5640.0
        }
    ]
}