{
    "declination": -0.5537008570583899,
    "distance": 5700.0,
    "rightascension": 4.683663769778949,
    "stars": [
        {
            "mass": 1.372002810781655e+30,
            "name": "OGLE-2018-BLG-1126L",
            "planets": [
                {
                    "description": "This planet was discovered by Gould et al. 2022. This was a ground based discovery. The parameters listed here have been imported into the Open Exoplanet Catalogue from the NASA Exoplanet Archive.",
                    "discoverymethod": "microlensing",
                    "discoveryyear": "2022",
                    "lastupdate": "23/10/15",
                    "mass": 1.0629497745081884e+26,
                    "name": "OGLE-2018-BLG-1126L b",
                    "orbit": {
                        "semiMajorAxis": 483201122361.0
                    },
                    "radius": 28096356.0
                }
            ]
        }
    ]
}