{
    "declination": -0.20449558151704214,
    "distance": 21.98,
    "rightascension": 2.699088929078211,
    "stars": [
        {
            "magB": 14.68,
            "magH": 8.439,
            "magJ": 9.007,
            "magK": 8.204,
            "magR": 12.84,
            "magV": 13.07,
            "mass": 7.953639482792204e+29,
            "metallicity": 0.28,
            "name": "LTT 3780",
            "planets": [
                {
                    "description": "This planet was discovered by Cloutier et al. 2020. The discovery was made with a space based telescope (0.1 m TESS Telescope). The parameters listed here are those reported by Cloutier et al. 2020 and were imported into the Open Exoplanet Catalogue from the NASA Exoplanet Archive.",
                    "discoverymethod": "transit",
                    "discoveryyear": "2020",
                    "istransiting": "1",
                    "lastupdate": "20/06/04",
                    "mass": 1.5640546682049057e+25,
                    "name": "LTT 3780 b",
                    "orbit": {
                        "eccentricity": 0.0,
                        "inclination": 1.520181778487061,
                        "period": 66393.9072,
                        "semiMajorAxis": 1811630214.1769998,
                        "transitTime": 604749153.599994
                    },
                    "radius": 8507548.0,
                    "temperature": 892.0
                },
                {
                    "description": "This planet was discovered by Cloutier et al. 2020. The discovery was made with a space based telescope (0.1 m TESS Telescope). The parameters listed here are those reported by Cloutier et al. 2020 and were imported into the Open Exoplanet Catalogue from the NASA Exoplanet Archive.",
                    "discoverymethod": "transit",
                    "discoveryyear": "2020",
                    "istransiting": "1",
                    "lastupdate": "20/06/04",
                    "mass": 5.136325160391353e+25,
                    "name": "LTT 3780 c",
                    "orbit": {
                        "eccentricity": 0.06,
                        "inclination": 1.5564846269285433,
                        "periapsisArgument": 2.1642082724729685,
                        "period": 1058564.16,
                        "semiMajorAxis": 11478644618.811,
                        "transitTime": 605002901.7600014
                    },
                    "radius": 14655860.0,
                    "temperature": 353.0
                }
            ],
            "radius": 257409000.0,
            "spectraltype": "M4V",
            "temperature": 3331.0
        }
    ]
}