{
    "declination": -0.6135528236862343,
    "distance": 450.0,
    "rightascension": 5.925206474806481,
    "stars": [
        {
            "age": 10.6,
            "magK": 11.9,
            "magV": 13.3,
            "mass": 1.604646765653327e+30,
            "metallicity": -0.64,
            "name": "WASP-112",
            "planets": [
                {
                    "description": "This planet has been announced in 2014 by the WASP team. The scientific paper describing the discovery was published on the arXiv in 2014. The planet was discovered via the transit method and confirmed using radial velocity measurements.",
                    "discoverymethod": "transit",
                    "discoveryyear": "2014",
                    "istransiting": "1",
                    "lastupdate": "14/10/14",
                    "mass": 1.6703496456557245e+27,
                    "name": "WASP-112 b",
                    "orbit": {
                        "eccentricity": 0.24,
                        "inclination": 1.5128513956286849,
                        "period": 262258.49088,
                        "semiMajorAxis": 5714638660.74,
                        "transitTime": 428629306.17599934
                    },
                    "radius": 85146972.0,
                    "temperature": 1395.0
                }
            ],
            "radius": 697091400.0,
            "spectraltype": "G6",
            "temperature": 5610.0
        }
    ]
}