{
    "declination": -0.5296748092310003,
    "distance": 640.0,
    "rightascension": 3.6567620415885553,
    "stars": [
        {
            "magB": 13.29,
            "magH": 11.319,
            "magI": 12.01,
            "magJ": 11.59,
            "magK": 11.262,
            "magR": 12.7,
            "magV": 12.72,
            "mass": 2.4457441409586026e+30,
            "metallicity": 0.12,
            "name": "WASP-184",
            "planets": [
                {
                    "description": "This planet was discovered by Hellier et al. 2019. This was a ground based discovery. The parameters listed here are those reported by Hellier et al. 2019 and were imported into the Open Exoplanet Catalogue from the NASA Exoplanet Archive.",
                    "discoverymethod": "transit",
                    "discoveryyear": "2019",
                    "istransiting": "1",
                    "lastupdate": "19/10/10",
                    "mass": 1.0819310204815486e+27,
                    "name": "WASP-184 b",
                    "orbit": {
                        "eccentricity": 0.0,
                        "inclination": 1.5166911199830724,
                        "period": 447698.88,
                        "semiMajorAxis": 9379786492.890001,
                        "transitTime": 525787891.1999926
                    },
                    "radius": 95084360.0,
                    "temperature": 1480.0
                }
            ],
            "radius": 1147905000.0,
            "spectraltype": "G0V",
            "temperature": 6000.0
        }
    ]
}