{
    "declination": 0.8915483719491227,
    "distance": 302.28,
    "rightascension": 5.035201929968701,
    "stars": [
        {
            "magH": 11.89,
            "magJ": 12.53,
            "magK": 11.8,
            "mass": 1.2626402678932623e+30,
            "name": "Kepler-155",
            "planets": [
                {
                    "description": "Kepler-155 b has been discovered by the Kepler spacecraft and was originally classified as a planet candidate. A new statistical analysis led by a team at NASA Ames Research Center has validated the planet with more than 99 percent confidence. Although many parameters of Kepler-155 b are still unknown, the object is highly unlikely to be a false positive.",
                    "discoverymethod": "transit",
                    "discoveryyear": "2014",
                    "istransiting": "1",
                    "lastupdate": "14/02/26",
                    "name": "Kepler-155 b",
                    "orbit": {
                        "period": 512455.1616,
                        "transitTime": 299228821.92000747
                    },
                    "radius": 13616366.319999998
                },
                {
                    "description": "Kepler-155 c has been discovered by the Kepler spacecraft and was originally classified as a planet candidate. A new statistical analysis led by a team at NASA Ames Research Center has validated the planet with more than 99 percent confidence. Although many parameters of Kepler-155 c are still unknown, the object is highly unlikely to be a false positive.",
                    "discoverymethod": "transit",
                    "discoveryyear": "2014",
                    "istransiting": "1",
                    "lastupdate": "14/02/26",
                    "name": "Kepler-155 c",
                    "orbit": {
                        "period": 4549978.915200001,
                        "transitTime": 299982252.38399506
                    },
                    "radius": 14593661.96
                }
            ],
            "radius": 431334000.0,
            "temperature": 4508.0
        }
    ]
}