{
    "declination": 0.7619850747185454,
    "distance": 230.75,
    "rightascension": 5.183367831636817,
    "stars": [
        {
            "magH": 12.15,
            "magJ": 12.836,
            "magK": 11.966,
            "mass": 1.0061353945732138e+30,
            "name": "Kepler-249",
            "planets": [
                {
                    "description": "Kepler-249 c has been discovered by the Kepler spacecraft and was originally classified as a planet candidate. A new statistical analysis led by a team at NASA Ames Research Center has validated the planet with more than 99 percent confidence. Although many parameters of Kepler-249 c are still unknown, the object is highly unlikely to be a false positive.",
                    "discoverymethod": "transit",
                    "discoveryyear": "2014",
                    "istransiting": "1",
                    "lastupdate": "14/02/26",
                    "name": "Kepler-249 c",
                    "orbit": {
                        "period": 614623.8528,
                        "transitTime": 299188044.57598776
                    },
                    "radius": 9838014.120000001
                },
                {
                    "description": "Kepler-249 b has been discovered by the Kepler spacecraft and was originally classified as a planet candidate. A new statistical analysis led by a team at NASA Ames Research Center has validated the planet with more than 99 percent confidence. Although many parameters of Kepler-249 b are still unknown, the object is highly unlikely to be a false positive.",
                    "discoverymethod": "transit",
                    "discoveryyear": "2014",
                    "istransiting": "1",
                    "lastupdate": "14/02/26",
                    "name": "Kepler-249 b",
                    "orbit": {
                        "period": 285684.9696,
                        "transitTime": 295736054.3999836
                    },
                    "radius": 7101300.36
                },
                {
                    "description": "Kepler-249 d has been discovered by the Kepler spacecraft and was originally classified as a planet candidate. A new statistical analysis led by a team at NASA Ames Research Center has validated the planet with more than 99 percent confidence. Although many parameters of Kepler-249 d are still unknown, the object is highly unlikely to be a false positive.",
                    "discoverymethod": "transit",
                    "discoveryyear": "2014",
                    "istransiting": "1",
                    "lastupdate": "14/02/26",
                    "name": "Kepler-249 d",
                    "orbit": {
                        "period": 1327834.8576,
                        "transitTime": 296860800.0960052
                    },
                    "radius": 10228360.44
                }
            ],
            "radius": 335327400.0,
            "temperature": 3568.0
        }
    ]
}