{
    "declination": -0.24271689975082583,
    "distance": 766.0,
    "rightascension": 1.9947100985667636,
    "stars": [
        {
            "age": 0.74,
            "magB": 11.31,
            "magH": 7.37,
            "magJ": 7.94,
            "magK": 7.151,
            "magV": 10.04,
            "mass": 4.772183689675322e+30,
            "metallicity": 0.14,
            "name": "NGC 2423 3",
            "planets": [
                {
                    "description": "NGC 2423 MMU 3 b is a massive giant planet or brown dwarf orbiting a giant star in the open cluster NGC 2423.",
                    "discoverymethod": "RV",
                    "discoveryyear": "2007",
                    "lastupdate": "18/03/23",
                    "mass": 2.0120120731762133e+28,
                    "name": "NGC 2423 3 b",
                    "orbit": {
                        "eccentricity": 0.21,
                        "meanAnomalyAtEpoch": 2.1102284127010833,
                        "periapsisArgument": 0.3141592653589793,
                        "period": 61715519.99999999,
                        "semiMajorAxis": 314155528470.0
                    }
                }
            ],
            "spectraltype": "G5IV-V/K2III"
        }
    ]
}