{
    "declination": -1.2082359867123882,
    "distance": 234.0,
    "rightascension": 1.1060839056891298,
    "stars": [
        {
            "magH": 9.659,
            "magJ": 9.962,
            "magK": 9.598,
            "magV": 10.8,
            "mass": 2.2270190551818173e+30,
            "name": "WASP-126",
            "planets": [
                {
                    "description": "This planet was discovered by Maxted et al. 2016. This was a ground based discovery. The parameters listed here are those reported by Pearson 2019 and were imported into the Open Exoplanet Catalogue from the NASA Exoplanet Archive.",
                    "discoverymethod": "transit",
                    "discoveryyear": "2016",
                    "istransiting": "1",
                    "lastupdate": "19/12/05",
                    "mass": 5.392761793491452e+26,
                    "name": "WASP-126 b",
                    "orbit": {
                        "inclination": 1.5622442134601244,
                        "period": 284154.912
                    }
                },
                {
                    "description": "This planet was discovered by Pearson 2019. The discovery was made with a space based telescope (0.1 m TESS Telescope). The parameters listed here are those reported by Pearson 2019 and were imported into the Open Exoplanet Catalogue from the NASA Exoplanet Archive.",
                    "discoverymethod": "timing",
                    "discoveryyear": "2019",
                    "lastupdate": "19/12/05",
                    "mass": 3.834021874159089e+26,
                    "name": "WASP-126 c",
                    "orbit": {
                        "eccentricity": 0.05,
                        "inclination": 1.4922565104551517,
                        "periapsisArgument": 3.1974431896536117,
                        "period": 659232.0
                    }
                }
            ],
            "radius": 883539000.0,
            "spectraltype": "G2",
            "temperature": 5800.0
        }
    ]
}