{
    "declination": 0.2364891509488264,
    "distance": 283.53,
    "rightascension": 2.291034556975724,
    "stars": [
        {
            "magH": 11.462,
            "magJ": 11.968,
            "magK": 11.368,
            "magV": 13.782,
            "mass": 1.6901483900933434e+30,
            "metallicity": 0.26,
            "name": "K2-270",
            "planets": [
                {
                    "description": "This planet was discovered by Livingston et al. 2018. The discovery was made with a space based telescope (0.95 m Kepler Telescope). The parameters listed here are those reported by Livingston et al. 2018 and were imported into the Open Exoplanet Catalogue from the NASA Exoplanet Archive.",
                    "discoverymethod": "transit",
                    "discoveryyear": "2018",
                    "istransiting": "1",
                    "lastupdate": "18/10/26",
                    "name": "K2-270 b",
                    "orbit": {
                        "period": 133321.1616,
                        "semiMajorAxis": 3695067406.29,
                        "transitTime": 483660286.2719804
                    },
                    "radius": 8793516.0,
                    "temperature": 1203.0
                },
                {
                    "description": "This planet was discovered by Livingston et al. 2018. The discovery was made with a space based telescope (0.95 m Kepler Telescope). The parameters listed here are those reported by Livingston et al. 2018 and were imported into the Open Exoplanet Catalogue from the NASA Exoplanet Archive.",
                    "discoverymethod": "transit",
                    "discoveryyear": "2018",
                    "istransiting": "1",
                    "lastupdate": "18/10/26",
                    "name": "K2-270 c",
                    "orbit": {
                        "period": 380162.4192,
                        "semiMajorAxis": 7435014173.79,
                        "transitTime": 483708248.63999337
                    },
                    "radius": 18802396.0,
                    "temperature": 848.0
                }
            ],
            "radius": 535689000.0,
            "temperature": 4877.0
        }
    ]
}