{
    "declination": 1.0881263599139057,
    "distance": 9.86,
    "rightascension": 0.27335258751052066,
    "stars": [
        {
            "magB": 11.439,
            "magH": 5.582,
            "magI": 7.44,
            "magJ": 6.23,
            "magK": 5.371,
            "magR": 8.7,
            "magV": 9.56,
            "mass": 1.0339731327629865e+30,
            "metallicity": 0.13,
            "name": "Gliese 49",
            "planets": [
                {
                    "description": "The observations of this super-Earth were made with the Italian TNG, operated on the island of La Palma, Spain; the CARMENES instrument installed at the 3.5 m telescope of the Calar Alto Observatory, Spain; the robotic APT2 located at Serra La Nave on Mt. Etna, Italy; and the T90 telescope at Sierra Nevada Observatory, Spain.",
                    "discoverymethod": "RV",
                    "discoveryyear": "2019",
                    "lastupdate": "19/06/13",
                    "mass": 3.3615786618821454e+25,
                    "name": "Gliese 49 b",
                    "orbit": {
                        "eccentricity": 0.363,
                        "periapsisArgument": 0.7504915783575618,
                        "period": 1196709.1199999999,
                        "semiMajorAxis": 13538607298.35
                    }
                }
            ],
            "radius": 354807000.0,
            "spectraltype": "M1.5V",
            "temperature": 3805.0
        }
    ]
}