{
    "declination": -1.0627603534914036,
    "distance": 419.5,
    "rightascension": 5.049191282066623,
    "stars": [
        {
            "magB": 14.916,
            "magH": 11.968,
            "magJ": 12.413,
            "magK": 11.875,
            "magR": 13.81,
            "magV": 13.945,
            "mass": 1.7736616046626615e+30,
            "metallicity": 0.377,
            "name": "HATS-69",
            "planets": [
                {
                    "description": "This planet has the size of Saturn.",
                    "discoverymethod": "transit",
                    "discoveryyear": "2018",
                    "istransiting": "1",
                    "lastupdate": "18/12/13",
                    "mass": 1.095217892662901e+27,
                    "name": "HATS-69 b",
                    "orbit": {
                        "eccentricity": 0.0,
                        "inclination": 1.544441855089782,
                        "period": 192262.26528,
                        "semiMajorAxis": 4803587628.177,
                        "transitTime": 536621232.9600021
                    },
                    "radius": 67559940.0,
                    "temperature": 1295.7
                }
            ],
            "radius": 611172450.0,
            "temperature": 5137.0
        }
    ]
}