{
    "declination": -0.41844993661498675,
    "distance": 134.0,
    "rightascension": 2.957427918019278,
    "stars": [
        {
            "magB": 8.992,
            "magH": 5.913,
            "magJ": 6.42,
            "magK": 5.813,
            "magV": 8.21,
            "mass": 2.5849328319074664e+30,
            "metallicity": -0.02,
            "name": "HD 98219",
            "planets": [
                {
                    "description": "The star HD 98219 hosts a Jupiter-like planet. It was discovered as part of a Doppler survey at the Keck Observatory.",
                    "discoverymethod": "RV",
                    "discoveryyear": "2011",
                    "lastupdate": "12/07/24",
                    "mass": 3.416624275204891e+27,
                    "name": "HD 98219 b",
                    "orbit": {
                        "eccentricity": 0.0,
                        "period": 37748160.0,
                        "semiMajorAxis": 184005380961.0
                    },
                    "temperature": 419.8
                }
            ],
            "radius": 3130650000.0,
            "spectraltype": "K0",
            "temperature": 4992.0
        }
    ]
}