{
    "declination": 0.8720052793908558,
    "distance": 320.588,
    "rightascension": 4.984224011382806,
    "stars": [
        {
            "magH": 12.399,
            "magI": 14.667,
            "magJ": 13.089,
            "magK": 12.29,
            "magV": 15.642,
            "mass": 1.1532777250048695e+30,
            "metallicity": 0.48,
            "name": "Kepler-2000",
            "planets": [
                {
                    "description": "This planet was discovered by Valizadegan et al. 2023. The discovery was made with a space based telescope (0.95 m Kepler Telescope). The parameters listed here have been imported into the Open Exoplanet Catalogue from the NASA Exoplanet Archive.",
                    "discoverymethod": "transit",
                    "discoveryyear": "2023",
                    "istransiting": "1",
                    "lastupdate": "23/10/15",
                    "mass": 4.726330247366765e+25,
                    "name": "Kepler-2000 b",
                    "orbit": {
                        "eccentricity": 0.0,
                        "inclination": 1.5639895427121187,
                        "period": 551504.948832,
                        "semiMajorAxis": 8407400333.34,
                        "transitTime": 298866639.3407911
                    },
                    "radius": 21161632.0,
                    "temperature": 530.0
                },
                {
                    "description": "This planet was discovered by Valizadegan et al. 2023. The discovery was made with a space based telescope (0.95 m Kepler Telescope). The parameters listed here have been imported into the Open Exoplanet Catalogue from the NASA Exoplanet Archive.",
                    "discoverymethod": "transit",
                    "discoveryyear": "2023",
                    "istransiting": "1",
                    "lastupdate": "23/10/15",
                    "mass": 1.844977108610641e+25,
                    "name": "Kepler-2000 c",
                    "orbit": {
                        "eccentricity": 0.0,
                        "inclination": 1.5676547341413067,
                        "period": 1781398.2067200001,
                        "semiMajorAxis": 18370618521.96,
                        "transitTime": 296698664.4480184
                    },
                    "radius": 14012432.0,
                    "temperature": 359.0
                }
            ],
            "radius": 403506000.0,
            "temperature": 3757.0
        }
    ]
}