{
    "declination": -0.4150599259160101,
    "distance": 466.0,
    "rightascension": 3.628675061529244,
    "stars": [
        {
            "age": 7.5,
            "magB": 13.81,
            "magR": 13.07,
            "magV": 13.1,
            "mass": 1.9764794114738628e+30,
            "metallicity": 0.02,
            "name": "HATS-25",
            "planets": [
                {
                    "description": "Data for this planet was imported from the exoplanet.eu database.",
                    "discoverymethod": "transit",
                    "discoveryyear": "2016",
                    "istransiting": "1",
                    "lastupdate": "16/07/28",
                    "mass": 1.163550378166999e+27,
                    "name": "HATS-25 b",
                    "orbit": {
                        "eccentricity": 0.088,
                        "inclination": 1.5172147187586709,
                        "period": 371402.77248,
                        "semiMajorAxis": 7723738064.241
                    },
                    "radius": 90079920.0
                }
            ],
            "radius": 770139900.0,
            "spectraltype": "G",
            "temperature": 5715.0
        }
    ]
}