{
    "declination": -0.5004683148725629,
    "distance": 7200.0,
    "rightascension": 4.700826174090226,
    "stars": [
        {
            "mass": 5.567547637954543e+29,
            "name": "KMT-2019-BLG-0953L",
            "planets": [
                {
                    "description": "This planet was discovered by Hwang et al. 2022. This was a ground based discovery. The parameters listed here have been imported into the Open Exoplanet Catalogue from the NASA Exoplanet Archive.",
                    "discoverymethod": "microlensing",
                    "discoveryyear": "2022",
                    "lastupdate": "23/10/15",
                    "mass": 9.25715366120792e+25,
                    "name": "KMT-2019-BLG-0953L b",
                    "orbit": {
                        "semiMajorAxis": 164557657770.0
                    },
                    "radius": 25880104.0
                }
            ]
        }
    ]
}