{
    "declination": 0.3726905185555966,
    "distance": 82.0,
    "rightascension": 1.1426441320176393,
    "stars": [
        {
            "magH": 9.686,
            "magI": 12.289,
            "magJ": 10.274,
            "magK": 9.496,
            "magV": 12.806,
            "mass": 1.2924664159537332e+30,
            "metallicity": -0.3,
            "name": "K2-155",
            "planets": [
                {
                    "description": "This planet was discovered by Hirano et al. 2018. The discovery was made with a space based telescope (0.95 m Kepler Telescope). The parameters listed here are those reported by D\u00edez Alonso et al. 2018 and were imported into the Open Exoplanet Catalogue from the NASA Exoplanet Archive.",
                    "discoverymethod": "transit",
                    "discoveryyear": "2018",
                    "istransiting": "1",
                    "lastupdate": "18/04/26",
                    "name": "K2-155 b",
                    "orbit": {
                        "inclination": 1.541125729510993,
                        "period": 547948.7999999999,
                        "semiMajorAxis": 8407400333.34
                    },
                    "radius": 11510212.0,
                    "temperature": 708.0
                },
                {
                    "description": "This planet was discovered by Hirano et al. 2018. The discovery was made with a space based telescope (0.95 m Kepler Telescope). The parameters listed here are those reported by D\u00edez Alonso et al. 2018 and were imported into the Open Exoplanet Catalogue from the NASA Exoplanet Archive.",
                    "discoverymethod": "transit",
                    "discoveryyear": "2018",
                    "istransiting": "1",
                    "lastupdate": "18/04/26",
                    "name": "K2-155 c",
                    "orbit": {
                        "inclination": 1.5526449025741555,
                        "period": 1196640.0,
                        "semiMajorAxis": 14151958568.220001
                    },
                    "radius": 16586144.0,
                    "temperature": 583.0
                },
                {
                    "description": "This planet was discovered by Hirano et al. 2018. The discovery was made with a space based telescope (0.95 m Kepler Telescope). The parameters listed here are those reported by D\u00edez Alonso et al. 2018 and were imported into the Open Exoplanet Catalogue from the NASA Exoplanet Archive.",
                    "discoverymethod": "transit",
                    "discoveryyear": "2018",
                    "istransiting": "1",
                    "lastupdate": "18/04/26",
                    "name": "K2-155 d",
                    "orbit": {
                        "inclination": 1.5639895427121187,
                        "period": 3518035.2,
                        "semiMajorAxis": 28977107554.59
                    },
                    "radius": 12153640.0,
                    "temperature": 381.0
                }
            ],
            "radius": 403506000.0,
            "spectraltype": "K7",
            "temperature": 4258.0
        }
    ]
}