{
    "declination": 0.0044457414557744455,
    "distance": 20.2727,
    "rightascension": 4.350887659065364,
    "stars": [
        {
            "magH": 5.307,
            "magJ": 5.693,
            "magK": 5.183,
            "magV": 7.08308,
            "mass": 1.8492211797491874e+30,
            "metallicity": 0.221,
            "name": "HD 149806",
            "planets": [
                {
                    "description": "This planet was discovered by Feng et al. 2022. This was a ground based discovery. The parameters listed here have been imported into the Open Exoplanet Catalogue from the NASA Exoplanet Archive.",
                    "discoverymethod": "RV",
                    "discoveryyear": "2022",
                    "lastupdate": "22/09/27",
                    "mass": 2.3160536711775022e+28,
                    "name": "HD 149806 b",
                    "orbit": {
                        "eccentricity": 0.357139,
                        "inclination": 0.23691099266571028,
                        "periapsisArgument": 0.9253753147366455,
                        "period": 1427460000.085728,
                        "semiMajorAxis": 1836806937424.3271
                    },
                    "radius": 78641200.0
                }
            ],
            "radius": 619173000.0,
            "spectraltype": "K0V",
            "temperature": 5352.05
        }
    ]
}