{
    "declination": 0.7411710518218961,
    "distance": 200.0,
    "rightascension": 6.191978043845175,
    "stars": [
        {
            "magB": 10.88,
            "magH": 9.44,
            "magJ": 9.558,
            "magK": 9.313,
            "magV": 10.47,
            "mass": 2.5650487332004857e+30,
            "metallicity": -0.13,
            "name": "HAT-P-6",
            "planets": [
                {
                    "discoverymethod": "transit",
                    "discoveryyear": "2007",
                    "istransiting": "1",
                    "lastupdate": "12/07/05",
                    "mass": 2.0063176993842053e+27,
                    "name": "HAT-P-6 b",
                    "orbit": {
                        "eccentricity": 0.0,
                        "inclination": 1.4924310433803514,
                        "period": 332899.45920000004,
                        "semiMajorAxis": 7831448531.145,
                        "transitTime": 215237651.3280183
                    },
                    "radius": 95084360.0,
                    "temperature": 1529.9
                }
            ],
            "radius": 1015722000.0,
            "spectraltype": "F",
            "temperature": 6570.0
        }
    ]
}