{
    "declination": -0.8433017031108216,
    "distance": 14.8,
    "rightascension": 4.022122249523014,
    "stars": [
        {
            "magB": 6.28,
            "magH": 3.898,
            "magJ": 4.308,
            "magK": 4.159,
            "magV": 5.65,
            "name": "HD 136352",
            "planets": [
                {
                    "description": "This planet is part of a large data release by the Euopean HARP team.",
                    "discoverymethod": "RV",
                    "discoveryyear": "2011",
                    "lastupdate": "11/09/12",
                    "mass": 3.150886831577844e+25,
                    "name": "HD 136352 b",
                    "orbit": {
                        "eccentricity": 0.18,
                        "period": 1000252.8,
                        "semiMajorAxis": 13957481336.31
                    },
                    "temperature": 842.3
                },
                {
                    "description": "This planet is part of a large data release by the Euopean HARP team.",
                    "discoverymethod": "RV",
                    "discoveryyear": "2011",
                    "lastupdate": "11/09/12",
                    "mass": 6.795286058463061e+25,
                    "name": "HD 136352 c",
                    "orbit": {
                        "eccentricity": 0.16,
                        "period": 2383084.8000000003,
                        "semiMajorAxis": 24908045471.550003
                    },
                    "temperature": 630.8
                },
                {
                    "description": "This planet is part of a large data release by the Euopean HARP team.",
                    "discoverymethod": "RV",
                    "discoveryyear": "2011",
                    "lastupdate": "11/09/12",
                    "mass": 5.694373792008151e+25,
                    "name": "HD 136352 d",
                    "orbit": {
                        "eccentricity": 0.43,
                        "period": 9220608.0,
                        "semiMajorAxis": 61484724857.7
                    },
                    "temperature": 397.3
                }
            ],
            "spectraltype": "G4V",
            "temperature": 5940.0
        }
    ]
}