{
    "declination": -1.004396121031997,
    "distance": 12.67,
    "rightascension": 2.9496213075300846,
    "stars": [
        {
            "magH": 7.304,
            "magI": 9.13,
            "magJ": 7.811,
            "magK": 7.035,
            "magV": 11.55,
            "mass": 6.959434547443177e+29,
            "name": "GJ 422",
            "planets": [
                {
                    "description": "This planet was discovered by Tuomi et al. 2014. This was a ground based discovery. The parameters listed here are those reported by Feng et al. 2020 and were imported into the Open Exoplanet Catalogue from the NASA Exoplanet Archive.",
                    "discoverymethod": "RV",
                    "discoveryyear": "2014",
                    "lastupdate": "20/02/13",
                    "mass": 6.611167972521464e+25,
                    "name": "GJ 422 b",
                    "orbit": {
                        "eccentricity": 0.11,
                        "periapsisArgument": 4.625122517784973,
                        "period": 1739145.6,
                        "semiMajorAxis": 16605363647.7
                    }
                }
            ],
            "spectraltype": "M3.5V"
        }
    ]
}