{
    "declination": 0.46587493789359297,
    "distance": 322.0,
    "rightascension": 5.33095764375208,
    "stars": [
        {
            "age": 2.5,
            "magB": 10.675,
            "magH": 9.399,
            "magI": 9.597,
            "magJ": 9.55,
            "magK": 9.346,
            "magV": 10.326,
            "mass": 3.0681164304870926e+30,
            "metallicity": 0.074,
            "name": "HAT-P-49",
            "planets": [
                {
                    "description": "This planet was discovered by the HATNet transit survey. The planetary characteristics are consistent with that of a classical hot Jupiter. This system is an especially strong target for Rossiter-McLaughlin follow-up due to the host star's fast rotation.",
                    "discoverymethod": "transit",
                    "discoveryyear": "2014",
                    "istransiting": "1",
                    "lastupdate": "14/01/25",
                    "mass": 3.283755553391367e+27,
                    "name": "HAT-P-49 b",
                    "orbit": {
                        "eccentricity": 0.0,
                        "inclination": 1.5044738152191122,
                        "semiMajorAxis": 6552386736.66,
                        "transitTime": 419482718.7839851
                    },
                    "radius": 101018196.0,
                    "temperature": 2131.0
                }
            ],
            "radius": 1275218100.0,
            "temperature": 6820.0
        }
    ]
}