{
    "declination": -0.16689950518635613,
    "distance": 470.9,
    "rightascension": 3.205223191143917,
    "stars": [
        {
            "magB": 13.194,
            "magH": 10.307,
            "magJ": 10.697,
            "magK": 10.223,
            "magR": 12.16,
            "magV": 12.308,
            "mass": 1.761731145438473e+30,
            "metallicity": -0.08,
            "name": "K2-226",
            "planets": [
                {
                    "description": "This planet was announced as part of a batch of 149 validated planets from the K2 mission.",
                    "discoverymethod": "transit",
                    "discoveryyear": "2018",
                    "istransiting": "1",
                    "lastupdate": "18/07/24",
                    "name": "K2-226 b",
                    "orbit": {
                        "inclination": 1.5132004614790837,
                        "period": 282623.90400000004,
                        "transitTime": 521815055.03999144
                    },
                    "radius": 9501286.799999999
                }
            ],
            "radius": 573256800.0
        }
    ]
}