{
    "declination": -0.8010749793256406,
    "distance": 385.401,
    "rightascension": 1.092856520709399,
    "stars": [
        {
            "magB": 11.48,
            "magH": 9.952,
            "magJ": 10.148,
            "magK": 9.877,
            "magV": 10.96,
            "mass": 2.883194312512174e+30,
            "metallicity": -0.05,
            "name": "WASP-120",
            "planets": [
                {
                    "description": "WASP-120 b was discovered by the Wide Angle Search for Planets (WASP)-South survey and is a massive (5.0MJup) planet in a 3.6-day orbit around an F5 star.",
                    "discoverymethod": "transit",
                    "discoveryyear": "2015",
                    "istransiting": "1",
                    "lastupdate": "15/09/07",
                    "mass": 9.509604232653612e+27,
                    "name": "WASP-120 b",
                    "orbit": {
                        "eccentricity": 0.059,
                        "inclination": 1.436231441466134,
                        "period": 312013.77984000003,
                        "semiMajorAxis": 7809008850.540001,
                        "transitTime": 452298401.2800157
                    },
                    "radius": 108310380.0,
                    "temperature": 1890.0
                }
            ],
            "radius": 1342701000.0,
            "spectraltype": "F5",
            "temperature": 6450.0
        }
    ]
}