{
    "binaries": [
        {
            "stars": [
                {
                    "age": 6.0,
                    "magB": 7.31,
                    "magH": 5.29,
                    "magJ": 5.559,
                    "magK": 5.136,
                    "magV": 6.69,
                    "mass": 1.8492211797491874e+30,
                    "metallicity": -0.22,
                    "name": "HD 114729 A",
                    "orbit": {
                        "positionAngle": 5.811946409141117,
                        "separationArcsec": 8.05,
                        "separationMeters": 42186599537400.0
                    },
                    "planets": [
                        {
                            "description": "The planet HD 114720 A b is orbiting a Sun-like star approximately 114 light years away. It has a mass similar to Jupiter and was discovered by the California and Carnegie Planet Search.",
                            "discoverymethod": "RV",
                            "discoveryyear": "2002",
                            "lastupdate": "12/12/08",
                            "mass": 1.5944246617622824e+27,
                            "name": "HD 114729 A b",
                            "orbit": {
                                "eccentricity": 0.32,
                                "period": 98064000.0,
                                "semiMajorAxis": 311163571056.0
                            }
                        }
                    ],
                    "radius": 1015722000.0,
                    "spectraltype": "G3 V"
                },
                {
                    "mass": 5.030676972866069e+29,
                    "name": "HD 114729 B",
                    "spectraltype": "M"
                }
            ]
        }
    ],
    "declination": -0.556294610252326,
    "distance": 35.0,
    "rightascension": 3.458951689244095
}