{
    "declination": -0.9751467720530317,
    "distance": 379.363,
    "rightascension": 5.563008614399301,
    "stars": [
        {
            "age": 9.6,
            "magB": 13.0,
            "magH": 11.465,
            "magI": 12.29,
            "magJ": 11.753,
            "magK": 11.401,
            "magR": 13.06,
            "magV": 12.9,
            "mass": 1.6464033729379862e+30,
            "metallicity": -0.3,
            "name": "WASP-46",
            "planets": [
                {
                    "description": "WASP-46 b has about twice the mass of Jupiter and orbits a G6V star which shows evidence of being photospherically and chromospherically active.",
                    "discoverymethod": "transit",
                    "discoveryyear": "2011",
                    "istransiting": "1",
                    "lastupdate": "17/12/15",
                    "mass": 3.6254179809118564e+27,
                    "name": "WASP-46 b",
                    "orbit": {
                        "inclination": 1.4451326206513049,
                        "period": 123583.763232,
                        "semiMajorAxis": 3493110280.845,
                        "transitTime": 332451353.37599516
                    },
                    "radius": 83931608.0
                }
            ],
            "radius": 596910600.0,
            "spectraltype": "G6V",
            "temperature": 5600.0
        }
    ]
}