{
    "declination": -0.029471823674648692,
    "distance": 56.163,
    "rightascension": 2.8218337902139985,
    "stars": [
        {
            "magH": 7.37,
            "magJ": 7.727,
            "magK": 7.29,
            "magV": 9.12,
            "mass": 1.869105278456168e+30,
            "metallicity": -0.23,
            "name": "HD 93351",
            "planets": [
                {
                    "description": "This planet was discovered by Feng et al. 2022. This was a ground based discovery. The parameters listed here have been imported into the Open Exoplanet Catalogue from the NASA Exoplanet Archive.",
                    "discoverymethod": "RV",
                    "discoveryyear": "2022",
                    "lastupdate": "22/09/27",
                    "mass": 2.112612676835024e+25,
                    "name": "HD 93351 b",
                    "orbit": {
                        "eccentricity": -0.129287,
                        "periapsisArgument": 3.4402638671665744,
                        "period": 212497.757856,
                        "semiMajorAxis": 5223209655.4905
                    },
                    "radius": 10866784.0
                },
                {
                    "description": "This planet was discovered by Feng et al. 2022. This was a ground based discovery. The parameters listed here have been imported into the Open Exoplanet Catalogue from the NASA Exoplanet Archive.",
                    "discoverymethod": "RV",
                    "discoveryyear": "2022",
                    "lastupdate": "22/09/27",
                    "mass": 2.5265082359071364e+28,
                    "name": "HD 93351 c",
                    "orbit": {
                        "eccentricity": 0.108765,
                        "inclination": 0.25544638932189007,
                        "periapsisArgument": 0.8409869000734678,
                        "period": 1210489410.134592,
                        "semiMajorAxis": 1696857082199.3823
                    },
                    "radius": 78641200.0
                }
            ],
            "radius": 633087000.0,
            "temperature": 5408.0
        }
    ]
}