{
    "declination": 0.3595245890428965,
    "distance": 173.0,
    "rightascension": 0.9363858406781351,
    "stars": [
        {
            "age": 3.34,
            "magB": 11.728,
            "magH": 9.432,
            "magJ": 9.77,
            "magK": 9.368,
            "magV": 11.038,
            "mass": 1.910861885740827e+30,
            "metallicity": -0.15,
            "name": "BD+20 594",
            "planets": [
                {
                    "description": "K2-56 b is a Neptune-sized planet with a density compatible with a mainly-rocky composition.",
                    "discoverymethod": "transit",
                    "discoveryyear": "2016",
                    "istransiting": "1",
                    "lastupdate": "17/11/30",
                    "mass": 9.735481059736603e+25,
                    "name": "BD+20 594 b",
                    "orbit": {
                        "eccentricity": 0.0,
                        "inclination": 1.5629423451609221,
                        "period": 3601627.1999999997,
                        "semiMajorAxis": 36053086838.7,
                        "transitTime": 484479541.4400056
                    },
                    "radius": 14219758.799999999
                }
            ],
            "radius": 645609600.0,
            "spectraltype": "G",
            "temperature": 5766.0
        }
    ]
}