{
    "binaries": [
        {
            "name": "FL Lyr",
            "planets": [
                {
                    "description": "The presence of a substellar companion in orbit around the binary star FL Lyrae is inferred from eclipse timing variations detected by Kepler. Measurements over a longer term are required to confirm the existence of the planet.",
                    "discoverymethod": "timing",
                    "discoveryyear": "2015",
                    "lastupdate": "15/11/16",
                    "mass": 3.796249194672101e+27,
                    "name": "FL Lyr b",
                    "orbit": {
                        "period": 224640000.0
                    }
                }
            ],
            "stars": [
                {
                    "magV": 9.58,
                    "mass": 2.421883222510226e+30,
                    "name": "FL Lyr A",
                    "orbit": {
                        "eccentricity": 0.0002,
                        "inclination": 1.4992378274631293,
                        "periapsisArgument": 0.0,
                        "period": 188192.52287999997,
                        "transitTime": -553026908.1599996
                    },
                    "radius": 784749599.9999999,
                    "spectraltype": "F8V",
                    "temperature": 6152.0
                },
                {
                    "magV": 11.04,
                    "mass": 1.914838705482223e+30,
                    "name": "FL Lyr B",
                    "radius": 784749599.9999999,
                    "spectraltype": "G8V",
                    "temperature": 5297.0
                }
            ]
        }
    ],
    "declination": 0.8085085683508241,
    "distance": 130.0,
    "rightascension": 5.026901798544685
}