{
    "declination": -0.13713962364531201,
    "distance": 453.0,
    "rightascension": 6.068585840089824,
    "stars": [
        {
            "magH": 12.095,
            "magJ": 12.464,
            "magK": 12.032,
            "magV": 13.748,
            "mass": 2.3662077461306806e+30,
            "metallicity": 0.34,
            "name": "K2-238",
            "planets": [
                {
                    "description": "This planet was discovered by Soto et al. 2018. The discovery was made with a space based telescope (0.95 m Kepler Telescope). The parameters listed here are those reported by Soto et al. 2018 and were imported into the Open Exoplanet Catalogue from the NASA Exoplanet Archive.",
                    "discoverymethod": "transit",
                    "discoveryyear": "2018",
                    "istransiting": "1",
                    "lastupdate": "18/06/21",
                    "mass": 1.6323871537090034e+27,
                    "name": "K2-238 b",
                    "orbit": {
                        "eccentricity": 0.0,
                        "inclination": 1.4748032179352084,
                        "periapsisArgument": 1.5707963267948966,
                        "period": 276882.624,
                        "semiMajorAxis": 6881502052.2,
                        "transitTime": 535334711.03999466
                    },
                    "radius": 92939600.0,
                    "temperature": 1587.0
                }
            ],
            "radius": 1106163000.0,
            "spectraltype": "G2V",
            "temperature": 5630.0
        }
    ]
}