{
    "binaries": [
        {
            "name": "WASP-1",
            "stars": [
                {
                    "age": 3.4,
                    "magB": 12.06,
                    "magH": 10.364,
                    "magJ": 10.586,
                    "magK": 10.276,
                    "magV": 11.79,
                    "mass": 2.465628239665583e+30,
                    "metallicity": 0.23,
                    "name": "WASP-1 A",
                    "orbit": {
                        "positionAngle": 0.03408628029144926,
                        "separationArcsec": 4.5815,
                        "separationMeters": 237411820800900.0
                    },
                    "planets": [
                        {
                            "discoverymethod": "transit",
                            "discoveryyear": "2006",
                            "istransiting": "1",
                            "lastupdate": "14/03/05",
                            "mass": 1.6209984061249872e+27,
                            "name": "WASP-1 b",
                            "orbit": {
                                "eccentricity": 0.0,
                                "inclination": 1.5707963267948966,
                                "period": 217723.36896,
                                "semiMajorAxis": 5817861191.523,
                                "transitTime": 279059057.2800189
                            },
                            "radius": 106022636.0,
                            "temperature": 1644.3
                        }
                    ],
                    "radius": 1022679000.0,
                    "spectraltype": "F7V",
                    "temperature": 6160.0
                },
                {
                    "magH": 15.13,
                    "magK": 15.116,
                    "mass": 5.6669681314894444e+29,
                    "name": "WASP-1 B",
                    "temperature": 3420.0
                }
            ]
        }
    ],
    "declination": 0.558330827712986,
    "distance": 380.0,
    "rightascension": 0.09017534468637368
}