{
    "declination": 0.8948150334424694,
    "distance": 411.0,
    "rightascension": 4.961902428347044,
    "stars": [
        {
            "magB": 13.1,
            "magH": 11.71,
            "magJ": 13.23,
            "magK": 11.667,
            "magR": 13.58,
            "magV": 13.23,
            "mass": 1.8472327698784893e+30,
            "metallicity": 0.03,
            "name": "HAT-P-37",
            "planets": [
                {
                    "description": "HAT-P-37 b is a transiting planet that has been discovered by the HATNet collaboration. HATNet is a ground-based survey using standard telephoto lenses such as the Canon 11cm diameter f/1.8L.",
                    "discoverymethod": "transit",
                    "discoveryyear": "2012",
                    "istransiting": "1",
                    "lastupdate": "12/01/04",
                    "mass": 2.2189076542858432e+27,
                    "name": "HAT-P-37 b",
                    "orbit": {
                        "eccentricity": 0.058,
                        "inclination": 1.5166911199830724,
                        "period": 241698.4704,
                        "semiMajorAxis": 5654799512.46,
                        "transitTime": 354036370.75201124
                    },
                    "radius": 84217576.0,
                    "temperature": 1166.3
                }
            ],
            "radius": 610128900.0,
            "spectraltype": "G",
            "temperature": 5500.0
        }
    ]
}