{
    "binaries": [
        {
            "name": "nu Oct",
            "stars": [
                {
                    "age": 2.75,
                    "magV": 3.743,
                    "mass": 3.2013398918238624e+30,
                    "metallicity": 0.18,
                    "name": "nu Oct A",
                    "orbit": {
                        "ascendingNodeLongitude": 1.5184364492350666,
                        "eccentricity": 0.2368,
                        "inclination": 1.2356931104119853,
                        "periapsisArgument": 1.3089969389957472,
                        "semiMajorAxis": 393381064814.013
                    },
                    "planets": [
                        {
                            "description": "Periodic radial velocity variations in the giant star Nu Octantis indicate the possible presence of a planet. In order to remain stable within the Nu Octantis binary system, the planet must be on a retrograde orbit.",
                            "discoverymethod": "RV",
                            "discoveryyear": "2009",
                            "lastupdate": "17/12/01",
                            "mass": 3.986061654405706e+27,
                            "name": "Nu Oct A b",
                            "orbit": {
                                "ascendingNodeLongitude": 4.150392961242516,
                                "eccentricity": 0.12,
                                "inclination": 2.007128639793479,
                                "periapsisArgument": 6.19591884457987,
                                "semiMajorAxis": 190379746231.527
                            }
                        }
                    ],
                    "radius": 4042016999.9999995,
                    "spectraltype": "K0III",
                    "temperature": 4860.0
                },
                {
                    "mass": 1.1636572245299134e+30,
                    "name": "nu Oct B"
                }
            ]
        }
    ],
    "declination": -1.3507110658821952,
    "distance": 22.1,
    "rightascension": 5.678766862180052
}