{
    "declination": -0.7076195045370455,
    "distance": 360.408,
    "rightascension": 2.328414666264768,
    "stars": [
        {
            "magH": 9.744,
            "magJ": 9.882,
            "magK": 9.669,
            "magV": 10.825,
            "mass": 2.883194312512174e+30,
            "metallicity": -0.1,
            "name": "TOI-615",
            "planets": [
                {
                    "description": "This planet was discovered by Psaridi et al. 2023. The discovery was made with a space based telescope (0.1 m TESS Telescope). The parameters listed here have been imported into the Open Exoplanet Catalogue from the NASA Exoplanet Archive.",
                    "discoverymethod": "transit",
                    "discoveryyear": "2023",
                    "istransiting": "1",
                    "lastupdate": "23/10/15",
                    "mass": 8.256841998411819e+26,
                    "name": "TOI-615 b",
                    "orbit": {
                        "eccentricity": 0.39,
                        "inclination": 1.513724060254682,
                        "period": 402762.09312,
                        "semiMajorAxis": 10142735633.46,
                        "transitTime": 666575466.9120044
                    },
                    "radius": 121035956.0,
                    "temperature": 1666.0
                }
            ],
            "radius": 1203561000.0,
            "spectraltype": "F2V",
            "temperature": 6850.0
        }
    ]
}