{
    "declination": -0.4780941634893578,
    "distance": 414.0,
    "rightascension": 2.614939551800504,
    "stars": [
        {
            "magV": 16.35,
            "mass": 1.3024084653072233e+30,
            "metallicity": 0.253,
            "name": "HATS-77",
            "planets": [
                {
                    "description": "The parameters listed here were imported into the Open Exoplanet Catalogue from the exoplanet.eu website.",
                    "discoverymethod": "transit",
                    "discoveryyear": "2021",
                    "istransiting": "1",
                    "lastupdate": "21/12/06",
                    "mass": 2.6080231967397336e+27,
                    "name": "HATS-77 b",
                    "orbit": {
                        "eccentricity": 0.045,
                        "inclination": 1.543569190463785,
                        "period": 266770.90368,
                        "semiMajorAxis": 5395995196.148999
                    },
                    "radius": 83288180.0,
                    "temperature": 828.0
                }
            ],
            "radius": 447335100.0,
            "temperature": 4071.0
        }
    ]
}