{
    "declination": 0.7933806977422921,
    "distance": 501.0,
    "rightascension": 5.855804169777039,
    "stars": [
        {
            "magB": 12.19,
            "magH": 10.085,
            "magJ": 10.367,
            "magK": 10.009,
            "magV": 11.34,
            "mass": 3.006475724495453e+30,
            "metallicity": 0.22,
            "name": "HAT-P-40",
            "planets": [
                {
                    "description": "HAT-P-40 b is a highly inflated hot Jupiter. It has been discovered by the HATNet collaboration.",
                    "discoverymethod": "transit",
                    "discoveryyear": "2012",
                    "istransiting": "1",
                    "lastupdate": "13/05/29",
                    "mass": 1.1673466273616711e+27,
                    "name": "HAT-P-40 b",
                    "orbit": {
                        "eccentricity": 0.095,
                        "inclination": 1.541125729510993,
                        "period": 385105.7952,
                        "semiMajorAxis": 9095550538.56,
                        "transitTime": 368813592.5760135
                    },
                    "radius": 123681160.0,
                    "temperature": 1614.8
                }
            ],
            "radius": 1534714200.0,
            "spectraltype": "F",
            "temperature": 6080.0
        }
    ]
}