{
    "declination": 0.7675991686644258,
    "distance": 368.14,
    "rightascension": 4.930419459351254,
    "stars": [
        {
            "age": 4.2,
            "magB": 12.06,
            "magH": 10.094,
            "magJ": 10.373,
            "magK": 10.109,
            "magV": 11.69,
            "mass": 2.3264395487167196e+30,
            "name": "Kepler-128",
            "planets": [
                {
                    "description": "This planet was discovered by the Kepler spacecraft. The planet is part of a multiplanetary system. Its planetary nature has been confirmed using transit timing variations which arise because the planets in one system pull on each other and slightly alter the transit times.",
                    "discoverymethod": "transit",
                    "discoveryyear": "2013",
                    "istransiting": "1",
                    "lastupdate": "16/01/13",
                    "mass": 7.763329603104446e+24,
                    "name": "Kepler-128 b",
                    "orbit": {
                        "period": 1303776.0,
                        "transitTime": 299328764.25600797
                    },
                    "radius": 7362246.16
                },
                {
                    "description": "This planet was discovered by the Kepler spacecraft. The planet is part of a multiplanetary system. Its planetary nature has been confirmed using transit timing variations which arise because the planets in one system pull on each other and slightly alter the transit times.",
                    "discoverymethod": "transit",
                    "discoveryyear": "2013",
                    "istransiting": "1",
                    "lastupdate": "16/01/13",
                    "mass": 8.959148099426158e+24,
                    "name": "Kepler-128 c",
                    "orbit": {
                        "period": 1970265.5999999999,
                        "transitTime": 297378007.776019
                    },
                    "radius": 7362246.16
                }
            ],
            "radius": 1078335000.0,
            "temperature": 6090.0
        }
    ]
}