{
    "declination": 0.8023456304113428,
    "distance": 272.73,
    "rightascension": 5.152714475812141,
    "stars": [
        {
            "magH": 11.665,
            "magJ": 12.309,
            "magK": 11.551,
            "mass": 1.212930021125811e+30,
            "name": "Kepler-345",
            "planets": [
                {
                    "description": "Kepler-345 c has been discovered by the Kepler spacecraft and was originally classified as a planet candidate. A new statistical analysis led by a team at NASA Ames Research Center has validated the planet with more than 99 percent confidence. Although many parameters of Kepler-345 c are still unknown, the object is highly unlikely to be a false positive.",
                    "discoverymethod": "transit",
                    "discoveryyear": "2014",
                    "istransiting": "1",
                    "lastupdate": "14/02/26",
                    "name": "Kepler-345 c",
                    "orbit": {
                        "period": 811073.6928000001,
                        "transitTime": 295996104.57601994
                    },
                    "radius": 7818365.12
                },
                {
                    "description": "Kepler-345 b has been discovered by the Kepler spacecraft and was originally classified as a planet candidate. A new statistical analysis led by a team at NASA Ames Research Center has validated the planet with more than 99 percent confidence. Although many parameters of Kepler-345 b are still unknown, the object is highly unlikely to be a false positive.",
                    "discoverymethod": "transit",
                    "discoveryyear": "2014",
                    "istransiting": "1",
                    "lastupdate": "14/02/26",
                    "name": "Kepler-345 b",
                    "orbit": {
                        "period": 640704.6431999999,
                        "transitTime": 296033622.9120076
                    },
                    "radius": 4821420.48
                }
            ],
            "radius": 433421100.0,
            "temperature": 4504.0
        }
    ]
}