{
    "declination": -0.5734869697465182,
    "distance": 350.0,
    "rightascension": 1.7647900513087376,
    "stars": [
        {
            "magH": 11.079,
            "magJ": 11.368,
            "magK": 10.956,
            "magV": 12.29,
            "mass": 1.94864167328409e+30,
            "metallicity": -0.08,
            "name": "WASP-64",
            "planets": [
                {
                    "description": "This planet has been announced at the Extreme Solar Systems II conference in Jackson Hole by the WASP team.",
                    "discoverymethod": "transit",
                    "discoveryyear": "2011",
                    "istransiting": "1",
                    "lastupdate": "12/10/17",
                    "mass": 2.41251636321412e+27,
                    "name": "WASP-64 b",
                    "orbit": {
                        "eccentricity": 0.0,
                        "inclination": 1.510931533451491,
                        "period": 135932.256,
                        "semiMajorAxis": 3961351616.136,
                        "transitTime": 348891986.01599336
                    },
                    "radius": 90866332.0,
                    "temperature": 1689.0
                }
            ],
            "radius": 716571000.0,
            "spectraltype": "G7",
            "temperature": 5400.0
        }
    ]
}