{
    "declination": 0.04924410656770966,
    "distance": 28.98,
    "rightascension": 3.0792184185756644,
    "stars": [
        {
            "magB": 8.9,
            "magH": 6.268,
            "magI": 7.2,
            "magJ": 6.629,
            "magK": 6.151,
            "magR": 7.6,
            "magV": 8.05,
            "mass": 1.8412675402663954e+30,
            "metallicity": 0.05,
            "name": "HD 102195",
            "planets": [
                {
                    "discoverymethod": "RV",
                    "discoveryyear": "2005",
                    "lastupdate": "10/12/21",
                    "mass": 8.541560688012228e+26,
                    "name": "HD 102195 b",
                    "orbit": {
                        "eccentricity": 0.0,
                        "period": 355430.16000000003,
                        "semiMajorAxis": 7330295664.3
                    },
                    "temperature": 963.1
                }
            ],
            "radius": 580909500.0,
            "spectraltype": "K0V",
            "temperature": 5291.0
        }
    ]
}