{
    "declination": -1.418094561655826,
    "distance": 175.748,
    "rightascension": 0.9277879415393189,
    "stars": [
        {
            "magH": 9.734,
            "magJ": 10.04,
            "magK": 9.637,
            "magV": 11.316,
            "mass": 1.8889893771631484e+30,
            "metallicity": 0.08,
            "name": "TOI-908",
            "planets": [
                {
                    "description": "This planet was discovered by Hawthorn et al. 2023. The discovery was made with a space based telescope (0.1 m TESS Telescope). The parameters listed here have been imported into the Open Exoplanet Catalogue from the NASA Exoplanet Archive.",
                    "discoverymethod": "transit",
                    "discoveryyear": "2023",
                    "istransiting": "1",
                    "lastupdate": "23/10/15",
                    "mass": 9.636778580675129e+25,
                    "name": "TOI-908 b",
                    "orbit": {
                        "eccentricity": 0.132,
                        "inclination": 1.5092734706620963,
                        "periapsisArgument": 0.6258052565950868,
                        "period": 275079.6288,
                        "semiMajorAxis": 6231798499.7499,
                        "transitTime": 677358028.7999914
                    },
                    "radius": 20303728.0,
                    "temperature": 1317.0
                }
            ],
            "radius": 716571000.0,
            "spectraltype": "GV",
            "temperature": 5626.0
        }
    ]
}