{
    "declination": 0.2965750731451364,
    "distance": 165.105,
    "rightascension": 3.6906441474463425,
    "stars": [
        {
            "magH": 10.175,
            "magI": 11.7529,
            "magJ": 10.582,
            "magK": 10.055,
            "magV": 12.178,
            "mass": 1.6702642913863629e+30,
            "metallicity": 0.11,
            "name": "TOI-1853",
            "planets": [
                {
                    "description": "This planet was discovered by Naponiello et al. 2023. The discovery was made with a space based telescope (0.1 m TESS Telescope). The parameters listed here have been imported into the Open Exoplanet Catalogue from the NASA Exoplanet Archive.",
                    "discoverymethod": "transit",
                    "discoveryyear": "2023",
                    "istransiting": "1",
                    "lastupdate": "23/10/15",
                    "mass": 4.371570760124658e+26,
                    "name": "TOI-1853 b",
                    "orbit": {
                        "eccentricity": 0.03,
                        "inclination": 1.478293876439197,
                        "period": 107449.26912,
                        "semiMajorAxis": 3186434645.91,
                        "transitTime": 703835308.8000073
                    },
                    "radius": 22091028.0,
                    "temperature": 1479.0
                }
            ],
            "radius": 563517000.0,
            "spectraltype": "K2.5V",
            "temperature": 4985.0
        }
    ]
}