{
    "declination": -0.4979181949099267,
    "distance": 7600.0,
    "rightascension": 4.7115890378108585,
    "stars": [
        {
            "mass": 8.351321456931814e+29,
            "name": "OGLE-2018-BLG-1700L",
            "planets": [
                {
                    "description": "This planet was discovered by Han et al. 2020. This was a ground based discovery. The parameters listed here are those reported by Han et al. 2020 and were imported into the Open Exoplanet Catalogue from the NASA Exoplanet Archive.",
                    "discoverymethod": "microlensing",
                    "discoveryyear": "2020",
                    "lastupdate": "20/06/24",
                    "mass": 8.351748228278623e+27,
                    "name": "OGLE-2018-BLG-1700L b",
                    "orbit": {
                        "semiMajorAxis": 418874037960.0
                    }
                }
            ]
        }
    ]
}