datetime_jd,incl,Omega,w,e,a,M
#Jupiter
623203200.0,1.7758225937679006,4.71571357551712,2.7202710207737315,0.9808603456490879,4055978523.74994,2.2461945452528482
623204999.9999732,1.7800048092759102,4.713556209439161,2.7197415821248465,0.9809322994315414,4055852591.4259653,2.2486163790408518
623206800.0000268,1.7842141958298368,4.71138119845016,2.7192009977674316,0.9810032884149207,4055729774.589916,2.2510361649283577
623208600.0,1.7884503221104082,4.709188589609466,2.7186491000908393,0.9810733036108098,4055610151.368821,2.2534537642056702
623210399.9999732,1.7927127257585012,4.706978442598258,2.7180857229506463,0.981142336997635,4055493791.43866,2.2558690496853457
623212200.0000268,1.7970009160981737,4.704750828463252,2.7175107016774445,0.9812103815355434,4055380755.806764,2.258281906254677
623214000.0,1.8013143769051128,4.702505828335724,2.716923873059464,0.98127743117722,4055271096.6217775,2.260692231397688
623215799.9999732,1.8056525692321068,4.700243532118121,2.7163250752965555,0.9813434808741817,4055164857.015357,2.2630999356791714
623217600.0000268,1.8100149342999758,4.697964037131979,2.715714147923036,0.981408526578147,4055062070.9793673,2.2655049431844305
623219400.0,1.814400896456777,4.695667446723624,2.715090931697306,0.9814725652370972,4054962763.2819076,2.267907191907912
623221199.9999732,1.818809866205193,4.6933538688254535,2.71445526845628,0.9815355947857143,4054866949.425141,2.270306634085085
623223000.0000268,1.8232412432935652,4.691023414472838,2.7138070009330564,0.9815976141299203,4054774635.6474166,2.2727032364618194
623224800.0,1.827694419865596,4.6886761962767665,2.7131459725362013,0.9816586231253446,4054685818.971752,2.275096980497779
623226599.9999732,1.8321687836549738,4.686312326856972,2.7124720270901674,0.9817186225495151,4054600487.302409,2.2774878624976274
623228400.0000268,1.8366637212142454,4.683931917238518,2.711785008536045,0.9817776140677252,4054518619.570775,2.279875893667783
623230200.0,1.841178621161379,4.68153507521813,2.7110847605926143,0.9818356001925381,4054440185.9313326,2.2822611000950834
623231999.9999732,1.8457128774258076,4.679121903707269,2.710371126378238,0.9818925842369643,4054365148.0081816,2.284643522644696
623233800.0000268,1.8502658924742201,4.6766924990600645,2.7096439479944587,0.9819485702614132,4054293459.1920505,2.28702321677525
623235600.0,1.8548370804943919,4.674246949395298,2.708903066072777,0.9820035630145943,4054225064.9873166,2.2894002522699815
623237399.9999732,1.8594258705138638,4.671785332922628,2.7081483192866593,0.9820575678685907,4054159903.4082303,2.291774712882663
623239200.0000268,1.859518410415182,4.671735626004486,2.7081359309773876,0.9820566126127567,4054167404.485437,2.294244997996719
623241000.0,1.8595734143951976,4.671706090864664,2.708129868198541,0.9820552209395963,4054176393.1689444,2.2967140514567563
623242799.9999732,1.8596241322873162,4.6716788649763386,2.7081245879657603,0.9820538033337193,4054186308.925982,2.2991811808768894
623244600.0000268,1.8596702577091826,4.671654111514558,2.7081201180955468,0.9820523693923309,4054197061.1026435,2.3016465234090724
623246400.0,1.859711514146133,4.671631977471685,2.7081164812511793,0.9820509287885635,4054208554.549607,2.3041102271332496
623248199.9999732,1.8597476567715756,4.671612592694618,2.708113694774111,0.9820494912125652,4054220690.201813,2.30657245021773
623250000.0000268,1.8597784740937573,4.671596069017071,2.7081117705466506,0.9820480663117543,4054233365.686363,2.309033360006319
623251800.0,1.859803789412776,4.6715824994955355,2.7081107148879178,0.9820466636306542,4054246475.9552574,2.311493132036432
623253599.9999732,1.8598234620726923,4.671571957757021,2.7081105284848617,0.9820452925507266,4054259913.9392743,2.3139519489929294
623255400.0000268,1.859837388494664,4.671564497466078,2.708111206359893,0.9820439622306375,4054273571.2190523,2.3164099996033163
623257200.0,1.8598455029783216,4.671560151917775,2.708112737876339,0.9820426815473992,4054287338.709105,2.3188674774804436
623258999.9999732,1.8598477782602099,4.671558933762536,2.7081151067827287,0.98204145903884,4054301107.350298,2.3213245799196534
623260800.0000268,1.8598442258198533,4.671560834867642,2.7081182912964126,0.9820403028478577,4054314768.8060126,2.323781506658007
623262600.0,1.8598349116261563,4.671565817919153,2.7081222667730227,0.9820392183224554,4054328240.2674284,2.3262384160600416
623264399.9999732,1.8598198931067225,4.6715738501731785,2.7081269956864924,0.9820382173501682,4054341368.7023315,2.3286955939798073
623266200.0000268,1.859799312895654,4.671584853326446,2.708132443100076,0.9820373042333644,4054354076.187534,2.3311531972634074
623268000.0,1.859773335243849,4.671598737568142,2.708138566727739,0.9820364850292357,4054366264.1323047,2.33361142255536
623269799.9999732,1.859742160710271,4.671615393748905,2.7081453197523055,0.982035765163823,4054377838.021869,2.336070462486047
623271600.0000268,1.85970602488176,4.671634694094833,2.708152651133595,0.9820351493963323,4054388708.0229306,2.338530504404257
623273400.0,1.8596651968423235,4.671656493054822,2.708160505947423,0.9820346417882874,4054398789.553437,2.3409917291453253
623275199.9999732,1.8596199774045232,4.671680628274091,2.7081688257521286,0.9820342456778817,4054408003.8100924,2.3434543098488514
623277000.0000268,1.8595706971194272,4.671706921684623,2.7081775489786795,0.9820339636599125,4054416278.2470336,2.345918410840302
623278800.0,1.8595177140857067,4.671735180701178,2.7081866113397695,0.9820337975716255,4054423546.9989944,2.3483841865916424
623280599.9999732,1.859461411582686,4.671765199509192,2.708195946252673,0.9820337484848023,4054429751.2420583,2.3508517807769924
623282400.0000268,1.8594021955567896,4.671796760428483,2.708205485269916,0.982033816704375,4054434839.4850416,2.3533213254400334
623284200.0,1.8593404919955807,4.671829635334247,2.7082151585111456,0.9820340017738465,4054438767.784407,2.3557929402908564
623285999.9999732,1.8592767442287077,4.671863587114033,2.7082248950888506,0.9820343024877448,4054441499.875487,2.3582667321505766
623287800.0000268,1.8592114102003794,4.671898371136798,2.7082346235198056,0.9820347169113265,4054443007.2127666,2.3607427945630555
623289600.0,1.8591449597636396,4.671933736707046,2.708244272113344,0.9820352424077012,4054443268.9118276,2.3632212075938015
623376000.0,1.8606760939415832,4.671132496107526,2.707941738089636,0.9820522767239782,4053992236.734605,2.48341507156249
623462400.0,1.8601374682493268,4.671404705580029,2.7081580452813667,0.9819859396661771,4054645004.066121,2.6009445564120917
623548800.0,1.8613676923826386,4.670778747974532,2.7079590477874587,0.9819798407585534,4054536199.3990297,2.720486214742102
623635200.0,1.8587828997797524,4.67208226717386,2.708369933287485,0.9819758026862183,4054696597.386917,2.8389006223163133
623721600.0,1.8606112182195162,4.671171217567869,2.708141217659345,0.9819306849731488,4054811137.388703,2.9576339421554176
623808000.0,1.856676059802186,4.6731026134163205,2.708660687934418,0.9819876209198832,4054694621.8710227,3.0771776438921887
623894400.0,1.8584166868628273,4.672259191282124,2.7084201729968815,0.9819593596238422,4054735234.34514,3.196314839783373
623980800.0,1.8597475108966042,4.6716336847173086,2.7081852182200197,0.9819836686470823,4054762300.517442,3.316653764281969
624067200.0,1.8606131534237556,4.671219568408586,2.708121641571828,0.9819024195337297,4054732434.132274,3.434136557591067
624153600.0,1.8618746229771785,4.670643201786448,2.7079285639584048,0.9818978990842262,4054820432.8851147,3.553718356014572
624240000.0,1.859992814493287,4.671494054208986,2.7082112056594623,0.9818728150920186,4054628213.2043805,3.6717626998723167
624326400.0,1.862120339427848,4.670543787028245,2.707916602367713,0.981828722778831,4054596415.9756165,3.7905581219921545
624412800.0,1.8573741527825822,4.672627151233793,2.708582655251015,0.981904402113557,4054533548.1168046,3.909823475858405
624499200.0,1.8590423111406158,4.671905366151733,2.7083457982005474,0.9818779289484497,4054570099.8870997,4.028940553211175
624585600.0,1.859223495053091,4.671835606951153,2.7083090505617546,0.9819049259072198,4055039414.589318,4.149010193328705
624672000.0,1.8604469930608754,4.671318081511018,2.7081319524669865,0.9818280552098895,4054244074.5897274,4.2665761613208195
624758400.0,1.860575297516503,4.67127293451271,2.7081060400622645,0.9818373606812686,4054548451.322142,4.38615867297762
624844800.0,1.8588347296936159,4.671961457763943,2.708324485012763,0.9818135094279095,4053752453.147047,4.504222083195311
624931200.0,1.8602848961847087,4.671398811720133,2.708116339974962,0.9817940816657748,4053823248.4017205,4.62342500814313
625017600.0,1.8563820857853661,4.672882315008357,2.70862858633272,0.9818233687532474,4053491877.162731,4.742296345602174
625104000.0,1.8577712719033004,4.672367104409495,2.7084345936001393,0.981816347504304,4053946938.6542907,4.86183758151405
625190400.0,1.8574293123909085,4.672497247389642,2.708487995156095,0.9818484233708238,4055178668.3663044,4.9819047021853855
625276800.0,1.8593526328838645,4.671817097173975,2.708192660236129,0.9817897209006878,4053849545.7051034,5.10007685809095
625363200.0,1.8593110091608562,4.671840257173148,2.7081977664592465,0.9818038828904216,4054728233.057181,5.2197134457612195
625449600.0,1.8587793727124953,4.672002910115133,2.70823484213321,0.9817780058020128,4053136937.7667456,5.338046115136783
625536000.0,1.860021398615912,4.671627379140172,2.7080634643837187,0.981769528990261,4053651673.443486,5.4574238316181445
625622400.0,1.857679635350217,4.672301314823222,2.708352760026207,0.9817770613514701,4052454845.0710125,5.576186315920298
625708800.0,1.8587160996852985,4.672023933502541,2.7082087297872515,0.9817761313506593,4053625918.41065,5.695706922517539
625795200.0,1.8582469377947293,4.672146813108599,2.7082589444221727,0.9817967359961353,4055761110.5180535,5.815297979265984
625881600.0,1.8596586556824215,4.67183355456392,2.7080721662618177,0.981760951623383,4053011736.55659,5.933942781947055
625968000.0,1.859290255765348,4.671912177672361,2.7080978902413047,0.9817743601255303,4054915555.3988853,6.053305410872124
626054400.0,1.8592756458268824,4.671886504814827,2.7081286953520087,0.9817563333659529,4051317574.32345,6.172240248824288
