datetime_jd,incl,Omega,w,e,a,M
#Earth
365879999.9999821,0.16158496732544814,1.0810279807437793,3.94919357919279,1.518145013956665,-12815447.8482596,0.20315056451778912
365880060.0000188,0.16158568997467843,1.0809014020812515,3.9493552131198837,1.518140071436852,-12815822.541778479,0.22924491026096494
365880119.99997497,0.16158745780154435,1.080799052259654,3.9494879212978473,1.518129740091322,-12816325.909179036,0.255334803480605
365880180.00005186,0.16158975489390445,1.0807173057428598,3.949595295469816,1.518115772708744,-12816906.832519175,0.2814206270626288
365880240.00000805,0.16159223206779075,1.0806526350781762,3.9496811724053145,1.518099685035209,-12817522.873192085,0.30750298892152966
365880299.99996424,0.16159466800655414,1.0806018593659361,3.949749223514556,1.518082660129463,-12818142.203241076,0.3335825694458718
365880360.0000009,0.16159693334238062,1.0805622434207311,3.949802738490197,1.518065552117549,-12818742.912799116,0.35966002470489405
365880419.9999571,0.16159896141511434,1.0805315089881424,3.9498445424453026,1.518048935533507,-12819311.230536815,0.3857359349173736
365880480.000034,0.16160072632891984,1.0805077987263163,3.949876992974703,1.518033167450907,-12819839.522969259,0.41181078477132754
365880539.99999017,0.1616022274217148,1.0804896194863842,3.9499020187952767,1.518018445632165,-12820324.495531123,0.43788496323791454
365880600.0000268,0.16160347861050978,1.0804757828842537,3.949921176522661,1.518004856900466,-12820765.762672769,0.46395877231131943
365880659.999983,0.16160450140344104,1.0804653491688445,3.949935710781864,1.517992414289058,-12821164.774162192,0.49003243990759315
365880720.00001967,0.16160532046836987,1.0804575782081252,3.9499466105098215,1.51798108421253,-12821524.050178796,0.5161061335567728
365880780.0000161,0.16160596093724186,1.0804518884495202,3.9499546582860177,1.517970805600596,-12821846.657991633,0.5421799728719839
365880840.00005275,0.161606446856332,1.0804478234567703,3.949960471852738,1.517961502941425,-12822135.867386905,0.5682540403271475
365880900.00000894,0.16160680037318914,1.0804450250918427,3.9499645381742803,1.517953094894817,-12822394.933234476,0.5943283902409189
365880959.99996513,0.1616070413838505,1.080443212264381,3.9499672409058326,1.517945499778749,-12822626.9657139,0.620403055729038
365881020.0000018,0.1616071874576262,1.0804421642153563,3.9499688822988306,1.51793863890247,-12822834.859347394,0.6464780543762719
365881079.9999982,0.1616072539210597,1.0804417074266535,3.9499697005404424,1.517932438449256,-12823021.260399071,0.672553392467331
365881140.00003487,0.161607254025922,1.0804417053958257,3.949969883414431,1.517926830404327,-12823188.558520297,0.6986290682981792
365881199.99999106,0.1616071991546755,1.0804420506575205,3.9499695790340215,1.517921752870615,-12823338.893082213,0.7247050746022236
365881259.99994725,0.16160709903545561,1.0804426585581381,3.9499689042629385,1.517917150005489,-12823474.167852586,0.7507814003913784
365881319.9999839,0.1616069619505432,1.080443462394959,3.949967951320342,1.517912971734502,-12823596.069893992,0.7768580323020559
365881379.99998033,0.1616067949298239,1.0804444096158383,3.949966792963544,1.517909173344893,-12823706.090071078,0.8029349556177556
365881440.000017,0.16160660392536694,1.080445458843161,3.9499654865586877,1.517905715025128,-12823805.54356527,0.8290121549354702
365881499.9999732,0.16160639396603896,1.080446577538785,3.949964077282329,1.517902561392051,-12823895.589464502,0.8550896147073772
365881560.00000983,0.16160616929265714,1.0804477401681,3.949962600643585,1.517899681030826,-12823977.248927364,0.8811673195881919
365881619.999966,0.16160593347504412,1.080448926753349,3.9499610844746296,1.517897046061968,-12824051.421698544,0.9072452546892937
365881680.0000429,0.16160568951273221,1.0804501217311577,3.949959550504584,1.517894631742693,-12824118.900921896,0.9333234056863164
365881739.9999991,0.1616054399211862,1.0804513130483095,3.9499580156064567,1.517892416105375,-12824180.386300292,0.9594017589908742
365881800.00003576,0.16160518680537161,1.0804524914445415,3.9499564927869426,1.517890379633132,-12824236.495706378,0.98548030175255
365881859.99999195,0.16160493192237457,1.0804536498825006,3.949954991973603,1.517888504970929,-12824287.77537717,1.0115590218918946
365881919.99994814,0.16160467673460965,1.080454783093788,3.949953520642054,1.517886776669707,-12824334.708834793,1.037637908098568
365881980.00002503,0.16160442245498188,1.0804558872167893,3.9499520843165206,1.517885180960641,-12824377.724673988,1.06371694980328
365882039.9999812,0.1616041700851922,1.080456959507268,3.949950686969946,1.51788370555652,-12824417.203350829,1.089796137193954
365882100.0000179,0.16160392044821836,1.0804579981067495,3.9499493313442677,1.517882339477302,-12824453.48309505,1.1158754611165302
365882159.9999741,0.1616036742158498,1.080459001856955,3.9499480192070817,1.51788107289708,-12824486.865057925,1.14195491308096
365882220.0000107,0.16160343193203586,1.0804599701509563,3.949946751557554,1.517879897009902,-12824517.617794303,1.1680344852109872
365882280.00000715,0.16160319403268575,1.0804609028137115,3.949945528791698,1.51787880391214,-12824545.981166873,1.1941141702065095
365882340.0000438,0.16160296086246553,1.0804618000061446,3.9499443508351333,1.51787778649937,-12824572.169748146,1.2201939612960757
365882400.0,0.16160273268905187,1.0804626621481173,3.9499432172497118,1.517876838375897,-12824596.37578891,1.24627385221158
365882459.9999562,0.16160250971523346,1.0804634898565977,3.9499421273191366,1.517875953775357,-12824618.77180895,1.2723538371436518
365882519.99999285,0.16160229208918814,1.0804642838960623,3.949941080117673,1.517875127490968,-12824639.512861844,1.298433910709453
365882579.9999893,0.1616020799132139,1.0804650451387696,3.949940074565213,1.517874354814197,-12824658.73851681,1.3245140679204153
365882640.0000259,0.16160187325115005,1.0804657745329918,3.9499391094713485,1.517873631480776,-12824676.574595012,1.350594304152097
365882699.9999821,0.16160167213468457,1.0804664730776914,3.949938183570522,1.517872953623133,-12824693.134692809,1.3766746151161235
365882760.0000188,0.16160147656871762,1.0804671418023952,3.9499372955500074,1.517872317728415,-12824708.521520056,1.4027549968341448
365882819.99997497,0.1616012865359226,1.080467781751282,3.9499364440720623,1.517871720601413,-12824722.828077534,1.4288354456252133
365882880.00005186,0.16160110200062322,1.080468393970677,3.9499356277913797,1.517871159331773,-12824736.13869369,1.4549159580376987
365882940.00000805,0.1616009229120905,1.080468979499304,3.9499348453687166,1.517870631264935,-12824748.529940056,1.4809965308975888
365882999.99996424,0.1616007492073446,1.0804695393607626,3.949934095481455,1.517870133976381,-12824760.071439419,1.5070771612437588
365883060.0000009,0.16160058081353493,1.080470074557806,3.949933376831674,1.517869665248751,-12824770.826581135,1.5331578463220858
365883119.9999571,0.16160041764996022,1.080470586068076,3.9499326881521966,1.517869223051497,-12824780.853154795,1.559238583569512
365883180.000034,0.1616002596297823,1.0804710748410067,3.9499320282110397,1.517868805522768,-12824790.203912526,1.585319370599391
365883239.99999017,0.16160010666147745,1.080471541795658,3.9499313958145477,1.517868410953246,-12824798.927068654,1.6114002051880376
365883300.0000268,0.16159995865006396,1.080471987819318,3.9499307898094873,1.517868037771725,-12824807.066744225,1.6374810852623778
365883359.999983,0.16159981549813798,1.0804724137666926,3.9499302090843105,1.517867684532206,-12824814.663363185,1.6635620088840222
365883420.00001967,0.161599677106748,1.080472820459571,3.9499296525697667,1.517867349902356,-12824821.754005725,1.6896429742571557
365883480.0000161,0.16159954337612578,1.080473208686874,3.949929119238972,1.517867032653144,-12824828.372724196,1.715723979691517
365883540.00005275,0.16159941420630136,1.0804735792049827,3.9499286081070872,1.517866731649551,-12824834.550825633,1.7418050236118945
365883600.00000894,0.16159928949761482,1.0804739327383006,3.9499281182306905,1.517866445842219,-12824840.317124775,1.76788610454549
365883659.99996513,0.16159916915113953,1.0804742699799819,3.949927648706875,1.517866174259928,-12824845.69817122,1.7939672211144653
365883720.0000018,0.16159905306903152,1.0804745915927891,3.9499271986722073,1.517865916002822,-12824850.718453305,1.8200483720291167
365883779.9999982,0.16159894115481674,1.0804748982100374,3.949926767301527,1.517865670236296,-12824855.400581501,1.846129556081586
365883840.00003487,0.16159883331362074,1.0804751904366054,3.9499263538066725,1.517865436185477,-12824859.76545355,1.8722107721400638
365883899.99999106,0.1615987294523545,1.080475468849986,3.949925957435126,1.517865213130228,-12824863.832403395,1.89829201914924
365883959.99994725,0.16159862947985945,1.0804757340013518,3.949925577468669,1.517865000400634,-12824867.619335376,1.9243732961022098
365884019.9999839,0.16159853330701937,1.0804759864166331,3.94992521322196,1.517864797372888,-12824871.142845873,1.9504546020707132
365884079.99998033,0.16159844084684383,1.0804762265975896,3.9499248640411797,1.517864603465585,-12824874.41833308,1.9765359361777464
365884140.000017,0.16159835201452566,1.0804764550228683,3.9499245293026415,1.517864418136332,-12824877.460096428,2.002617297599514
365884199.9999732,0.16159826672748134,1.0804766721490355,3.9499242084114576,1.517864240878685,-12824880.281426897,2.0286986855618347
365884260.00000983,0.1615981849053705,1.080476878411591,3.9499239008002243,1.517864071219342,-12824882.894688925,2.0547800993368406
365884319.999966,0.1615981064701039,1.0804770742259455,3.949923605927751,1.517863908715592,-12824885.311394725,2.0808615382399345
365884380.0000429,0.16159803134583633,1.08047725998837,3.9499233232778175,1.517863752952989,-12824887.54227211,2.1069430016269415
365884439.9999991,0.16159795945895195,1.0804774360769096,3.9499230523579865,1.517863603543226,-12824889.597326044,2.1330244888915
365884500.00003576,0.16159789073803957,1.080477602852258,3.949922792698468,1.51786346012219,-12824891.485894935,2.159105999462623
365884559.99999195,0.1615978251138628,1.0804777606586013,3.94992254385101,1.517863322348178,-12824893.216701822,2.185187532802448
365884619.99994814,0.16159776251932206,1.080477909824425,3.9499223053878554,1.517863189900272,-12824894.797901265,2.211269088409953
365884680.00002503,0.16159770288941555,1.0804780506632776,3.949922076900735,1.517863062476844,-12824896.237122139,2.237350665795791
365884739.9999812,0.16159764616119215,1.0804781834745152,3.9499218579999082,1.517862939794181,-12824897.541506832,2.263432264515311
365884800.0000179,0.1615975922737067,1.0804783085439909,3.9499216483132473,1.517862821585225,-12824898.717747122,2.289513884143675
365884859.9999741,0.16159754116796846,1.0804784261447302,3.9499214474853694,1.517862707598417,-12824899.772117086,2.3155955242800763
365884920.0000107,0.16159749278689273,1.0804785365375587,3.9499212551768084,1.517862597596621,-12824900.710503297,2.341677184546309
365884980.00000715,0.16159744707524618,1.0804786399717095,3.949921071063225,1.517862491356153,-12824901.538432553,2.3677588645854053
365885040.0000438,0.1615974039795976,1.0804787366853912,3.9499208948346656,1.517862388665866,-12824902.261097344,2.393840564060367
365885100.0,0.1615973634482641,1.0804788269063343,3.949920726194841,1.517862289326319,-12824902.883379366,2.41992228265299
365885159.9999562,0.16159732543125657,1.080478910852312,3.9499205648604616,1.517862193149,-12824903.409870977,2.4460040200627953
365885219.99999285,0.16159728988023184,1.0804789887316204,3.9499204105605976,1.517862099955616,-12824903.844895279,2.4720857760059394
365885279.9999893,0.16159725674843448,1.0804790607435562,3.949920263036056,1.517862009577432,-12824904.192524245,2.498167550198637
365885340.0000259,0.1615972259906606,1.0804791270788303,3.949920122038849,1.517861921854663,-12824904.456595972,2.5242493424189694
365885399.9999821,0.16159719756318766,1.080479187920024,3.9499199873315884,1.5178618366359,-12824904.640729953,2.550331152411946
365885460.0000188,0.16159717142373936,1.080479243441958,3.9499198586870135,1.517861753777592,-12824904.748341821,2.5764129799514492
365885519.99997497,0.16159714753143392,1.080479293812075,3.94991973588748,1.517861673143549,-12824904.78265652,2.602494824823839
365885580.00005186,0.16159712584673683,1.080479339190798,3.9499196187245045,1.517861594604509,-12824904.7467209,2.6285766868272407
365885640.00000805,0.16159710633141625,1.080479379731865,3.9499195069983224,1.517861518037698,-12824904.643415002,2.654658565770912
365885699.99996424,0.16159708894849767,1.0804794155826491,3.9499194005174685,1.517861443326451,-12824904.475462817,2.6807404614746395
365885760.0000009,0.16159707366222245,1.08047944688446,3.9499192990983825,1.517861370359838,-12824904.245442102,2.70682237376816
365885819.9999571,0.16159706043800207,1.0804794737728398,3.9499192025650367,1.517861299032341,-12824903.955793522,2.7329043024906423
365885880.000034,0.1615970492423828,1.080479496377823,3.949919110748572,1.517861229243525,-12824903.60882922,2.758986247490178
365885939.99999017,0.1615970400430026,1.0804795148242035,3.9499190234869777,1.517861160897746,-12824903.206740692,2.7850682086233043
365886000.0000268,0.16159703280855223,1.0804795292317815,3.949918940624747,1.517861093903884,-12824902.751606105,2.8111501857545935
365886059.999983,0.161597027508742,1.080479539715587,3.949918862012599,1.517861028175077,-12824902.245397272,2.8372321787561843
365886120.00001967,0.1615970241142642,1.080479546386107,3.9499187875071757,1.517860963628491,-12824901.689985905,2.863314187507427
365886180.0000161,0.16159702259675632,1.0804795493494956,3.9499187169707746,1.517860900185086,-12824901.087149607,2.889396211894525
365886240.00005275,0.1615970229287727,1.0804795487077665,3.94991865027109,1.517860837769422,-12824900.438577425,2.9154782518101525
365886300.00000894,0.16159702508374688,1.0804795445589888,3.9499185872809686,1.517860776309444,-12824899.745875029,2.941560307153148
365886359.99996513,0.16159702903596387,1.080479536997463,3.9499185278781486,1.517860715736291,-12824899.010569595,2.9676423778228336
365886420.0000018,0.16159703476053117,1.0804795261138844,3.949918471945123,1.517860655984199,-12824898.234114101,2.993724463740179
365886479.9999982,0.1615970422333468,1.0804795119955164,3.9499184193688177,1.517860596990228,-12824897.41789185,3.0198065648153585
365886540.00003487,0.1615970514310726,1.0804794947263352,3.94991837004046,1.517860538694179,-12824896.563220236,3.0458886809689205
365886599.99999106,0.1615970623311083,1.0804794743871788,3.949918323855381,1.517860481038446,-12824895.671354398,3.071970812126223
365886659.99994725,0.16159707491156342,1.0804794510558862,3.9499182807128195,1.517860423967869,-12824894.743490849,3.0980529582171368
365886719.9999839,0.1615970891512356,1.0804794248074245,3.9499182405157627,1.517860367429616,-12824893.780770548,3.1241351191758824
365886779.99998033,0.16159710502958405,1.0804793957140189,3.9499182031707814,1.517860311373063,-12824892.78428204,3.1502172949407896
365886840.000017,0.16159712252670688,1.0804793638452679,3.9499181685878733,1.51786025574969,-12824891.755064243,3.17629948545412
365886899.9999732,0.16159714162331854,1.0804793292682624,3.9499181366803136,1.517860200512963,-12824890.694109151,3.2023816906618805
365886960.00000983,0.16159716230073023,1.0804792920476833,3.949918107364524,1.517860145618248,-12824889.60236433,3.2284639105136255
365887019.999966,0.16159718454082678,1.080479252245913,3.9499180805599265,1.517860091022718,-12824888.480735272,3.254546144962321
365887080.0000429,0.1615972083260466,1.0804792099231328,3.949918056188828,1.517860036685256,-12824887.330087619,3.2806283939641654
365887139.9999991,0.1615972336393645,1.0804791651374086,3.9499180341762923,1.517859982566388,-12824886.151249232,3.306710657478449
365887200.00003576,0.16159726046427336,1.0804791179447837,3.9499180144500277,1.517859928628188,-12824884.945012143,3.332792935467408
365887259.99999195,0.16159728878476354,1.0804790683993648,3.949917996940279,1.517859874834221,-12824883.712134438,3.35887522789609
365887319.99994814,0.16159731858530804,1.0804790165533993,3.9499179815797185,1.517859821149463,-12824882.453341922,3.384957534732229
365887380.00002503,0.1615973498508447,1.0804789624573545,3.9499179683033514,1.51785976754024,-12824881.169329783,3.4110398559461252
365887439.9999812,0.16159738256676187,1.080478906159986,3.949917957048417,1.517859713974168,-12824879.86076418,3.4371221915105243
365887500.0000179,0.1615974167188804,1.0804788477084135,3.949917947754307,1.517859660420091,-12824878.528283618,3.4632045414005015
365887559.9999741,0.16159745229344286,1.0804787871481818,3.9499179403624622,1.517859606848028,-12824877.172500344,3.4892869055933855
365887620.0000107,0.1615974892770941,1.0804787245233276,3.949917934816307,1.517859553229117,-12824875.794001646,3.515369284086251
365887680.00000715,0.16159752765687452,1.080478659876436,3.9499179310611634,1.517859499535574,-12824874.393351091,3.541451676825331
365887740.0000438,0.1615975674201988,1.0804785932487035,3.949917929044175,1.517859445740636,-12824872.971089628,3.5675340838117
365887800.0,0.1615976085548496,1.0804785246799882,3.9499179287142416,1.517859391818528,-12824871.527736694,3.5936165050306728
365887859.9999562,0.16159765104896093,1.0804784542088672,3.94991793002194,1.517859337744409,-12824870.063791247,3.61969894046934
365887919.99999285,0.16159769489101072,1.0804783818726795,3.949917932919476,1.517859283494334,-12824868.579732757,3.6457813901165044
365887979.9999893,0.1615977400698059,1.0804783077075815,3.9499179373606026,1.517859229045232,-12824867.076022085,3.671863853962594
365888040.0000259,0.16159778657447094,1.0804782317485904,3.9499179433005724,1.517859174374846,-12824865.553102378,3.6979463319996193
365888099.9999821,0.1615978343944422,1.0804781540296249,3.949917950696077,1.517859119461715,-12824864.011399893,3.7240288242210675
365888160.0000188,0.1615978835194525,1.0804780745835498,3.9499179595051985,1.517859064285138,-12824862.451324746,3.750111330621864
365888219.99997497,0.16159793393952365,1.080477993442218,3.949917969687345,1.517859008825138,-12824860.873271693,3.7761938511983053
365888280.00005186,0.1615979856449554,1.080477910636506,3.9499179812032126,1.517858953062443,-12824859.277620802,3.802276385948014
365888340.00000805,0.16159803862631972,1.0804778261963492,3.949917994014732,1.517858896978452,-12824857.664738152,3.828358934869834
365888399.99996424,0.16159809287444918,1.080477740150781,3.949918008085023,1.517858840555198,-12824856.034976378,3.854441497963862
365888460.0000009,0.16159814838042674,1.0804776525279653,3.9499180233783537,1.517858783775349,-12824854.388675371,3.88052407523131
365888519.9999571,0.16159820513558368,1.0804775633552244,3.9499180398600964,1.517858726622154,-12824852.726162786,3.90660666667451
365888580.000034,0.16159826313148598,1.0804774726590762,3.9499180574966886,1.517858669079446,-12824851.047754575,3.9326892722968605
365888639.99999017,0.16159832235992713,1.08047738046526,3.949918076255594,1.517858611131601,-12824849.353755549,3.9587718921027575
365888700.0000268,0.1615983828129258,1.080477286798765,3.9499180961052622,1.51785855276352,-12824847.644459743,3.9848545260992085
365888759.999983,0.16159844448271202,1.0804771916838578,3.949918117015107,1.517858493960636,-12824845.920151107,4.010937174289276
365888820.00001967,0.1615985073617243,1.0804770951441103,3.949918138955458,1.517858434708853,-12824844.181103658,4.0370198366817975
365888880.0000161,0.1615985714426045,1.080476997202419,3.9499181618975285,1.51785837499455,-12824842.427582143,4.063102513284828
365888940.00005275,0.16159863671818664,1.0804768978810357,3.949918185813391,1.517858314804568,-12824840.659842249,4.089185204107244
365889000.00000894,0.16159870318149425,1.0804767972015863,3.949918210675954,1.517858254126184,-12824838.8781311,4.115267909158725
365889059.99996513,0.1615987708257343,1.0804766951850937,3.9499182364589127,1.517858192947101,-12824837.08268758,4.1413506284496995
365889120.0000018,0.16159883964428812,1.0804765918520007,3.949918263136741,1.51785813125543,-12824835.273742648,4.167433361991309
365889179.9999982,0.16159890963071233,1.0804764872221841,3.94991829068466,1.517858069039671,-12824833.451519733,4.193516109795403
365889240.00003487,0.16159898077872648,1.0804763813149836,3.949918319078607,1.517858006288717,-12824831.616234947,4.21959887187449
365889299.99999106,0.16159905308221165,1.0804762741492118,3.9499183482952143,1.517857942991812,-12824829.768097471,4.245681648241719
365889359.99994725,0.1615991265352043,1.0804761657431783,3.94991837831179,1.517857879138573,-12824827.907309774,4.271764438910857
365889419.9999839,0.1615992011318945,1.0804760561147013,3.94991840910629,1.517857814718944,-12824826.034067942,4.297847243896238
365889479.99998033,0.16159927686661515,1.0804759452811301,3.949918440657304,1.517857749723215,-12824824.148561839,4.323930063212791
365889540.000017,0.16159935373384357,1.0804758332593554,3.94991847294402,1.517857684141985,-12824822.25097548,4.350012896875954
365889599.9999732,0.1615994317281929,1.0804757200658295,3.9499185059462225,1.517857617966164,-12824820.341487141,4.376095744901702
365889660.00000983,0.1615995108444096,1.0804756057165783,3.9499185396442633,1.517857551186973,-12824818.420269681,4.402178607306494
365889719.999966,0.1615995910773711,1.080475490227214,3.9499185740190406,1.517857483795911,-12824816.487490667,4.428261484107276
365889780.0000429,0.16159967242207915,1.0804753736129507,3.9499186090519944,1.517857415784763,-12824814.543312669,4.45434437532144
365889839.9999991,0.16159975487365574,1.0804752558886195,3.949918644725069,1.51785734714559,-12824812.587893365,4.480427280966823
365889900.00003576,0.16159983842734169,1.0804751370686765,3.94991868102072,1.517857277870708,-12824810.621385777,4.506510201061683
365889959.99999195,0.16159992307849222,1.0804750171672177,3.949918717921879,1.517857207952694,-12824808.643938469,4.5325931356246665
365890019.99994814,0.1616000088225728,1.0804748961979915,3.9499187554119497,1.517857137384373,-12824806.655695647,4.558676084674822
365890080.00002503,0.16160009565515612,1.0804747741744072,3.949918793474788,1.517857066158808,-12824804.656797392,4.58475904823155
365890139.9999812,0.1616001835719201,1.080474651109546,3.949918832094692,1.517856994269295,-12824802.647379758,4.610842026314628
365890200.0000179,0.16160027256864218,1.0804745270161746,3.9499188712563846,1.517856921709355,-12824800.627574973,4.636925018944145
365890259.9999741,0.16160036264119912,1.0804744019067525,3.9499189109450055,1.517856848472734,-12824798.59751155,4.663008026140534
365890320.0000107,0.16160045378556206,1.0804742757934411,3.949918951146091,1.517856774553378,-12824796.557314403,4.6890910479245305
365890380.00000715,0.1616005459977955,1.0804741486881153,3.949918991845568,1.51785669994546,-12824794.507105045,4.715174084317161
365890440.0000438,0.16160063927405116,1.0804740206023709,3.9499190330297327,1.51785662464332,-12824792.447001591,4.7412571353231865
365890500.0,0.16160073361056992,1.0804738915475338,3.949919074685272,1.517856548641539,-12824790.37711911,4.767340200997333
365890559.9999562,0.16160082900367684,1.0804737615346667,3.949919116799205,1.517856471934852,-12824788.297569446,4.793423281344886
365890619.99999285,0.1616009254497773,1.080473630574581,3.9499191593588963,1.517856394518189,-12824786.208461525,4.819506376387944
365890679.9999893,0.16160102294535644,1.0804734986778406,3.9499192023520546,1.517856316386662,-12824784.109901376,4.845589486148847
365890740.0000259,0.1616011214869781,1.0804733658547703,3.949919245766709,1.517856237535549,-12824782.001992313,4.871672610650171
365890799.9999821,0.16160122107127894,1.080473232115465,3.9499192895912025,1.517856157960306,-12824779.884834934,4.897755749914682
365890860.0000188,0.16160132169496977,1.0804730974697931,3.9499193338141856,1.517856077656551,-12824777.758527277,4.92383890396539
365890919.99997497,0.16160142335483108,1.0804729619274076,3.949919378424608,1.517855996620059,-12824775.623164875,4.949922072825489
365890980.00005186,0.16160152604771033,1.0804728254977496,3.9499194234117065,1.517855914846767,-12824773.478840904,4.976005256518341
365891040.00000805,0.16160162977052434,1.0804726881900535,3.9499194687649966,1.517855832332761,-12824771.32564618,5.002088455067524
365891099.99996424,0.16160173452025295,1.080472550013357,3.9499195144742743,1.517855749074275,-12824769.163669273,5.028171668496769
365891160.0000009,0.1616018402939384,1.0804724109765036,3.949919560529593,1.517855665067689,-12824766.992996627,5.054254896829966
365891219.9999571,0.1616019470886846,1.080472271088148,3.949919606921267,1.517855580309521,-12824764.813712554,5.080338140091185
365891280.000034,0.16160205490165266,1.0804721303567666,3.9499196536398635,1.517855494796432,-12824762.625899369,5.106421398304617
365891339.99999017,0.16160216373006378,1.0804719887906538,3.949919700676188,1.517855408525213,-12824760.429637428,5.132504671494605
365891400.0000268,0.16160227357119175,1.080471846397937,3.9499197480212915,1.517855321492784,-12824758.225005189,5.158587959685639
365891459.999983,0.16160238442236693,1.0804717031865738,3.94991979566645,1.517855233696196,-12824756.012079297,5.184671262902313
365891520.00001967,0.1616024962809714,1.0804715591643603,3.949919843603166,1.517855145132619,-12824753.790934611,5.210754581169352
365891580.0000161,0.16160260914443753,1.080471414338936,3.9499198918231593,1.517855055799354,-12824751.561644299,5.2368379145116135
365891640.00005275,0.16160272301024797,1.080471268717786,3.949919940318365,1.517854965693813,-12824749.324279843,5.262921262954041
365891700.00000894,0.1616028378759331,1.0804711223082477,3.9499199890809233,1.517854874813525,-12824747.078911182,5.289004626521677
365891759.99996513,0.16160295373906983,1.0804709751175134,3.949920038103176,1.517854783156132,-12824744.825606637,5.315088005239677
365891820.0000018,0.16160307059728124,1.080470827152634,3.949920087377666,1.517854690719389,-12824742.564433062,5.3411713991333
365891879.9999982,0.1616031884482327,1.0804706784205256,3.9499201368971213,1.517854597501156,-12824740.29545587,5.3672548082278535
365891940.00003487,0.16160330728963487,1.080470528927969,3.9499201866544578,1.517854503499401,-12824738.018739033,5.393338232548752
365891999.99999106,0.16160342711923875,1.0804703786816168,3.9499202366427766,1.517854408712195,-12824735.734345203,5.419421672121477
365892059.99994725,0.16160354793483522,1.080470227687995,3.949920286855357,1.517854313137709,-12824733.442335663,5.44550512697159
365892119.9999839,0.161603669734255,1.0804700759535084,3.949920337285642,1.517854216774211,-12824731.142770454,5.471588597124714
365892179.99998033,0.16160379251536663,1.0804699234844426,3.9499203879272446,1.517854119620065,-12824728.835708365,5.497672082615844
365892240.000017,0.16160391627607534,1.080469770286965,3.9499204387739546,1.51785402167374,-12824726.521206964,5.523755583452098
365892299.9999732,0.16160404101432305,1.0804696163671332,3.9499204898197076,1.517853922933787,-12824724.199322674,5.549839099668586
365892360.00000983,0.16160416672808678,1.0804694617308914,3.949920541058604,1.517853823398849,-12824721.870110786,5.575922631291155
365892419.999966,0.161604293415376,1.0804693063840802,3.9499205924848892,1.517853723067659,-12824719.533625513,5.602006178345687
365892480.0000429,0.1616044210742346,1.0804691503324348,3.949920644092959,1.51785362193904,-12824717.18991994,5.628089740858127
365892539.9999991,0.16160454970273752,1.080468993581588,3.94992069587736,1.517853520011896,-12824714.839046206,5.654173318854443
365892600.00003576,0.16160467929899142,1.0804688361370758,3.949920747832769,1.517853417285217,-12824712.481055377,5.680256912360649
365892659.99999195,0.16160480986113354,1.080468678004335,3.9499207999540134,1.517853313758075,-12824710.115997592,5.70634052140278
365892719.99994814,0.16160494138732925,1.0804685191887116,3.9499208522360494,1.517853209429618,-12824707.743922012,5.732424146006902
365892780.00002503,0.16160507387577278,1.0804683596954585,3.949920904673957,1.517853104299076,-12824705.364876935,5.758507786199099
365892839.9999812,0.16160520732468642,1.0804681995297407,3.949920957262958,1.517852998365764,-12824702.978909703,5.784591442005507
365892900.0000179,0.16160534173231939,1.0804680386966352,3.949921009998392,1.517852891629052,-12824700.58606685,5.810675113452232
365892959.9999741,0.161605477096946,1.0804678772011356,3.9499210628757213,1.517852784088412,-12824698.186394047,5.8367588005654385
365893020.0000107,0.16160561341686663,1.080467715048153,3.94992111589053,1.517852675743361,-12824695.77993614,5.862842503371296
365893080.00000715,0.16160575069040775,1.0804675522425158,3.9499211690385203,1.517852566593505,-12824693.366737215,5.888926221895958
365893140.0000438,0.1616058889159165,1.0804673887889775,3.9499212223154996,1.517852456638517,-12824690.946840571,5.9150099561656075
365893200.0,0.1616060280917666,1.0804672246922136,3.9499212757174003,1.517852345878139,-12824688.52028874,5.941093706206453
365893259.9999562,0.16160616821635176,1.0804670599568242,3.949921329240253,1.517852234312175,-12824686.087123567,5.967177472044653
365893319.99999285,0.1616063092880884,1.0804668945873384,3.9499213828802024,1.517852121940504,-12824683.647386173,5.993261253706411
365893379.9999893,0.16160645130541426,1.080466728588214,3.94992143663349,1.517852008763063,-12824681.20111696,6.019345051217932
365893440.0000259,0.16160659426678906,1.0804665619638376,3.9499214904964677,1.517851894779862,-12824678.74835572,6.0454288646053636
365893499.9999821,0.16160673817069063,1.0804663947185305,3.9499215444655786,1.51785177999096,-12824676.289141567,6.071512693894902
365893560.0000188,0.1616068830156165,1.0804662268565475,3.9499215985373715,1.517851664396495,-12824673.823512977,6.09759653911273
365893619.99997497,0.16160702880008365,1.0804660583820793,3.9499216527084853,1.517851547996652,-12824671.351507803,6.123680400284986
365893680.00005186,0.16160717552262638,1.0804658892992547,3.9499217069756534,1.517851430791687,-12824668.873163335,6.149764277437824
365893740.00000805,0.16160732318179988,1.0804657196121374,3.949921761335699,1.517851312781901,-12824666.388516247,6.1758481705973765
365893799.99996424,0.16160747177617238,1.0804655493247366,3.9499218157855407,1.517851193967671,-12824663.897602672,6.201932079789762
365893860.0000009,0.16160762130433193,1.080465378440999,3.9499218703221772,1.517851074349414,-12824661.400458153,6.228016005041081
365893919.9999571,0.16160777176488192,1.080465206964817,3.9499219249426925,1.51785095392761,-12824658.897117732,6.25409994637081
365893980.000034,0.16160792315643946,1.0804650349000258,3.949921979644266,1.517850832702802,-12824656.387615917,6.280183903818218
365894039.99999017,0.16160807547764164,1.0804648622504045,3.9499220344241452,1.517850710675578,-12824653.871986715,6.3062678774027265
365894100.0000268,0.16160822872713645,1.080464689019683,3.9499220892796694,1.517850587846578,-12824651.350263605,6.332351867150369
365894159.999983,0.16160838290358653,1.0804645152115377,3.9499221442082453,1.5178504642165,-12824648.822479619,6.358435873087118
365894220.00001967,0.16160853800567065,1.0804643408295926,3.9499221992073683,1.517850339786092,-12824646.288667303,6.3845198952389195
365894280.0000161,0.16160869403207978,1.0804641658774237,3.9499222542746004,1.517850214556157,-12824643.748858735,6.410603933631736
365894340.00005275,0.1616088509815181,1.0804639903585582,3.949922309407583,1.517850088527541,-12824641.203085547,6.43668798829146
365894400.00000894,0.16160900885270357,1.0804638142764749,3.949922364604027,1.51784996170114,-12824638.65137895,6.462772059243953
365894459.99996513,0.1616091676443637,1.0804636376346097,3.9499224198617187,1.517849834077908,-12824636.093769725,6.488856146515048
365894520.0000018,0.16160932735524117,1.0804634604363497,3.9499224751785067,1.517849705658841,-12824633.530288221,6.514940250130557
365894579.9999982,0.16160948798408875,1.0804632826850382,3.949922530552315,1.517849576444976,-12824630.960964402,6.541024370116245
365894640.00003487,0.16160964952966989,1.0804631043839776,3.949922585981132,1.51784944643741,-12824628.385827824,6.567108506497853
365894699.99999106,0.16160981199076152,1.0804629255364244,3.949922641463013,1.517849315637275,-12824625.804907661,6.593192659301082
365894759.99994725,0.16160997536614782,1.0804627461455971,3.9499226969960755,1.517849184045756,-12824623.21823273,6.619276828551562
365894819.9999839,0.16161013965462517,1.080462566214672,3.949922752578501,1.517849051664077,-12824620.625831444,6.6453610142749335
365894879.99998033,0.16161030485499916,1.0804623857467863,3.9499228082085356,1.517848918493512,-12824618.027731895,6.671445216496777
365894940.000017,0.1616104709660865,1.0804622047450374,3.949922863884483,1.517848784535372,-12824615.423961805,6.697529435242602
365894999.9999732,0.16161063798670952,1.080462023212487,3.9499229196047057,1.517848649791014,-12824612.814548556,6.72361367053794
365895060.00000983,0.16161080591570312,1.0804618411521578,3.9499229753676315,1.517848514261843,-12824610.199519202,6.749697922408211
365895119.999966,0.1616109747519107,1.0804616585670364,3.949923031171738,1.517848377949293,-12824607.578900483,6.775782190878834
365895180.0000429,0.1616111444941816,1.0804614754600745,3.9499230870155633,1.517848240854849,-12824604.952718789,6.801866475975177
365895239.9999991,0.16161131514137658,1.0804612918341883,3.9499231428977004,1.517848102980037,-12824602.321000244,6.827950777722534
365895300.00003576,0.16161148669235986,1.0804611076922626,3.9499231988167947,1.517847964326418,-12824599.683770629,6.854035096146189
365895359.99999195,0.1616116591460073,1.080460923037144,3.9499232547715497,1.517847824895596,-12824597.041055458,6.880119431271356
365895419.99994814,0.1616118325012012,1.0804607378716506,3.9499233107607155,1.517847684689214,-12824594.392879922,6.90620378312323
365895480.00002503,0.16161200675682924,1.0804605521985675,3.949923366783097,1.517847543708954,-12824591.739268985,6.932288151726903
365895539.9999812,0.16161218191178825,1.080460366020647,3.9499234228375517,1.517847401956534,-12824589.080247285,6.958372537107454
365895600.0000179,0.16161235796497975,1.0804601793406132,3.949923478922981,1.517847259433711,-12824586.415839203,6.984456939289921
365895659.9999741,0.16161253491531355,1.0804599921611577,3.9499235350383395,1.51784711614228,-12824583.746068863,7.010541358299262
365895720.0000107,0.1616127127617031,1.080459804484945,3.949923591182632,1.517846972084069,-12824581.070960125,7.036625794160424
365895780.00000715,0.16161289150306984,1.0804596163146094,3.949923647354902,1.51784682726095,-12824578.390536591,7.062710246898251
365895840.0000438,0.16161307113834136,1.0804594276527566,3.949923703554251,1.517846681674831,-12824575.704821646,7.0887947165375715
365895900.0,0.16161325166644894,1.0804592385019658,3.949923759779813,1.517846535327637,-12824573.01383841,7.114879203103114
365895959.9999562,0.1616134330863297,1.0804590488647892,3.949923816030778,1.517846388221353,-12824570.317609748,7.140963706619626
365896019.99999285,0.16161361539692762,1.0804588587437507,3.9499238723063668,1.517846240357971,-12824567.616158264,7.167048227111337
365896079.9999893,0.1616137985971889,1.0804586681413495,3.949923928605866,1.51784609173956,-12824564.90950651,7.19313276460367
365896140.0000259,0.1616139826860661,1.0804584770600605,3.949923984928585,1.517845942368182,-12824562.19767664,7.21921731912073
365896199.9999821,0.16161416766251613,1.080458285502331,3.9499240412738814,1.517845792245949,-12824559.48069063,7.245301890687042
365896260.0000188,0.16161435352549985,1.080458093470586,3.949924097641152,1.517845641375009,-12824556.758570261,7.271386479327024
365896319.99997497,0.16161454027398434,1.0804579009672237,3.9499241540298375,1.517845489757529,-12824554.031337112,7.2974710850650215
365896380.00005186,0.16161472790693798,1.0804577079946216,3.9499242104394168,1.517845337395721,-12824551.299012547,7.32355570792537
365896440.00000805,0.16161491642333378,1.0804575145551327,3.9499242668694055,1.517845184291828,-12824548.561617734,7.3496403479323265
365896499.99996424,0.16161510582214866,1.0804573206510881,3.949924323319361,1.517845030448119,-12824545.819173643,7.375725005110083
365896560.0000009,0.16161529610236747,1.0804571262847933,3.949924379788882,1.517844875866899,-12824543.071701067,7.4018096794827715
365896619.9999571,0.16161548726296762,1.0804569314585382,3.949924436277594,1.517844720550504,-12824540.319220593,7.427894371074487
365896680.000034,0.16161567930294107,1.0804567361745867,3.9499244927851693,1.517844564501293,-12824537.561752623,7.453979079909243
365896739.99999017,0.16161587222127766,1.0804565404351816,3.949924549311312,1.517844407721666,-12824534.799317414,7.480063806010998
365896800.0000268,0.16161606601697065,1.0804563442425472,3.9499246058557618,1.517844250214046,-12824532.031935012,7.506148549403625
365896859.999983,0.16161626068901666,1.0804561475988865,3.9499246624182978,1.517844091980887,-12824529.259625275,7.532233310111018
365896920.00001967,0.16161645623641363,1.0804559505063829,3.949924718998725,1.517843933024676,-12824526.48240795,7.558318088156917
365896980.0000161,0.16161665265816427,1.0804557529672,3.9499247755968905,1.517843773347926,-12824523.700302571,7.584402883565043
365897040.00005275,0.16161684995327283,1.0804555549834824,3.9499248322126714,1.517843612953176,-12824520.913328525,7.610487696359065
365897100.00000894,0.1616170481207453,1.0804553565573558,3.949924888845979,1.517843451843002,-12824518.12150505,7.636572526562542
365897159.99996513,0.16161724715959047,1.080455157690928,3.9499249454967553,1.517843290019997,-12824515.324851196,7.6626573741990445
365897220.0000018,0.1616174470688195,1.0804549583862881,3.9499250021649766,1.517843127486789,-12824512.523385897,7.688742239292021
365897279.9999982,0.16161764784744534,1.080454758645507,3.9499250588506456,1.517842964246031,-12824509.717127908,7.71482712186488
365897340.00003487,0.16161784949448135,1.0804545584706398,3.949925115553806,1.517842800300406,-12824506.906095842,7.740912021940951
365897399.99999106,0.1616180520089465,1.080454357863722,3.9499251722745234,1.517842635652623,-12824504.09030819,7.766996939543536
365897459.99994725,0.16161825538985486,1.080454156826776,3.9499252290128983,1.51784247030542,-12824501.269783253,7.793081874695844
365897519.9999839,0.16161845963623014,1.0804539553618024,3.949925285769054,1.517842304261548,-12824498.444539247,7.819166827421007
365897579.99998033,0.16161866474708955,1.0804537534707914,3.949925342543152,1.51784213752381,-12824495.614594221,7.845251797742142
365897640.000017,0.16161887072145906,1.080453551155712,3.949925399335379,1.517841970095004,-12824492.779966101,7.871336785682242
365897699.9999732,0.16161907755835964,1.0804533484185213,3.949925456145947,1.517841801977984,-12824489.94067265,7.89742179126431
365897760.00000983,0.16161928525681712,1.0804531452611583,3.949925512975103,1.517841633175611,-12824487.096731542,7.923506814511199
365897819.999966,0.16161949381585822,1.0804529416855482,3.9499255698231175,1.51784146369077,-12824484.248160312,7.949591855445758
365897880.0000429,0.16161970323450797,1.0804527376936022,3.9499256266902854,1.517841293526387,-12824481.394976344,7.975676914090769
365897939.9999991,0.16161991351179542,1.080452533287215,3.9499256835769345,1.51784112268539,-12824478.53719694,8.001761990468905
365898000.00003576,0.16162012464674833,1.080452328468268,3.9499257404834136,1.517840951170752,-12824475.67483926,8.027847084602808
365898059.99999195,0.16162033663839653,1.0804521232386277,3.949925797410106,1.517840778985464,-12824472.807920324,8.05393219651506
365898119.99994814,0.16162054948576995,1.0804519176001472,3.9499258543574087,1.517840606132536,-12824469.93645708,8.080017326228164
365898180.00002503,0.1616207631878991,1.0804517115546668,3.9499259113257548,1.517840432615007,-12824467.060466334,8.10610247376456
365898239.9999812,0.16162097774381534,1.0804515051040104,3.9499259683156,1.517840258435937,-12824464.179964785,8.132187639146597
365898300.0000179,0.16162119315254778,1.0804512982499936,3.9499260253274207,1.517840083598412,-12824461.294969006,8.158272822396627
365898359.9999741,0.16162140941313008,1.080451090994416,3.949926082361719,1.517839908105544,-12824458.405495485,8.184358023536864
365898420.0000107,0.16162162652459566,1.0804508833390607,3.949926139419028,1.517839731960455,-12824455.511560598,8.210443242589491
365898480.00000715,0.161621844485974,1.0804506752857057,3.9499261964998937,1.517839555166302,-12824452.613180613,8.23652847957661
365898540.0000438,0.16162206329629775,1.0804504668361132,3.949926253604896,1.517839377726268,-12824449.710371668,8.262613734520288
365898600.0,0.16162228295460146,1.0804502579920303,3.949926310734631,1.517839199643552,-12824446.803149857,8.288699007442476
365898659.9999562,0.16162250345991652,1.0804500487551967,3.9499263678897205,1.517839020921364,-12824443.891531115,8.314784298365106
365898719.99999285,0.1616227248112728,1.0804498391273398,3.949926425070808,1.517838841562959,-12824440.975531317,8.340869607310017
365898779.9999893,0.16162294700770635,1.0804496291101715,3.9499264822785625,1.517838661571602,-12824438.055166224,8.36695493429899
365898840.0000259,0.1616231700482479,1.080449418705396,3.9499265395136702,1.517838480950571,-12824435.130451493,8.39304027935373
365898899.9999821,0.16162339393192726,1.0804492079147061,3.949926596776841,1.517838299703183,-12824432.201402722,8.419125642495874
365898960.0000188,0.1616236186577802,1.0804489967397808,3.9499266540688094,1.51783811783277,-12824429.268035378,8.445211023747037
365899019.99997497,0.16162384422483572,1.080448785182291,3.9499267113903267,1.517837935342674,-12824426.33036485,8.471296423128697
365899080.00005186,0.16162407063212342,1.0804485732438969,3.949926768742167,1.517837752236278,-12824423.388406461,8.497381840662301
365899140.00000805,0.1616242978786755,1.0804483609262454,3.9499268261251266,1.517837568516967,-12824420.442175396,8.523467276369246
365899199.99996424,0.16162452596352242,1.0804481482309758,3.949926883540019,1.517837384188158,-12824417.491686797,8.549552730270825
365899260.0000009,0.16162475488569067,1.0804479351597176,3.9499269409876754,1.51783719925328,-12824414.536955683,8.575638202395753
365899319.9999571,0.16162498464421188,1.0804477217140862,3.949926998468962,1.517837013715799,-12824411.577997047,8.601723692750282
365899380.000034,0.16162521523811413,1.0804475078956908,3.949927055984748,1.517836827579178,-12824408.614825753,8.627809201362998
365899439.99999017,0.1616254466664225,1.0804472937061314,3.9499271135359315,1.517836640846919,-12824405.647456573,8.653894728254944
365899500.0000268,0.16162567892816734,1.0804470791469931,3.949927171123421,1.517836453522539,-12824402.675904246,8.679980273447073
365899559.999983,0.16162591202237267,1.080446864219859,3.9499272287481557,1.517836265609564,-12824399.70018338,8.706065836960303
365899620.00001967,0.16162614594806296,1.080446648926298,3.949927286411083,1.517836077111552,-12824396.720308535,8.732151418815507
365899680.0000161,0.1616263807042638,1.0804464332678698,3.949927344113178,1.517835888032077,-12824393.736294199,8.758237019033412
365899740.00005275,0.16162661628999866,1.080446217246127,3.949927401855428,1.517835698374727,-12824390.748154754,8.784322637634766
365899800.00000894,0.16162685270429072,1.0804460008626124,3.949927459638839,1.517835508143123,-12824387.755904544,8.81040827464019
365899859.99996513,0.16162708994616043,1.0804457841188593,3.9499275174644386,1.517835317340884,-12824384.759557806,8.83649393007026
365899920.0000018,0.16162732801462762,1.0804455670163955,3.9499275753332683,1.517835125971662,-12824381.759128725,8.862579603945495
365899979.9999982,0.16162756690871502,1.0804453495567348,3.949927633246391,1.517834934039132,-12824378.754631413,8.888665296286314
365900040.00003487,0.16162780662743795,1.080445131741388,3.949927691204883,1.517834741546971,-12824375.74607989,8.914751007113109
365900099.99999106,0.1616280471698157,1.0804449135718541,3.9499277492098397,1.517834548498888,-12824372.733488139,8.940836736446185
365900159.99994725,0.1616282885348633,1.080444695049626,3.949927807262372,1.517834354898607,-12824369.716870049,8.966922484305773
365900219.9999839,0.16162853072159866,1.0804444761761858,3.949927865363615,1.517834160749859,-12824366.696239453,8.993008250712052
365900279.99998033,0.1616287737290325,1.0804442569530117,3.949927923514708,1.517833966056421,-12824363.671610111,9.019094035685107
365900340.000017,0.16162901755617873,1.0804440373815714,3.949927981716815,1.517833770822049,-12824360.642995711,9.045179839245028
365900399.9999732,0.16162926220205062,1.0804438174633235,3.9499280399711165,1.517833575050549,-12824357.610409912,9.07126566141172
365900460.00000983,0.16162950766565526,1.0804435971997237,3.9499280982788054,1.517833378745733,-12824354.57386624,9.097351502205123
365900519.999966,0.16162975394600376,1.0804433765922155,3.949928156641092,1.517833181911427,-12824351.53337823,9.123437361645072
365900580.0000429,0.16163000104210404,1.0804431556422367,3.9499282150592046,1.517832984551478,-12824348.488959307,9.149523239751343
365900639.9999991,0.161630248952961,1.0804429343512194,3.9499282735343826,1.517832786669745,-12824345.440622846,9.175609136543626
365900700.00003576,0.16163049767758061,1.0804427127205858,3.949928332067886,1.517832588270111,-12824342.38838218,9.201695052041575
365900759.99999195,0.1616307472149658,1.0804424907517522,3.9499283906609834,1.517832389356477,-12824339.332250549,9.227780986264733
365900819.99994814,0.16163099756411858,1.0804422684461295,3.949928449314967,1.51783218993275,-12824336.272241145,9.253866939232656
365900880.00002503,0.16163124872403967,1.0804420458051185,3.949928508031135,1.517831990002867,-12824333.208367132,9.279952910964719
365900939.9999812,0.16163150069373017,1.0804418228301145,3.9499285668108093,1.517831789570772,-12824330.140641557,9.306038901480326
365901000.0000179,0.16163175347218345,1.0804415995225085,3.9499286256553185,1.517831588640433,-12824327.069077468,9.332124910798763
365901059.9999741,0.16163200705839917,1.0804413758836808,3.9499286845660087,1.517831387215821,-12824323.993687814,9.358210938939294
365901120.0000107,0.16163226145137097,1.0804411519150081,3.9499287435442425,1.517831185300935,-12824320.914485512,9.384296985921072
365901180.00000715,0.16163251665009273,1.0804409276178584,3.949928802591396,1.517830982899792,-12824317.831483403,9.410383051763212
365901240.0000438,0.16163277265355494,1.0804407029935958,3.949928861708855,1.517830780016413,-12824314.74469432,9.436469136484739
365901300.0,0.16163302946074803,1.0804404780435763,3.949928920898026,1.517830576654848,-12824311.654130958,9.462555240104633
365901359.9999562,0.1616332870706607,1.0804402527691501,3.949928980160323,1.517830372819154,-12824308.559806045,9.488641362641806
365901419.99999285,0.1616335454822774,1.0804400271716623,3.949929039497177,1.517830168513399,-12824305.461732214,9.514727504115065
365901479.9999893,0.1616338046945868,1.0804398012524494,3.9499290989100335,1.517829963741686,-12824302.359922037,9.540813664543231
365901540.0000259,0.1616340647065709,1.0804395750128442,3.9499291584003466,1.517829758508106,-12824299.254388064,9.566899843944988
365901599.9999821,0.16163432547474474,1.080439348491055,3.949929218007219,1.517829552932411,-12824296.14436497,9.592986043040517
365901660.0000188,0.16163458702869013,1.0804391216617557,3.9499292777049844,1.517829346935273,-12824293.03042803,9.619072261370555
365901719.99997497,0.16163484937911687,1.0804388945160635,3.949929337484742,1.517829140488893,-12824289.912804754,9.645158498718569
365901780.00005186,0.16163511252500018,1.0804386670552888,3.9499293973479994,1.517828933597437,-12824286.791507468,9.67124475511128
365901840.00000805,0.16163537646531329,1.0804384392807354,3.9499294572962786,1.517828726265083,-12824283.66654848,9.697331030583594
365901899.99996424,0.1616356411990335,1.0804382111936985,3.949929517331116,1.517828518496028,-12824280.537940022,9.723417325145538
365901960.0000009,0.16163590672512929,1.0804379827954727,3.9499295774540575,1.51782831029448,-12824277.405694263,9.749503638815378
365902019.9999571,0.16163617304257274,1.080437754087343,3.9499296376666635,1.517828101664672,-12824274.269823367,9.775589971611272
365902080.000034,0.16163644015032944,1.0804375250705927,3.949929697970503,1.517827892610831,-12824271.130339408,9.801676323551366
365902139.99999017,0.16163670804736557,1.080437295746498,3.949929758367163,1.517827683137224,-12824267.987254437,9.827762694653673
365902200.0000268,0.1616369767326483,1.0804370661163276,3.949929818858238,1.517827473248104,-12824264.840580467,9.853849084936225
365902259.999983,0.16163724620513628,1.0804368361813508,3.949929879445336,1.517827262947769,-12824261.690329442,9.879935494407812
365902320.00001967,0.16163751646379534,1.0804366059428243,3.949929940130076,1.517827052240504,-12824258.536513282,9.90602192310449
365902380.0000161,0.16163778750758104,1.0804363754020068,3.9499300009140925,1.517826841130617,-12824255.379143842,9.932108371034937
365902440.00005275,0.16163805933545256,1.0804361445601471,3.9499300617990256,1.517826629622445,-12824252.218232958,9.9581948382169
365902500.00000894,0.16163833194636426,1.0804359134184924,3.9499301227865264,1.517826417720314,-12824249.053792417,9.984281324668007
365902559.99996513,0.16163860533926871,1.0804356819782828,3.9499301838782688,1.517826205428579,-12824245.885833923,10.010367830405917
365902620.0000018,0.16163887951311923,1.0804354502407543,3.9499302450759233,1.517825992751605,-12824242.714369195,10.036454355448114
365902679.9999982,0.16163915446686553,1.0804352182071386,3.94993030638118,1.517825779693768,-12824239.539409885,10.062540899812056
365902740.00003487,0.16163943019945484,1.0804349858786624,3.949930367795739,1.517825566259467,-12824236.360967603,10.08862746351517
365902799.99999106,0.16163970670983369,1.0804347532565477,3.949930429321307,1.517825352453101,-12824233.1790539,10.114714046574775
365902859.99994725,0.16163998399694646,1.0804345203420114,3.9499304909596114,1.517825138279083,-12824229.993680319,10.14080064900816
365902919.9999839,0.1616402620597338,1.0804342871362673,3.949930552712378,1.51782492374186,-12824226.804858346,10.16688727083254
365902979.99998033,0.16164054089713983,1.0804340536405224,3.9499306145813535,1.517824708845865,-12824223.612599421,10.192973912065037
365903040.000017,0.16164082050809922,1.0804338198559824,3.9499306765682896,1.517824493595556,-12824220.416914968,10.219060572722757
365903099.9999732,0.16164110089155026,1.080433585783846,3.94993073867495,1.517824277995406,-12824217.217816332,10.2451472528227
365903160.00000983,0.16164138204642672,1.0804333514253086,3.9499308009031053,1.5178240620499,-12824214.015314866,10.271233952381811
365903219.999966,0.16164166397166616,1.0804331167815593,3.9499308632545445,1.51782384576353,-12824210.809421832,10.297320671417005
365903280.0000429,0.16164194666619341,1.0804328818537872,3.949930925731062,1.517823629140806,-12824207.6001485,10.323407409956468
365903339.9999991,0.1616422301289408,1.0804326466431735,3.9499309883344607,1.517823412186253,-12824204.387506073,10.34949416799423
365903400.00003576,0.1616425143588336,1.080432411150897,3.9499310510665557,1.517823194904393,-12824201.17150573,10.37558094555831
365903459.99999195,0.16164279935479864,1.080432175378132,3.9499311139291726,1.517822977299786,-12824197.95215862,10.401667742665408
365903519.99994814,0.16164308511576,1.0804319393260473,3.9499311769241436,1.517822759376979,-12824194.729475839,10.427754559332053
365903580.00002503,0.16164337164063491,1.080431702995812,3.9499312400533153,1.517822541140553,-12824191.503468432,10.453841395574795
365903639.9999812,0.1616436589283466,1.0804314663885854,3.9499313033185426,1.517822322595089,-12824188.274147458,10.47992825141004
365903700.0000179,0.16164394697781082,1.080431229505527,3.9499313667216853,1.517822103745174,-12824185.041523887,10.506015126854201
365903759.9999741,0.16164423578794493,1.0804309923477897,3.9499314302646225,1.517821884595415,-12824181.805608679,10.532102021923567
365903820.0000107,0.16164452535766025,1.0804307549165257,3.949931493949231,1.517821665150437,-12824178.56641277,10.558188936634426
365903880.00000715,0.1616448156858694,1.0804305172128814,3.949931557777409,1.51782144541487,-12824175.323947025,10.58427587100296
365903940.0000438,0.16164510677148253,1.0804302792379978,3.9499316217510527,1.517821225393353,-12824172.0782223,10.610362825045325
365904000.0,0.1616453986134068,1.0804300409930159,3.949931685872076,1.517821005090545,-12824168.829249417,10.63644979877754
