datetime_jd,incl,Omega,w,e,a,M
#Jupiter
521078400.0,1.581539457291443,4.69959329314961,3.0490563928325725,0.9815748544868137,4095618067.9833827,0.10359124172548029
521164800.0,1.5820365200784443,4.699344394414188,3.0490461154419113,0.9815589696642059,4092790712.47123,0.2211521429274388
521251200.0,1.581546193947427,4.699551393953122,3.048921694015245,0.9815477260983143,4088577970.628707,0.33916385222472734
521337600.0,1.581824077587252,4.699440607459635,3.0489946056320534,0.9815410918476023,4089218726.9011283,0.4566803399356134
521424000.0,1.5825138044947067,4.699243862104054,3.0487957946483486,0.9815401445260832,4084993514.823725,0.5752783652141754
521510400.0,1.582822091646353,4.6991435024176225,3.0489395817311324,0.981534056425802,4087389191.255805,0.692371087600625
521596800.0,1.5838938223666628,4.698865777600719,3.0489302155875952,0.9815326776160199,4087143473.4309797,0.8101310932861895
521683200.0,1.5811415534458308,4.699543423734296,3.0489737172525517,0.981529727832564,4087622363.322326,0.9276458031632399
521769600.0,1.5827840132741504,4.699161176693403,3.048877968558644,0.9816092405809267,4091388872.7515798,1.0433119030659608
521856000.0,1.5812450706879748,4.699504322075902,3.048817559940861,0.9816126010607311,4090376352.471547,1.1614012294066987
521942400.0,1.582485819157587,4.699238138728903,3.048867111663491,0.9816071614931371,4091035046.255388,1.2785284435652366
522028800.0,1.58288593776685,4.699168169872638,3.0487406069602283,0.9816163303091696,4089274936.814819,1.3973294523254438
522115200.0,1.5840566459131777,4.698937949493622,3.0488560832824203,0.981604536824759,4090753602.3661275,1.5137246986378656
522201600.0,1.5851048000488974,4.698753587025599,3.048849151787157,0.9816039976775064,4090658644.631153,1.6313370333440842
522288000.0,1.5811310845773336,4.699434095236143,3.0489184766038893,0.9815965780942941,4091347489.9580874,1.748197309291012
522374400.0,1.5827509585651418,4.6991696959083775,3.0488674468620647,0.9816003823067807,4090771182.2584443,1.866357535995799
522460800.0,1.5799341598760923,4.699614183800454,3.0488373150012653,0.981602960893456,4090405351.0654387,1.9844233565867488
522547200.0,1.581500023363547,4.699374706152759,3.0488502325806155,0.981600141988504,4090520974.988293,2.1017727203262977
522633600.0,1.5807577171610174,4.699488472561438,3.0487471053009045,0.981610731815749,4089595644.1630497,2.2209679264170163
522720000.0,1.5829106417810035,4.699186619659381,3.0488092652571748,0.9816020179965909,4090102189.2583394,2.337514634496909
522806400.0,1.5838709264970896,4.6990662485543675,3.048781607674816,0.981604448011059,4089905540.8541484,2.455532188920553
522892800.0,1.580242435405404,4.699512574048353,3.048838571748933,0.9815967450385282,4090240411.2425995,2.5722229682585516
522979200.0,1.582113991757212,4.699294762970414,3.048775419685049,0.9816031205799828,4089902177.0329995,2.6909024186450092
523065600.0,1.5794822525849912,4.69959042519153,3.048760589721493,0.9816040092048126,4089851769.82428,2.808835751047798
523152000.0,1.5821340007711981,4.6993052987820505,3.0487574630870182,0.9816035487152376,4089829809.8936667,2.9264121101006113
523238400.0,1.5810229519404515,4.699422905174295,3.0486857948981028,0.9816105610367136,4089715590.860459,3.045462871875327
523324800.0,1.584544355878876,4.699082305607091,3.048733443039985,0.9816040678305284,4089734060.2234654,3.161982374835571
523411200.0,1.585322102696063,4.699017996706133,3.0487180700765384,0.9816053084614959,4089741645.512445,3.2798624520937003
523497600.0,1.582387172450657,4.6992565452372075,3.0487887794930475,0.98159733561584,4089629522.406887,3.3960219986940876
523584000.0,1.583430611207302,4.699180628629352,3.048735271508732,0.9816019085182633,4089781931.4649673,3.514708141593683
523670400.0,1.5804608728284624,4.699391808529978,3.0487420149281026,0.981600637917687,4089786236.806872,3.6321878277859234
523756800.0,1.5826697702970183,4.6992454141010835,3.048732453053728,0.9816013708614967,4089808104.21013,3.7499310290155683
523843200.0,1.580287994498741,4.699392253952823,3.0486753319909843,0.9816049673984585,4090261675.736189,3.868706005121729
523929600.0,1.5837988324023162,4.699198570265126,3.0487059142979342,0.9816025944848192,4089952951.3098764,3.985597707496824
524016000.0,1.583673938642756,4.699209813574831,3.0486843043475242,0.9816043255914768,4090179591.924478,4.103607096872791
524102400.0,1.5815630001868026,4.699288730194144,3.048752509452476,0.9815999887160087,4089421266.159858,4.219868141679068
524188800.0,1.5817724005680607,4.699288441981732,3.048679611057563,0.9816039274638456,4090328659.633737,4.338812664989135
524275200.0,1.5795000063092002,4.69934661202613,3.0486862246602073,0.9816034078046375,4090262236.5566945,4.456252590995456
524361600.0,1.5817514023899262,4.69930261652617,3.0486550310902643,0.981605592030793,4090720753.6916885,4.574358019136315
524448000.0,1.5796591817903318,4.699331360178334,3.0485967597970927,0.9816072691051246,4091679998.12456,4.692804497780134
524534400.0,1.583608560041522,4.699310465460778,3.0486163137169506,0.9816074109702186,4091340689.9771466,4.81003919087736
524620800.0,1.583641472456568,4.699316187573511,3.048597879469121,0.9816086326815379,4091718352.0838547,4.927827370595359
524707200.0,1.5831082450810716,4.699299335999145,3.0486978023413482,0.9816066610508832,4089833269.4110384,5.044078909506082
524793600.0,1.5828836522561491,4.699303375213027,3.048616217461974,0.9816089150548208,4091482799.868916,5.162605938708371
524880000.0,1.5815657336308357,4.69925027011945,3.048656359784476,0.9816085736086336,4090684196.623397,5.279706359396589
524966400.0,1.5830054141472674,4.699322555033317,3.0486175738017858,0.9816105126125408,4091605276.6045265,5.397650135218487
525052800.0,1.5811351885488425,4.699207551329565,3.048576087110707,0.9816120402915312,4092587121.5651894,5.51547950495605
525139200.0,1.5836867563177603,4.69940521690517,3.0485911405986132,0.9816125480673554,4092348428.369515,5.6328852962777
525225600.0,1.583217142576433,4.699365658884132,3.0485796096579505,0.9816142464507124,4092777427.088958,5.75044556896815
525312000.0,1.5831642575238885,4.699343166002091,3.0487314399908603,0.9816092103494319,4088974820.3614774,5.867235733575721
525398400.0,1.5824757610080615,4.699252705024724,3.048597231462237,0.9816186604407086,4093001321.8262763,5.98533916846512
525484800.0,1.5821632547723483,4.69916757730533,3.048664269644482,0.9816195624855995,4091861373.256677,6.10269623740307
525571200.0,1.5825747858036237,4.699320618912988,3.0487690281176176,0.9816635300345247,4098692976.7689404,6.220366566184639
525657600.0,1.5824750946280093,4.699231252514502,3.03302017145692,0.9816190513120855,4086522728.6151648,0.05461379300507118
525744000.0,1.5830742521062253,4.6988842821017,3.0331104593393476,0.9815861092747855,4081912398.2309837,0.17263175060811875
525830400.0,1.582816268734481,4.699008371717644,3.0331251383312217,0.9815786576751355,4080890427.374894,0.29067342109660815
525916800.0,1.58310331096667,4.698881619094946,3.0333187882252015,0.981576238105197,4084508305.566929,0.4080532327275641
526003200.0,1.582363968690176,4.699149049506675,3.033173859729582,0.9815763435131618,4081428512.882868,0.5265203162730697
526089600.0,1.5820585177756004,4.6992314506834605,3.0332719673006783,0.9815717785782072,4082961037.973923,0.6440533959499596
526176000.0,1.5828832846756693,4.6990028361652225,3.0331522522848866,0.9815748709962546,4080829539.9043164,0.7626166786752356
526262400.0,1.5812876418110597,4.699429125676162,3.0331761932237695,0.9815724483046034,4081006176.422096,0.8805309005554511
526348800.0,1.58423670763505,4.698680311172612,3.033100915622893,0.9815748671473562,4079866781.577604,0.9989910373521094
526435200.0,1.5836399271549984,4.698825566616651,3.0331305222999294,0.9815719451957895,4080208275.7008486,1.1168358718354403
526521600.0,1.584832970438587,4.698544186836961,3.0332663935227187,0.9815590096695748,4082050656.041277,1.2337062731553274
526608000.0,1.5824511529694059,4.6990736711007415,3.0331947759734375,0.9815649353768318,4080959515.343978,1.352386076315061
526694400.0,1.5821128101171795,4.699136685427203,3.0332684754900106,0.9815563200569186,4081816375.7427197,1.469679667855189
526780800.0,1.582270159165326,4.699112449866875,3.0331692086428497,0.9815655502603542,4080576945.526361,1.5886899268362447
526867200.0,1.579904544007176,4.6995602451262615,3.0331963985529957,0.981561391169832,4080794899.986391,1.7064785099325794
526953600.0,1.5832202444147863,4.6989561007515,3.0330973543362987,0.9815708324706831,4079739586.4839864,1.8256057397797483
527040000.0,1.5824018189703675,4.699099343273848,3.0331135378881795,0.9815678576114159,4079874809.1381693,1.9434807085787316
527126400.0,1.5846885988422368,4.698709154132756,3.033176521339103,0.9815579060022579,4080485085.0334735,2.060571063179618
527212800.0,1.5815527050190243,4.699222432107248,3.0331422039986413,0.9815690601538791,4080210190.293823,2.1790113531756257
527299200.0,1.5822617220942252,4.699106485513599,3.0331792372255095,0.9815623930003817,4080496781.9847136,2.2964413063518077
527385600.0,1.5822683740112136,4.699112047463382,3.033097120765137,0.9815728035126164,4079893357.749278,2.4157760088522218
527472000.0,1.5806692924795902,4.699334170546825,3.0331274089638236,0.9815671832949165,4080076210.780993,2.53334444315223
527558400.0,1.5842779579908008,4.698847571017633,3.0330379403284673,0.9815778918892477,4079597924.3076596,2.6528395453461577
527644800.0,1.584040890365439,4.698876083434883,3.0330664361776973,0.9815725971248611,4079739755.456768,2.7703632525654984
527731200.0,1.5873084806105482,4.698467320694873,3.0331087383715216,0.9815645025530885,4079880401.5728984,2.8874498997078026
527817600.0,1.5833689105684092,4.698937561148732,3.0330997069780756,0.9815655777900535,4079872590.7192125,3.0057870347062323
527904000.0,1.5845066807644974,4.698804687118437,3.033133046155703,0.9815594320259872,4079897145.664932,3.12311025155165
527990400.0,1.5833169962188522,4.698937902622085,3.033078059552135,0.9815666052599491,4079913142.9508004,3.242291914591149
528076800.0,1.5817679229685224,4.699088147024247,3.033112792858344,0.9815607079662015,4079875743.4498816,3.3595992111396904
528163200.0,1.5839525584759422,4.698886787455873,3.033028088150321,0.9815706102806961,4080091351.502183,3.479347516831856
528249600.0,1.583547206127345,4.698919280614408,3.033053975859761,0.9815663396234816,4080001937.9306374,3.596792428076649
528336000.0,1.5866546917721185,4.6986597185044605,3.0330704966270665,0.9815634958862783,4079858995.6584325,3.714349266534968
528422400.0,1.5823088312961544,4.698997518139596,3.0330670666551316,0.9815634880220532,4079945748.3582196,3.8325184857687007
528508800.0,1.5838063188952898,4.698887384970295,3.0330765660851253,0.9815617234007711,4079827177.4206176,3.9502793330338735
528595200.0,1.5821282122173614,4.699002201762513,3.033018901202667,0.9815674562896489,4080424910.1909404,4.069506583782486
528681600.0,1.581692737514363,4.699020831416912,3.0330450147311185,0.9815644425414745,4080124321.0516925,4.18695237013422
528768000.0,1.5832466317510483,4.698948449108455,3.0329484184250655,0.9815723930384977,4081328443.7943654,4.306810336583755
528854400.0,1.583907574757171,4.69891348846669,3.032976443053086,0.9815697474232306,4080932925.1014347,4.424208553207506
528940800.0,1.5873156015217174,4.698786653956362,3.0329839389676096,0.9815693212833224,4080765504.2179275,4.5420100070146106
529027200.0,1.583962079534112,4.698886866211096,3.033003334880126,0.9815680092146187,4080499356.9740176,4.6596683955930605
529113600.0,1.5858167853817033,4.698843679137198,3.033014915012844,0.9815672845454461,4080255551.799249,4.777456105564296
529200000.0,1.5840068752667664,4.698873638256804,3.0329706047199427,0.9815699641385204,4081131248.7332153,4.896118781925308
529286400.0,1.5841636986174392,4.698864920399898,3.0330173559810527,0.981568031471078,4080207711.460404,5.013443015944677
529372800.0,1.584354328159029,4.698876342001865,3.0329082988224556,0.981572846280083,4082485980.5797467,5.132797500119199
529459200.0,1.5849816881608705,4.698878831954801,3.032958569681065,0.9815711058565623,4081417989.9344187,5.250137112311524
529545600.0,1.5870599540755967,4.69894300425383,3.0329599873479625,0.9815717952452465,4081436650.2537484,5.368102051798507
529632000.0,1.5844491735223785,4.698827617763498,3.033010010141925,0.9815705920717741,4080311857.7041097,5.485606662423467
529718400.0,1.5854637882199056,4.698887000822479,3.033005534746154,0.9815714606526218,4080481729.8789816,5.603661708060729
529804800.0,1.5838401284687407,4.6987663631728305,3.032945156963328,0.981575509349072,4082161150.273353,5.7220439684547495
529891200.0,1.5842146958753027,4.698792918796332,3.0329936882999036,0.9815755840986272,4081157935.638735,5.839770887921604
529977600.0,1.5838514997265947,4.698763505779749,3.0328098607513945,0.981593250978953,4087313880.8950524,5.9585469094536645
530064000.0,1.5842904389036236,4.698822375073758,3.0329206920585583,0.9816058551527438,4087151784.6447606,6.076227408905721
530150400.0,1.5846376894397798,4.698938670039146,3.0329296953519105,0.9816218719330223,4089862459.764293,6.194022870757787
530236800.0,1.5845753136156742,4.698881998991132,3.0170805962839298,0.9815795720519878,4076689388.112761,0.028541116150170083
530323200.0,1.5848745101447617,4.698690006913924,3.017273212331998,0.9815566722827508,4074747767.3594427,0.14679633590035393
530409600.0,1.5842344499021226,4.699005305177255,3.0172351423832233,0.9815515060458696,4073038770.104994,0.26520729338828725
530496000.0,1.5847166443774363,4.698794890362108,3.0173110903539424,0.9815468358112874,4073974605.467786,0.3833683347757803
530582400.0,1.5841792658091156,4.699007763921606,3.017107366769188,0.9815472271307079,4069736370.8743486,0.5024965719253826
530668800.0,1.5852271076478441,4.698645445589084,3.017194525096743,0.9815420984460944,4071091655.520715,0.620595966812103
530755200.0,1.5866629236390755,4.698209814308925,3.0169612677543176,0.9815454161909853,4066716802.505894,0.7403828957992981
530841600.0,1.585025018405354,4.698676573909242,3.017141502537172,0.9815344421800605,4069292226.8688035,0.8580064291251982
530928000.0,1.5859592441006516,4.698424658684402,3.0170902454925894,0.9815358878470006,4068457779.834482,0.9768327603996916
531014400.0,1.5836377439318194,4.699030642812162,3.017101330027141,0.9815347783054756,4068430096.7245073,1.0953714669554406
531100800.0,1.5846613755215597,4.698771859777357,3.017128284630673,0.9815303349897248,4068733015.6679015,1.2136851132104391
531187200.0,1.5825555114362182,4.699280166450203,3.0169931735878035,0.9815429132507953,4066855408.3701987,1.3334625380164074
531273600.0,1.584589737486044,4.69881047783786,3.017019266005772,0.981537631847745,4067161884.744601,1.4517948778948302
531360000.0,1.586197181501731,4.698466608544847,3.01694422208305,0.9815443294431441,4066291264.804075,1.5711072456089124
531446400.0,1.5847263688844977,4.698766733824959,3.017070519717347,0.9815279573712804,4067605872.8324165,1.6884415914071127
531532800.0,1.585864564113189,4.698542774585872,3.016999396780041,0.9815350088247117,4066835103.790474,1.8078187085660808
531619200.0,1.5833285959635384,4.699032349529674,3.017016696689431,0.9815322574961917,4066924650.0087314,1.926320344158689
531705600.0,1.5854089197438788,4.698642982645702,3.017008865759748,0.9815310865753866,4066859044.2362,2.0449530757867174
531792000.0,1.582693684711178,4.699134857057874,3.0169302256901758,0.9815422060303539,4066119821.402236,2.1647830927593876
531878400.0,1.5861422919602832,4.698534719489249,3.0169342787939377,0.9815383806325461,4066183034.962578,2.283241872258645
531964800.0,1.5878665680256103,4.698254156120179,3.0168820551444506,0.9815445761676111,4065832132.4076486,2.402623786102973
532051200.0,1.587433560698683,4.698315383123896,3.0169924158762185,0.9815252559809283,4066524374.7763166,2.519470000394467
532137600.0,1.5881577130137208,4.698209955993807,3.0169444003113246,0.9815312511843022,4066257188.104458,2.638876948086387
532224000.0,1.5854563426032904,4.698604889895905,3.0169845063332374,0.98152421463023,4066427865.604017,2.7568951864067723
532310400.0,1.5873908845483233,4.698331617881221,3.0169727035662373,0.9815240973475817,4066379554.466707,2.8756298038265453
532396800.0,1.5834151422906024,4.698872760317294,3.0169366307999437,0.981530154693587,4066303689.267841,2.9951044344752265
532483200.0,1.5867872445682307,4.698432800581835,3.016924026825407,0.9815293228150163,4066276557.0118494,3.113824036226626
532569600.0,1.58740079579793,4.698362473061143,3.016883780802435,0.9815339951884055,4066288211.5835114,3.23331914314547
532656000.0,1.5875928625360929,4.698332036434567,3.0169626651994816,0.9815191107202165,4066187260.725018,3.3502336148237335
532742400.0,1.587341491424891,4.698366656254539,3.0169115383915894,0.9815264920903662,4066320045.6941004,3.4699380726074116
532828800.0,1.5850390918504196,4.698606190019841,3.0169412021460467,0.9815209797246897,4066232388.7225847,3.5879623805597234
532915200.0,1.5869554653130196,4.698416649624659,3.016909390602233,0.9815247921375513,4066366027.68435,3.707180653649501
533001600.0,1.583134515527021,4.698776214350552,3.0168828846196214,0.9815283350741,4066619382.4251056,3.8264564011175892
533088000.0,1.5869907966774535,4.69843646156052,3.0168510590653623,0.9815309270805632,4066813245.5539713,3.9455966573188928
533174400.0,1.5876070624782486,4.698391012923207,3.0168101316821145,0.9815357283293714,4067228702.791647,4.065022386175138
533260800.0,1.589386105826144,4.698249738205633,3.016879663452201,0.9815252609106535,4066364780.6201324,4.1820347572358045
533347200.0,1.5889465496221251,4.698286851604223,3.0168366948109377,0.9815299763362164,4066931225.7379556,4.30150829655911
533433600.0,1.587761384425856,4.698353223412034,3.016880364138746,0.9815244654013688,4066309611.876232,4.419219881450221
533520000.0,1.5893205928045933,4.698273066612468,3.016850748643444,0.9815272179746701,4066732245.701307,4.5383445318916324
533606400.0,1.5858786732646906,4.698430767995608,3.0168500427836924,0.981527299035098,4066819554.0606136,4.656977329536891
533692800.0,1.5888691519950169,4.698316842833667,3.016813218159999,0.9815295553497082,4067409760.148187,4.7761169985900676
533779200.0,1.5886173663514171,4.698328401019444,3.016781583344391,0.9815320118306047,4068059254.1616526,4.89516451882314
533865600.0,1.5904276585413502,4.698282835993872,3.016863385964452,0.9815258181776443,4066298783.045036,5.0124817794263725
533952000.0,1.5890497387226103,4.698305693943444,3.016816953198635,0.9815292942099771,4067360273.804281,5.131711938241435
534038400.0,1.5882540913089755,4.698296611738177,3.0168735545047904,0.981526078835447,4066079191.450526,5.24959628016529
534124800.0,1.5887831356931774,4.6983107220907305,3.0168183803035498,0.9815299948640053,4067440781.3554373,5.368818455028053
534211200.0,1.586313652529168,4.698239151452495,3.016823318676688,0.9815306879562204,4067404255.5923133,5.48733751339797
534297600.0,1.5881253400595967,4.698321283270043,3.0167388072393737,0.9815361283723659,4069663320.8120565,5.606594878065359
534384000.0,1.5878497772074678,4.698307818333675,3.0166858425098404,0.9815409323450294,4071294205.202755,5.725436423983463
534470400.0,1.5894671469980544,4.698436866328954,3.0167838463432206,0.9815367729999481,4068788842.4441414,5.843359774659033
534556800.0,1.5886013400439847,4.698347703999041,3.0167132191250805,0.981544247745001,4071209714.962201,5.962166425559617
534643200.0,1.5887062643924255,4.698345271735707,3.0168108603936403,0.9815389800502036,4068533415.05247,6.080334146756079
534729600.0,1.5887590065163038,4.698388044633724,3.0167180518023358,0.9815603285493799,4073908980.5805254,6.199017172872467
534816000.0,1.5888212884779092,4.698544069086593,3.0008973773984993,0.981525558976477,4063070319.217978,0.034226847555688174
534902400.0,1.5891944251739216,4.69831423972547,3.0010845416310192,0.9815032637157584,4061469135.8519115,0.15306817439468468
534988800.0,1.5890016369345772,4.698412416016673,3.001061523545701,0.9814978189108701,4060042560.2967615,0.2720345305759367
535075200.0,1.590259535150862,4.6978667221089,3.001203530292113,0.9814939063124942,4062571787.1903715,0.39051262553930416
535161600.0,1.589188228781834,4.69828585921809,3.0011740780976335,0.9814938852839193,4061766189.159733,0.509449784393424
535248000.0,1.5893106598794975,4.698230532090083,3.001316136233839,0.9814864756541795,4063930577.6140614,0.6276818349684108
535334400.0,1.5891094867126163,4.698307869281522,3.001207013122339,0.9814907618342745,4062063055.0089235,0.7469800856845463
535420800.0,1.587301365515515,4.698853463124883,3.001316805540211,0.9814830765256078,4063432799.477191,0.8652547695161985
535507200.0,1.5883856142190242,4.698546249031014,3.001134479041232,0.9814943293116397,4060773588.5179076,0.9851595182394721
535593600.0,1.5877714063018,4.698714981766075,3.0011147616489158,0.9814949963878422,4060377190.4853053,1.1042234370298223
535680000.0,1.5908516571012745,4.697895706052568,3.0011508235605766,0.9814875727644036,4060894093.6360006,1.2227566494363966
535766400.0,1.5886462200290539,4.698459782314749,3.0011387093233615,0.9814890553344544,4060566996.652006,1.3418390375693416
535852800.0,1.5896915036782147,4.6981985771988795,3.00120637684706,0.9814783938417095,4061318853.25149,1.4601018636499843
535939200.0,1.589151172289269,4.6983328724599005,3.001116391316499,0.981488783289517,4060236396.052499,1.5798706161440867
536025600.0,1.5877274245834914,4.698646089110245,3.0012015981026896,0.9814766285331247,4061045122.731942,1.697952848127219
536112000.0,1.5889655778211325,4.698384384028162,3.0010542037990624,0.9814950077211675,4059539961.5432425,1.8184500481191526
536198400.0,1.588804201351754,4.698415262275561,3.0010559876042007,0.9814931820940792,4059525355.026482,1.9373946763875058
536284800.0,1.5933588797360516,4.697492923933849,3.001056845623626,0.9814875060223753,4059639950.55789,2.0560895828911545
536371200.0,1.590771998502498,4.697999581967591,3.0010869425158204,0.9814834214962692,4059807273.413962,2.174759044665454
536457600.0,1.5926331417124078,4.697644472444518,3.0011344570845937,0.9814715020267404,4060190817.804708,2.2928895992822156
536544000.0,1.5911915814608133,4.697912659800275,3.001092325190349,0.9814789531032192,4059859823.1696963,2.4125189285934936
536630400.0,1.590024742501832,4.698110088015367,3.0011698465917274,0.9814638803310606,4060307748.579244,2.5302379832798736
536716800.0,1.5899350662704286,4.69813273149732,3.001064999576267,0.9814818938920712,4059739569.9750805,2.6509142112836876
536803200.0,1.5894516448108371,4.6982076900557574,3.0010735323458197,0.9814785637770612,4059781814.592849,2.7697058272016286
536889600.0,1.5938414629779327,4.697519814069039,3.001046214539496,0.9814784596958616,4059713747.583834,2.88883799300927
536976000.0,1.5907041225921197,4.697993174855882,3.001078804642543,0.9814731322407236,4059794615.3330617,3.0073114540893955
537062400.0,1.5927978133437275,4.6976870307617675,3.001089979555129,0.9814670878809549,4059797284.012961,3.1258489461658594
537148800.0,1.590629524653232,4.69799370227317,3.0010555272727326,0.9814745441651623,4059818176.4427814,3.245586766130938
537235200.0,1.590433942860128,4.698012942232363,3.0011004934761583,0.9814638661565306,4059753108.9074297,3.363509875305339
537321600.0,1.5896395597345163,4.698121750597721,3.0010096535291684,0.9814810692640239,4060014485.0810423,3.4844089922437473
537408000.0,1.5900295176292092,4.6980696755174005,3.0010095061276583,0.9814787150538057,4060019873.3944373,3.6032444850128833
537494400.0,1.5947001321443302,4.6975343898131445,3.000966233148576,0.981482247681728,4060169980.0793405,3.7227826676985005
537580800.0,1.5925551082121991,4.6977659492074615,3.0010042735032307,0.9814752226686916,4059956337.8686404,3.840907536598985
537667200.0,1.595308536129927,4.6974816930512855,3.001003979331792,0.9814713334554684,4059853779.329595,3.9595811741238474
537753600.0,1.5931920234849997,4.697689617854476,3.0009908145425124,0.9814742665213994,4060068393.1915956,4.0788642665335795
537840000.0,1.5939545112744036,4.69761439512581,3.0010353929482343,0.9814650960237693,4059467187.5129647,4.196683550914986
537926400.0,1.5922211120793288,4.697766418179315,3.000967620767606,0.9814759939205201,4060461762.830051,4.317095020904129
538012800.0,1.5927332052112722,4.697721597355046,3.00097700557718,0.9814727153561675,4060270230.725777,4.435685285511967
538099200.0,1.5960650003317638,4.697497853094624,3.0009321947144665,0.9814763495078912,4060871642.443862,4.555273151027408
538185600.0,1.5941600042611785,4.6976090216822906,3.00098585742016,0.9814698001130147,4059959563.733048,4.673149558973336
538272000.0,1.596026102300821,4.697511597398814,3.00097823617966,0.9814689352514834,4059979661.4320145,4.792068245847291
538358400.0,1.593558476368926,4.697622865580605,3.000970841628306,0.9814707977648977,4060256557.8533683,4.911137339269585
538444800.0,1.594405001250072,4.697587077467745,3.0010101983864086,0.9814665667832767,4059321851.075222,5.02938008617611
538531200.0,1.5921057945134283,4.697652350128996,3.0009263542194677,0.9814751567769094,4061394815.8306274,5.149497600182628
538617600.0,1.5928051305900042,4.697635655833947,3.000925340725874,0.9814747678887716,4061378758.9158225,5.26830519306323
538704000.0,1.594927380181161,4.69764306503281,3.0008469037941996,0.9814805799251837,4063344783.841675,5.387979079599518
538790400.0,1.594252098633298,4.697624453985439,3.0009193312479905,0.981476096188749,4061512299.261469,5.506032812371776
538876800.0,1.595655223694409,4.697671734023455,3.000891797896071,0.9814779796831646,4062256665.4084077,5.625074916563519
538963200.0,1.5943315700239606,4.6976052273904605,3.000893785756859,0.981479281181238,4062349848.1968474,5.743861232147638
539049600.0,1.5953301625152756,4.697673406924112,3.0009502375572463,0.9814758841003797,4060783733.7588134,5.862363849778654
539136000.0,1.5939998573238798,4.697540136794522,3.0008426742677794,0.9814880926437891,4064577629.291367,5.981669672540591
539222400.0,1.5944953599641518,4.697603603869337,3.0008598956568897,0.9814933991617325,4065120507.225895,6.100388793974892
539308800.0,1.5946965800740311,4.697692132513151,3.0007460651245785,0.9815255380776818,4072837649.4050975,6.219237564779131
539395200.0,1.5947547945547034,4.6981403456590645,2.985070240856256,0.9815056231583222,4067150085.0634212,0.054471334274557755
539481600.0,1.5951183271357334,4.697930264255486,2.985062526126031,0.981483906993141,4063133152.7581367,0.17329420658476472
539568000.0,1.5943377512730765,4.698315270820634,2.9851480094255973,0.9814837850711214,4064444895.368852,0.2918921999154441
539654400.0,1.5949816844385651,4.698030065127923,2.9852148613654603,0.9814791767046076,4065340013.1766934,0.41042130233688656
539740800.0,1.5931463846753526,4.698761651198599,2.985119270201527,0.9814814582675232,4063248900.7227015,0.5295225094956723
539827200.0,1.5938126353737394,4.698510695293104,2.985109880660673,0.9814782315751311,4062837751.759864,0.6483628429714772
539913600.0,1.5945858841298493,4.698259467838877,2.984922478381798,0.9814868519208381,4059915013.5799465,0.7680773566910225
540000000.0,1.594773275780734,4.698186199139138,2.98509390281442,0.9814723688252629,4062199005.523682,0.8860681007674104
540086400.0,1.5957030201265932,4.6979095299573475,2.985000206862257,0.9814772862071046,4060852031.424346,1.0054596310412292
540172800.0,1.5941447476957626,4.698361098754634,2.9850735793398866,0.981470165208408,4061575165.2289405,1.1239322692200169
540259200.0,1.5959872811479872,4.69784440412351,2.9850707178534877,0.9814665889925951,4061552110.1736856,1.2427369962690034
540345600.0,1.5927737274058789,4.698712831242359,2.98503805320684,0.9814724547264083,4060908194.302785,1.3620166827010154
540432000.0,1.5945984020463753,4.6982359971672345,2.9850056350370973,0.9814724961492425,4060548123.4572434,1.4811231644589622
540518400.0,1.595512417218766,4.698015253729885,2.98487367554228,0.9814881518713038,4059125577.301345,1.6012499724232327
540604800.0,1.5970878684717515,4.697625698179148,2.9849997868509894,0.9814659115042437,4060448867.618152,1.7188384245426571
540691200.0,1.5980721562205387,4.697402944159615,2.984938604330268,0.9814724057867925,4059856328.6835546,1.8383647124444065
540777600.0,1.596583896284919,4.697733376939709,2.9850276154321436,0.9814579316118215,4060576512.3211026,1.9563509403754493
540864000.0,1.5987713004894089,4.6972581507428846,2.985016878466086,0.9814549587461491,4060538552.5872345,2.075227899376091
540950400.0,1.59439772369687,4.698181055308066,2.985043132313585,0.9814544776534811,4060576572.265333,2.1940721013992546
541036800.0,1.5962081203585843,4.69780987299147,2.985008713073345,0.9814562989940501,4060347132.955723,2.313335021595502
541123200.0,1.5958497419618085,4.697886510550386,2.9846706471459363,0.9817208139632667,4059262721.3877234,2.4334902555877087
541209600.0,1.5980996139145327,4.6974487061053924,2.9847426710269893,0.9817007787425455,4059740119.4000864,2.551101598971442
541296000.0,1.5981057868488056,4.697453978520275,2.9846901878383525,0.9817100093558956,4059466382.4095006,2.6709051995499746
541382400.0,1.5968097149037221,4.6976801864532165,2.9847502713746574,0.9816964959228706,4059705255.387721,2.788871288859648
541468800.0,1.5988894902146042,4.697324240203064,2.984712964868315,0.9816999460377417,4059597699.8214116,2.9082821669617696
541555200.0,1.5944478561234932,4.6980632735149195,2.9847421634246523,0.9816976185871471,4059648267.7646675,3.0269980717732086
541641600.0,1.596621765171791,4.697713931944673,2.9846910177487946,0.9817044088280864,4059586402.246468,3.1467629556534393
541728000.0,1.5961234307768337,4.697795646044861,2.9846256125996655,0.9817185529665664,4059623239.91365,3.267082675805639
541814400.0,1.5999308814649964,4.697221564480271,2.9846560736843206,0.9817034379764462,4059537154.6644797,3.3849419809938586
541900800.0,1.5998831896041272,4.697234444134746,2.984617706412799,0.9817107886237134,4059662972.810529,3.5046881752160286
541987200.0,1.5998802541601418,4.697228552920781,2.9846661468637516,0.9816966871592167,4059446135.051912,3.622442392734438
542073600.0,1.6019268037630991,4.69696489641671,2.9846329695621012,0.9816996973840331,4059575649.026774,3.7418751231149123
542160000.0,1.598182572747874,4.6974288715049335,2.9846803916559606,0.981692460028794,4059343867.8967624,3.8599976274974943
542246400.0,1.5999717765399428,4.697218380138687,2.984636713153166,0.9816977797224578,4059657706.793572,3.979713783146738
542332800.0,1.5986974702460848,4.697364597057349,2.9845996492473224,0.9817058224091375,4060146148.338614,4.099554038574507
542419200.0,1.6025285525861455,4.696954055500467,2.9846184587642735,0.9816947477561069,4059645977.832968,4.217580524562326
542505600.0,1.6013807023132078,4.697073410097574,2.9845959438472383,0.9816995941119049,4060049765.8445907,4.33705614865907
542592000.0,1.601541052633147,4.697051631784277,2.9846398896720356,0.9816889559192228,4059255055.8379755,4.4548829438960125
542678400.0,1.6023565059367317,4.696989218565239,2.9846039225078154,0.9816937679593052,4059835577.0083213,4.574467606773208
542764800.0,1.5992244654294643,4.697223012216928,2.9846535668332357,0.9816880034128501,4059051147.133055,4.692538515598598
542851200.0,1.6001314330267902,4.697165234526935,2.984594976634516,0.981695360550042,4060202548.5008435,4.812485281232045
542937600.0,1.5986733605312902,4.697253967953338,2.984552253193259,0.9817018908679613,4061285295.624478,4.93215769833558
543024000.0,1.602335817003995,4.697065919219612,2.984554229741648,0.9816977572572754,4060901271.4507217,5.05074180839353
543110400.0,1.6012811754342713,4.697113802862112,2.984524895202092,0.9817019853728077,4061748149.6714077,5.1700514013370595
543196800.0,1.6023023204771498,4.697076128828826,2.984570675554261,0.9816954338813244,4060389686.2582765,5.28818003522552
543283200.0,1.6028144121402494,4.697077483351824,2.984521267077718,0.9817002558094889,4061738513.9104834,5.407608970208157
543369600.0,1.6014465278920968,4.697068056289381,2.9845986032970058,0.9816944046083782,4059664004.352524,5.525669147001295
543456000.0,1.6019225350901325,4.697084303743082,2.984518776842697,0.9817015116651062,4062011531.7909026,5.6452418382187926
543542400.0,1.6010350647841451,4.69705092701062,2.984479627159588,0.9817062494903661,4063367444.327859,5.76432461854018
543628800.0,1.6032394887244328,4.697187007322766,2.9844909784864457,0.9817045006386742,4062966476.5227165,5.882996810073513
543715200.0,1.6024930626812814,4.697120109158671,2.9844753555341006,0.9817084093008595,4063812151.1485143,6.001831759437475
543801600.0,1.6030498674966593,4.697188675248392,2.984575959483667,0.9816997936741794,4060598629.0315166,6.1203344906503565
543888000.0,1.602827912528055,4.697161567033335,2.984539594168635,0.9817322862372586,4067399445.889238,6.2393027883734975
543974400.0,1.6027253592984212,4.6979442073819015,2.9685985821932808,0.9817633384759719,4075337352.234959,0.07444035406108895
544060800.0,1.602861215646216,4.697891144533155,2.968436733580362,0.9817356652367529,4067718089.05692,0.1931995770604535
544147200.0,1.602214767359564,4.6982101636520035,2.968406920108441,0.9817282277162956,4065695652.7814226,0.3119893088867585
544233600.0,1.603862457970617,4.69747914629648,2.968336993336879,0.9817222332250057,4064000124.766675,0.43089737682659385
544320000.0,1.6029397453633956,4.6978565739190215,2.968341446602656,0.9817211941872971,4063664234.7498255,0.5496842481962556
544406400.0,1.604062367926515,4.697424334839656,2.968424984562511,0.981711892048586,4064730451.6940207,0.668097245239303
544492800.0,1.6037043764785346,4.697562288666239,2.9683245329710966,0.9817170801684221,4063037049.796117,0.7873452505248189
544579200.0,1.6033165052639806,4.697680145048159,2.9685086417686195,0.9817008692946696,4065341278.605018,0.9051664215551307
544665600.0,1.6029270672066638,4.697815697431399,2.968347700926984,0.9817144957792636,4063076138.2027125,1.024868210600481
544752000.0,1.6018694287709168,4.698136585568323,2.9683440415682134,0.9817147543719804,4062819639.1919394,1.143762697875557
544838400.0,1.6055025922970227,4.697064951469537,2.9682413586831298,0.9817186994017633,4061808123.9151864,1.2631262235494534
544924800.0,1.6042554424738364,4.6974195682171285,2.9682904786958204,0.9817134334106979,4062198274.7557707,1.3816714410842483
545011200.0,1.606723101876559,4.69673721552614,2.968335061900416,0.9817005214063508,4062789908.956144,1.4999659272548804
545097600.0,1.6057860854508583,4.696992332393529,2.9683005907926647,0.9817060718978144,4062309733.343265,1.619170898685752
545184000.0,1.6060692668566534,4.696910585803306,2.9684472171414336,0.9816803752783169,4063726649.3660493,1.7365002838486792
545270400.0,1.6045119795468634,4.697306392568505,2.968360044667495,0.9816964716231653,4062757778.166152,1.8563339307633355
545356800.0,1.6029960482777612,4.697667524684273,2.9683846285697246,0.9816928892814862,4062848524.0408144,1.974994362870546
545443200.0,1.606636127219519,4.696819837928805,2.9682788719432995,0.9817032716871231,4062127857.342746,2.094790847884762
545529600.0,1.6048512674066107,4.697222665225698,2.9683331258187615,0.9816946316200459,4062446109.798752,2.213080662168343
545616000.0,1.6076305987956256,4.69660909892273,2.9683284366704927,0.9816868357343066,4062515313.90755,2.331685000850135
545702400.0,1.605813185344226,4.697001577434776,2.968309456430972,0.9816933133125577,4062310145.831002,2.4509738551199023
545788800.0,1.6069964141948896,4.696749358382584,2.9683838742612805,0.9816713850673203,4062768847.5174294,2.568470312866651
545875200.0,1.6045669990950597,4.697244661567498,2.9683224494241927,0.9816894824398833,4062385074.8895125,2.688552581516811
545961600.0,1.6036249436915757,4.697423244856163,2.9683314318205505,0.9816866061834482,4062402838.5438395,2.807300066784174
546048000.0,1.607387060307606,4.696718378956213,2.968222856737676,0.9817027426516918,4062126167.8867264,2.9276522173726325
546134400.0,1.6065371650753788,4.696869755208889,2.9682643385810943,0.981691831863919,4062223321.4088244,3.045756096137356
546220800.0,1.6101621143099574,4.696229244445595,2.968238156988388,0.9816873165876678,4062205262.3822846,3.164634840296281
546307200.0,1.6085416044075247,4.696508574018,2.9682405042675826,0.9816887483233729,4062233476.446773,3.2836038411772637
546393600.0,1.611024875446377,4.696093043048968,2.968281198800777,0.9816681611194629,4062120577.559429,3.40108987453214
546480000.0,1.6080595835417504,4.696570625437166,2.9682619408674498,0.981679587443617,4062259401.047491,3.520745757885215
546566400.0,1.6075705477958937,4.696640072547685,2.9682778746813376,0.9816732495793462,4062195027.9442196,3.639180523391599
546652800.0,1.610191663246673,4.696261574270423,2.968194778368992,0.9816873994206472,4062614332.205273,3.759515182659433
546739200.0,1.6095571284774057,4.696345271041557,2.9682381722738507,0.9816744904094953,4062292768.4012218,3.877278469446668
546825600.0,1.6123553828524295,4.6959711493187,2.9682065400015785,0.9816730164827128,4062390791.604514,3.996322350759941
546912000.0,1.6101354972927966,4.6962560123337855,2.968222065199533,0.9816723934183625,4062378565.3660064,4.115014733420472
546998400.0,1.6125466658987169,4.695959076001958,2.9682405162555527,0.9816593097771837,4061845470.369034,4.2328993682978835
547084800.0,1.6088475202992085,4.696387842975794,2.968233844612003,0.9816686384728417,4062317055.202248,4.352365276187628
547171200.0,1.6085741479246718,4.696411595982777,2.9682375360111415,0.981665891251264,4062216021.447195,4.471010803750835
547257600.0,1.6099548463765387,4.696282096017244,2.968152334956549,0.9816809680098019,4063730512.016881,4.59150012504767
547344000.0,1.6101725938052767,4.696254490815895,2.9681833090948886,0.9816721053908022,4062980366.6416545,4.709455422725488
547430400.0,1.6125577181378485,4.696059312682578,2.968138177824785,0.9816747718056114,4063649124.5740504,4.828791538584012
547516800.0,1.6111591809890151,4.696162524791272,2.9681523029203376,0.9816734086489064,4063456313.9003687,4.9473377043724245
547603200.0,1.6139173713305714,4.695979777791455,2.9681613629116286,0.9816659272781173,4062728865.543657,5.065602927451136
547689600.0,1.6110850272480346,4.696139115345667,2.968160513486533,0.9816707488656985,4063194734.0201254,5.184605141459023
547776000.0,1.611508266121138,4.696114328089095,2.968167002737451,0.9816682494353082,4062864813.1122665,5.3031857392315604
547862400.0,1.6119997268093944,4.696110848089934,2.968070909890182,0.9816795157775401,4065663622.362961,5.423088233380564
547948800.0,1.612729685526156,4.696087814176698,2.9681296241171404,0.9816713119976059,4063723565.9784584,5.5410452613982875
548035200.0,1.6139184683725378,4.696099182071631,2.96808355192334,0.9816746200160109,4064998002.7867966,5.660119700352348
548121600.0,1.613032063987098,4.696072513400704,2.9681286335676798,0.9816713646203258,4063699157.9255757,5.778480428597096
548208000.0,1.6144288579496642,4.6961432421192235,2.9681565973690196,0.9816672230495088,4062619876.032994,5.897028498632503
548294400.0,1.6127780743039064,4.695999572426535,2.9681677239706787,0.9816705028643014,4062780702.948378,6.015797048729579
548380800.0,1.6129878500444301,4.6960197645489945,2.9681796964926397,0.981675129613042,4063358712.32931,6.134589533737563
548467200.0,1.6127415145160753,4.695971857457325,2.9684205392879375,0.9817620817350451,4077026164.172223,6.253492481330985
548553600.0,1.612653218239542,4.696990531946529,2.9522213265906854,0.9817107730741139,4066677641.730265,0.08877039557175782
548640000.0,1.613045264971643,4.696776364586855,2.952104661836391,0.9816903986757389,4061292042.834083,0.20777706209232868
548726400.0,1.6126432348030606,4.6969685003130435,2.9522528869752525,0.9816826765654908,4062734158.3128543,0.32642385003478935
548812800.0,1.6138819465021017,4.696404767959613,2.952239012207841,0.9816736454569985,4061781805.2428393,0.4453444525577056
548899200.0,1.612072604004472,4.69716550118396,2.952321861882649,0.9816712884197462,4062498115.038259,0.5639895839209963
548985600.0,1.612544097462217,4.696975814747365,2.9523090889340033,0.9816680429619267,4062077574.301693,0.6828705150531871
549072000.0,1.6119704750931325,4.6972003615977,2.952100149063745,0.9816827455835303,4058925694.272944,0.8027541543214527
549158400.0,1.613643530268716,4.696597914817279,2.9521981822732513,0.9816686019375134,4060262579.8147225,0.9211282089834363
549244800.0,1.6144526657926535,4.696334039616823,2.95208336507268,0.9816767126667297,4058818550.239042,1.0406841074803348
549331200.0,1.6141416867940455,4.696426940840112,2.9522125892412725,0.9816612798658,4060210508.956609,1.1588581245729355
549417600.0,1.616594881203387,4.695665322815734,2.9521709664333313,0.9816583895897525,4059919304.858792,1.277897426870716
549504000.0,1.6136857271330627,4.696538898317062,2.9523079951977853,0.9816460522646997,4061034482.4434786,1.3960018077423175
549590400.0,1.6143389315349632,4.69634766520793,2.952298610459697,0.9816434499216314,4060909390.9514637,1.5149209478375285
549676800.0,1.612407690167693,4.696898871745788,2.952192457780166,0.9816637562402777,4059608970.4355335,1.6349680198937533
549763200.0,1.6149744703115227,4.696189620549165,2.952234732695505,0.9816473066018224,4060176423.845919,1.753267804605182
549849600.0,1.6149782269458581,4.696195607537975,2.9521536840174707,0.9816602120641298,4059399387.3158007,1.873055824972605
549936000.0,1.6148444383510558,4.696223266610202,2.952240362120485,0.9816416462694908,4060091482.7432237,1.9910615859155647
550022400.0,1.6172830429738254,4.6956179148195325,2.9521683916236987,0.9816464286982789,4059659460.021054,2.110571198514992
550108800.0,1.6141879780325001,4.696366581506602,2.952280445335783,0.9816304482518369,4060271051.2662024,2.2284500026745477
550195200.0,1.615033883531286,4.696167580789681,2.952240130861655,0.9816341512782764,4060011011.1883855,2.3478064115870985
550281600.0,1.6127741162702676,4.6966908477360185,2.9521006010674133,0.9817263191606317,4059322772.9393196,2.4679985122559205
550368000.0,1.6167477226948432,4.695798090593077,2.952081475317614,0.9817149776936371,4059395367.235856,2.586675985474663
550454400.0,1.616690025680274,4.695816233042317,2.9520235651437634,0.981727949512479,4059118909.581011,2.706588290793992
550540800.0,1.6179304083945765,4.69554792408871,2.9520704711070342,0.9817076597795351,4059352739.6471124,2.8245084065169075
550627200.0,1.6205861477044083,4.695009389450328,2.9520034569832907,0.9817133445869382,4059224601.2308383,2.9441958289873424
550713600.0,1.6184890528207108,4.695420730879828,2.9521026070031744,0.9816907150708872,4059397966.1684785,3.0615811918953018
550800000.0,1.6194060287260703,4.695246216676404,2.9520722674614146,0.9816931007817765,4059369852.1521297,3.180917280245146
550886400.0,1.61627960399525,4.695832486191369,2.952064366334865,0.981705125485476,4059412229.977642,3.3006026626930356
550972800.0,1.6204933865999618,4.695066875847272,2.95203018448404,0.9816955016730895,4059389825.0244536,3.4193804605513143
551059200.0,1.6194498822149341,4.695253961078917,2.9520096777740314,0.9817039557179715,4059511135.5048137,3.538971531639779
551145600.0,1.62089386078234,4.695003749051205,2.9520366092170907,0.9816853277511057,4059297574.3642254,3.6568487387822612
551232000.0,1.6222404295103057,4.694791138485832,2.951986742133969,0.9816930595619757,4059546071.461706,3.776634346356547
551318400.0,1.620555691530709,4.695047750726929,2.9520633186485377,0.9816724708697073,4059002960.819808,3.8939376134487333
551404800.0,1.620626250354543,4.695041210180997,2.9520339411922243,0.9816791289052381,4059277522.7387056,4.013531539528555
551491200.0,1.617159911159299,4.695539184399607,2.9520377159567412,0.9816887566108997,4059610315.729449,4.133049059869881
551577600.0,1.6211187549472033,4.694996090523444,2.951983516537741,0.9816875415303614,4059854700.366309,4.252386300958697
551664000.0,1.619868196805391,4.6951621538062405,2.951966332956727,0.9816954567959907,4060331008.878638,4.371929248022555
551750400.0,1.6220910222726064,4.6948831464336935,2.9519672745216075,0.9816832927331862,4059844081.7718816,4.490175784497044
551836800.0,1.6230479428287299,4.694780442776355,2.9519177840992263,0.9816915300840787,4060694763.4093227,4.609993229760403
551923200.0,1.6229560837335135,4.694781255470678,2.9519766539818555,0.9816740342889009,4059236057.1698456,4.727411468355958
552009600.0,1.623062211076676,4.694776702698819,2.951946330082321,0.9816797800737771,4059927440.008022,4.846916767475585
552096000.0,1.6205379264356026,4.6950010871646795,2.951956833759365,0.9816833540914698,4060148155.1788387,4.965937692532187
552182400.0,1.6238926981007171,4.694733844605199,2.9519008729220464,0.9816836332318059,4060874871.5841355,5.085292051728075
552268800.0,1.6227716475969458,4.6948136569142065,2.951897064390412,0.9816865469983354,4061240759.2309313,5.2043140204450555
552355200.0,1.6247844030187812,4.694691295865984,2.9519097659801603,0.9816773389178267,4060196519.9442334,5.322645718786429
552441600.0,1.6247542915962974,4.6947021707339776,2.95186824980958,0.9816832867540227,4061523891.2584815,5.442039766048668
552528000.0,1.6250543646434463,4.694680262214123,2.951959988869861,0.9816691111975182,4058342127.5197744,5.559785076012971
552614400.0,1.6244252696360821,4.694697383503006,2.951926736770289,0.9816752312565088,4059661855.5579896,5.679093159461628
552700800.0,1.6226899559307575,4.694671020092484,2.95194221958592,0.981677363831654,4059596691.9127483,5.797960534959453
552787200.0,1.624076011995616,4.694733724584666,2.9518566723892303,0.981685981178485,4062498730.399813,5.9173114219279865
552873600.0,1.6233582482944073,4.6946753714277065,2.9518411040373445,0.9816927621437127,4063778955.3291855,6.03619886413558
552960000.0,1.624265955956118,4.694801963115938,2.9518769385131813,0.9816941603015138,4063507795.2008715,6.15490165315239
553046400.0,1.6240752466302932,4.694778514391811,2.9532240735979474,0.9813693622777941,3983484482.9103436,6.273341391823446
553132800.0,1.6239589734061957,4.69604359308703,2.9359583741696027,0.9817083285261398,4066600992.010082,0.10903583595493682
553219200.0,1.6237216543949053,4.696221304756192,2.9358938246093413,0.9816945120209408,4062898344.915667,0.22794535963547516
553305600.0,1.6228096233666789,4.6966852148115015,2.9359723067454864,0.9816912917864438,4063396419.5756874,0.34663328620917605
553392000.0,1.624078013510265,4.6961000649782605,2.9357483912860056,0.9816898685387642,4059318679.9907613,0.46611251372860085
553478400.0,1.6234162961924519,4.696383792754001,2.9357922480958223,0.9816876687836531,4059610948.5693884,0.5849586120611566
553564800.0,1.6252257456743902,4.69564215307947,2.9357892287852083,0.9816804581931341,4059666183.9352164,0.7038289233222468
553651200.0,1.6247421582548145,4.6958367010544055,2.9357289740944017,0.9816855167104589,4058650131.6661577,0.823092254655081
553737600.0,1.6263201005488468,4.695242910926883,2.9359190049064168,0.9816608391328743,4061156545.962973,0.9409717444185297
553824000.0,1.6251130946140857,4.695678765808915,2.9358893771695587,0.9816664634935774,4060506084.15322,1.0601192616756174
553910400.0,1.6233732557297809,4.696263112017583,2.936006368728592,0.9816560474728391,4061469575.6794815,1.178440226592829
553996800.0,1.6249269700055442,4.695761254429832,2.9358207167746,0.9816734821397698,4059543396.537505,1.2984799952271455
554083200.0,1.6237130175032415,4.696142301264537,2.9358918770755933,0.9816657833198466,4060052632.0264325,1.417024197116982
554169600.0,1.6262334734939308,4.695367061358521,2.9358422276488456,0.9816621238350636,4059783901.448817,1.536109485884264
554256000.0,1.6248274489660504,4.695790170865169,2.9358212361827443,0.9816693177560432,4059352041.3871546,1.6554224745232775
554342400.0,1.6275599232157993,4.694991329812883,2.9358976468258757,0.9816422760135195,4060308211.4642363,1.7733144846125084
554428800.0,1.6254187273365177,4.695600732705167,2.93588750556847,0.9816512553589924,4059939875.664518,1.892630363809214
554515200.0,1.6238815641046724,4.696015525074313,2.9359649915450956,0.9816389967649297,4060376906.954332,2.010931747393824
554601600.0,1.6252520316809036,4.695658033851477,2.9357998748281893,0.9816668255695038,4059179574.504744,2.131622117782599
554688000.0,1.624705614576914,4.695794683994246,2.9358461751995226,0.9816562555007744,4059450312.9581995,2.250096491306558
554774400.0,1.6281215405125586,4.694933129754543,2.935763607574664,0.9816578135380549,4059150860.0314775,2.369593811327063
554860800.0,1.6269038259889423,4.695233968499167,2.9357672334749765,0.9816603413118488,4059080223.8138304,2.4887425699713637
554947200.0,1.631234168841294,4.69419134630027,2.935772874876497,0.9816337487276475,4059391871.3728023,2.6067493571212896
555033600.0,1.6292319200988954,4.694663299434837,2.935749265605615,0.9817105878357703,4059228103.707553,2.7257510536478757
555120000.0,1.6284811170187887,4.694827872749946,2.9358131872387188,0.9816924779906623,4059433301.951265,2.843734267998283
555206400.0,1.6289747666065917,4.694726565722279,2.9357122428032163,0.981717937220831,4059161647.8131714,2.9644082135244245
555292800.0,1.6288177122071088,4.694754335493083,2.935756639343887,0.981701548068189,4059254244.793145,3.0825055521025604
555379200.0,1.6316632643972568,4.694163013230157,2.9356868097411954,0.9817047539519539,4059228160.419196,3.202108453962664
555465600.0,1.6298591187135807,4.6945285141071125,2.9357154705887876,0.9817023991454012,4059250034.7184334,3.32089151672938
555552000.0,1.6341306650244498,4.693684782892496,2.9356846586539125,0.9816829851864103,4059188694.833866,3.4392230674067483
555638400.0,1.6310079867952296,4.6942837836274185,2.935729147386127,0.9816841351032412,4059187327.4064984,3.5580088994309764
555724800.0,1.6304581747506866,4.694379956024864,2.9357645745153724,0.9816704207137316,4059013847.4991436,3.676148391762338
555811200.0,1.6295921988501914,4.69454277061336,2.9356989946447634,0.9816974995828397,4059568808.9474773,3.796970990357632
555897600.0,1.6300236597414646,4.694461765714191,2.9357139848902105,0.9816853279508748,4059363182.765489,3.91526215515244
555984000.0,1.6323505691854434,4.694080822777708,2.935642798738573,0.9816945776080959,4059832483.356627,4.035251304585333
556070400.0,1.6311319235136652,4.694272402360113,2.9356600420047023,0.9816916129659751,4059776693.868138,4.153975140068037
556156800.0,1.635714620743163,4.693573153391875,2.9356014097995984,0.9816807303482037,4059735964.736353,4.27281069239556
556243200.0,1.6333468993693063,4.693918760445832,2.9356407305663152,0.9816786413316758,4059523446.7804036,4.39135874936813
556329600.0,1.6339012693221797,4.693837023486835,2.9356542375504993,0.9816667597243413,4058981255.6826015,4.509588618756216
556416000.0,1.6326425011205086,4.694009838403812,2.935610728059169,0.9816865738602968,4060334864.157646,4.629970304118466
556502400.0,1.633916068296257,4.693845937783376,2.9356173799923013,0.9816741272088899,4059651670.209157,4.74817470793028
556588800.0,1.6354414480113495,4.693679095187205,2.9355604916279994,0.9816810957579349,4060667068.8331413,4.867912115333689
556675200.0,1.6346417033650953,4.693757745855439,2.935586817901142,0.981674633600077,4060031449.804822,4.986277384461793
556761600.0,1.638034103287229,4.69343857712093,2.9355387008144107,0.9816684688436975,4060138989.345452,5.105231461069673
556848000.0,1.635936808077899,4.693613294115366,2.9355932390993966,0.9816640282958194,4059094876.648469,5.22351592293616
556934400.0,1.6362678267197521,4.693584673818576,2.935615607475752,0.9816565486462733,4058059917.045025,5.3419601730064805
557020800.0,1.634290244141177,4.693709938482024,2.9355691230885244,0.9816723048760605,4060463925.898527,5.4618531857983506
557107200.0,1.6352333749011414,4.693659378849791,2.9355836484508613,0.9816657699352618,4059489082.3723783,5.580396032876812
557193600.0,1.6355136150516454,4.693664406724895,2.935509918565025,0.9816763357918962,4062117127.665177,5.699977842118972
557280000.0,1.6351794641615132,4.693654014410032,2.9355400908374016,0.9816730754630532,4061127390.65183,5.818554870300611
557366400.0,1.6368226496267386,4.693712384468359,2.9354741602894223,0.9816794277707331,4063351238.716525,5.937711580706439
557452800.0,1.6359274544346052,4.693635687672749,2.9355624050380382,0.9816866593744765,4062694849.2644644,6.0563759297409945
557539200.0,1.635940897739872,4.693633175156038,2.935634096687039,0.981691466541256,4062239321.8681126,6.17512230421263
557625600.0,1.6356816328508275,4.695059491237686,2.9186770636727357,0.9812580422290271,3960146007.501516,0.011132594827852673
557712000.0,1.6357436191057653,4.695006950532865,2.919963481208554,0.9816952386411094,4063870757.363224,0.12941555199536925
557798400.0,1.6358322643056729,4.6949810322635575,2.919802278237927,0.9816789222233528,4058214138.1660047,0.2486604800129078
557884800.0,1.6357701775199758,4.6949951286290945,2.91993924345984,0.9816742369601926,4060167181.9496326,0.3673385919612402
557971200.0,1.6372485503126342,4.694293027665677,2.919793459893717,0.9816719451845701,4057886544.986893,0.48664760005375735
558057600.0,1.636442464834115,4.694645568265986,2.9200230080852134,0.981660967871981,4060882360.576732,0.6048805321078882
558144000.0,1.6370398914880029,4.69439210428032,2.9200793078505005,0.9816523933442921,4061569435.8128853,0.7235017198710496
558230400.0,1.6347191257557598,4.69533174885645,2.9200311135123997,0.981663857630424,4060317862.586701,0.8427774479210992
558316800.0,1.6362661691167315,4.694729753602618,2.9200485547350024,0.981653672116416,4060661425.8619986,0.9614863106122433
558403200.0,1.6357410952255493,4.694932688351904,2.919930192730013,0.981667890783156,4059082372.5728645,1.081129896441806
558489600.0,1.6359701373494218,4.694842013355387,2.9200322951517017,0.9816517396433344,4060121751.07911,1.199456079273169
558576000.0,1.6379278482831563,4.694176326728801,2.9198741402330506,0.9816633127012729,4058693048.120255,1.319261957188636
558662400.0,1.637021343181871,4.694471419488633,2.920051702100286,0.981638559359521,4060257012.5255346,1.4370507513981885
558748800.0,1.6379391834417958,4.694175892656733,2.9200446036535683,0.9816328617020704,4060244067.7690096,1.5559174081119016
558835200.0,1.6343549068468928,4.6953056220101095,2.9200543040233913,0.9816468863910832,4059732400.7669196,1.6752896164864959
558921600.0,1.6370537310984692,4.694476818502608,2.9199962565915625,0.9816415928598207,4059522913.200246,1.7943928753222596
559008000.0,1.6362140593469852,4.6947325654108525,2.919917281853816,0.9816603834907258,4058700441.1191635,1.9143076526115526
559094400.0,1.637714813771234,4.694290266104725,2.9199568474469237,0.9816408144237192,4059155648.569929,2.0326294125156075
559180800.0,1.6399933710522536,4.693653448576424,2.919818241561979,0.9816571891093888,4058359078.9054933,2.15280179637439
559267200.0,1.6403285234624232,4.693553573604875,2.919941287198379,0.9816224085253916,4059244454.0682216,2.2701996522611236
559353600.0,1.6417625385156385,4.693170697795876,2.9199217913369315,0.9816154226032212,4059246776.3628387,2.38909545715064
559440000.0,1.6378077019899562,4.69420746873309,2.919993658987282,0.9816190902020232,4059285352.567261,2.5079599745245718
559526400.0,1.6410122870131512,4.69338705077307,2.9199255754726368,0.9816138696480777,4059181132.9196916,2.627154350055233
559612800.0,1.639407145239834,4.693790982480502,2.9199130752278912,0.9816264705684181,4059016076.2869606,2.746741578892568
559699200.0,1.6413346788116685,4.693316577853788,2.9199254840933127,0.9816047560566007,4059174357.830994,2.8649305837945755
559785600.0,1.6424180374895205,4.6930670953886295,2.9198395426028476,0.9816221246968809,4058997692.4933267,2.9851296639655645
559872000.0,1.6431911913194226,4.692881048251678,2.9199133919770928,0.9815865842480058,4059157093.694004,3.102361186424449
559958400.0,1.6438825657385727,4.69272960694254,2.9198929209714675,0.9815850314273125,4059149406.1984115,3.221449805020507
560044800.0,1.63948742908627,4.693688539669582,2.9199768749658013,0.9815856498418388,4059154801.476129,3.3400641212650264
560131200.0,1.642303182628901,4.693091261087009,2.919896270951154,0.9815899742027288,4059224567.9859314,3.4597702143235662
560217600.0,1.640232166771157,4.693520917403959,2.9199009137757415,0.9816024927067307,4059353551.0470586,3.579342004311881
560304000.0,1.6427974490952044,4.693002583041385,2.9198696254208625,0.9815884262174579,4059284120.9697685,3.697939332621323
560390400.0,1.6433137965881692,4.692909457094392,2.919805603963714,0.9816074915798609,4059726701.159818,3.818274818422758
560476800.0,1.6455069587666566,4.692489969567995,2.919818356113776,0.9815766619736184,4059213185.7885256,3.9357376236487265
560563200.0,1.646364574660469,4.692339557034538,2.9197906076976934,0.9815772145836613,4059349687.596778,4.054952349575371
560649600.0,1.643140740696979,4.692897905399997,2.919860877642182,0.9815714263237649,4059028297.969372,4.173212887772983
560736000.0,1.645865732336556,4.692444413653585,2.9197834151375996,0.981576644770403,4059560393.528649,4.293013632536069
560822400.0,1.644138661587743,4.692721864297207,2.9198011185378223,0.9815811401088493,4059720237.9879804,4.4120992775849865
560908800.0,1.6469245375103638,4.69229175644475,2.9197609836872704,0.9815685182557281,4059492707.1201086,4.530714209296344
560995200.0,1.6465948816887477,4.6923464985238414,2.919728715840574,0.9815811529673478,4060407735.148264,4.6505662098438805
561081600.0,1.649058751578793,4.692000119384173,2.919730282199954,0.9815548972345761,4059044783.663642,4.768145287381087
561168000.0,1.6490269981492371,4.692010549679966,2.9197218385982997,0.981555923163293,4059229893.9789367,4.8872125271207825
561254400.0,1.64634687763969,4.692322573358469,2.9197934229810576,0.9815484774210008,4058087904.736547,5.005297981192391
561340800.0,1.6475906655858725,4.692193622808546,2.919730645806387,0.9815573946146352,4059500603.5818105,5.1251413182250145
561427200.0,1.6458168514920768,4.692364927348427,2.9197524644020794,0.9815608169467851,4059596876.393541,5.244074851736294
561513600.0,1.6477199079368887,4.692200413402126,2.9197149021793436,0.9815570695730509,4059775895.4678116,5.363058442765577
561600000.0,1.646815373958527,4.692272429999377,2.9196759586461924,0.9815693367203703,4061718265.14541,5.482668906353059
561686400.0,1.6489704596732873,4.692143325923747,2.919686513299354,0.9815547035617014,4059905990.6493287,5.600906187181722
561772800.0,1.648721608106636,4.692162010591773,2.9196661143862697,0.9815595916922019,4060872821.309133,5.7200251827982225
561859200.0,1.6476256654108787,4.692160855798801,2.919737028668547,0.9815530089732962,4058657823.0237584,5.838433997491895
561945600.0,1.6480368288552434,4.692185114033495,2.919632009904273,0.9815684335809527,4062853364.523755,5.95794524498583
562032000.0,1.6475094919385174,4.692139273343299,2.9196410427614117,0.9815744129438394,4063588433.3471136,6.076750897726594
562118400.0,1.6480006925083146,4.692215107111241,2.9196159387339278,0.9815928132145487,4067332437.1212335,6.195607465169878
562204800.0,1.6479231537151686,4.694109554587204,2.903882203297249,0.9815788733546081,4061057259.6455984,0.031041805728754927
562291200.0,1.6482499279276417,4.693813607375693,2.904221925528308,0.9815818938048563,4066761706.80506,0.14955492251953473
562377600.0,1.648139399705285,4.693903022048153,2.9042196995267067,0.9815790407589979,4066088296.2701683,0.2682063134384575
562464000.0,1.647504140703283,4.694228502038032,2.9044835980077885,0.9815736187069297,4070026591.71757,0.3862229457801885
562550400.0,1.6476279605065831,4.694185005865004,2.9042712585254136,0.9815792253333487,4066465304.9936337,0.5053781513975767
562636800.0,1.6467353034669365,4.694590197547836,2.9043841897588654,0.9815740910095243,4067553458.4984655,0.6236987496724282
562723200.0,1.6480303731079589,4.694025150359268,2.904281398434873,0.981573551371464,4066306114.928758,0.7426301519904337
562809600.0,1.6466846387912444,4.694590817066278,2.9042498086505333,0.9815814061191347,4065426151.8732443,0.8615716302465923
562896000.0,1.6494298826183604,4.693484159606926,2.904259669264251,0.9815642799799624,4066033273.1150765,0.9799395316511346
562982400.0,1.6488126403519248,4.693728966689186,2.9040648325253504,0.9816635306254948,4068442100.3473554,1.0971275152316373
563068800.0,1.6481808354432044,4.693954851988771,2.90425412485782,0.9816390046011041,4070183675.648301,1.2146234079959548
563155200.0,1.6477219953811761,4.694131186624846,2.9040814891891853,0.9816650448167002,4068210159.0423126,1.3343613772182312
563241600.0,1.6469505580381347,4.69439446437476,2.9041628541211177,0.9816542068849424,4068756810.404405,1.4524802189432044
563328000.0,1.6490685348208642,4.693677511240454,2.904023180242186,0.9816632547020747,4067754322.9763923,1.5718205630414277
563414400.0,1.6475322659002727,4.694186096885805,2.904031944138797,0.9816693720983528,4067486445.027728,1.69064002153201
563500800.0,1.6521430669038641,4.69269565017369,2.90394828390125,0.981652523846925,4067510768.1132464,1.8091644725357832
563587200.0,1.6514243926288366,4.692924790483499,2.9039859191702386,0.9816477501090166,4067658556.878111,1.927559899196054
563673600.0,1.6519113732103254,4.692767923480272,2.904112262471751,0.9816121376307337,4068671528.3253083,2.044707292001839
563760000.0,1.6507551249521382,4.693122749936814,2.904031985134841,0.9816382443887194,4067872170.700138,2.1644696874386553
563846400.0,1.6505249773865855,4.693183418258417,2.904107309594464,0.9816176526140513,4068331126.657968,2.2821963047820297
563932800.0,1.6523934188278333,4.692654713878849,2.9040036926672737,0.9816280175661265,4067892638.6846905,2.40162679903408
564019200.0,1.6503889930754023,4.693211458178781,2.904059882965229,0.9816256912872384,4067975984.621686,2.520007867389673
564105600.0,1.655146164963479,4.691915769692754,2.9039488053276488,0.9816137922422684,4067897197.93105,2.638779481880749
564192000.0,1.6537566878306795,4.6922866539811725,2.904006232787264,0.9816055891556327,4068030895.351325,2.756898633320766
564278400.0,1.6545839099431607,4.692066034440965,2.904068574736728,0.9815721842668409,4068312158.1769695,2.874070482821683
564364800.0,1.6519932542000544,4.692730261622475,2.904051892325269,0.9816008459283788,4068128776.7038364,2.9938860400949134
564451200.0,1.6521286365193877,4.692690493966639,2.904083509529468,0.9815834287336251,4068192610.6640296,3.111737112500218
564537600.0,1.6533220643575974,4.6924084053109025,2.903996395270032,0.9816019441417478,4068165655.448779,3.2315675705618054
564624000.0,1.6516504944573307,4.692798094680372,2.9040383741283757,0.9815986113917552,4068179596.9409175,3.349914318759048
564710400.0,1.6565653939924236,4.691674768928898,2.9039015643929273,0.9815974240507795,4068270138.663897,3.4692713568929134
564796800.0,1.655769044620605,4.6918517421412895,2.903936055109652,0.9815873773456661,4068217096.65535,3.5873081160760627
564883200.0,1.6578695108796135,4.69139191655621,2.903931321631413,0.9815581193623097,4067963025.201185,3.704721743928979
564969600.0,1.655139702678929,4.6919727167383956,2.90394899959685,0.9815800228787096,4068272853.1728845,3.8242447487351092
565056000.0,1.6564195018155432,4.691705327038993,2.9039433783414865,0.9815609722583617,4068020317.7342744,3.9420610760036086
565142400.0,1.6572009993448706,4.6915574810839376,2.903886844983457,0.981575754436739,4068530139.3494906,4.06171183321793
565228800.0,1.6562232231033276,4.691738554703248,2.9039203877710484,0.981565224175487,4068249883.124644,4.179647336418357
565315200.0,1.6602670045021983,4.690999404408687,2.9038051697697105,0.981566025076699,4068790760.6291366,4.29903244000943
565401600.0,1.659563900872061,4.691121133475299,2.903841028995682,0.9815518243431592,4068238208.0066814,4.416710644665192
565488000.0,1.6615339389563646,4.690784286802401,2.9038239702821245,0.981528503845648,4067463092.089149,4.5342864122537145
565574400.0,1.6580655441908037,4.69134970787078,2.9038743007528325,0.9815443565101329,4067965313.3548603,4.653355981222652
565660800.0,1.6591344550453657,4.691179789928595,2.903863571443159,0.9815313538319368,4067427622.561455,4.771385292951709
565747200.0,1.658650899929087,4.691257463617432,2.9038348975749533,0.9815473287481793,4068669650.5154047,4.890942568347177
565833600.0,1.657913063896098,4.691349525401023,2.9038596241598804,0.9815401865982152,4068062357.2471466,5.008997441181404
565920000.0,1.6603816320871987,4.691049368622704,2.9037625602209802,0.9815491750379378,4069805770.803757,5.1285941712367435
566006400.0,1.66009561929467,4.6910766011593985,2.9037884838520527,0.9815394551445237,4068781266.756604,5.246481456159257
566092800.0,1.6618986510933693,4.690892508600862,2.9037673663371657,0.9815275670815298,4067959957.41085,5.364609525019904
566179200.0,1.659284068978815,4.691124789665484,2.903796137412252,0.9815385852081325,4068762831.236921,5.483428915749637
566265600.0,1.6605396904720282,4.691029046360734,2.903779227307319,0.9815320531722117,4068294427.3673472,5.601780721965565
566352000.0,1.660037091039871,4.6910660400412665,2.9037289366070476,0.9815457069288814,4070859838.686723,5.720928556515802
566438400.0,1.6601411219793714,4.69104954404439,2.9037562447458707,0.9815391825222771,4069509072.0932426,5.839068377929368
566524800.0,1.661131028633056,4.691072054189163,2.9036415003329,0.981553483051133,4073758539.449283,5.958107432234504
566611200.0,1.6612948131558636,4.691064422804213,2.9037109832826786,0.9815424540096956,4070776037.900016,6.07612526488328
566697600.0,1.6618616581316428,4.691146747556109,2.903750320304551,0.9815378528925314,4069421107.4605875,6.194486746080621
566784000.0,1.6617565847885392,4.693437790483261,2.8883052324380727,0.9815032341245052,4058219160.275301,0.02987944494532346
566870400.0,1.6619052821181945,4.693299579020193,2.888615892784059,0.9815124995594535,4064511112.5426064,0.14848883432561613
566956800.0,1.6615511123886493,4.693551863521224,2.888494989532562,0.9815061723619551,4060789447.863341,0.26755144759207816
567043200.0,1.66150712625788,4.693556924145284,2.8886318186082764,0.9814977918972145,4062286183.2725406,0.38616872631646165
567129600.0,1.662039762935056,4.69330004804027,2.8883556773774344,0.9815047789139443,4058005844.001002,0.5058122396963096
567216000.0,1.6622377070534906,4.69319070624427,2.8885277068843114,0.9814907867742588,4060194808.069483,0.6242199423407939
567302400.0,1.6635189750006487,4.692606696423652,2.888514073696071,0.9814821554055804,4060221275.2303452,0.7430765165808468
567388800.0,1.6610337559674127,4.693693461313249,2.8886512609064243,0.9814818656677003,4060918962.7172437,0.8616914654042684
567475200.0,1.6623906668817465,4.693121861037184,2.8885919945616676,0.9814770768463892,4060434032.5299397,0.9807355178580828
567561600.0,1.6609645896496603,4.693705604805814,2.8885251837297785,0.9814930569616386,4059186012.906972,1.1002381505829977
567648000.0,1.6618515878656883,4.693349925116001,2.888577193779287,0.9814769655403561,4059800950.9058404,1.21879369717767
567734400.0,1.6624911527919297,4.69311778716886,2.8883536739624884,0.9815049572819879,4057647780.205349,1.3391207317368492
567820800.0,1.6640157008340883,4.692546723334701,2.888447194419196,0.9814755307993195,4058811408.5337043,1.4572401282019367
567907200.0,1.666355297855069,4.691711407159639,2.8883875893034716,0.9814653619516052,4058746190.0986304,1.5762296266436264
567993600.0,1.6634808566751642,4.692712220923125,2.888571580924286,0.981451156636498,4059631229.132084,1.6943289193134188
568080000.0,1.6656024609782605,4.69199044845867,2.888495867529511,0.9814459370126511,4059383316.918172,1.8134861521698677
568166400.0,1.663501004990218,4.692691656041056,2.888523756558982,0.9814565944464935,4059132464.8611445,1.9327170110629486
568252800.0,1.6650821882124103,4.692173052757296,2.888543654104895,0.9814339222025248,4059535618.7821193,2.0510782723508236
568339200.0,1.664683752137147,4.692307431418766,2.888430761607593,0.9814643457150495,4058624663.0322895,2.1714365533593214
568425600.0,1.666851075021128,4.691628625204624,2.888469079694415,0.9814285714939031,4059227810.605859,2.2893167448383926
568512000.0,1.6688029928812398,4.691042144951348,2.888407771430334,0.981422370333578,4059146084.11829,2.4084183449901992
568598400.0,1.6655438428904379,4.692002057744557,2.888584960326729,0.9814010493744172,4059655701.518888,2.526103027295196
568684800.0,1.6672560602494684,4.691509485577712,2.8885003472508655,0.9814052414674781,4059434703.52588,2.645641543414011
568771200.0,1.6644526440000946,4.692303140239329,2.8885581233329614,0.9814157003415714,4059379899.9955316,2.7647982038220604
568857600.0,1.667293488794262,4.6915154384876026,2.8883515484643323,0.9817689125981799,4058665244.073673,2.8834948945887593
568944000.0,1.6660570832052664,4.691856135924296,2.8882967405644173,0.9818025911157008,4058449385.852582,3.004054441327163
569030400.0,1.6694435667328342,4.690955529472454,2.8882479207556746,0.9817718499131413,4058528638.1696196,3.1222668253406223
569116800.0,1.6715677823548618,4.69041264711076,2.8881700475398526,0.9817708425881715,4058534537.4928684,3.2416811044714784
569203200.0,1.6695193521738816,4.690921964775317,2.8882862191144327,0.9817418977377218,4058491620.979471,3.3591663801948224
569289600.0,1.6714260426618326,4.6904579177815116,2.8882002260428963,0.9817484713154484,4058578582.677909,3.4789426037909297
569376000.0,1.6691328058122656,4.6910058907351155,2.888263393581262,0.9817493882155148,4058571955.2509356,3.5977399091880375
569462400.0,1.671853161557955,4.690369516198886,2.8881944721712447,0.9817343950348392,4058545874.2699666,3.7165563521180385
569548800.0,1.670071374564278,4.690778907499751,2.8881989814106666,0.9817581218928251,4058906137.085568,3.836624505138417
569635200.0,1.6739354955615657,4.68992138719142,2.888117298079593,0.9817280846373138,4058658718.8018765,3.9548428325788163
569721600.0,1.6752583759622157,4.689643937800804,2.8880696423683294,0.9817262561972122,4058809692.3450885,4.074075155796112
569808000.0,1.6738148207041483,4.689935183566121,2.8881531505064806,0.9816960255622974,4057915920.0244665,4.19130527973204
569894400.0,1.6744692569839406,4.689810378096821,2.888107802120317,0.9817058508955904,4058414683.6408734,4.311082081802047
569980800.0,1.6720017178412636,4.690283159632652,2.888177621075235,0.9817042137482384,4058152837.4636817,4.429643874946041
570067200.0,1.6739675144580328,4.689918836699243,2.888116687730377,0.9816986027236019,4058295352.4160633,4.548781282377554
570153600.0,1.6714390962851666,4.690371194754917,2.888150981440463,0.9817196183268073,4059145482.8994255,4.6686083254380994
570240000.0,1.6749144596263938,4.689779121814729,2.8880610344460758,0.9817026258452158,4058960007.66991,4.787344395170243
570326400.0,1.6755337105993187,4.689686298702745,2.8880266498518066,0.9817066181883413,4059544082.6573467,4.906719845825982
570412800.0,1.675237277418963,4.689721073479753,2.888068417919436,0.9816832141515658,4057741232.6955495,5.0243463153285814
570499200.0,1.6754055861648254,4.689706394313446,2.8880284759157973,0.9816960283010249,4059147982.495983,5.1441769510059165
570585600.0,1.674073377107376,4.689872080485996,2.8880703776463523,0.9816925929856419,4058496698.409041,5.262740138119633
570672000.0,1.6757850650496124,4.689675720605675,2.8880077917674782,0.9816921683655423,4059247283.859605,5.382021060021164
570758400.0,1.674010112894449,4.68985856983682,2.8880227530119797,0.9817043747702331,4060422834.024711,5.501351635708411
570844800.0,1.6767631827919902,4.689620369460807,2.8879497393359297,0.981694825595127,4060453252.8631196,5.620221671900414
570931200.0,1.677008107785718,4.689612752037756,2.88792560580883,0.9816974142332346,4061232691.542405,5.739257168198594
571017600.0,1.6773812481745354,4.6895810743871555,2.8880039278393395,0.981676357440996,4056984530.81142,5.857300954482868
571104000.0,1.6770126022223537,4.689601224110072,2.8879542949537957,0.9816889331450496,4059733607.8481307,5.9766616528771
571190400.0,1.6765739877034993,4.6895637314491125,2.888016508134079,0.9816826724556197,4057561064.052227,6.095379305435029
571276800.0,1.6771396569326908,4.689679153434578,2.88803506449053,0.9817117297933191,4062910305.463982,6.214515165768945
571363200.0,1.677240680026701,4.692660200474114,2.872936685377322,0.9817306415573105,4064125396.1149244,0.05004571367003053
571449600.0,1.6776868792219994,4.692293528131829,2.8729706994693434,0.9817017363820056,4059909955.511066,0.1690084263367515
571536000.0,1.6776238540057247,4.6923487723613,2.872924061636805,0.981698977133319,4058409851.969425,0.2880584540889597
571622400.0,1.6779456002595008,4.692141172762507,2.8731881642634187,0.9816856406770126,4062302452.8989964,0.40638358834496296
571708800.0,1.6773588444561809,4.692471069767709,2.8730483062074783,0.9816935298576084,4059661006.7062974,0.5257191297344485
571795200.0,1.6768096861344581,4.692732147844626,2.873206158929121,0.981682764111142,4061158739.6308465,0.6442163165217567
571881600.0,1.6775864948605312,4.6923732182346445,2.8730403036319783,0.9816887009390057,4059129595.62008,0.7636975593934759
571968000.0,1.6758164013699755,4.693170963947872,2.873103642992265,0.9816928335234384,4059005371.493261,0.8826698153469943
572054400.0,1.6785825400435446,4.691967989735351,2.87290222969936,0.9816925964699844,4057561161.285989,1.0022419993126057
572140800.0,1.6786335318469658,4.691949425820251,2.8728861474604352,0.9816930064672367,4057300934.9788647,1.1213774040534394
572227200.0,1.6805664211013187,4.691152588501273,2.8730267499540862,0.9816530274055643,4059192425.551796,1.2392493577972372
572313600.0,1.6792471495981371,4.691683454962234,2.872991346472546,0.981669031794643,4058351497.9594374,1.35873825432164
572400000.0,1.6792336561242658,4.691680346214082,2.8731278289314437,0.9816427559422076,4059502236.2022967,1.47681073669556
572486400.0,1.680051016380877,4.691380966124454,2.873013133425409,0.9816543094347241,4058639519.0354805,1.596458844983019
572572800.0,1.6777409421465561,4.692220168529179,2.8731493697878245,0.9816477358375651,4059102039.067116,1.7149568439382001
572659200.0,1.6809642234674393,4.691074037817577,2.872954153117674,0.9816532757977237,4058272774.499211,1.8347960828058445
572745600.0,1.680581453649591,4.691207837478254,2.8729854178677834,0.981648186906136,4058378110.1331778,1.9536508318095647
572832000.0,1.6833153779036407,4.690270722359014,2.8730225853912295,0.9816028974020602,4059248685.056681,2.071385951344049
572918400.0,1.6806491909126382,4.691165256252758,2.87307063349921,0.9816206495690109,4058954059.707269,2.190779962125963
573004800.0,1.68090926240648,4.691073991287443,2.873143224467717,0.9815929761199117,4059446833.227608,2.3088043485489202
573091200.0,1.6809406075454405,4.691070672257916,2.873063016881505,0.9816142681190939,4058948275.5004945,2.4287806716190903
573177600.0,1.6786670528321803,4.691774388763353,2.8731766308280977,0.9816050949284135,4059169281.6492405,2.5471698176510977
573264000.0,1.6821510790035843,4.6907161492185905,2.8728127775634076,0.981852444398914,4058224599.3373704,2.667540023951481
573350400.0,1.682101745846405,4.690729657248825,2.872822234701443,0.9818463779637672,4058270465.879633,2.786428857532568
573436800.0,1.6861912492465394,4.689529205873296,2.8727425001994336,0.9818064132759908,4058454914.6603394,2.9045320001856116
573523200.0,1.6834484981369058,4.690319039600566,2.872816450095194,0.9818189446247658,4058427995.658928,3.0237641809865776
573609600.0,1.68500578961423,4.689877206681757,2.8728098864843346,0.9817889556917612,4058501149.4061894,3.141851982201591
573696000.0,1.6848756621229475,4.689919240842341,2.872768090090842,0.9818072071723681,4058497222.5645866,3.2617772480086926
573782400.0,1.6835796101432503,4.690260572572906,2.8728489407261413,0.9817875369918883,4058463521.709553,3.3798065356388
573868800.0,1.6862069356842584,4.689579672828875,2.8727023929645776,0.9818059123869705,4058646431.3105626,3.500278873173781
573955200.0,1.686376837363857,4.68953339542878,2.8727122457712504,0.9817912237065112,4058595637.503856,3.618761301124895
574041600.0,1.6905886528710041,4.688482547861115,2.8725974238260457,0.9817553256039768,4058436037.673905,3.736973857754788
574128000.0,1.6872647345569225,4.68929167034841,2.8727096055542884,0.9817598280546056,4058377409.1268573,3.8556948482732794
574214400.0,1.6887753651442523,4.6889304441664015,2.872679676730105,0.9817340862815305,4058084925.09153,3.9738707108527414
574300800.0,1.6873949749195334,4.689253534679253,2.872696678635997,0.9817530122241761,4058467019.901676,4.093648930822293
574387200.0,1.6863130789211398,4.6894869858632315,2.8727495162818504,0.9817356156778154,4057986542.914432,4.211700775970977
574473600.0,1.6873980806180298,4.689261235265793,2.8726665300206946,0.9817612133568944,4059050243.063502,4.332332980337578
574560000.0,1.6875847810762765,4.689217925289957,2.872662901179807,0.9817507710726934,4058841766.3808694,4.450930281806067
574646400.0,1.691389917176822,4.688455544547874,2.872538377732413,0.9817307435291622,4058747249.886191,4.5697319819524855
574732800.0,1.6885405409269498,4.689004379959551,2.872630181240144,0.9817333717907433,4058488821.9891105,4.6883774858514835
574819200.0,1.6904368989727703,4.688652132969311,2.8725707611877676,0.9817173159694166,4058138476.687831,4.807003855082283
574905600.0,1.6891063244858995,4.6888913555010285,2.8725900750730085,0.981733277745341,4059005184.0747986,4.926635245977942
574992000.0,1.68922454117671,4.688863045252044,2.872598858036588,0.9817173868195676,4057993305.9488797,5.0448583768193345
575078400.0,1.6896724092184663,4.688804331581469,2.872537247013312,0.9817393032738723,4060265415.04449,5.165163912880602
575164800.0,1.6904488230254318,4.688686104431586,2.8725186268490837,0.9817274810584858,4059594309.6950707,5.283671825605035
575251200.0,1.6934036853907313,4.688305426194364,2.872420646799329,0.9817151920175549,4059629267.465668,5.40257955262711
575337600.0,1.6915529737051347,4.68851553146356,2.8724984314944426,0.9817104242919465,4058220813.6010313,5.520952750552024
575424000.0,1.6928767756825338,4.688383816543701,2.872465264933957,0.9817003392430902,4057539197.2892118,5.639712586848706
575510400.0,1.691559686719858,4.6884928411915965,2.872483515823508,0.9817103001384483,4058567857.3860145,5.758928161757219
575596800.0,1.691762729421947,4.6884685818538,2.8725180837172153,0.9816987421670413,4056355343.477248,5.877484742620852
575683200.0,1.6912409526050673,4.688496615208123,2.872426501947146,0.9817237907013254,4061774103.922882,5.997164577825
575769600.0,1.6915179955069892,4.6884888365151705,2.8724409060613465,0.9817206533686761,4061034221.011679,6.115910185920597
575856000.0,1.6920075890636972,4.688590735318157,2.8724097689485713,0.9817412189605534,4065587621.041682,6.234832422572447
575942400.0,1.692059042196659,4.692143682153115,2.857321989977892,0.9817412946006551,4064724217.368875,0.07029045852995264
576028800.0,1.6924195514802138,4.691856490702837,2.8573486463908786,0.9817215146489675,4062292188.207418,0.18913244139759663
576115200.0,1.6917529883916635,4.692306381169478,2.8573459154752276,0.9817185860065964,4060630874.349034,0.3081118833454894
576201600.0,1.69205503623429,4.692112387794233,2.857470124112635,0.9817041815920974,4061668261.639936,0.42678803843493013
576288000.0,1.6913998218796527,4.692488593229073,2.8572233954557853,0.9817192370263094,4057415736.1780205,0.5465333022786396
576374400.0,1.692215214331413,4.692056693796562,2.8572587475378555,0.9817071208818774,4057921290.6750607,0.6653893394117496
576460800.0,1.6941582253145928,4.691114095651893,2.857076595749083,0.9817057609400199,4056452602.41256,0.7848523189461396
576547200.0,1.6931257376424715,4.691589805727633,2.8573372501019416,0.9816848759042587,4058756284.6767673,0.9029822904694473
576633600.0,1.6946505860916945,4.690903014383241,2.8572580541173336,0.9816778130248011,4058373113.866297,1.0220899033947344
576720000.0,1.6929175436745183,4.69166298019098,2.8573542682835544,0.9816802730762763,4058563391.112735,1.1409450898297155
576806400.0,1.6941799631122474,4.6911212312176875,2.857410882316851,0.9816556767136948,4059441081.5685067,1.2593508311184092
576892800.0,1.6922875491673772,4.691910727969156,2.857336411928245,0.981687125093457,4057983511.559192,1.3792649650530553
576979200.0,1.6939409643797987,4.691239203388429,2.857337625948325,0.9816653659773359,4058444790.3956223,1.4978829712076047
577065600.0,1.6960767430307655,4.690409343371191,2.8571761345689506,0.9816695597005369,4057691318.1831326,1.6175110418398262
577152000.0,1.6949458426623132,4.690833907490352,2.8574097943941443,0.9816313492188729,4059177933.412307,1.735027433046355
577238400.0,1.6963230831653575,4.690323478290646,2.857320348352634,0.9816307338513879,4058820113.5322533,1.8543449202777103
577324800.0,1.693730222529733,4.691270284232159,2.8574583380800136,0.9816301299061166,4059064388.771969,1.972976190825928
577411200.0,1.6954361363322112,4.690657706615426,2.8574307209877543,0.9816095351623605,4059276736.2105775,2.091592703859095
577497600.0,1.692338689287708,4.691747151615802,2.857452410385337,0.9816469883985284,4058600855.2542086,2.2116143573065177
577584000.0,1.6948522907857118,4.690880899023861,2.857368642859666,0.9816293560964399,4058635456.4037523,2.330522712032707
577670400.0,1.6970094613441473,4.690163195979052,2.8572081442161403,0.9816424760951186,4058165669.9340963,2.4505451456067004
577756800.0,1.6971221497500946,4.6901180718885715,2.857325777052328,0.9815960948838973,4058807280.7519336,2.567895901606354
577843200.0,1.6990643889169226,4.6894977037537915,2.8570396836996252,0.9818565896117849,4058092561.640963,2.687417334627208
577929600.0,1.6970356881776465,4.690135697411393,2.8571580959879257,0.9818457093163336,4058260777.6985135,2.805768669041468
578016000.0,1.6996710527833134,4.689319644271471,2.8570691565386888,0.9818247996071162,4058303701.389995,2.9245432532052593
578102400.0,1.696239550035042,4.690362613830255,2.8571662586869655,0.9818504953059868,4058227941.639956,3.044137620965899
578188800.0,1.6994837780372443,4.689396401145004,2.8570456692017046,0.9818298727020828,4058250453.962582,3.1630549330963253
578275200.0,1.7010731540183783,4.688940561355945,2.856943356610716,0.9818396999179364,4058273196.1942954,3.2829190965354034
578361600.0,1.7020367375672003,4.6886582129505765,2.8569846215847785,0.9817862877541305,4058187807.801382,3.3999818026159927
578448000.0,1.7027644566972973,4.688461849644011,2.8569313334163957,0.981791869950365,4058265841.60712,3.51952261472684
578534400.0,1.7006352482527043,4.689036269394901,2.8570452823743047,0.9817750640085172,4058100362.5756426,3.6375190314782944
578620800.0,1.7026481737050203,4.688503400372324,2.856962849800497,0.9817629702649947,4058113606.2542396,3.756518882264244
578707200.0,1.6984482280481066,4.68959144896747,2.857109271526491,0.9817841262894853,4058212794.1025257,3.8757829108251114
578793600.0,1.7012513947912435,4.688882741613822,2.856988399926046,0.9817749954091838,4058360819.18919,3.995084101315887
578880000.0,1.7018022884796977,4.688753350596332,2.8569363856704495,0.9817911130398372,4058868102.214362,4.115055094284641
578966400.0,1.7035845283654403,4.688319756566375,2.856898093669635,0.9817474951508774,4058074234.8776956,4.232516200724827
579052800.0,1.7037340427102725,4.688292296110204,2.8568683883081585,0.9817598200952697,4058585491.837104,4.3522535512615175
579139200.0,1.7025960537834801,4.688541189778395,2.856923617543074,0.9817434649648039,4057971607.654869,4.47035234501678
579225600.0,1.7046015391340514,4.688111087628735,2.856833089969229,0.9817394912845918,4058289848.107702,4.58968444002934
579312000.0,1.7013311256930965,4.688789996175017,2.8569501616826813,0.9817507157889745,4058295443.9925885,4.708631180382967
579398400.0,1.7041442606995665,4.688229144560225,2.8568256922564847,0.981745803940596,4058872435.40287,4.828086105933379
579484800.0,1.7044664333832398,4.68817337416417,2.856791843060881,0.9817562553964018,4059811795.323487,4.9477122399887765
579571200.0,1.7069340824732713,4.687719195822678,2.856718196631148,0.9817184107717929,4058056734.96485,5.06540708251948
579657600.0,1.7066100405030826,4.6877827568807895,2.856712985007312,0.9817266481843291,4058801691.144887,5.184793251543487
579744000.0,1.7061445265291635,4.687847188835111,2.8567493605078536,0.9817087052056411,4057073899.480864,5.30285768864344
579830400.0,1.70713470750377,4.687711057969392,2.8566977467918586,0.9817090229661769,4057706545.89583,5.422131289511006
579916800.0,1.7046271450903605,4.6880292290320895,2.8567972037377682,0.9817122673583211,4056913514.108354,5.54082395577137
580003200.0,1.705986450299723,4.68788123026076,2.8567156253139716,0.981715914630547,4058495598.7538724,5.660288902605652
580089600.0,1.7055504699892092,4.687926233884368,2.856696171653542,0.9817270133039616,4060320119.42474,5.779625592842529
580176000.0,1.7070699166479943,4.687819490793754,2.8566891293600074,0.9817062375945238,4057495566.189246,5.898025423339526
580262400.0,1.7064601627569582,4.6878498934253345,2.8566666559865137,0.9817190018840729,4059863059.6201477,6.017268376469371
580348800.0,1.7066269480012977,4.687834966556827,2.856727165346341,0.981708845600343,4057117966.1645327,6.135986167764074
580435200.0,1.706813325627428,4.687902926651827,2.8567920017913893,0.9817494154139298,4064483462.6938863,6.255076299440181
580521600.0,1.706742365250453,4.692047969544899,2.8420090463320915,0.9817851376132679,4073921645.618952,0.09024432088456713
580608000.0,1.707132567689379,4.691752701689788,2.8418855870835134,0.9817520409839959,4066771160.508117,0.20907769721555264
580694400.0,1.7068617175332284,4.691940657788142,2.8417977846525484,0.9817492002807054,4064018153.3155956,0.3280117378127212
580780800.0,1.708339125855648,4.691035156815608,2.8418750067650547,0.9817299462270735,4065589992.6854463,0.4464357040535329
580867200.0,1.7077440228927163,4.691381514149381,2.841846424474629,0.9817355494557276,4064642680.1903706,0.5652883926374656
580953600.0,1.7081268111259893,4.69116497069614,2.842034691294986,0.9817139811925889,4066903855.7021008,0.6833225213609451
581040000.0,1.7085079414590174,4.6909832467546835,2.8419176550180407,0.9817199797949263,4065594456.3662343,0.8023453113542054
581126400.0,1.706856798675501,4.691776446813378,2.84218390238731,0.981704859104098,4067497653.0734696,0.9202113597361814
581212800.0,1.7078966234859088,4.691295674233269,2.8419698461485603,0.9817186194730125,4065607128.3469863,1.0396469662594239
581299200.0,1.707167236475311,4.691627295719421,2.8419773080303137,0.9817245196856006,4065236025.633298,1.1584913317665135
581385600.0,1.7103907674397862,4.690198772705989,2.84192300120847,0.9816903982784229,4065962543.7198143,1.2767021960883227
581472000.0,1.7086886800592533,4.690935764188266,2.8420043427099597,0.9816968376043472,4065904206.159699,1.3953672443372795
581558400.0,1.709568769796946,4.690559450827449,2.842108601857575,0.9816619282222006,4067040386.2577457,1.5130937428938545
581644800.0,1.7092496634276406,4.690698012847874,2.842042166514917,0.9816781761292741,4066290803.5640326,1.6323349635340083
581731200.0,1.7073712804444034,4.691440485287999,2.8422704292552807,0.9816526489912303,4067363277.0867853,1.7498608352475273
581817600.0,1.7080301058557181,4.691190202594329,2.842087360534971,0.9816832614776616,4066111042.2212253,1.8698340814333476
581904000.0,1.7071723004895936,4.691516497437236,2.8421058679492797,0.9816898620870391,4065914920.5482574,1.988720878582921
581990400.0,1.7117527227498583,4.689798847968218,2.8419107322987465,0.9816609899278962,4065941131.6124463,2.107344653885043
582076800.0,1.709931491070558,4.690469985066339,2.8420063894110585,0.9816633813351998,4065996959.3622375,2.225896391469789
582163200.0,1.7121436467910063,4.68966851203904,2.8419834102425843,0.981624073514646,4066441821.291166,2.3437013669494426
582249600.0,1.711753947451741,4.689812495116377,2.8419521391365232,0.9816396228996036,4066144791.5508103,2.4629794623555195
582336000.0,1.7110216561364744,4.690057976675346,2.842093357589667,0.9815999945517365,4066695496.693524,2.580168324301334
582422400.0,1.711538121766971,4.689890235983543,2.84178997971808,0.9819299853713148,4065705850.653021,2.699880289792516
582508800.0,1.710996710935176,4.690067103600441,2.8418242030375493,0.9819243528110808,4065753639.2545753,2.818403782570918
582595200.0,1.7160648942020655,4.68841371457272,2.841589562174785,0.9818970578634828,4065760890.4926686,2.937172097531623
582681600.0,1.7139484022230755,4.689091348030449,2.8417197340623597,0.98188721811607,4065852513.657556,3.0551929775534634
582768000.0,1.7164315803264651,4.688308633190445,2.8416471831116263,0.9818479816469016,4065922816.3822994,3.172988280403532
582854400.0,1.714933693491102,4.688774642094048,2.8416953182263125,0.9818620303213939,4065929020.378885,3.292039726685041
582940800.0,1.714517167490141,4.688892493126131,2.8417747469501258,0.981821594963092,4065844287.4724,3.409144275591566
583027200.0,1.7133810752781062,4.689234861051339,2.8417672002766428,0.9818585271306778,4066020277.622265,3.5292327741907243
583113600.0,1.7126367145232166,4.689445146151962,2.841801123707809,0.9818542817242212,4066015595.92555,3.6477340328116905
583200000.0,1.7170751521315906,4.688196944777635,2.8415767011278588,0.9818441872367429,4066220703.8200874,3.76704181490764
583286400.0,1.7151233866472029,4.6887327363265765,2.8416792455325672,0.9818342149064612,4066033440.9747143,3.885011280562933
583372800.0,1.7179194757383587,4.687979325118872,2.841555666894045,0.9818077404437798,4065923045.297536,4.003302479479119
583459200.0,1.716323494309336,4.68840203774701,2.841612915208814,0.9818215706530358,4066134103.4568157,4.122338597610282
583545600.0,1.717197915409972,4.68817161549302,2.8415938131248666,0.9817852580616236,4065466406.672893,4.239737298206694
583632000.0,1.715786581234362,4.6885292655142035,2.8416240570853017,0.9818184654026506,4066317474.3011713,4.359680212239285
583718400.0,1.7159391683713625,4.6884870101621745,2.8416133578741314,0.9818092003323959,4066192194.319794,4.478086538545351
583804800.0,1.7198804287717548,4.687576079909598,2.8414151579974876,0.9818044957207737,4066924952.258317,4.597504779607418
583891200.0,1.718832792294585,4.687806624495726,2.8414708459552775,0.9817861494515356,4066054018.565601,4.715172513458769
583977600.0,1.721448642526736,4.68724256370297,2.8413479027236304,0.9817647098061458,4065805269.1318073,4.833552758044229
584064000.0,1.719768742490775,4.687592501699701,2.8414173956616993,0.9817702858307236,4065804115.3669047,4.9521612834412725
584150400.0,1.7208792549988614,4.687366761902941,2.8413792368394546,0.9817398267776357,4064268251.944289,5.069757115033187
584236800.0,1.7187305755464595,4.687774125912626,2.841451628413601,0.9817659150677115,4065631197.416073,5.189232860677458
584323200.0,1.7187145251089422,4.687769252424048,2.8414485720191824,0.9817589841879915,4065220184.3776836,5.307653796197896
584409600.0,1.720716425024711,4.687458452237763,2.8413310199716126,0.9817654503776883,4067102466.014157,5.4270801491976055
584496000.0,1.7199866065103588,4.687555178146397,2.841380773428614,0.9817517166788432,4065223459.642043,5.544982630219176
584582400.0,1.721399411912001,4.687379999679098,2.841308104671472,0.981746235616077,4065572178.517925,5.663730377665966
584668800.0,1.7201229445442903,4.68751546600285,2.8413551395972187,0.9817519565193674,4065725057.7935,5.782387044332909
584755200.0,1.7210584374659839,4.687434108440934,2.8413392345575854,0.9817376273976965,4063929692.512823,5.900723131097964
584841600.0,1.719661945191046,4.687500634975959,2.8413128868299844,0.9817662672936496,4068850556.6836047,6.019958238027989
584928000.0,1.7195978947623443,4.687478822029498,2.841302898508309,0.9817828989965771,4071802051.3853188,6.138620708125294
585014400.0,1.7194757886087015,4.687507372212329,2.841303343756574,0.9818559713288266,4086444842.626812,6.257139728311223
585100800.0,1.719461398576876,4.692016465864248,2.8262825905261146,0.9817416757920875,4060045343.2112,0.09256981920164353
585187200.0,1.7199469488097372,4.691638559860692,2.8262033047340616,0.9817252842033531,4056936820.740785,0.21169213752596586
585273600.0,1.7193498572064232,4.692048759911959,2.8263223225168956,0.981725873497415,4058009077.5586553,0.33057082874480404
585360000.0,1.720239920768382,4.691483877144171,2.826418172011804,0.9817096667348262,4059584746.7858562,0.44925351836582994
585446400.0,1.7186413012698747,4.692425581578841,2.826433082418966,0.9817229405575131,4058506633.0256295,0.5683980116407127
585532800.0,1.7190236602270643,4.692204997029056,2.8264653461575975,0.9817129428759986,4058812371.5011845,0.687253663646489
585619200.0,1.7198481915086705,4.69178427994549,2.8261991253326584,0.9817291080130599,4056140002.7649484,0.8071085182949266
585705600.0,1.7200512999140796,4.691668481356554,2.826427705096819,0.9816974106190499,4058468720.494174,0.9252174864326701
585792000.0,1.721224052554985,4.691102097528683,2.826302966279406,0.9816968291342684,4057676792.6156063,1.0445400817965318
585878400.0,1.7196850000141017,4.691828552211923,2.8264984356522933,0.9816866739108394,4058651881.787783,1.1629956061998818
585964800.0,1.7214779341269222,4.691000706678788,2.8264744612970985,0.9816622115862794,4059145235.168408,1.2816293224487723
586051200.0,1.71815104694768,4.69249756790875,2.826627259779743,0.9816824724727511,4058885396.967605,1.400722160261619
586137600.0,1.71898719514217,4.69212696833528,2.8265874849803616,0.9816740634310953,4058786640.5032754,1.5197305900376765
586224000.0,1.719533719870934,4.691902228593541,2.8263735205306135,0.9817085874218858,4057198538.707259,1.6401039332094163
586310400.0,1.720895114522511,4.691323372132015,2.8264542652015536,0.9816634416235296,4058286570.0066915,1.7580334444170995
586396800.0,1.7224254406170691,4.690703330357565,2.826302000048555,0.9816702697811189,4057673160.129718,1.8777068269605188
586483200.0,1.7213358259098022,4.691135835812492,2.826454437448263,0.9816478320357951,4058303985.715988,1.995897946782969
586569600.0,1.7242572607304063,4.689988183741212,2.8263247507548703,0.981622092351498,4058406227.8260283,2.1147300802135667
586656000.0,1.7206324058181706,4.691385869788751,2.8265415067318154,0.981630031130886,4058558840.2579064,2.233418690175579
586742400.0,1.7222679434888366,4.690765297658911,2.8264591747383285,0.9816165611638784,4058533273.5525346,2.35243017743814
586828800.0,1.7223388193492275,4.690745838775568,2.826354504871964,0.9816488443881191,4057953197.622197,2.472709918147296
586915200.0,1.7248501487957792,4.689823860460129,2.826331021010143,0.981590694017694,4058495366.111266,2.5903360732742136
587001600.0,1.7258631230463013,4.68946869036289,2.826035494316966,0.9819123964300389,4057649261.035206,2.709973530906788
587088000.0,1.724891945128864,4.689803692592057,2.826166391609863,0.9818779620384893,4057969427.443427,2.827724236041412
587174400.0,1.7274922400887884,4.688911732392375,2.826032873805941,0.9818580756542393,4057986752.6798334,2.946693990788791
587260800.0,1.723167541081137,4.690369800243896,2.826294456661263,0.9818574025312146,4058067007.853608,3.0649391842399503
587347200.0,1.724399722677262,4.689961369144277,2.8262169566451316,0.9818524650748175,4058053899.2399063,3.184188953677597
587433600.0,1.7231962041691096,4.690357415969197,2.826218118119908,0.9818894214639315,4058067305.656596,3.3044926963925843
587520000.0,1.7263054987425508,4.689361293957145,2.8260977786262784,0.9818409839925962,4058038126.7370577,3.422477191269162
587606400.0,1.7265520552422604,4.689290799811387,2.826052626707883,0.9818558752816862,4058158746.7223253,3.5422644342151233
587692800.0,1.7263605050762305,4.68934307550293,2.826095535283595,0.9818230218832377,4057970545.9202385,3.66013002544578
587779200.0,1.7289052367549544,4.688586817396345,2.825947090606797,0.9818153661934683,4058103117.350758,3.779533470171796
587865600.0,1.7255077937562138,4.689576120816074,2.82614145508282,0.981806564306669,4057808268.2944493,3.8975927212438943
587952000.0,1.727098205742884,4.689123232539892,2.8260414288284204,0.9818060829426604,4058023994.842885,4.0170869599520564
588038400.0,1.7258449166485546,4.68947644310219,2.8260770087269282,0.9818344863041849,4058546505.790911,4.13710087770774
588124800.0,1.7298583473812819,4.6883809263241005,2.825879217385145,0.9817897346058543,4058162986.9189363,4.255300228119469
588211200.0,1.7298325371141008,4.688394009496739,2.82586491532099,0.9817987821007426,4058534292.7146916,4.374788667337047
588297600.0,1.7304873202888618,4.688218575738361,2.8258417736939094,0.9817617882556157,4057645621.3171268,4.492531787989268
588384000.0,1.732274165686019,4.687780419780266,2.825736926004674,0.9817569972917874,4057967737.7566123,4.6118608577278515
588470400.0,1.7295922837010154,4.688418507235821,2.8258842867105627,0.9817395004838957,4056751887.129687,4.729610970517203
588556800.0,1.730319745559219,4.688253357763958,2.8258324629921536,0.9817432117167507,4057264672.578676,4.849081370865517
588643200.0,1.7283793934476914,4.688686459709681,2.825914571427136,0.9817651472106184,4058087425.598524,4.968690816474746
588729600.0,1.7315476709960587,4.688011250753123,2.825750155731377,0.9817372732304275,4057585504.59557,5.087308066485177
588816000.0,1.730657101977506,4.6881964142793855,2.825781482850581,0.9817490778000462,4058299706.468363,5.206683943138157
588902400.0,1.7313589482545353,4.688055200178548,2.8257509890122243,0.9817249235125911,4056772106.0962076,5.324888785018086
588988800.0,1.7320519001342927,4.687944246334998,2.8256973121737667,0.981731570960041,4057980028.418236,5.444395820372705
589075200.0,1.7306034924626494,4.688162567430071,2.8257864965191573,0.9817174647479922,4055664190.9625344,5.562573326594278
589161600.0,1.7308548334112022,4.688134944071666,2.825741871563614,0.9817289869364894,4057613131.8779874,5.682176437941094
589248000.0,1.7295966010566113,4.688282705770029,2.8257669901016342,0.9817455934899929,4059571874.195587,5.801562667745855
589334400.0,1.7315697489246809,4.688106538581512,2.825660314201476,0.981737135671218,4060006358.2640266,5.920527371551544
589420800.0,1.7310597398075893,4.688139795002868,2.8256509909789838,0.9817480805471867,4061952948.08088,6.03959176310584
589507200.0,1.7316512555624326,4.688131478672256,2.825676723900817,0.9817344005696296,4059198103.3635354,6.158244154718144
