{
    "declination": 0.37443470461693085,
    "distance": 162.36,
    "rightascension": 2.3464938338544767,
    "stars": [
        {
            "magH": 11.25,
            "magJ": 11.907,
            "magK": 11.055,
            "magV": 14.781,
            "mass": 1.2328141198327916e+30,
            "metallicity": 0.03,
            "name": "K2-123",
            "planets": [
                {
                    "description": "This planet was discovered by Dressing et al. 2017. The discovery was made with a space based telescope (0.95 m Kepler Telescope). The parameters listed here are those reported by Livingston et al. 2018 and were imported into the Open Exoplanet Catalogue from the NASA Exoplanet Archive.",
                    "discoverymethod": "transit",
                    "discoveryyear": "2017",
                    "istransiting": "1",
                    "lastupdate": "18/10/26",
                    "name": "K2-123 b",
                    "orbit": {
                        "period": 2674211.6736,
                        "semiMajorAxis": 24668688878.43,
                        "transitTime": 484098970.17598003
                    },
                    "radius": 17587032.0,
                    "temperature": 338.0
                }
            ],
            "radius": 410463000.0,
            "temperature": 4035.0
        }
    ]
}