{
    "declination": 0.7526199104176325,
    "distance": 2198.41,
    "rightascension": 5.067127150852537,
    "stars": [
        {
            "magH": 13.946,
            "magJ": 14.365,
            "magK": 14.019,
            "name": "Kepler-1670",
            "planets": [
                {
                    "description": "This planet was discovered by Armstrong et al. 2020. The discovery was made with a space based telescope (0.95 m Kepler Telescope). The parameters listed here are those reported by Armstrong et al. 2020 and were imported into the Open Exoplanet Catalogue from the NASA Exoplanet Archive.",
                    "discoverymethod": "transit",
                    "discoveryyear": "2020",
                    "istransiting": "1",
                    "lastupdate": "20/09/03",
                    "name": "Kepler-1670 b",
                    "orbit": {
                        "period": 1771182.72
                    },
                    "radius": 21376108.0
                }
            ],
            "radius": 1092249000.0,
            "temperature": 5766.0
        }
    ]
}