{
    "declination": -0.7421964162737775,
    "distance": 180.0,
    "rightascension": 3.544868139667394,
    "stars": [
        {
            "age": 2.0,
            "magB": 11.77,
            "magH": 9.547,
            "magJ": 9.896,
            "magK": 9.461,
            "magV": 11.1,
            "mass": 2.067946265525973e+30,
            "metallicity": 0.26,
            "name": "WASP-130",
            "planets": [
                {
                    "description": "Data for this planet was imported from the exoplanet.eu database.",
                    "discoverymethod": "transit",
                    "discoveryyear": "2016",
                    "istransiting": "1",
                    "lastupdate": "16/07/11",
                    "mass": 2.3346932547233422e+27,
                    "name": "WASP-130 b",
                    "orbit": {
                        "eccentricity": 0.0,
                        "inclination": 1.5474089148181724,
                        "period": 998004.6719999999,
                        "semiMajorAxis": 15139304514.84
                    },
                    "radius": 63627880.0
                }
            ],
            "radius": 667872000.0,
            "spectraltype": "G6",
            "temperature": 5625.0
        }
    ]
}