{
    "declination": -0.13441459308761886,
    "distance": 507.94,
    "rightascension": 6.2172991279167995,
    "stars": [
        {
            "magH": 10.813,
            "magI": 12.321,
            "magJ": 11.134,
            "magK": 10.705,
            "magV": 12.527,
            "mass": 1.5111915017305188e+30,
            "metallicity": -0.543,
            "name": "K2-391",
            "planets": [
                {
                    "description": "This planet was discovered by Christiansen et al. 2022. The discovery was made with a space based telescope (0.95 m Kepler Telescope). The parameters listed here have been imported into the Open Exoplanet Catalogue from the NASA Exoplanet Archive.",
                    "discoverymethod": "transit",
                    "discoveryyear": "2022",
                    "istransiting": "1",
                    "lastupdate": "22/03/01",
                    "mass": 1.465352189143431e+25,
                    "name": "K2-391 b",
                    "orbit": {
                        "period": 399397.30559999996,
                        "transitTime": 535422225.5999923
                    },
                    "radius": 8722024.0
                }
            ],
            "radius": 396548999.99999994,
            "spectraltype": "G7",
            "temperature": 5543.0
        }
    ]
}