{
    "declination": 0.700633339392257,
    "distance": 128.4,
    "rightascension": 5.225952112784021,
    "stars": [
        {
            "magH": 10.666,
            "magJ": 11.342,
            "magK": 10.509,
            "mass": 1.252698218539772e+30,
            "metallicity": 0.31,
            "name": "TOI-1899",
            "planets": [
                {
                    "description": "This planet was discovered by Ca\u00f1as et al. 2020. The discovery was made with a space based telescope (0.1 m TESS Telescope). The parameters listed here are those reported by Ca\u00f1as et al. 2020 and were imported into the Open Exoplanet Catalogue from the NASA Exoplanet Archive.",
                    "discoverymethod": "transit",
                    "discoveryyear": "2020",
                    "istransiting": "1",
                    "lastupdate": "21/01/11",
                    "mass": 1.2527622342417935e+27,
                    "name": "TOI-1899 b",
                    "orbit": {
                        "eccentricity": 0.118,
                        "inclination": 1.5667820695153096,
                        "periapsisArgument": -0.22689280275926285,
                        "period": 2507328.0,
                        "semiMajorAxis": 23741182080.09,
                        "transitTime": 619268353.2287925
                    },
                    "radius": 82215800.0,
                    "temperature": 362.0
                }
            ],
            "radius": 424377000.0,
            "spectraltype": "M0",
            "temperature": 3841.0
        }
    ]
}