{
    "declination": 0.6070384719436964,
    "distance": 125.0,
    "rightascension": 2.512196578408269,
    "stars": [
        {
            "magB": 8.493,
            "magH": 5.563,
            "magJ": 5.995,
            "magK": 5.452,
            "magV": 7.78,
            "mass": 2.107714462939934e+30,
            "metallicity": -0.31,
            "name": "HD 82886",
            "planets": [
                {
                    "description": "The star HD 82886 hosts a Jupiter-like planet. It was discovered as part of a Doppler survey at the Keck Observatory.",
                    "discoverymethod": "RV",
                    "discoveryyear": "2011",
                    "lastupdate": "12/07/24",
                    "mass": 2.4675619765368657e+27,
                    "name": "HD 82886 b",
                    "orbit": {
                        "eccentricity": 0.0,
                        "period": 60912000.0,
                        "semiMajorAxis": 246836486655.0
                    },
                    "temperature": 382.7
                }
            ],
            "radius": 3339360000.0,
            "spectraltype": "G0",
            "temperature": 5112.0
        }
    ]
}