{
    "declination": 0.05468163815832143,
    "distance": 443.0,
    "rightascension": 0.46763040072114975,
    "stars": [
        {
            "age": 2.5,
            "magB": 13.55,
            "magH": 11.522,
            "magJ": 11.785,
            "magK": 11.443,
            "magR": 12.81,
            "magV": 12.91,
            "mass": 2.067946265525973e+30,
            "metallicity": 0.09,
            "name": "WASP-181",
            "planets": [
                {
                    "description": "This is a hot-Saturn planet.",
                    "discoverymethod": "transit",
                    "discoveryyear": "2019",
                    "istransiting": "1",
                    "lastupdate": "19/03/15",
                    "mass": 5.675392546034791e+26,
                    "name": "WASP-181 b",
                    "orbit": {
                        "eccentricity": 0.0,
                        "inclination": 1.5425219929125884,
                        "period": 390485.35296,
                        "semiMajorAxis": 8118676442.889,
                        "transitTime": 535953612.383987
                    },
                    "radius": 84646528.0,
                    "temperature": 1186.0
                }
            ],
            "radius": 671350500.0,
            "spectraltype": "G2",
            "temperature": 5839.0
        }
    ]
}