{
    "declination": -1.0550133091503262,
    "distance": 322.0,
    "rightascension": 6.019176528896953,
    "stars": [
        {
            "magH": 11.04,
            "magJ": 11.365,
            "magK": 10.959,
            "mass": 1.8889893771631484e+30,
            "metallicity": -0.01,
            "name": "WASP-164",
            "planets": [
                {
                    "description": "This planet was discovered by Lendl et al. 2019. This was a ground based discovery. The parameters listed here are those reported by Lendl et al. 2019 and were imported into the Open Exoplanet Catalogue from the NASA Exoplanet Archive.",
                    "discoverymethod": "transit",
                    "discoveryyear": "2018",
                    "istransiting": "1",
                    "lastupdate": "18/11/01",
                    "mass": 4.043005392325787e+27,
                    "name": "WASP-164 b",
                    "orbit": {
                        "eccentricity": 0.0,
                        "inclination": 1.443910890174909,
                        "period": 153543.6432,
                        "semiMajorAxis": 4215667996.326,
                        "transitTime": 488968166.5920004
                    },
                    "radius": 80642975.99999999,
                    "temperature": 1610.0
                }
            ],
            "radius": 647001000.0,
            "spectraltype": "G2V",
            "temperature": 5806.0
        }
    ]
}