{
    "declination": 0.4985828817389331,
    "distance": 44.2,
    "rightascension": 0.371792618892684,
    "stars": [
        {
            "magB": 7.684,
            "magH": 5.82,
            "magI": 6.5,
            "magJ": 6.05,
            "magK": 5.78,
            "magR": 6.8,
            "magV": 7.12,
            "mass": 2.3264395487167196e+30,
            "metallicity": 0.05,
            "name": "HD 8574",
            "planets": [
                {
                    "discoverymethod": "RV",
                    "discoveryyear": "2003",
                    "lastupdate": "09/10/08",
                    "mass": 4.0050429003790664e+27,
                    "name": "HD 8574 b",
                    "orbit": {
                        "eccentricity": 0.288,
                        "period": 19660320.0,
                        "semiMajorAxis": 115190360439.0
                    },
                    "temperature": 355.7
                }
            ],
            "radius": 953109000.0000001,
            "spectraltype": "F8",
            "temperature": 6080.0
        }
    ]
}