{
    "declination": -0.6816991752415321,
    "distance": 43.59,
    "rightascension": 2.808254925011737,
    "stars": [
        {
            "magH": 5.613,
            "magJ": 5.904,
            "magK": 5.517,
            "magV": 7.03,
            "mass": 2.1474826603538953e+30,
            "metallicity": -0.08,
            "name": "HD 92987",
            "planets": [
                {
                    "description": "This planet was discovered by Rickman et al. 2019. This was a ground based discovery. The parameters listed here are those reported by Rickman et al. 2019 and were imported into the Open Exoplanet Catalogue from the NASA Exoplanet Archive.",
                    "discoverymethod": "RV",
                    "discoveryyear": "2019",
                    "lastupdate": "19/04/11",
                    "mass": 3.204034320303253e+28,
                    "name": "HD 92987 b",
                    "orbit": {
                        "eccentricity": 0.21,
                        "periapsisArgument": 3.405137370640937,
                        "period": 894657960.0,
                        "semiMajorAxis": 1439131516134.0
                    }
                }
            ],
            "radius": 1099206000.0,
            "spectraltype": "G2/G3V",
            "temperature": 5770.0
        }
    ]
}