{
    "declination": 1.0170992023170375,
    "distance": 83.29,
    "rightascension": 5.826170493479021,
    "stars": [
        {
            "magV": 8.5,
            "mass": 2.386091844837661e+30,
            "metallicity": 0.18,
            "name": "HD 211403",
            "planets": [
                {
                    "description": "The parameters listed here were imported into the Open Exoplanet Catalogue from the exoplanet.eu website.",
                    "discoverymethod": "RV",
                    "discoveryyear": "2021",
                    "lastupdate": "21/07/13",
                    "mass": 1.051561026924172e+28,
                    "name": "HD 211403 b",
                    "orbit": {
                        "eccentricity": 0.084,
                        "periapsisArgument": 3.3161255787892263,
                        "period": 19336320.0,
                        "semiMajorAxis": 114891164697.6
                    },
                    "temperature": 380.0
                }
            ],
            "radius": 839014200.0,
            "spectraltype": "F7V",
            "temperature": 6273.0
        }
    ]
}