{
    "binaries": [
        {
            "stars": [
                {
                    "age": 1.1,
                    "magB": 10.201,
                    "magH": 9.237,
                    "magJ": 9.343,
                    "magK": 9.196,
                    "magV": 9.885,
                    "mass": 3.2212239905308427e+30,
                    "metallicity": -0.12,
                    "name": "KELT-19 A",
                    "planets": [
                        {
                            "description": "This is a giant planet orbiting a binary star system.",
                            "discoverymethod": "transit",
                            "discoveryyear": "2017",
                            "istransiting": "1",
                            "lastupdate": "17/12/22",
                            "mass": 7.725367111157726e+27,
                            "name": "KELT-19 A b",
                            "orbit": {
                                "eccentricity": 0.0,
                                "inclination": 1.4906857141283567,
                                "period": 398451.68352,
                                "semiMajorAxis": 9529384363.59,
                                "transitTime": 495455933.08799565
                            },
                            "radius": 136549720.0
                        }
                    ],
                    "radius": 1273131000.0,
                    "spectraltype": "A8 V",
                    "temperature": 7500.0
                },
                {
                    "name": "KELT-19 B"
                }
            ]
        }
    ],
    "declination": 0.13292054276654358,
    "distance": 278.0,
    "rightascension": 1.946208576751086
}