{
    "declination": -0.9443394806123986,
    "distance": 351.0,
    "rightascension": 2.3578670973921727,
    "stars": [
        {
            "age": 5.5,
            "mass": 2.0520389865603886e+30,
            "metallicity": 0.16,
            "name": "HATS-29",
            "planets": [
                {
                    "description": "Data for this planet was imported from the exoplanet.eu database.",
                    "discoverymethod": "transit",
                    "discoveryyear": "2016",
                    "istransiting": "1",
                    "lastupdate": "16/07/28",
                    "mass": 1.239475362060441e+27,
                    "name": "HATS-29 b",
                    "orbit": {
                        "eccentricity": 0.079,
                        "inclination": 1.5248941674674459,
                        "period": 397947.59135999996,
                        "semiMajorAxis": 8190483420.825
                    },
                    "radius": 89436491.99999999
                }
            ],
            "radius": 746486100.0,
            "spectraltype": "G",
            "temperature": 5670.0
        }
    ]
}