{
    "declination": -0.477798427143881,
    "distance": 6900.0,
    "rightascension": 4.637194378444599,
    "stars": [
        {
            "mass": 9.544367379350645e+29,
            "name": "KMT-2021-BLG-1898",
            "planets": [
                {
                    "description": "The parameters listed here were imported into the Open Exoplanet Catalogue from the exoplanet.eu website.",
                    "discoverymethod": "microlensing",
                    "discoveryyear": "2022",
                    "lastupdate": "22/04/26",
                    "mass": 1.4425746939753985e+27,
                    "name": "KMT-2021-BLG-1898 b",
                    "orbit": {
                        "semiMajorAxis": 373994676750.0
                    }
                }
            ]
        }
    ]
}