{
    "declination": -0.391444460977388,
    "distance": 94.0,
    "rightascension": 6.282736728473003,
    "stars": [
        {
            "magB": 8.87,
            "magH": 6.882,
            "magJ": 7.136,
            "magK": 6.808,
            "magV": 8.23,
            "mass": 2.6445851280284077e+30,
            "metallicity": 0.343,
            "name": "HD 224693",
            "planets": [
                {
                    "discoverymethod": "RV",
                    "discoveryyear": "2006",
                    "lastupdate": "06/04/18",
                    "mass": 1.3476684641085957e+27,
                    "name": "HD 224693 b",
                    "orbit": {
                        "eccentricity": 0.05,
                        "period": 2309472.0,
                        "semiMajorAxis": 34856303873.1
                    },
                    "temperature": 718.9
                }
            ],
            "radius": 1182690000.0,
            "spectraltype": "G2IV",
            "temperature": 6037.0
        }
    ]
}