{
    "binaries": [
        {
            "binaries": [
                {
                    "orbit": {
                        "eccentricity": 0.28,
                        "inclination": 0.7330382858376184,
                        "period": 63072000000.0
                    },
                    "stars": [
                        {
                            "mass": 2.5849328319074664e+30,
                            "name": "TIC 168789840 B1",
                            "orbit": {
                                "inclination": 1.5446163880149817,
                                "period": 709958.3903999999
                            },
                            "radius": 1175733000.0,
                            "temperature": 6365.0
                        },
                        {
                            "mass": 1.3123505146607137e+30,
                            "name": "TIC 168789840 B2",
                            "radius": 431334000.0,
                            "temperature": 4290.0
                        }
                    ]
                },
                {
                    "binaries": [
                        {
                            "orbit": {
                                "eccentricity": 0.28,
                                "inclination": 0.7330382858376184,
                                "period": 116760623.03999999
                            },
                            "stars": [
                                {
                                    "mass": 2.4855123383725636e+30,
                                    "name": "TIC 168789840 A1",
                                    "orbit": {
                                        "inclination": 1.5638150097869192,
                                        "period": 135649.1232
                                    },
                                    "radius": 1036593000.0,
                                    "temperature": 6400.0
                                },
                                {
                                    "mass": 1.1135095275909087e+30,
                                    "name": "TIC 168789840 A2",
                                    "radius": 361764000.0,
                                    "temperature": 3923.0
                                }
                            ]
                        },
                        {
                            "stars": [
                                {
                                    "mass": 2.4457441409586026e+30,
                                    "name": "TIC 168789840 C1",
                                    "orbit": {
                                        "inclination": 1.3247049022636963,
                                        "period": 112824.02304
                                    },
                                    "radius": 1008765000.0,
                                    "temperature": 6350.0
                                },
                                {
                                    "mass": 1.17316182371185e+30,
                                    "name": "TIC 168789840 C2",
                                    "radius": 389592000.00000006,
                                    "temperature": 3990.0
                                }
                            ]
                        }
                    ]
                }
            ]
        }
    ],
    "declination": -0.5571597117848979,
    "distance": 584.0,
    "rightascension": 1.1086382314104497
}