{
    "declination": 0.3252527812215877,
    "distance": 245.5,
    "rightascension": 0.8997660477166962,
    "stars": [
        {
            "magB": 13.814,
            "magH": 11.003,
            "magJ": 11.44,
            "magK": 10.927,
            "magV": 13.167,
            "mass": 1.5052262721184246e+30,
            "metallicity": -0.35,
            "name": "K2-86",
            "planets": [
                {
                    "description": "This planet was announced as part of a batch of 149 validated planets from the K2 mission.",
                    "discoverymethod": "transit",
                    "discoveryyear": "2018",
                    "istransiting": "1",
                    "lastupdate": "18/07/24",
                    "name": "K2-86 b",
                    "orbit": {
                        "inclination": 1.546361717266976,
                        "period": 758234.304,
                        "transitTime": 477404660.16001403
                    },
                    "radius": 12625487.200000001
                }
            ],
            "radius": 502295400.0
        }
    ]
}