{
    "declination": -0.0529076491455683,
    "distance": 100.01,
    "rightascension": 3.9389803490116106,
    "stars": [
        {
            "age": 0.855,
            "magB": 6.788,
            "magV": 6.618,
            "mass": 3.752129426007222e+30,
            "metallicity": 0.0,
            "name": "WASP-189",
            "planets": [
                {
                    "description": "This ultra-hot Jupiter was discovered by WASP-South. The planet orbits the bright A star in a polar orbit.",
                    "discoverymethod": "transit",
                    "discoveryyear": "2018",
                    "istransiting": "1",
                    "lastupdate": "18/09/13",
                    "mass": 3.530511751045054e+27,
                    "name": "WASP-189 b",
                    "orbit": {
                        "inclination": 1.4556045961632709,
                        "period": 235356.52031999998,
                        "semiMajorAxis": 7135818432.39,
                        "transitTime": 445992981.1200097
                    },
                    "radius": 98658959.99999999,
                    "temperature": 2690.0
                }
            ],
            "radius": 1620981000.0,
            "spectraltype": "A4",
            "temperature": 8000.0
        }
    ]
}