{
    "declination": -0.2554045014198422,
    "distance": 1200.0,
    "rightascension": 4.534225261286743,
    "stars": [
        {
            "age": 12.5,
            "mass": 2.783773818977271e+30,
            "name": "PSR J1719-1438",
            "planets": [
                {
                    "description": "The 5.7ms pulsar PSR J1719-14 shows timing variations on a 2.17 hour timescale. These can be explained with a Jovian planet. However, because of the planet's short distance to the star, its density has to be more then 20 times that of Jupiter. The planet is most likely a remnant of a binary star which avoided complete destruction. The chemical composition, pressure and dimensions of the planet indicate that it is crystallized, or in other words, a very big diamond (Bailes et al 2011).",
                    "discoverymethod": "timing",
                    "discoveryyear": "2011",
                    "lastupdate": "16/04/12",
                    "mass": 2.296730762776621e+27,
                    "name": "PSR J1719-1438 b",
                    "orbit": {
                        "eccentricity": 0.06,
                        "meanAnomalyAtEpoch": 2.9452149898886626,
                        "period": 7837.023715199999,
                        "semiMajorAxis": 661222588.4940001
                    },
                    "radius": 42180280.0,
                    "temperature": 4500.0
                }
            ],
            "radius": 9739.8,
            "spectraltype": "Pulsar"
        }
    ]
}