{
    "declination": 0.22714926240917824,
    "distance": 362.07,
    "rightascension": 2.27163749854004,
    "stars": [
        {
            "magB": 12.37,
            "magH": 10.29,
            "magJ": 10.541,
            "magK": 10.212,
            "magV": 11.784,
            "mass": 2.306555450009739e+30,
            "metallicity": -0.08,
            "name": "K2-269",
            "planets": [
                {
                    "description": "This planet was discovered by Livingston et al. 2018. The discovery was made with a space based telescope (0.95 m Kepler Telescope). The parameters listed here are those reported by Livingston et al. 2018 and were imported into the Open Exoplanet Catalogue from the NASA Exoplanet Archive.",
                    "discoverymethod": "transit",
                    "discoveryyear": "2018",
                    "istransiting": "1",
                    "lastupdate": "18/10/26",
                    "name": "K2-269 b",
                    "orbit": {
                        "period": 358124.976,
                        "semiMajorAxis": 7943646934.17,
                        "transitTime": 483589314.7200197
                    },
                    "radius": 10008880.000000002,
                    "temperature": 1429.0
                }
            ],
            "radius": 1008765000.0,
            "temperature": 6209.0
        }
    ]
}