{
    "declination": -0.08865274514205894,
    "distance": 283.0,
    "rightascension": 2.9047468416994398,
    "stars": [
        {
            "age": 7.0,
            "magB": 12.04,
            "magH": 10.234,
            "magJ": 10.472,
            "magK": 10.161,
            "magV": 11.21,
            "mass": 2.3701845658720767e+30,
            "metallicity": -0.09,
            "name": "WASP-106",
            "planets": [
                {
                    "description": "The transiting exoplanet WASP-106 b is just slightly larger than Jupiter. The orbital solution is consistent with zero eccentricity, which is interesting because many other similar planets are known to have eccentric orbits. The planet was discovered by the WASP survey.",
                    "discoverymethod": "transit",
                    "discoveryyear": "2014",
                    "istransiting": "1",
                    "lastupdate": "14/08/06",
                    "mass": 3.6538898498718976e+27,
                    "name": "WASP-106 b",
                    "orbit": {
                        "eccentricity": 0.13,
                        "inclination": 1.5618951476097254,
                        "period": 802631.3759999999,
                        "semiMajorAxis": 13718124743.19,
                        "transitTime": 441076295.80800086
                    },
                    "radius": 77568820.0,
                    "temperature": 1140.0
                }
            ],
            "radius": 969110100.0,
            "spectraltype": "F9",
            "temperature": 6055.0
        }
    ]
}