{
    "declination": 0.6382708039018815,
    "distance": 360.0,
    "rightascension": 4.671207783967573,
    "stars": [
        {
            "age": 2.2,
            "magV": 10.59,
            "mass": 3.165548514151297e+30,
            "metallicity": 0.19,
            "name": "KELT-12",
            "planets": [
                {
                    "description": "Data for this planet was imported from the exoplanet.eu database.",
                    "discoverymethod": "transit",
                    "discoveryyear": "2016",
                    "istransiting": "1",
                    "lastupdate": "17/11/28",
                    "mass": 1.803218367469248e+27,
                    "name": "KELT-12 b",
                    "orbit": {
                        "inclination": 1.4741050862344107,
                        "period": 434717.28,
                        "semiMajorAxis": 10038017123.970001
                    },
                    "radius": 127970680.0
                }
            ],
            "radius": 1648809000.0,
            "temperature": 6278.0
        }
    ]
}