{
    "declination": 0.7333534147303397,
    "distance": 851.595,
    "rightascension": 5.219916182454207,
    "stars": [
        {
            "magH": 13.567,
            "magI": 15.14,
            "magJ": 14.065,
            "magK": 13.563,
            "magV": 15.592,
            "mass": 1.6901483900933434e+30,
            "metallicity": -0.22,
            "name": "Kepler-1892",
            "planets": [
                {
                    "description": "This planet was discovered by Valizadegan et al. 2022. The discovery was made with a space based telescope (0.95 m Kepler Telescope). The parameters listed here have been imported into the Open Exoplanet Catalogue from the NASA Exoplanet Archive.",
                    "discoverymethod": "transit",
                    "discoveryyear": "2021",
                    "istransiting": "1",
                    "lastupdate": "22/02/01",
                    "mass": 2.410618238616784e+25,
                    "name": "Kepler-1892 b",
                    "orbit": {
                        "eccentricity": 0.0,
                        "inclination": 1.5655603390389137,
                        "period": 547018.285824,
                        "semiMajorAxis": 9469545215.31,
                        "transitTime": 295975424.7359857
                    },
                    "radius": 11724688.0,
                    "temperature": 822.0
                }
            ],
            "radius": 528732000.0,
            "temperature": 5383.0
        }
    ]
}