{
    "declination": 0.7334455293297504,
    "distance": 1571.34,
    "rightascension": 5.158756936582239,
    "stars": [
        {
            "magH": 13.913,
            "magJ": 14.245,
            "magK": 13.969,
            "name": "Kepler-1696",
            "planets": [
                {
                    "description": "This planet was discovered by Armstrong et al. 2020. The discovery was made with a space based telescope (0.95 m Kepler Telescope). The parameters listed here are those reported by Armstrong et al. 2020 and were imported into the Open Exoplanet Catalogue from the NASA Exoplanet Archive.",
                    "discoverymethod": "transit",
                    "discoveryyear": "2020",
                    "istransiting": "1",
                    "lastupdate": "20/09/03",
                    "name": "Kepler-1696 b",
                    "orbit": {
                        "period": 5697293.76
                    },
                    "radius": 17944492.0
                }
            ],
            "radius": 883539000.0,
            "temperature": 5379.0
        }
    ]
}