{
    "declination": -0.3366999773912117,
    "distance": 18.73,
    "rightascension": 2.912351073989659,
    "stars": [
        {
            "magH": 6.853,
            "magJ": 7.449,
            "magK": 6.62,
            "magV": 10.38,
            "mass": 1.1333936262978889e+30,
            "name": "HIP 54373",
            "planets": [
                {
                    "description": "This planet was discovered by Feng et al. 2019. This was a ground based discovery. The parameters listed here are those reported by Feng et al. 2019 and were imported into the Open Exoplanet Catalogue from the NASA Exoplanet Archive.",
                    "discoverymethod": "RV",
                    "discoveryyear": "2019",
                    "lastupdate": "19/05/23",
                    "mass": 5.147713907975368e+25,
                    "name": "HIP 54373 b",
                    "orbit": {
                        "eccentricity": 0.2,
                        "periapsisArgument": 1.262571180892698,
                        "period": 670464.0,
                        "semiMajorAxis": 9424665854.1
                    }
                },
                {
                    "description": "This planet was discovered by Feng et al. 2019. This was a ground based discovery. The parameters listed here are those reported by Feng et al. 2019 and were imported into the Open Exoplanet Catalogue from the NASA Exoplanet Archive.",
                    "discoverymethod": "RV",
                    "discoveryyear": "2019",
                    "lastupdate": "19/05/23",
                    "mass": 7.429259673973302e+25,
                    "name": "HIP 54373 c",
                    "orbit": {
                        "eccentricity": 0.2,
                        "periapsisArgument": 2.135759405665461,
                        "period": 1308441.6,
                        "semiMajorAxis": 14810189199.300001
                    }
                }
            ],
            "spectraltype": "K5V",
            "temperature": 4021.0
        }
    ]
}