{
    "declination": -0.13477912885776824,
    "distance": 6.21,
    "rightascension": 4.011844878222646,
    "stars": [
        {
            "magB": 11.76,
            "magH": 6.095,
            "magI": 8.911,
            "magJ": 6.706,
            "magK": 5.837,
            "magR": 9.461,
            "magV": 10.55,
            "mass": 6.164070599163958e+29,
            "metallicity": -0.135,
            "name": "Gliese 581",
            "planets": [
                {
                    "description": "Gliese 581 is a red dwarf in the constellation Libra. It is the 89th closest star to the Solar System. In late 2010, US astronomers annoucent a planet in the habitable zone. This statement has been challenged by the European HARPS team. Gliese 581 c is likely to have a runaway greenhouse effect. A radio message has been sent to Gliese 581 in 2008 and will reach the star system in 2029.",
                    "discoverymethod": "RV",
                    "discoveryyear": "2005",
                    "lastupdate": "14/07/04",
                    "mass": 9.43405887367964e+25,
                    "name": "Gliese 581 b",
                    "orbit": {
                        "eccentricity": 0.03,
                        "period": 463847.04,
                        "semiMajorAxis": 6075169529.127
                    },
                    "temperature": 419.2
                },
                {
                    "description": "Gliese 581 is a red dwarf in the constellation Libra. It is the 89th closest star to the Solar System. In late 2010, US astronomers annoucent a planet in the habitable zone. This statement has been challenged by the European HARPS team. Gliese 581 c is likely to have a runaway greenhouse effect. A radio message has been sent to Gliese 581 in 2008 and will reach the star system in 2029.",
                    "discoverymethod": "RV",
                    "discoveryyear": "2007",
                    "lastupdate": "14/07/04",
                    "mass": 3.283945365851101e+25,
                    "name": "Gliese 581 c",
                    "orbit": {
                        "eccentricity": 0.06,
                        "period": 1115769.5999999999,
                        "semiMajorAxis": 10786006477.47
                    },
                    "temperature": 312.7
                },
                {
                    "description": "A new analysis shows that there is no signal of the planet Gliese 581 d after stellar activity reduction.",
                    "discoverymethod": "RV",
                    "discoveryyear": "2007",
                    "lastupdate": "14/07/04",
                    "mass": 3.606436734938496e+25,
                    "name": "Gliese 581 d",
                    "orbit": {
                        "eccentricity": 0.25,
                        "period": 5757696.0,
                        "semiMajorAxis": 32911531554.0
                    },
                    "temperature": 181.0
                },
                {
                    "description": "Gliese 581 is a red dwarf in the constellation Libra. It is the 89th closest star to the Solar System. In late 2010, US astronomers annoucent a planet in the habitable zone. This statement has been challenged by the European HARPS team. Gliese 581 c is likely to have a runaway greenhouse effect. A radio message has been sent to Gliese 581 in 2008 and will reach the star system in 2029.",
                    "discoverymethod": "RV",
                    "discoveryyear": "2009",
                    "lastupdate": "14/07/04",
                    "mass": 1.1578560043749908e+25,
                    "name": "Gliese 581 e",
                    "orbit": {
                        "eccentricity": 0.06,
                        "period": 272073.6,
                        "semiMajorAxis": 4211180060.2050004
                    },
                    "temperature": 500.8
                },
                {
                    "description": "Gliese 581 f is an unconfirmed planet. Its discovery was announced in 2010 by the Lick-Carnegie Exoplanet Survey. However an analysis by the European HARPS team concluded that the system is unlikely to contain a planet with the quoted characteristic.",
                    "discoverymethod": "RV",
                    "discoveryyear": "2010",
                    "lastupdate": "14/07/04",
                    "mass": 4.179651382088009e+25,
                    "name": "Gliese 581 f",
                    "orbit": {
                        "eccentricity": 0.0,
                        "period": 37411200.0,
                        "semiMajorAxis": 113395185990.6
                    }
                },
                {
                    "description": "A new analysis shows that there is no signal of the planet Gliese 581 d after stellar activity reduction.",
                    "discoverymethod": "RV",
                    "discoveryyear": "2010",
                    "lastupdate": "14/07/04",
                    "mass": 1.850975182338223e+25,
                    "name": "Gliese 581 g",
                    "orbit": {
                        "eccentricity": 0.0,
                        "period": 3153600.0,
                        "semiMajorAxis": 21841289122.199997
                    },
                    "temperature": 230.9
                }
            ],
            "radius": 208710000.0,
            "spectraltype": "M2.5V",
            "temperature": 3498.0
        }
    ]
}