{
    "binaries": [
        {
            "stars": [
                {
                    "magV": 10.34,
                    "mass": 9.544367379350645e+29,
                    "name": "Gliese 412 A",
                    "orbit": {
                        "semiMajorAxis": 22738876346400.0
                    },
                    "spectraltype": "M1.0V"
                },
                {
                    "magV": 16.05,
                    "mass": 1.988409870698051e+29,
                    "name": "Gliese 412 B",
                    "spectraltype": "M5.5V"
                }
            ]
        }
    ],
    "declination": 0.7596836457513985,
    "distance": 4.90041,
    "rightascension": 2.9036897321325323
}