{
    "declination": -1.3124682049524914,
    "distance": 412.5,
    "rightascension": 0.2928517040742152,
    "stars": [
        {
            "magH": 10.896,
            "magJ": 11.181,
            "magK": 10.815,
            "magV": 12.36,
            "mass": 2.2866713513027586e+30,
            "metallicity": 0.24,
            "name": "TOI-169",
            "planets": [
                {
                    "description": "This planet was discovered by Nielsen et al. 2020. The discovery was made with a space based telescope (0.1 m TESS Telescope). The parameters listed here are those reported by Nielsen et al. 2020 and were imported into the Open Exoplanet Catalogue from the NASA Exoplanet Archive.",
                    "discoverymethod": "transit",
                    "discoveryyear": "2020",
                    "istransiting": "1",
                    "lastupdate": "20/07/23",
                    "mass": 1.501416556492816e+27,
                    "name": "TOI-169 b",
                    "orbit": {
                        "eccentricity": 0.0,
                        "inclination": 1.413367628265008,
                        "period": 194870.68128,
                        "semiMajorAxis": 5271828963.468,
                        "transitTime": 586046166.3360133
                    },
                    "radius": 77640312.0,
                    "temperature": 1715.0
                }
            ],
            "radius": 897453000.0,
            "spectraltype": "G1V",
            "temperature": 5880.0
        }
    ]
}