{
    "declination": 0.3880899270043402,
    "distance": 377.0,
    "rightascension": 2.226669919393801,
    "stars": [
        {
            "magB": 12.018,
            "magH": 10.258,
            "magJ": 10.528,
            "magK": 10.193,
            "magV": 11.447,
            "mass": 2.547153044364203e+30,
            "metallicity": 0.24,
            "name": "K2-34",
            "planets": [
                {
                    "description": "Data for this planet was imported from the exoplanet.eu database.",
                    "discoverymethod": "transit",
                    "discoveryyear": "2016",
                    "istransiting": "1",
                    "lastupdate": "18/07/24",
                    "mass": 3.37866178325817e+27,
                    "name": "K2-34 b",
                    "orbit": {
                        "eccentricity": 0.0,
                        "inclination": 1.432217184186547,
                        "period": 258820.4448,
                        "semiMajorAxis": 6610729906.233,
                        "transitTime": 483567934.00319964
                    },
                    "radius": 96514200.0
                }
            ],
            "radius": 1061638200.0,
            "spectraltype": "F9",
            "temperature": 6132.0
        }
    ]
}