{
    "declination": -0.8086626285638977,
    "distance": 85.17,
    "rightascension": 4.42220879361886,
    "stars": [
        {
            "magB": 9.91,
            "magH": 7.656,
            "magJ": 7.984,
            "magK": 7.634,
            "magV": 9.18,
            "mass": 2.034143297724106e+30,
            "metallicity": 0.16,
            "name": "HD 152079",
            "planets": [
                {
                    "discoverymethod": "RV",
                    "discoveryyear": "2010",
                    "lastupdate": "10/01/26",
                    "mass": 5.694373792008151e+27,
                    "name": "HD 152079 b",
                    "orbit": {
                        "eccentricity": 0.6,
                        "period": 181180800.0,
                        "semiMajorAxis": 478713186240.0
                    },
                    "temperature": 149.6
                }
            ],
            "spectraltype": "G6V",
            "temperature": 5940.0
        }
    ]
}