{
    "declination": -0.6590995835573563,
    "distance": 45.0,
    "rightascension": 5.7479399131217015,
    "stars": [
        {
            "magB": 8.02,
            "magV": 7.48,
            "mass": 2.5849328319074664e+30,
            "metallicity": -0.06,
            "name": "HD 208487",
            "planets": [
                {
                    "discoverymethod": "RV",
                    "discoveryyear": "2004",
                    "lastupdate": "10/12/24",
                    "mass": 7.839254586997888e+26,
                    "name": "HD 208487 b",
                    "orbit": {
                        "eccentricity": 0.21,
                        "period": 11214720.000000002,
                        "semiMajorAxis": 76294914057.0
                    },
                    "temperature": 391.5
                }
            ],
            "radius": 800054999.9999999,
            "spectraltype": "G2V",
            "temperature": 5929.0
        }
    ]
}