{
    "declination": 0.83066917239747,
    "distance": 758.79,
    "rightascension": 5.220760412757807,
    "stars": [
        {
            "magH": 12.83,
            "magJ": 13.159,
            "magK": 12.708,
            "mass": 1.5708437978514603e+30,
            "name": "Kepler-272",
            "planets": [
                {
                    "description": "Kepler-272 c has been discovered by the Kepler spacecraft and was originally classified as a planet candidate. A new statistical analysis led by a team at NASA Ames Research Center has validated the planet with more than 99 percent confidence. Although many parameters of Kepler-272 c are still unknown, the object is highly unlikely to be a false positive.",
                    "discoverymethod": "transit",
                    "discoveryyear": "2014",
                    "istransiting": "1",
                    "lastupdate": "14/02/26",
                    "name": "Kepler-272 c",
                    "orbit": {
                        "period": 523354.34880000004,
                        "transitTime": 295870362.3359844
                    },
                    "radius": 11661775.04
                },
                {
                    "description": "Kepler-272 d has been discovered by the Kepler spacecraft and was originally classified as a planet candidate. A new statistical analysis led by a team at NASA Ames Research Center has validated the planet with more than 99 percent confidence. Although many parameters of Kepler-272 d are still unknown, the object is highly unlikely to be a false positive.",
                    "discoverymethod": "transit",
                    "discoveryyear": "2014",
                    "istransiting": "1",
                    "lastupdate": "14/02/26",
                    "name": "Kepler-272 d",
                    "orbit": {
                        "period": 944983.0656,
                        "transitTime": 295961906.5920085
                    },
                    "radius": 14658719.68
                },
                {
                    "description": "Kepler-272 b has been discovered by the Kepler spacecraft and was originally classified as a planet candidate. A new statistical analysis led by a team at NASA Ames Research Center has validated the planet with more than 99 percent confidence. Although many parameters of Kepler-272 b are still unknown, the object is highly unlikely to be a false positive.",
                    "discoverymethod": "transit",
                    "discoveryyear": "2014",
                    "istransiting": "1",
                    "lastupdate": "14/02/26",
                    "name": "Kepler-272 b",
                    "orbit": {
                        "period": 256724.8992,
                        "transitTime": 295737415.2000055
                    },
                    "radius": 9316837.44
                }
            ],
            "radius": 646305300.0,
            "temperature": 5297.0
        }
    ]
}