{
    "declination": -0.8786181380011899,
    "distance": 252.519,
    "rightascension": 0.42181353708868496,
    "stars": [
        {
            "mass": 1.7696847849212654e+30,
            "metallicity": 0.28,
            "name": "WASP-105",
            "planets": [
                {
                    "description": "Data for this planet was imported from the exoplanet.eu database.",
                    "discoverymethod": "transit",
                    "discoveryyear": "2017",
                    "istransiting": "1",
                    "lastupdate": "17/01/17",
                    "mass": 3.416624275204891e+27,
                    "name": "WASP-105 b",
                    "orbit": {
                        "eccentricity": 0.0,
                        "inclination": 1.5655603390389137,
                        "period": 680216.832,
                        "semiMajorAxis": 11219840302.5
                    },
                    "radius": 68632320.0
                }
            ],
            "radius": 626130000.0,
            "spectraltype": "K2",
            "temperature": 5070.0
        }
    ]
}