{
    "binaries": [
        {
            "binaries": [
                {
                    "name": "HD 4113 AC",
                    "stars": [
                        {
                            "age": 5.0,
                            "magB": 8.61,
                            "magH": 6.345,
                            "magJ": 6.672,
                            "magK": 6.289,
                            "magV": 7.88,
                            "mass": 2.0878303642329535e+30,
                            "metallicity": 0.2,
                            "name": "HD 4113 A",
                            "orbit": {
                                "ascendingNodeLongitude": 0.7295476273336297,
                                "eccentricity": 0.377,
                                "inclination": 1.5550883635269475,
                                "meanAnomalyAtEpoch": 2.2822903834677324,
                                "periapsisArgument": 3.495894491744642,
                                "period": 3300912000.0,
                                "semiMajorAxis": 3440751026100.0
                            },
                            "planets": [
                                {
                                    "description": "HD 4113 b is a planet in an extremely eccentric orbit. There is a brown dwarf (possibly a binary) in a 23 AU orbit that may be responsible for the high eccentricity.",
                                    "discoverymethod": "RV",
                                    "discoveryyear": "2007",
                                    "lastupdate": "17/12/15",
                                    "mass": 3.040795604932353e+27,
                                    "name": "HD 4113 b",
                                    "orbit": {
                                        "eccentricity": 0.8999,
                                        "meanAnomalyAtEpoch": 0.9868215380876049,
                                        "periapsisArgument": -0.8456120225912527,
                                        "period": 45505670.400000006,
                                        "semiMajorAxis": 194178036168.6
                                    }
                                }
                            ],
                            "spectraltype": "G5V",
                            "temperature": 5688.0
                        },
                        {
                            "magH": 19.7,
                            "magJ": 21.6,
                            "mass": 1.2485225578113062e+29,
                            "name": "HD 4113 C",
                            "radius": 103659300.0,
                            "spectraltype": "T9",
                            "temperature": 550.0
                        }
                    ]
                }
            ],
            "name": "HD 4113",
            "stars": [
                {
                    "age": 5.0,
                    "magB": 14.19,
                    "magH": 8.74,
                    "magI": 10.57,
                    "magJ": 9.447,
                    "magK": 8.539,
                    "magR": 12.54,
                    "magV": 12.7,
                    "mass": 1.0936254288839282e+30,
                    "name": "HD 4113 B",
                    "orbit": {
                        "positionAngle": 6.113888369736137,
                        "separationArcsec": 49.0,
                        "separationMeters": 305628449840100.0
                    },
                    "spectraltype": "M0-1V",
                    "temperature": 3833.0
                }
            ]
        }
    ],
    "declination": -0.6629219763074579,
    "distance": 41.7,
    "rightascension": 0.18853888701406832
}