{
    "declination": 1.1319381345177335,
    "distance": 84.5362,
    "rightascension": 3.3542319341244355,
    "stars": [
        {
            "magH": 8.088,
            "magJ": 8.363,
            "magK": 8.034,
            "magV": 9.534,
            "mass": 2.028178068112012e+30,
            "metallicity": 0.07,
            "name": "TOI-1136",
            "planets": [
                {
                    "description": "This planet was discovered by Dai et al. 2022. The discovery was made with a space based telescope (0.1 m TESS Telescope). The parameters listed here have been imported into the Open Exoplanet Catalogue from the NASA Exoplanet Archive.",
                    "discoverymethod": "transit",
                    "discoveryyear": "2022",
                    "istransiting": "1",
                    "lastupdate": "23/01/12",
                    "mass": 2.543486960430308e+25,
                    "name": "TOI-1136 b",
                    "orbit": {
                        "eccentricity": 0.031,
                        "inclination": 1.5086626054238985,
                        "periapsisArgument": 0.7853981633974483,
                        "period": 360528.19200000004
                    },
                    "radius": 12153640.0
                },
                {
                    "description": "This planet was discovered by Dai et al. 2022. The discovery was made with a space based telescope (0.1 m TESS Telescope). The parameters listed here have been imported into the Open Exoplanet Catalogue from the NASA Exoplanet Archive.",
                    "discoverymethod": "transit",
                    "discoveryyear": "2022",
                    "istransiting": "1",
                    "lastupdate": "23/01/12",
                    "mass": 4.13791162219259e+25,
                    "name": "TOI-1136 g",
                    "orbit": {
                        "eccentricity": 0.036,
                        "inclination": 1.5646876744129166,
                        "periapsisArgument": -1.5184364492350666,
                        "period": 3416143.6799999997
                    },
                    "radius": 16157192.0
                },
                {
                    "description": "This planet was discovered by Dai et al. 2022. The discovery was made with a space based telescope (0.1 m TESS Telescope). The parameters listed here have been imported into the Open Exoplanet Catalogue from the NASA Exoplanet Archive.",
                    "discoverymethod": "transit",
                    "discoveryyear": "2022",
                    "istransiting": "1",
                    "lastupdate": "23/01/12",
                    "mass": 4.460592803739718e+25,
                    "name": "TOI-1136 e",
                    "orbit": {
                        "eccentricity": 0.057,
                        "inclination": 1.5587535549561358,
                        "periapsisArgument": -1.1519173063162575,
                        "period": 1624250.88,
                        "transitTime": 618041301.7248183
                    },
                    "radius": 16800620.0,
                    "temperature": 672.872760628
                },
                {
                    "description": "This planet was discovered by Dai et al. 2022. The discovery was made with a space based telescope (0.1 m TESS Telescope). The parameters listed here have been imported into the Open Exoplanet Catalogue from the NASA Exoplanet Archive.",
                    "discoverymethod": "transit",
                    "discoveryyear": "2022",
                    "istransiting": "1",
                    "lastupdate": "23/01/12",
                    "mass": 1.1559578797776547e+26,
                    "name": "TOI-1136 d",
                    "orbit": {
                        "eccentricity": 0.016,
                        "inclination": 1.56049888420813,
                        "periapsisArgument": 2.059488517353309,
                        "period": 1081673.568,
                        "transitTime": 697070680.5024058
                    },
                    "radius": 29526196.0,
                    "temperature": 1393.0
                },
                {
                    "description": "This planet was discovered by Dai et al. 2022. The discovery was made with a space based telescope (0.1 m TESS Telescope). The parameters listed here have been imported into the Open Exoplanet Catalogue from the NASA Exoplanet Archive.",
                    "discoverymethod": "transit",
                    "discoveryyear": "2022",
                    "istransiting": "1",
                    "lastupdate": "23/01/12",
                    "mass": 8.560541933985588e+25,
                    "name": "TOI-1136 f",
                    "orbit": {
                        "eccentricity": 0.012,
                        "inclination": 1.5599752854325317,
                        "periapsisArgument": 2.443460952792061,
                        "period": 2273719.6799999997,
                        "transitTime": 695492651.2032197
                    },
                    "radius": 24736232.0,
                    "temperature": 631.0
                },
                {
                    "description": "This planet was discovered by Dai et al. 2022. The discovery was made with a space based telescope (0.1 m TESS Telescope). The parameters listed here have been imported into the Open Exoplanet Catalogue from the NASA Exoplanet Archive.",
                    "discoverymethod": "transit",
                    "discoveryyear": "2022",
                    "istransiting": "1",
                    "lastupdate": "23/01/12",
                    "mass": 5.162898904754057e+25,
                    "name": "TOI-1136 c",
                    "orbit": {
                        "eccentricity": 0.117,
                        "inclination": 1.5606734171333294,
                        "periapsisArgument": -1.9722220547535925,
                        "period": 540626.4,
                        "transitTime": 698373596.5631828
                    },
                    "radius": 18373444.0,
                    "temperature": 1076.0
                }
            ],
            "radius": 674829000.0,
            "temperature": 5770.0
        }
    ]
}