{
    "declination": 0.4372182702460882,
    "distance": 140.0,
    "rightascension": 1.1501277038789042,
    "stars": [
        {
            "magB": 15.1,
            "magH": 9.945,
            "magJ": 10.781,
            "magK": 9.324,
            "mass": 9.942049353490255e+28,
            "name": "FU Tau A",
            "planets": [
                {
                    "discoverymethod": "imaging",
                    "discoveryyear": "2009",
                    "lastupdate": "11/09/19",
                    "magK": 13.2,
                    "mass": 2.8471868960040756e+28,
                    "name": "FU Tau B",
                    "orbit": {
                        "positionAngle": 2.150245638457014,
                        "separationArcsec": 5.72,
                        "separationMeters": 119678296560000.0
                    },
                    "spectraltype": "M9.25",
                    "temperature": 2375.0
                }
            ],
            "spectraltype": "M7.25",
            "temperature": 2838.0
        }
    ]
}