datetime_jd,incl,Omega,w,e,a,M
#Mercury
361483199.9999732,1.5276789311532832,6.272764455553682,1.9354649095258845,0.7366264381624155,10024930.697817117,3.297923613674384
361485000.0000268,1.5276949119481833,6.272729574025572,1.9354433131722277,0.7366252609757378,10024979.05148748,3.5642034865851584
361486800.0,1.5277130449099867,6.27269564235855,1.9354219894873197,0.7366252530306608,10025057.903780658,3.830477169334231
361488599.9999732,1.527732850222013,6.272663675140064,1.9354012877989129,0.7366264350071271,10025165.58576687,4.096741658859186
361490400.0000268,1.527753697831555,6.272634655432126,1.9353815864616766,0.7366287976355682,10025299.949436354,4.3629941300774675
361492200.0,1.5277748033774703,6.27260949487431,1.9353632899260713,0.7366322934943553,10025458.317969851,4.62923199681261
361493999.9999732,1.5277952264072516,6.2725889790855165,1.9353468172585273,0.7366368267852843,10025637.458270013,4.895452995461119
361495800.0000268,1.5278138759404218,6.272573687655948,1.9353325718246972,0.7366422448115886,10025833.715446267,5.161655311640472
361497600.0,1.5278295563954318,6.272563856922082,1.9353209556041873,0.7366483686794827,10026043.23824568,5.427837714037064
