datetime_jd,incl,Omega,w,e,a,M
#Sun
187660800.0,0.04416092640200138,2.2740529464322936,0.03673825044169729,0.2549018277129565,121005005523.73921,6.188478910549934
187662599.99997318,0.04416092660337786,2.2740529458475858,0.03673822743150754,0.2549018232457763,121005004897.96494,6.188971555950783
187664400.00002682,0.04416092680459339,2.274052945267299,0.03673820439626399,0.2549018187938586,121005004274.19589,6.189464201375309
187666200.0,0.044160927005648075,2.274052944691422,0.036738181336042355,0.2549018143572074,121005003652.43239,6.18995684682343
187667999.99997318,0.04416092720654199,2.274052944119954,0.03673815825092029,0.2549018099358297,121005003032.67484,6.190449492295057
187669800.00002682,0.04416092740727509,2.274052943552884,0.03673813514097344,0.2549018055297301,121005002414.9234,6.190942137790111
187671600.0,0.04416092760784756,2.2740529429902074,0.036738112006277024,0.2549018011389144,121005001799.17824,6.191434783308504
187673399.99997318,0.044160927808259434,2.274052942431913,0.03673808884691056,0.254901796763389,121005001185.43996,6.191927428850154
187675200.00002682,0.0441609280085108,2.2740529418779962,0.03673806566294905,0.2549017924031579,121005000573.70847,6.192420074414979
187677000.0,0.04416092820860162,2.274052941328452,0.03673804245447002,0.2549017880582268,121004999963.98413,6.19291272000289
187678799.99997318,0.044160928408532155,2.274052940783272,0.036738019221546715,0.2549017837286028,121004999356.26747,6.193405365613807
187680600.00002682,0.04416092860830225,2.274052940242445,0.0367379959642611,0.2549017794142882,121004998750.55835,6.193898011247643
187682400.0,0.04416092880791215,2.274052939705971,0.036737972682683126,0.2549017751152914,121004998146.85747,6.194390656904315
187684199.99997318,0.0441609290073618,2.2740529391738358,0.03673794937689718,0.2549017708316158,121004997545.16478,6.19488330258374
187686000.00002682,0.044160929206651316,2.274052938646038,0.03673792604697413,0.2549017665632685,121004996945.48062,6.195375948285831
187687800.0,0.0441609294057808,2.27405293812257,0.036737902692992944,0.2549017623102529,121004996347.80531,6.195868594010506
187689599.99997318,0.044160929604750175,2.2740529376034213,0.03673787931502955,0.2549017580725751,121004995752.13904,6.196361239757677
187691400.00002682,0.04416092980355978,2.274052937088586,0.03673785591316295,0.2549017538502409,121004995158.4821,6.1968538855272595
187693200.0,0.04416093000220933,2.2740529365780584,0.036737832487467405,0.254901749643254,121004994566.8348,6.197346531319176
187694999.99997318,0.044160930200699125,2.2740529360718322,0.036737809038020174,0.2549017454516207,121004993977.19713,6.1978391771333365
187696800.00002682,0.04416093035360926,2.274052935684535,0.03673778541918136,0.2549017413069394,121004993394.78696,6.1983318229941
187698600.0,0.04416093039918682,2.27405293557008,0.036737761435055506,0.2549017372521841,121004992826.69914,6.198824468934343
187700399.99997318,0.04416093044458797,2.2740529354569565,0.03673773743066297,0.2549017332128349,121004992260.62544,6.199317114896168
187702200.00002682,0.04416093048981242,2.2740529353451593,0.03673771340417634,0.2549017291888336,121004991696.56305,6.1998097608805836
