datetime_jd,incl,Omega,w,e,a,M
#Mercury
353808000.0,1.522761931062862,0.009151558436595035,1.9879014487370843,0.7399896382815728,10179271.46622252,5.782690461215332
353894400.0,1.5232110088158926,0.00825007487776571,1.9868633914845126,0.7399530013718646,10179145.422477802,5.7082780421354835
353980800.0,1.5238334488735523,0.007175984516813534,1.9859042393214017,0.7398503330683948,10179045.028410481,5.633614995403512
354067200.0,1.5245876999885073,0.005986889736769119,1.9850488349221385,0.739664815406567,10178988.596929528,5.558640217033589
354153600.0,1.5254265996486964,0.004742585251606801,1.9842935839111435,0.7393865825181496,10178963.441759465,5.483325385745587
354240000.0,1.5263045847872119,0.003496035064495765,1.9836216508319835,0.7390134352386273,10178959.960456869,5.407710323985729
354326400.0,1.5271614757298084,0.002291724387558714,1.9830168633443226,0.7385514878286721,10178974.100324566,5.331827170266857
354412800.0,1.527988360042705,0.0011648635356960452,1.982448596548248,0.738012748433354,10178991.440500624,5.255717367594859
354499200.0,1.5287645329895894,0.00013827972566010484,1.9819091298167542,0.7374111433790743,10179003.055756139,5.179427086077714
354585600.0,1.5294712209113261,6.282413093711935,1.9814007617840783,0.7367610758514272,10179003.138682855,5.103002225470854
354672000.0,1.5300922316845147,6.281626525987881,1.9809177212544127,0.7360776597593301,10178986.682783995,5.026487745919894
354758400.0,1.5306195570016707,6.280962077259449,1.9804498805345954,0.7353735778456585,10178941.914762475,4.949963490998187
354844800.0,1.5310489311931177,6.2804152164928,1.9799970234073303,0.7346627723375901,10178881.073299745,4.873446760228818
354931200.0,1.5313906290749242,6.2799785241781,1.9795595724608595,0.7339569018034272,10178799.297514895,4.796965874960824
355017600.0,1.5316341979513994,6.279645827321519,1.9791529953127052,0.7332642595973978,10178703.98189112,4.720545735537323
355104000.0,1.5317775327816394,6.279412470165853,1.9787853249478295,0.7325910329010383,10178599.492712136,4.64420017734424
355190400.0,1.5318174686122576,6.279276573446688,1.9784417959341016,0.7319432735560579,10178489.648722067,4.567937925764588
355276800.0,1.5317575389121012,6.279232176266328,1.978086154503292,0.7313265424068816,10178385.191046331,4.491770310580375
355363200.0,1.5316114935967682,6.279265969212965,1.9776822472838882,0.7307460842615944,10178297.30678123,4.415660309285922
355449600.0,1.5313934500835422,6.279360719034246,1.9772143661620318,0.7302048757515802,10178211.713855699,4.339602816164198
355536000.0,1.531150205582471,6.279499513174789,1.9766755355364314,0.7297041019570059,10178125.567836398,4.2635955719150544
355622400.0,1.530876482654174,6.279666673282202,1.9760877040926912,0.7292438779010323,10178047.914869329,4.187642444921009
355708800.0,1.5305836472308998,6.279854785269944,1.9754657414222319,0.7288230714826979,10177956.461897891,4.11174433282147
355795200.0,1.5302798472910724,6.280054300863813,1.974822805102844,0.7284412032433142,10177875.275923546,4.0359173663278325
355881600.0,1.5299713441153697,6.2802608981866515,1.9741631414688052,0.7280970315491611,10177787.118811296,3.960161119323267
355968000.0,1.529663782339344,6.280467664457239,1.9734896105566846,0.7277885114905817,10177702.970499434,3.884492361383373
356054400.0,1.5293663055008992,6.280662851042359,1.9728035038749836,0.7275134128919092,10177621.910550542,3.8089105539373507
356140800.0,1.529083136183831,6.280847311654899,1.9721137943769205,0.7272712526440375,10177549.03131984,3.7334164754639483
356227200.0,1.5288146141625134,6.281018542862617,1.971432767976269,0.727059715631862,10177482.86788977,3.658005770832766
356313600.0,1.5285675990863867,6.281172995039561,1.970772537670364,0.7268767943156361,10177418.414260807,3.5826769307540123
356400000.0,1.5283461545170294,6.281310800589253,1.9701481911608671,0.7267204043424633,10177365.167465484,3.507428778332409
356486400.0,1.5281497744277717,6.2814353305533706,1.9695702576753973,0.7265875403262002,10177322.036289804,3.432246435496577
356572800.0,1.527976998811385,6.281548372681494,1.9690379521683812,0.726476523276747,10177282.975045353,3.3571251279374286
356659200.0,1.5278292888246032,6.2816480723682595,1.9685478788209334,0.7263850993731151,10177256.120588178,3.2820615435570835
356745600.0,1.5277178918404908,6.281733277796207,1.96808736339642,0.7263123880570143,10177228.49486037,3.207053310642575
356832000.0,1.5276250553818356,6.2818038447129965,1.967664075981858,0.7262556613211835,10177206.837954773,3.13209905249037
356918400.0,1.527548358571866,6.281859080305529,1.967270957137943,0.7262130504768346,10177186.845733289,3.057196002859927
357004800.0,1.527486666681422,6.281897453102566,1.9668992615226186,0.7261825538371454,10177171.06323131,2.98234277917236
357091200.0,1.5274386302609544,6.28191687627437,1.9665429376763737,0.7261619712929948,10177159.027478065,2.9075353547384215
357177600.0,1.5274027108172499,6.281914278856541,1.9661954251174836,0.7261500025299047,10177145.97339235,2.8327760978106302
357264000.0,1.527377782223098,6.2818861558282375,1.9658541649859946,0.7261447284978637,10177142.698215615,2.7580526238547303
357350400.0,1.5273584087332912,6.281830864851478,1.9655199907739336,0.7261439972300066,10177144.035835259,2.6833594407376924
357436800.0,1.5273494759747805,6.281746873922001,1.9651932548828035,0.7261468840456168,10177142.994530044,2.60869265202532
357523200.0,1.527347504004205,6.281632024047337,1.9648758942940738,0.7261517715212836,10177144.186098346,2.5340467874026826
357609600.0,1.5273485131221043,6.281486051069363,1.964565130539577,0.7261575878609868,10177151.672273155,2.4594120012674807
357696000.0,1.52735030283792,6.281307305879505,1.964246404121979,0.7261638730658172,10177164.11345273,2.384777064752333
357782400.0,1.5273568966792972,6.281091945348421,1.9639020457245215,0.7261698686706111,10177178.406221742,2.310134273200184
357868800.0,1.527377526008377,6.280833192778002,1.963531871048967,0.7261737318560019,10177197.483221048,2.235470315099407
357955200.0,1.5274178244581231,6.28052808363496,1.9631504721266169,0.7261717493057657,10177218.969507946,2.160773763483856
358041600.0,1.5274749997985946,6.280182368283821,1.9627662473636347,0.7261612546580103,10177239.792965898,2.0860363665532535
358128000.0,1.527556067118935,6.279800442172405,1.9623689116193463,0.7261394362015836,10177258.063266657,2.011255501659324
358214400.0,1.5276655517196478,6.279383499623714,1.961951712648439,0.7261033735070235,10177274.643898599,1.9364290916103815
358300800.0,1.527806584909824,6.278932081632496,1.9615195123563938,0.7260500118235957,10177289.960291531,1.8615535435219754
358387200.0,1.527978898649107,6.278448516375475,1.9610797255895145,0.7259770264967416,10177298.764867544,1.7866257532758567
358473600.0,1.5281806381823038,6.2779373512746135,1.9606343308751064,0.7258818908114245,10177307.49239329,1.7116476184451832
358560000.0,1.5284291602510445,6.277402481599112,1.9601726594716875,0.725765270524302,10177271.552613381,1.636620643541737
358646400.0,1.5286950703823134,6.276850597160059,1.959702537828109,0.7256236129420441,10177252.503613017,1.5615820999156291
358732800.0,1.5289868378952636,6.276276823545525,1.9592244513615997,0.7254538461926713,10177231.643951582,1.4865233741458121
358819200.0,1.5293093344140933,6.275688514027887,1.958735924578228,0.7252531106323699,10177213.875514308,1.4114405659203468
358905600.0,1.5296683101001378,6.275087448857993,1.9582421183530114,0.7250184469099217,10177193.661080062,1.3363324988354872
358992000.0,1.5300617951852011,6.274475933076133,1.9577572832332282,0.7247452367575179,10177172.635986317,1.2612057966911472
359078400.0,1.5304793902902039,6.273864306956669,1.957297810198451,0.7244327701083287,10177152.177814547,1.186054198044193
359164800.0,1.5309668346634195,6.273252422065041,1.9568333005881189,0.7240725545662126,10177161.544856258,1.1108812403948214
359251200.0,1.5314199884151443,6.272663981474967,1.9564135489808872,0.7236672926801445,10177148.545121955,1.0356941509386601
359337600.0,1.5318627681228376,6.272100418577478,1.956007304539356,0.7232134042918781,10177152.200798271,0.9604836524779108
359424000.0,1.532286726451326,6.271569284208772,1.9555997465455204,0.7227099795945086,10177154.77336335,0.8852589265502928
359510400.0,1.5326857723753875,6.271075556053934,1.955185966943131,0.7221553382834488,10177171.365464289,0.810021527884344
359596800.0,1.5330518657935546,6.270626155250672,1.9547633941537483,0.72154803315215,10177206.36008447,0.7347760197518411
359683200.0,1.5333715635620095,6.270232564870986,1.9543323542644864,0.7208890880146364,10177281.77918424,0.6595093589642413
359769600.0,1.533629624930758,6.26990697462298,1.9538880913633614,0.7201806746011074,10177380.654295338,0.584187148985932
359856000.0,1.5338204889060334,6.269657705628229,1.9534218569815602,0.7194254459315739,10177525.429263877,0.5088013256409312
359942400.0,1.5339320038477904,6.269496318044602,1.9529324320694215,0.7186283035516241,10177713.41224969,0.4333522905043736
360028800.0,1.5339506739692017,6.269436198277314,1.952420630365933,0.7177978900024494,10177961.03536622,0.3578497315826051
360115200.0,1.5338626512814895,6.269491556741709,1.9518815753815368,0.7169460088787805,10178304.998592898,0.28231822502694287
360201600.0,1.5336556906694139,6.2696740253129395,1.951295338375505,0.716089023895816,10178796.574632665,0.2067893339695992
360288000.0,1.5333240421723926,6.269984777555533,1.9506254303123336,0.7152484564942788,10179527.106817579,0.1313099043377841
360374400.0,1.5328866852905436,6.270412476302409,1.9497690076599132,0.7144185304178525,10179663.548023345,0.05596760550881097
360460800.0,1.5323232660199158,6.270940722652258,1.9489084291274674,0.7135116642954349,10175510.359113378,6.263986531069247
360547200.0,1.5316641441159782,6.271566796885756,1.9480451379554309,0.7128243443793192,10176619.301169842,6.18902456448184
360633600.0,1.5309459888266468,6.272233269641014,1.946966222165646,0.7122362290213498,10178322.099427678,6.114374005342156
360720000.0,1.5301984451015653,6.272898035590921,1.9458023579159471,0.7117162359363373,10178869.367401328,6.039986910350007
360806400.0,1.5294586746217123,6.273518548236493,1.9445896399408853,0.7112987286119486,10179029.13887004,5.9658581500310355
360892800.0,1.5287692117647458,6.27404484453879,1.9433326428568773,0.7109932456337363,10179069.18647502,5.891983739981769
360979200.0,1.5281681533791331,6.274433853031425,1.9420706545373314,0.710795177632019,10179023.756357925,5.818310019523126
361065600.0,1.5276904796121278,6.274643291303321,1.9408142566230597,0.7106903650316188,10178952.721125076,5.744779457472037
361152000.0,1.5273659781347282,6.274644666726981,1.9395807718656726,0.7106553584828319,10178859.148682663,5.671324029803804
361238400.0,1.5272170021967297,6.274421685087591,1.938383450764677,0.7106615022425087,10178762.446034033,5.597864302543877
361324800.0,1.5272551123535554,6.273974510808709,1.9372406143527272,0.7106777471263724,10178666.799517842,5.524320090751729
361411200.0,1.5274770763934256,6.273321214890442,1.936176734138903,0.7106733570575534,10178580.346675796,5.450623405621709
