datetime_jd,incl,Omega,w,e,a,M
#Venus
215049600.0,2.033464158270102,0.504945712397345,1.617127103598351,3.26150106911602,-3971861.865493577,126.33486016982805
215051399.99997318,2.0334729253974033,0.5049491174243688,1.6169829029848615,3.260143532938897,-3971725.2076249965,130.43761903198558
215053200.00002682,2.033481561747967,0.504952479365654,1.6168292322598303,3.258695406316478,-3971584.451165138,134.54084740353446
215055000.0,2.0334900006508287,0.5049557715317944,1.6166657661063168,3.257153780718791,-3971439.601730221,138.64455905788864
215056799.99997318,2.0334981716308373,0.5049589656455593,1.616492175604272,3.255515747394593,-3971290.6649135295,142.74876774346333
215058600.00002682,2.0335060003933627,0.5049620318357433,1.6163081280746163,3.253778397758118,-3971137.6462808405,146.85348718402992
215060400.0,2.033513408791655,0.5049649386242347,1.6161132868776942,3.251938823452532,-3970980.5513742557,150.9587310785856
215062199.99997318,2.0335203147905045,0.5049676529116025,1.615907311203577,3.249994116420806,-3970819.3857157663,155.06451310148032
215064000.00002682,2.0335266324260752,0.5049701399611456,1.6156898558538,3.247941368983752,-3970654.154810119,159.1708469019849
215065800.0,2.0335322717616675,0.5049723633813116,1.615460571014314,3.245777673925641,-3970484.8641477036,163.27774610437132
215067599.99997318,2.033537138839263,0.504974285106436,1.615219102019218,3.243500124586508,-3970311.519206985,167.38522430771144
215069400.00002682,2.0335411356266175,0.5049758653757004,1.6149650891049547,3.24110581496217,-3970134.1254567415,171.49329508570656
215071200.0,2.0335441599597703,0.5049770627102722,1.6146981671545884,3.238591839810892,-3969952.688358057,175.60197198650275
215072999.99997318,2.0335461054806805,0.5049778338885017,1.6144179654317405,3.235955294767658,-3969767.2133661457,179.71126853248572
215074800.00002682,2.033546861569725,0.5049781339191024,1.6141241073037518,3.233193276465834,-3969577.7059320128,183.82119822006038
215076600.0,2.033546313273041,0.5049779160122617,1.6138162099536655,3.230302882666296,-3969384.171503925,187.93177451941372
215078399.99997318,2.0335443412241596,0.5049771315485119,1.6134938840804878,3.22728121239405,-3969186.615528782,192.04301087426362
215080200.00002682,2.033540821559856,0.5049757300453331,1.6131567335872752,3.224125366083231,-3968985.043453353,196.15492070158498
215082000.0,2.0335356258299537,0.5049736591213584,1.6128043552564817,3.220832445729819,-3968779.4607254067,200.26751739132087
215083799.99997318,2.033528620900643,0.5049708644580438,1.6124363384120122,3.217399555053136,-3968569.8727947394,204.3808143060896
215085600.00002682,2.0335196688511608,0.504967289758717,1.6120522645673814,3.213823799665598,-3968356.285114107,208.49482478085903
215087400.0,2.033508626863434,0.5049628767049046,1.611651707059327,3.210102287252037,-3968138.7031401177,212.6095621226105
215089199.99997318,2.033495347104241,0.5049575649097106,1.6112342306661667,3.206232127757669,-3967917.132333817,216.72503960998355
215091000.00002682,2.033479676599823,0.5049512918682568,1.610799391210492,3.202210433588068,-3967691.578162079,220.84127049293593
215092800.0,2.033461457102143,0.5049439929048836,1.6103467351446608,3.198034319815168,-3967462.046097323,224.95826799231617
215094599.99997318,2.0334405249467107,0.5049356011170667,1.6098757991193084,3.193700904398121,-3967228.5416187304,229.07604529948497
215096400.00002682,2.0334167109013865,0.5049260473158238,1.609386109533251,3.189207308413205,-3966991.0702126743,233.1946155759002
215098200.0,2.033389840005804,0.5049152599625303,1.6088771820642322,3.184550656295964,-3966749.637373218,237.31399195266664
215099999.99997318,2.0333597314006444,0.504903165101772,1.6083485211793898,3.179728076095538,-3966504.2486025887,241.4341875300939
215101800.00002682,2.0333261981466904,0.5048896862902684,1.6077996196245672,3.174736699741814,-3966254.9094116297,245.5552153772134
215103600.0,2.0332890470326364,0.5048747445215044,1.607229957891259,3.169573663326283,-3966001.6253201785,249.67708853129284
215105399.99997318,2.0332480783713205,0.5048582581458684,1.6066390036601081,3.164236107397072,-3965744.401857457,253.79981999732212
215107200.00002682,2.033203085783758,0.5048401427861371,1.6060262112197417,3.158721177268966,-3965483.2445623926,257.92342274748705
215109000.0,2.033153855970053,0.5048203112479529,1.6053910208595852,3.153026023348913,-3965218.158983949,262.0479097206091
215110799.99997318,2.033100168466814,0.5047986734251179,1.60473285823536,3.147147801478876,-3964949.150681394,266.1732938215899
215112600.00002682,2.0330417953899134,0.5047751361993309,1.6040511337057157,3.141083673295471,-3964676.225224586,270.2995879208008
215114400.0,2.0329785011621446,0.5047496033341696,1.6033452416385297,3.134830806608711,-3964399.388194191,274.42680485347705
215116199.99997318,2.0329100422245605,0.5047219753628679,1.6026145596851367,3.128386375799732,-3964118.645181922,278.5549574190903
215118000.00002682,2.032836166730734,0.504692149469659,1.6018584480207754,3.121747562240059,-3963834.001790748,282.6840583806599
215119800.0,2.0327566142228943,0.5046600193642253,1.6010762485493484,3.114911554731544,-3963545.4636350637,286.81412046410355
215121599.99997318,2.0326711152887804,0.504625475148903,1.6002672840705694,3.107875549970519,-3963253.0363408765,290.9451563575005
215123400.00002682,2.0325793911981114,0.5045884031781961,1.5994308574072564,3.100636753035935,-3962956.725545951,295.0771787103773
215125200.0,2.0324811535174145,0.504548685910179,1.5985662504906388,3.093192377903391,-3962656.5368999555,299.2102001329237
215126999.99997318,2.032376103701856,0.5045062017492506,1.5976727234011772,3.085539647986636,-3962352.476064604,303.3442331952329
215128800.00002682,2.0322639326625005,0.504460824879728,1.5967495133623764,3.077675796708363,-3962044.548713749,307.47929042646933
215130600.0,2.0321443203077747,0.504412425089764,1.5957958336848437,3.069598068102085,-3961732.760533509,311.6153843140177
215132399.99997318,2.0320169350570474,0.5043608675849481,1.5948108726576629,3.061303717445941,-3961417.1172223617,315.7525273026273
215134200.00002682,2.0318814333248487,0.5043060127909044,1.5937937923840166,3.052790011932475,-3961097.624491226,319.8907317934873
215136000.0,2.031737458973655,0.5042477161443183,1.5927437275576661,3.044054231374622,-3960774.288063526,324.03001014330937
