{
    "declination": -0.518522776357082,
    "distance": 6540.0,
    "rightascension": 4.612614324812347,
    "stars": [
        {
            "mass": 1.372002810781655e+30,
            "name": "OGLE-2018-BLG-0298",
            "planets": [
                {
                    "description": "The parameters listed here were imported into the Open Exoplanet Catalogue from the exoplanet.eu website.",
                    "discoverymethod": "microlensing",
                    "discoveryyear": "2022",
                    "lastupdate": "22/06/24",
                    "mass": 2.657374436270471e+26,
                    "name": "OGLE-2018-BLG-0298 b",
                    "orbit": {
                        "semiMajorAxis": 427849910202.0
                    }
                }
            ]
        }
    ]
}