{
    "declination": -0.11375767212507835,
    "distance": 109.6,
    "rightascension": 3.1387280810495204,
    "stars": [
        {
            "magB": 18.05,
            "magH": 12.015,
            "magJ": 12.621,
            "magK": 11.777,
            "magR": 15.69,
            "magV": 16.588,
            "mass": 7.555957508652594e+29,
            "metallicity": -0.01,
            "name": "K2-242",
            "planets": [
                {
                    "description": "This planet was discovered by Livingston et al. 2018. The discovery was made with a space based telescope (0.95 m Kepler Telescope). The parameters listed here are those reported by Livingston et al. 2018 and were imported into the Open Exoplanet Catalogue from the NASA Exoplanet Archive.",
                    "discoverymethod": "transit",
                    "discoveryyear": "2018",
                    "istransiting": "1",
                    "lastupdate": "18/07/12",
                    "name": "K2-242 b",
                    "orbit": {
                        "period": 562800.096,
                        "semiMajorAxis": 7390134812.58,
                        "transitTime": 522006336.0000193
                    },
                    "radius": 16228684.0,
                    "temperature": 416.0
                }
            ],
            "radius": 257409000.0,
            "temperature": 3459.0
        }
    ]
}