{
    "binaries": [
        {
            "planets": [
                {
                    "description": "The binary RR Cae contains a cool white dwarf and an M-Type dwarf. Eclipse timing variations were used to find a circumbinary planet on an orbit nearly identical to that of Jupiter.",
                    "discoverymethod": "timing",
                    "discoveryyear": "2012",
                    "lastupdate": "12/12/08",
                    "mass": 7.972123308811412e+27,
                    "name": "RR Cae (AB) b",
                    "orbit": {
                        "eccentricity": 0.0,
                        "period": 375840000.0,
                        "semiMajorAxis": 792868714710.0
                    }
                }
            ],
            "stars": [
                {
                    "magB": 14.92,
                    "magH": 10.148,
                    "magJ": 10.72,
                    "magK": 9.852,
                    "magV": 14.4,
                    "mass": 1.2367909395741877e+30,
                    "name": "RR Cae A",
                    "orbit": {
                        "period": 26279.99424
                    },
                    "radius": 10435500.0,
                    "spectraltype": "DAZ8+dM",
                    "temperature": 7540.0
                },
                {
                    "mass": 3.618905964670453e+29,
                    "name": "RR Cae B",
                    "radius": 141227100.0,
                    "spectraltype": "M4",
                    "temperature": 3100.0
                }
            ]
        }
    ],
    "declination": -0.8491366180529191,
    "distance": 21.2,
    "rightascension": 1.1392636692392986
}