{
    "declination": 0.40478728639716915,
    "distance": 320.7,
    "rightascension": 2.312973454756371,
    "stars": [
        {
            "magB": 13.871,
            "magH": 11.289,
            "magJ": 11.687,
            "magK": 11.196,
            "magV": 13.081,
            "mass": 1.9227923449650152e+30,
            "metallicity": 0.26,
            "name": "K2-187",
            "planets": [
                {
                    "description": "This planet was announced as part of a batch of 149 validated planets from the K2 mission.",
                    "discoverymethod": "transit",
                    "discoveryyear": "2018",
                    "istransiting": "1",
                    "lastupdate": "18/07/24",
                    "name": "K2-187 d",
                    "orbit": {
                        "inclination": 1.5271630954950384,
                        "period": 617680.512,
                        "transitTime": 483997982.3999852
                    },
                    "radius": 20539651.6
                },
                {
                    "description": "This planet was announced as part of a batch of 149 validated planets from the K2 mission.",
                    "discoverymethod": "transit",
                    "discoveryyear": "2018",
                    "istransiting": "1",
                    "lastupdate": "18/07/24",
                    "name": "K2-187 e",
                    "orbit": {
                        "inclination": 1.5533430342749532,
                        "period": 1175757.1199999999,
                        "transitTime": 483578398.0800167
                    },
                    "radius": 14412787.2
                },
                {
                    "description": "This planet was announced as part of a batch of 149 validated planets from the K2 mission.",
                    "discoverymethod": "transit",
                    "discoveryyear": "2018",
                    "istransiting": "1",
                    "lastupdate": "18/07/24",
                    "name": "K2-187 c",
                    "orbit": {
                        "inclination": 1.5027284859671177,
                        "period": 248122.656,
                        "transitTime": 483603592.3199862
                    },
                    "radius": 10845336.4
                },
                {
                    "description": "This planet was announced as part of a batch of 149 validated planets from the K2 mission.",
                    "discoverymethod": "transit",
                    "discoveryyear": "2018",
                    "istransiting": "1",
                    "lastupdate": "18/07/24",
                    "name": "K2-187 b",
                    "orbit": {
                        "inclination": 1.4311699866353502,
                        "period": 66871.9584,
                        "transitTime": 483545678.39999646
                    },
                    "radius": 8800665.2
                }
            ],
            "radius": 622651500.0
        }
    ]
}