{
    "declination": -0.4493641047468067,
    "distance": 6090.0,
    "rightascension": 4.754640492693385,
    "stars": [
        {
            "mass": 7.158275534512984e+29,
            "name": "KMT-2021-BLG-0748",
            "planets": [
                {
                    "description": "The parameters listed here were imported into the Open Exoplanet Catalogue from the exoplanet.eu website.",
                    "discoverymethod": "microlensing",
                    "discoveryyear": "2022",
                    "lastupdate": "22/02/08",
                    "mass": 8.541560688012228e+26,
                    "name": "KMT-2021-BLG-0748 b",
                    "orbit": {
                        "semiMajorAxis": 363522825801.0
                    }
                }
            ]
        }
    ]
}