{
    "declination": 0.9573324872661341,
    "distance": 396.378,
    "rightascension": 0.6856235078251056,
    "stars": [
        {
            "magH": 10.819,
            "magJ": 11.129,
            "magK": 10.732,
            "magV": 12.241,
            "mass": 2.386091844837661e+30,
            "metallicity": 0.262,
            "name": "TOI-3688 A",
            "planets": [
                {
                    "description": "This planet was discovered by Yee et al. 2023. The discovery was made with a space based telescope (0.1 m TESS Telescope). The parameters listed here have been imported into the Open Exoplanet Catalogue from the NASA Exoplanet Archive.",
                    "discoverymethod": "transit",
                    "discoveryyear": "2023",
                    "istransiting": "1",
                    "lastupdate": "23/10/15",
                    "mass": 1.8601621053893295e+27,
                    "name": "TOI-3688 A b",
                    "orbit": {
                        "eccentricity": 0.0,
                        "inclination": 1.5341444125030157,
                        "period": 280460.88,
                        "semiMajorAxis": 6821662903.92,
                        "transitTime": 653490780.4800019
                    },
                    "radius": 83431164.0,
                    "temperature": 1534.0
                }
            ],
            "radius": 904410000.0,
            "temperature": 5950.0
        }
    ]
}