{
    "declination": 0.3123283461300945,
    "distance": 135.17,
    "rightascension": 2.647139451147577,
    "stars": [
        {
            "magH": 6.612,
            "magJ": 6.897,
            "magK": 6.536,
            "magV": 8.0,
            "mass": 2.2270190551818173e+30,
            "metallicity": -0.17,
            "name": "HD 87646",
            "planets": [
                {
                    "description": "This planet was discovered by Ma et al. 2016. This was a ground based discovery. The parameters listed here are those reported by Ma et al. 2016 and were imported into the Open Exoplanet Catalogue from the NASA Exoplanet Archive.",
                    "discoverymethod": "RV",
                    "discoveryyear": "2016",
                    "lastupdate": "16/08/18",
                    "mass": 2.3536745006967025e+28,
                    "name": "HD 87646 b",
                    "orbit": {
                        "eccentricity": 0.05,
                        "periapsisArgument": 5.201081170943102,
                        "period": 1164758.4,
                        "semiMajorAxis": 17502950871.9
                    }
                }
            ],
            "radius": 1078335000.0,
            "spectraltype": "G",
            "temperature": 5770.0
        }
    ]
}