{
    "declination": 0.7800676122481511,
    "distance": 1106.32,
    "rightascension": 4.92841750124937,
    "stars": [
        {
            "magH": 13.014,
            "magJ": 13.26,
            "magK": 12.966,
            "mass": 2.0580042161724826e+30,
            "metallicity": -0.16,
            "name": "KIC 8540376",
            "planets": [
                {
                    "description": "The planet KIC 8540376 b was discovered and validated by the Planet Hunters project in 2015. Only two transits have been observed for this planet. The planet is validated with a confidence of 0.999.",
                    "discoverymethod": "transit",
                    "discoveryyear": "2015",
                    "istransiting": "1",
                    "lastupdate": "16/01/09",
                    "name": "KIC 8540376 b",
                    "orbit": {
                        "inclination": 1.5585790220309363,
                        "period": 2748375.36,
                        "transitTime": 415479628.7999913
                    },
                    "radius": 26166072.0
                },
                {
                    "description": "The planet KIC 8540376 c was discovered and validated by the Planet Hunters project in 2015. Only one transit has been observed for this planet. The planet is validated with a confidence of 0.999.",
                    "discoverymethod": "transit",
                    "discoveryyear": "2015",
                    "istransiting": "1",
                    "lastupdate": "16/01/09",
                    "name": "KIC 8540376 c",
                    "orbit": {
                        "inclination": 1.5655777923314333,
                        "period": 6497280.0,
                        "transitTime": 415187510.3999868
                    },
                    "radius": 15299288.0
                }
            ],
            "radius": 876582000.0,
            "temperature": 6474.0
        }
    ]
}