datetime_jd,incl,Omega,w,e,a,M
#Earth
438134400.0,0.8906088916435058,3.065083814909477,4.160135343592375,1.201481589482413,-32627417.211185124,1.8416578746468864
438220800.0,0.8818765543237229,3.0607953800602816,4.166137805750143,1.203785776805029,-32622683.966232907,11.100991093076715
