datetime_jd,incl,Omega,w,e,a,M
#Mars
465177600.0,1.434049418544829,0.21997381316762035,2.151937400377514,0.5202482549796871,7474343.043178393,2.731871714750778
465264000.0,1.4310075414800838,0.21286610009555096,2.140822987104802,0.5202182236334779,7474876.239424435,5.271955523572397
465350400.0,1.426595880684547,0.20481992162129464,2.128201018188259,0.5203682832058791,7471850.783379203,1.525837211568792
465436800.0,1.4235783622985279,0.19758954770356235,2.117694928334979,0.5199295446525446,7474530.811018836,4.0641379000043685
465523200.0,1.419535789364796,0.18988949172578332,2.107932657382887,0.5202072439959214,7484219.7603270365,0.316451645518061
