datetime_jd,incl,Omega,w,e,a,M
#Mars
464054400.0,1.4486083482015886,0.2258257880294655,2.1316419211776947,1.926618047592435,-4240726.255586134,-459.4928034062484
464140800.0,1.437654181864203,0.2256169941664877,2.1306182396604965,1.929944895082127,-4235023.502026685,-395.26233497522605
464227200.0,1.4333584553255512,0.2255321956639104,2.130066250163934,1.931740126071427,-4230170.217424906,-330.7499340650634
464313600.0,1.4328887946298527,0.22552267887353428,2.1298259346944834,1.93251889816878,-4226170.221785846,-266.00006889661466
464400000.0,1.434100217848159,0.22554987512079444,2.129750210256358,1.932761777503556,-4223026.809723852,-201.05798562751005
464486400.0,1.4355243685386605,0.2255854578238971,2.12973413478319,1.932813143512082,-4220742.946746619,-135.96952054903355
464572800.0,1.4363732034678633,0.22561145267717805,2.129717708820374,1.932869423286601,-4219321.943502712,-70.7809769945569
464659200.0,1.436555389837557,0.22561977747856088,2.129710338613846,1.932905126167045,-4218775.253601493,-5.5390390156955505
