datetime_jd,incl,Omega,w,e,a,M
#Mars
464664600.0,1.4365210138612257,0.22560026885426132,2.1297815774423197,1.93269264237732,-4219436.227873243,-1.4604720179119561
464664659.9999562,1.4365191053690511,0.225598669500591,2.129784893359602,1.932676940775795,-4219502.891112061,-1.4151408224314577
464664719.99999285,1.436517060741358,0.22559689862414542,2.1297882735269207,1.932659736443605,-4219577.391346786,-1.3698084186306763
464664779.9999893,1.436514868856054,0.22559493363573044,2.129791685266142,1.932640863969754,-4219660.739434194,-1.3244747318505112
464664840.0000259,1.436512517858479,0.22559274852987213,2.1297950838591055,1.932620141120792,-4219754.073112496,-1.279139691052842
464664899.9999821,1.4365099952172102,0.22559031332916055,2.1297984091595747,1.932597368556303,-4219858.666980419,-1.233803232499041
464664960.0000188,1.4365072878312106,0.22558759344084273,2.1298015813374187,1.932572330348787,-4219975.939891274,-1.1884653047629774
464665019.99997497,1.4365043822086725,0.22558454891593907,2.129804495562257,1.932544795759321,-4220107.457610436,-1.1431258754624156
464665080.00005186,1.4365012647445448,0.22558113360269086,2.129807015409426,1.932514522910705,-4220254.927558405,-1.0977849401851034
464665140.00000805,1.4364979221322158,0.2255772941896037,2.129808964756937,1.932481265258386,-4220420.181034334,-1.05244253410403
464665199.99996424,1.4364943397308316,0.22557296641270308,2.130158885712201,1.93107098893539,-4225996.459230216,-1.0055601131627754
464665260.0000009,1.4364903938415343,0.22556793475374654,2.137211891614106,1.902780050277004,-4341750.893106211,-0.9297930571208117
464665319.9999571,1.4364860797276042,0.22556210714343408,2.1443364984821773,1.873803921128691,-4469339.863236271,-0.8560610752377308
464665380.000034,1.4364813998051964,0.22555538175547157,2.151348281197057,1.844822712457429,-4607011.10358142,-0.7852053463269617
464665439.99999017,1.4364763619179002,0.2255476415462567,2.158240217872517,1.81580681388037,-4755977.60684752,-0.7172653601303409
464665500.0000268,1.436470983377525,0.2255387552470869,2.1650045341227115,1.786725580173981,-4917661.0215952955,-0.6522779869037421
464665559.999983,1.4364652941178453,0.22552857686881425,2.1716325075209335,1.757547441019518,-5093737.8625091715,-0.5902775810514529
464665620.00001967,1.4364593405747899,0.225516945902864,2.1781142356027567,1.728240047277363,-5286198.273956702,-0.5312960793594667
464665680.0000161,1.4364531903325934,0.2255036886046484,2.1844383646407426,1.698770464190926,-5497421.451988638,-0.47536308099452523
464665740.00005275,1.43644693748591,0.22548862084638863,2.190591778296591,1.669105421108718,-5730273.459665076,-0.4225058877549274
464665800.00000894,1.4364407085084274,0.2254715530791422,2.1965592472994073,1.639211628742709,-5988235.548728291,-0.3727494797252281
464665859.99996513,1.4364346681753892,0.22545229786243612,2.2023230453444134,1.609056172241014,-6275574.692348668,-0.32611639176675433
464665920.0000018,1.436429024799848,0.2254306801523277,2.2078625428569523,1.57860698309809,-6597573.543481563,-0.2826264490485426
464665979.9999982,1.4364240338375363,0.22540655030403012,2.213153801290181,1.547833374322588,-6960845.804844061,-0.24229630756937676
464666040.00003487,1.4364199988883535,0.22537980028948223,2.2181692021179797,1.516706577728898,-7373777.515558202,-0.20513872581099257
464666099.99999106,1.4364172689194372,0.22535038546391423,2.2228771343742535,1.485200163219866,-7847159.272013141,-0.1711614851089475
464666159.99994725,1.4364162293510916,0.22531835578308718,2.2272417052279656,1.453290219183191,-8395115.701811872,-0.1403659156123817
464666219.9999839,1.436417282440548,0.22528390036016532,2.231222355469576,1.420955290659966,-9036508.983640363,-0.11274507392419587
464666279.99998033,1.436420810022319,0.22524740600172533,2.234773217485586,1.388176221444034,-9797120.129355138,-0.08828166526636261
464666340.000017,1.4364271149910837,0.22520950024832695,2.2378420591245143,1.354936238309801,-10713150.583239265,-0.06694577886341352
464666399.9999732,1.4364363597515997,0.22517101121799418,2.2403689013059096,1.32122162088362,-11837067.451876296,-0.04869235701579206
464666460.00000983,1.4364485287848028,0.22513286158073142,2.2422846112789983,1.287022398071716,-13247879.756931463,-0.0334579608651473
464666519.999966,1.4364634050708252,0.22509600232912413,2.2435091542817265,1.252332756119755,-15070353.824696822,-0.02115645229090456
464666580.0000429,1.4364805397661755,0.22506139654200435,2.2439490612875166,1.217152366087047,-17513680.41492836,-0.01167329241782604
464666639.9999991,1.4364992488436608,0.22502995307764345,2.2434947632300504,1.181490122656609,-20957065.23101362,-0.004857490364828657
464666700.00003576,1.4365187036005473,0.2250023574963021,2.2420196245781505,1.145368669479324,-26165852.5967021,-0.0005090811893166225
464666759.99999195,1.4365381142453886,0.22497889902954848,2.239381456254182,1.108825520412555,-34950971.94701316,0.0016412241362318608
464666819.99994814,1.4365569609134998,0.22495937775291824,2.2354219395694703,1.071906312586469,-52886805.78732313,0.0019680009710612224
464666880.00002503,1.4365750047612083,0.22494330814298388,2.229959756293895,1.034665674720396,-109661256.71803132,0.0010332371047692933
464666939.9999812,1.4365920413508722,0.22493025198684924,2.222788087458087,0.9971751083032331,1344848345.578837,3.303886028582781e-05
464667000.0000179,1.4366078140933798,0.2249198675027714,2.213674603100434,0.9595228173045955,93763786.89260924,0.0022988323254624636
464667059.9999741,1.4366221149940195,0.2249118133471006,2.2023581831938643,0.9218112496160757,48470547.050170764,0.007590665574113587
464667120.0000107,1.436634882613407,0.22490570709664265,2.1885443585446214,0.8841581309786146,32650619.123756822,0.01637091664753232
464667180.00000715,1.4366443048939799,0.22490186783128574,2.175842110209174,0.854892416745665,26013025.141476274,0.026674763841284317
464667240.0000438,1.4366453341437349,0.22490151604618602,2.1759042502955372,0.8547741410899296,25992534.074449934,0.029668209050873525
464667300.0,1.43664451011841,0.22490172668638295,2.1759367556831704,0.8546466182711182,25970272.866734415,0.032673422871872575
464667359.9999562,1.4366420579002996,0.2249022254952171,2.1759422449808143,0.8545163205224375,25947378.04376224,0.035688840014637804
464667419.99999285,1.4366382239879167,0.22490279427897214,2.175924321446067,0.8543884483039806,25924765.491373338,0.03871255429138643
464667479.9999893,1.4366332512382562,0.2249032697005889,2.175887064518563,0.8542668774214376,25903121.33107033,0.04174255385291837
464667540.0000259,1.436627366427564,0.22490353637342678,2.1758346149978856,0.854154256400061,25882919.03202991,0.044776896041950565
464667599.9999821,1.436620775630714,0.22490351847561058,2.1757708862501253,0.8540521845851249,25864450.49262091,0.047813821446649925
464667660.0000188,1.4366136625270791,0.2249031718545624,2.175699386360706,0.8539614184235804,25847861.79584281,0.05085181708040843
464667719.99997497,1.4366061878195309,0.2249024770367045,2.175623129873634,0.8538820754216533,25833188.362861566,0.053889639628588164
464667780.00005186,1.4365984894512598,0.22490143316088015,2.1755446155373055,0.8538138167839058,25820386.29406405,0.05692631083175482
464667840.00000805,1.4365906835693227,0.22490005282895062,2.1754658472392867,0.8537559994390422,25809358.366000965,0.05996109591368982
464667899.99996424,1.4365828660852848,0.22489835785673162,2.1753883796801885,0.8537077958531776,25799974.468129657,0.06299347334823313
464667960.0000009,1.4365751146200028,0.22489637587242448,2.175313375766209,0.8536682844548407,25792087.009923965,0.06602310148629174
464668019.9999571,1.4365674906357657,0.22489413767703,2.1752416672448187,0.8536365152115335,25785542.106140327,0.06904978551326392
464668080.000034,1.4365600416030064,0.22489167526341106,2.1751738133448377,0.8536115551357999,25780187.371540915,0.0720734468399078
464668139.99999017,1.4365528030913601,0.2248890203851999,2.175110154405345,0.8535925181292364,25775877.079777762,0.07509409602590102
464668200.0000268,1.4365458007109624,0.22488620356981853,2.1750508590082482,0.8535785829877417,25772475.333156183,0.07811180968529198
