{
    "declination": 0.20802694837139252,
    "distance": 77.37,
    "rightascension": 4.301111865090601,
    "stars": [
        {
            "magH": 6.972,
            "magJ": 7.229,
            "magK": 6.906,
            "magV": 8.23,
            "mass": 2.4059759435446416e+30,
            "metallicity": 0.24,
            "name": "HD 148164",
            "planets": [
                {
                    "description": "This planet was discovered by Ment et al. 2018. This was a ground based discovery. The parameters listed here are those reported by Ment et al. 2018 and were imported into the Open Exoplanet Catalogue from the NASA Exoplanet Archive.",
                    "discoverymethod": "RV",
                    "discoveryyear": "2018",
                    "lastupdate": "18/09/27",
                    "mass": 2.3346932547233422e+27,
                    "name": "HD 148164 b",
                    "orbit": {
                        "eccentricity": 0.587,
                        "periapsisArgument": 2.4696408915719763,
                        "period": 28386720.0,
                        "semiMajorAxis": 148550685605.1
                    }
                },
                {
                    "description": "This planet was discovered by Ment et al. 2018. This was a ground based discovery. The parameters listed here are those reported by Ment et al. 2018 and were imported into the Open Exoplanet Catalogue from the NASA Exoplanet Archive.",
                    "discoverymethod": "RV",
                    "discoveryyear": "2018",
                    "lastupdate": "18/09/27",
                    "mass": 9.794322922254021e+27,
                    "name": "HD 148164 c",
                    "orbit": {
                        "eccentricity": 0.125,
                        "periapsisArgument": 2.652900463031381,
                        "period": 437356800.0,
                        "semiMajorAxis": 920026904805.0
                    }
                }
            ],
            "radius": 932238000.0,
            "spectraltype": "F8",
            "temperature": 6032.0
        }
    ]
}