{
    "declination": 0.7732271559159655,
    "distance": 248.11,
    "rightascension": 4.435415401908287,
    "stars": [
        {
            "magH": 10.585,
            "magJ": 10.938,
            "magK": 10.506,
            "magV": 12.247,
            "mass": 1.988409870698051e+30,
            "metallicity": 0.11,
            "name": "WASP-148",
            "planets": [
                {
                    "description": "This planet was discovered by Hebrard et al. 2020. This was a ground based discovery. The parameters listed here are those reported by Hebrard et al. 2020 and were imported into the Open Exoplanet Catalogue from the NASA Exoplanet Archive.",
                    "discoverymethod": "transit",
                    "discoveryyear": "2020",
                    "istransiting": "1",
                    "lastupdate": "20/07/09",
                    "mass": 5.523542578247907e+26,
                    "name": "WASP-148 b",
                    "orbit": {
                        "eccentricity": 0.22,
                        "inclination": 1.567305668290908,
                        "periapsisArgument": 1.0297442586766545,
                        "period": 760649.184,
                        "semiMajorAxis": 12641020074.150002,
                        "transitTime": 554082137.2799947
                    },
                    "radius": 51617224.0,
                    "temperature": 940.0
                },
                {
                    "description": "This planet was discovered by Hebrard et al. 2020. This was a ground based discovery. The parameters listed here are those reported by Hebrard et al. 2020 and were imported into the Open Exoplanet Catalogue from the NASA Exoplanet Archive.",
                    "discoverymethod": "RV",
                    "discoveryyear": "2020",
                    "istransiting": "1",
                    "lastupdate": "20/07/09",
                    "mass": 7.592498389344203e+26,
                    "name": "WASP-148 c",
                    "orbit": {
                        "eccentricity": 0.359,
                        "periapsisArgument": 0.24434609527920614,
                        "period": 2982182.4,
                        "semiMajorAxis": 31430512634.07,
                        "transitTime": 552156480.0000161
                    },
                    "temperature": 590.0
                }
            ],
            "radius": 716571000.0,
            "spectraltype": "G",
            "temperature": 5460.0
        }
    ]
}