{
    "declination": -0.6593949611407092,
    "distance": 44.98,
    "rightascension": 5.190461307865849,
    "stars": [
        {
            "magB": 7.78,
            "magH": 5.951,
            "magJ": 6.19,
            "magK": 5.876,
            "magV": 7.22,
            "mass": 2.425860042251622e+30,
            "metallicity": 0.05,
            "name": "HD 187085",
            "planets": [
                {
                    "discoverymethod": "RV",
                    "discoveryyear": "2006",
                    "lastupdate": "10/12/22",
                    "mass": 1.4235934480020378e+27,
                    "name": "HD 187085 b",
                    "orbit": {
                        "eccentricity": 0.47,
                        "period": 85190400.0,
                        "semiMajorAxis": 306675634935.0
                    },
                    "temperature": 215.5
                }
            ],
            "spectraltype": "G0 V",
            "temperature": 6075.0
        }
    ]
}