{
    "declination": -0.09026683436094957,
    "distance": 401.36,
    "rightascension": 3.0833983221456767,
    "stars": [
        {
            "magH": 12.398,
            "magJ": 12.982,
            "magK": 12.284,
            "magV": 15.023,
            "mass": 1.3918869094886355e+30,
            "name": "K2-42",
            "planets": [
                {
                    "description": "This planet was discovered by Crossfield et al. 2016. The discovery was made with a space based telescope (0.95 m Kepler Telescope). The parameters listed here are those reported by Crossfield et al. 2016 and were imported into the Open Exoplanet Catalogue from the NASA Exoplanet Archive.",
                    "discoverymethod": "transit",
                    "discoveryyear": "2016",
                    "istransiting": "1",
                    "lastupdate": "16/07/18",
                    "name": "K2-42 b",
                    "orbit": {
                        "period": 577839.7440000001,
                        "semiMajorAxis": 9230188622.19,
                        "transitTime": 455343232.3199943
                    },
                    "radius": 13726464.0
                }
            ],
            "radius": 445248000.0,
            "temperature": 4613.0
        }
    ]
}