{
    "declination": -1.1658972685428022,
    "distance": 59.7,
    "rightascension": 2.3296884511861045,
    "stars": [
        {
            "magB": 8.88,
            "magH": 6.613,
            "magJ": 6.911,
            "magK": 6.5,
            "magV": 8.13,
            "mass": 1.988409870698051e+30,
            "metallicity": 0.14,
            "name": "HD 76700",
            "planets": [
                {
                    "discoverymethod": "RV",
                    "discoveryyear": "2002",
                    "lastupdate": "10/12/29",
                    "mass": 3.7393054567520196e+26,
                    "name": "HD 76700 b",
                    "orbit": {
                        "eccentricity": 0.0,
                        "period": 343094.4,
                        "semiMajorAxis": 7330295664.3
                    },
                    "temperature": 1315.4
                }
            ],
            "radius": 925281000.0,
            "spectraltype": "G6 V",
            "temperature": 5726.0
        }
    ]
}