{
    "declination": 0.8750339283948533,
    "distance": 550.0,
    "rightascension": 4.9849292771169225,
    "stars": [
        {
            "magB": 12.9,
            "magH": 10.84,
            "magJ": 11.122,
            "magK": 10.805,
            "magR": 12.3,
            "magV": 12.7,
            "mass": 2.4318252718637166e+30,
            "metallicity": 0.17,
            "name": "Kepler-4",
            "planets": [
                {
                    "discoverymethod": "transit",
                    "discoveryyear": "2010",
                    "istransiting": "1",
                    "lastupdate": "10/01/06",
                    "mass": 1.4615559399487589e+26,
                    "name": "Kepler-4 b",
                    "orbit": {
                        "eccentricity": 0.0,
                        "inclination": 1.5666075365901102,
                        "period": 277642.944,
                        "semiMajorAxis": 6821662903.92,
                        "transitTime": 294806537.2799948
                    },
                    "radius": 25522644.0,
                    "temperature": 1474.7
                }
            ],
            "radius": 1034505900.0000001,
            "spectraltype": "G0",
            "temperature": 5857.0
        }
    ]
}