{
    "declination": 0.5815117245755953,
    "distance": 129.0,
    "rightascension": 1.3665148971770738,
    "stars": [
        {
            "age": 1.3,
            "magB": 8.97,
            "magH": 7.58,
            "magI": 8.129,
            "magJ": 7.739,
            "magK": 7.543,
            "magV": 8.54,
            "mass": 3.052209151521508e+30,
            "metallicity": 0.139,
            "name": "KELT-7",
            "planets": [
                {
                    "description": "KELT-7b is a hot Jupiter hosted by a rapid rotating star. This results in a Rossiter-McLaughlin effect with an unusually large amplitude.",
                    "discoverymethod": "transit",
                    "discoveryyear": "2015",
                    "istransiting": "1",
                    "lastupdate": "15/01/22",
                    "mass": 2.4295994845901446e+27,
                    "name": "KELT-7 b",
                    "orbit": {
                        "inclination": 1.4618877814704505,
                        "period": 236284.55136,
                        "semiMajorAxis": 6604745991.405001,
                        "transitTime": 415647055.49761355
                    },
                    "radius": 109597236.0,
                    "temperature": 2048.0
                }
            ],
            "radius": 1204952400.0,
            "spectraltype": "F2",
            "temperature": 6789.0
        }
    ]
}