{
    "declination": 0.6822000367403,
    "distance": 1106.65,
    "rightascension": 5.026125214294011,
    "stars": [
        {
            "magH": 12.475,
            "magJ": 12.786,
            "magK": 12.416,
            "mass": 1.94864167328409e+30,
            "name": "Kepler-147",
            "planets": [
                {
                    "description": "Kepler-147 c has been discovered by the Kepler spacecraft and was originally classified as a planet candidate. A new statistical analysis led by a team at NASA Ames Research Center has validated the planet with more than 99 percent confidence. Although many parameters of Kepler-147 c are still unknown, the object is highly unlikely to be a false positive.",
                    "discoverymethod": "transit",
                    "discoveryyear": "2014",
                    "istransiting": "1",
                    "lastupdate": "14/02/26",
                    "name": "Kepler-147 c",
                    "orbit": {
                        "period": 2887178.9472000003,
                        "transitTime": 298929642.9119915
                    },
                    "radius": 15831903.4
                },
                {
                    "description": "Kepler-147 b has been discovered by the Kepler spacecraft and was originally classified as a planet candidate. A new statistical analysis led by a team at NASA Ames Research Center has validated the planet with more than 99 percent confidence. Although many parameters of Kepler-147 b are still unknown, the object is highly unlikely to be a false positive.",
                    "discoverymethod": "transit",
                    "discoveryyear": "2014",
                    "istransiting": "1",
                    "lastupdate": "14/02/26",
                    "name": "Kepler-147 b",
                    "orbit": {
                        "period": 1089554.4575999998,
                        "transitTime": 296066028.9600134
                    },
                    "radius": 9968129.56
                }
            ],
            "radius": 1021287600.0,
            "temperature": 6012.0
        }
    ]
}