{
    "declination": -0.6034995289059515,
    "distance": 25.5,
    "rightascension": 0.6849404950389534,
    "stars": [
        {
            "magB": 6.45,
            "magH": 4.18,
            "magJ": 4.6,
            "magK": 4.246,
            "magV": 5.78,
            "mass": 2.3463236474237e+30,
            "metallicity": 0.19,
            "name": "HD 16417",
            "planets": [
                {
                    "discoverymethod": "RV",
                    "discoveryyear": "2009",
                    "lastupdate": "09/02/25",
                    "mass": 1.309705972161875e+26,
                    "name": "HD 16417 b",
                    "orbit": {
                        "eccentricity": 0.2,
                        "period": 1489535.9999999998,
                        "semiMajorAxis": 20943701898.000004
                    },
                    "temperature": 875.5
                }
            ],
            "spectraltype": "G1V",
            "temperature": 5936.0
        }
    ]
}