{
    "declination": 0.016901589580064758,
    "distance": 120.2,
    "rightascension": 3.227120106483848,
    "stars": [
        {
            "magB": 12.449,
            "magH": 9.627,
            "magJ": 10.055,
            "magK": 9.536,
            "magV": 11.331,
            "mass": 1.6603222420328725e+30,
            "metallicity": -0.05,
            "name": "K2-165",
            "planets": [
                {
                    "description": "This planet was announced as part of a batch of 149 validated planets from the K2 mission.",
                    "discoverymethod": "transit",
                    "discoveryyear": "2018",
                    "istransiting": "1",
                    "lastupdate": "18/07/24",
                    "name": "K2-165 b",
                    "orbit": {
                        "inclination": 1.520181778487061,
                        "period": 203471.136,
                        "transitTime": 521854505.28000444
                    },
                    "radius": 8100043.6
                },
                {
                    "description": "This planet was announced as part of a batch of 149 validated planets from the K2 mission.",
                    "discoverymethod": "transit",
                    "discoveryyear": "2018",
                    "istransiting": "1",
                    "lastupdate": "18/07/24",
                    "name": "K2-165 c",
                    "orbit": {
                        "inclination": 1.520181778487061,
                        "period": 378668.73600000003,
                        "transitTime": 521831211.83998436
                    },
                    "radius": 9887343.6
                },
                {
                    "description": "This planet was announced as part of a batch of 149 validated planets from the K2 mission.",
                    "discoverymethod": "transit",
                    "discoveryyear": "2018",
                    "istransiting": "1",
                    "lastupdate": "18/07/24",
                    "name": "K2-165 d",
                    "orbit": {
                        "inclination": 1.5533430342749532,
                        "period": 1218360.96,
                        "transitTime": 522051099.84001815
                    },
                    "radius": 16900708.8
                }
            ],
            "radius": 559342800.0
        }
    ]
}