datetime_jd,incl,Omega,w,e,a,M
#Earth
-191901599.99997318,0.4679512495289457,1.917969753216015,3.483421334300033,0.6782463460139996,2886828.8614879367,3.1551242336855223
-191899800.0,0.46732475937488044,1.9156941790658555,5.393331242562426,0.6901788523580715,2843006.234883675,3.1487167993519973
-191898000.00002682,0.46605218276905885,1.9149354909731526,1.0039098666959478,0.7038897834173993,2780254.557528839,3.1600408064705245
-191896199.99997318,0.4657304292342214,1.9138510297823697,2.910302938313866,0.7152577518987777,2715434.1971823825,3.148191720669535
-191894400.0,0.4646111530969768,1.9117597410553413,4.821995506424048,0.7145943715342676,2725200.411893676,3.1339688947126048
-191892600.00002682,0.46388998027312994,1.911497096293661,0.43011723378200145,0.7150828488353087,2732136.6079520835,3.146129779275317
-191890799.99997318,0.46336600629688035,1.9091987301465783,2.3310151039705413,0.7155833292422258,2714420.2825203715,3.141854043202761
-191889000.0,0.4621630176756872,1.9082114030358495,4.249308765798138,0.7033935904862034,2768141.366886576,3.1217183441763505
-191887200.00002682,0.461883357648807,1.907016496338314,6.1508277169341605,0.6910660026997142,2842658.797799907,3.130653370537423
-191885399.99997318,0.4608193305799507,1.9046450924127705,1.7677739146517786,0.6809881085718951,2876086.3865597052,3.136057799684149
-191883600.0,0.46005145579615564,1.9042440962444165,3.6953276607177643,0.6583972247537846,2964625.1989670633,3.1141426074757423
-191883540.0000438,0.4599940210113054,1.9041601191872302,3.7598027787048247,0.6575036655396147,2969015.6901406185,3.1135723288093438
-191883480.00000715,0.459938579878883,1.9040670892572058,3.8242691679292724,0.6566112311083014,2973461.193528634,3.1130386219212016
-191883420.00001073,0.4598856332655502,1.9039656589255671,3.888723773388723,0.6557207545483001,2977956.3572399174,3.1125431984476855
-191883359.99997407,0.45983564105685487,1.9038566228938891,3.9531635047150155,0.6548330224246343,2982495.7431319426,3.1120876392258254
-191883300.00001788,0.45978901411828865,1.9037409049551555,4.017585259341896,0.6539487732982542,2987073.844436248,3.1116733900179065
-191883239.99998122,0.45974610710560354,1.9036195425229556,4.081985947246799,0.653068696823517,2991685.1027767807,3.111301757307659
-191883180.00002503,0.45970721226029887,1.9034936691120117,4.14636251695132,0.6521934333791355,2996323.9246319244,3.1109739041498097
-191883119.99994814,0.45967255430607407,1.9033644950936948,4.2107119824340185,0.651323574179468,3000984.697308677,3.110690846064886
-191883059.99999195,0.45964228653951994,1.9032332870833215,4.2750314505857325,0.6504596618057604,3005661.8045128207,3.1104534469815
-191883000.00003576,0.45961648818408674,1.903101346340889,4.3393181488212855,0.6496021910915711,3010349.641609464,3.110262415238926
-191882939.9999991,0.4595951630510137,1.9029699865832899,4.4035694524534215,0.648751610293164,3015042.6306735515,3.110118299673448
-191882880.00004292,0.45957823952513027,1.9028405116138236,4.467782911433701,0.6479083224727247,3019735.2354369126,3.1100214858220734
-191882819.99996603,0.45956557186785535,1.9027141931740275,4.5319562760726,0.6470726870231636,3024421.976231523,3.109972192286956
-191882760.00000983,0.4595569428049155,1.9025922494138277,4.5960875213643915,0.646245021263223,3029097.4450298655,3.1099704673126243
-191882699.99997318,0.4595520673428014,1.9024758243594748,4.66017486956379,0.6454256020357098,3033756.3206692617,3.110016185635957
-191882640.000017,0.4595505977362286,1.9023659687350642,4.724216810687269,0.6446146672453388,3038393.384338246,3.110109045675419
-191882579.99998033,0.4595521295092467,1.902263622463792,4.788212120643826,0.6438124172785724,3043003.5353871207,3.110248567131244
-191882519.9999839,0.4595562084154189,1.902169599139996,4.852159876736273,0.6430190162550373,3047581.807505801,3.110434089071987
-191882459.99994725,0.4595623382078896,1.902084572723759,4.916059470312996,0.6422345930671793,3052123.3852957194,3.1106647685849214
-191882399.99999106,0.45956998907830865,1.9020090666670013,4.979910616393051,0.6414592421744678,3056623.621236521,3.110939580068233
-191882340.00003487,0.4595786066145133,1.9019434456347761,5.0437133601308215,0.6406930241263147,3061078.0530318697,3.111257315241672
-191882279.9999982,0.459587621120657,1.9018879099385269,5.107468080032193,0.6399359657985222,3065482.4212906,3.111616583949392
-191882220.0000018,0.4595964571399691,1.9018424927505173,5.171175487879266,0.6391880603367356,3069832.6874810485,3.1120158158242233
-191882159.99996513,0.45960454301957,1.9018070601209247,5.234836625366257,0.6384492668105705,3074125.0520711853,3.112453262876409
-191882100.00000894,0.45961132035851254,1.901781313772331,5.298452857492849,0.6377195095895726,3078355.972754254,3.1129270030623
-191882040.00005275,0.459616253184449,1.9017647966008544,5.362025862806463,0.6369986774655415,3082522.182618955,3.1134349448795673
-191881980.0000161,0.45961883671078735,1.9017569007698447,5.425557620621421,0.6362866225455165,3086620.708144375,3.113974833025385
-191881920.00001967,0.45961860553481193,1.9017568782412726,5.489050395386903,0.6355831589567857,3090648.8868400627,3.1145442551428264
-191881859.999983,0.4596151411477744,1.90176385355236,5.5525067184079715,0.6348880614060397,3094604.3843655703,3.115140649668781
-191881800.00002682,0.4596080786402743,1.9017768386108707,5.615929367154417,0.6342010636370551,3098485.2109688376,3.1157613147839256
