datetime_jd,incl,Omega,w,e,a,M
#Earth
295570799.9999732,0.2725010373649117,4.748490546757431,1.074826206055698,0.6948990151720852,2806108.4303812836,3.12426994519833
295572600.0000268,0.2733023330856209,4.744493789268338,2.9624040883541936,0.7020303624321118,2776488.299251854,3.1868569041418193
295572659.999983,0.2733592701265701,4.744464793496212,3.025477541537024,0.7029064675049215,2770332.30356854,3.189651100098706
295572720.00001967,0.27341384237997446,4.744450337489076,3.0886370401668217,0.7038542230337147,2763779.090458957,3.192355259061355
295572780.0000161,0.2734655129124882,4.744449198996317,3.151889259539315,0.7048738459054469,2756837.8251705356,3.1949567131340846
295572840.00005275,0.2735137966186205,4.744459895027805,3.215240608051249,0.7059651348699014,2749519.6575554935,3.1974432091181626
295572900.00000894,0.2735582701437119,4.744480711372867,3.278697170429578,0.7071274670682816,2741837.6904274635,3.199802972407506
295572959.99996513,0.2735985805539273,4.744509737335812,3.3422646486759433,0.7083597974473831,2733806.9357937975,3.202024769745668
295573020.0000018,0.273634452534064,4.744544904928213,3.405948301785867,0.709660661217283,2725444.258629113,3.204097970351395
295573079.9999982,0.2736656939271369,4.744584031630044,3.4697528854196262,0.7110281794609006,2716768.3080720995,3.206012604900351
295573140.00003487,0.27369219946916107,4.744624865723733,3.5336825927595243,0.7124600679748919,2707799.4360403228,3.2077594218361343
295573199.99999106,0.27371395261754783,4.7446651331221785,3.597740997829819,0.7139536493753181,2698559.603437028,3.209329940477298
295573259.99994725,0.273731025420899,4.744702584557007,3.6619310025599203,0.7155058684532545,2689072.274303092,3.2107165003897165
295573319.9999839,0.27374357643044683,4.744735041970336,3.726254788840184,0.717113310714756,2679362.2984471484,3.2119123065056425
295573379.99998033,0.27375184670731006,4.74476044296418,3.790713776752011,0.7187722239858431,2669455.7832714585,3.212911469493285
295573440.000017,0.2737561540333793,4.74477688220791,3.85530859005014,0.7204785429096416,2659379.9556869627,3.2137090409137086
295573499.9999732,0.27375688548508453,4.744782648785815,3.92003902983633,0.7222279161103351,2649163.0151768564,3.214301042745459
295573560.00000983,0.2737544885765456,4.74477625858241,3.98490405719352,0.724015735749059,2638833.9792176136,3.214684490910898
295573619.999966,0.27374946121971727,4.74475648095008,4.049901785351801,0.7258371691524582,2628422.522393048,3.214857412501263
295573680.0000429,0.2737423407822938,4.744722359077239,4.115029481738278,0.7276871921557253,2617958.8106417144,3.2148188564684435
295573739.9999991,0.2737336925477659,4.7446732236696345,4.180283580029576,0.7295606237718825,2607473.3321488686,3.21456889762921
295573800.00003576,0.27372409789492913,4.74460869976564,4.245659702085172,0.7314521617763968,2596996.7264407044,3.2141086339099534
295573859.99999195,0.2737141425156066,4.744528706719934,4.311152689401992,0.7333564187846032,2586559.613246595,3.213440176845484
295573919.99994814,0.27370440497908477,4.744433451600466,4.376756643503326,0.7352679583957211,2576192.4226809326,3.2125666354311972
295573980.00002503,0.27369544593026296,4.744323416441729,4.442464974468188,0.7371813309857893,2565925.2282415912,3.2114920935125757
295574039.9999812,0.2736877981765831,4.744199339975242,4.508270456628231,0.7390911087482406,2555787.5840479517,3.210221580976769
295574100.0000179,0.27368195787802213,4.7440621946074675,4.574165290311375,0.74099191960325,2545808.3676561615,3.2087610390866166
295574159.9999741,0.27367837700663605,4.743913159530588,4.640141168412832,0.7428784796378537,2536015.6296349694,3.207117280364912
295574220.0000107,0.2736774571897348,4.743753590927529,4.70618934650477,0.7447456237676172,2526436.4510011408,3.205297943496431
295574280.00000715,0.2736795449961527,4.74358499026706,4.77230071518613,0.7465883343638325,2517096.809428905,3.203311443763724
295574340.0000438,0.2736849286709508,4.743408971676882,4.8384658733993895,0.748401767633247,2508021.455020137,3.2011669195708716
295574400.0,0.27369383627276384,4.743227229334204,4.904675201512411,0.7501812775883772,2499233.796263856,3.198874175635897
295574459.9999562,0.27370643512226295,4.743041505727857,4.970918933071546,0.7519224374960161,2490755.7966662906,3.1964436234473568
295574519.99999285,0.27372283243187767,4.742853561529073,5.0371872242714435,0.7536210587407156,2482607.8823876693,3.193886219584086
295574579.9999893,0.27374307695762296,4.742665147666726,5.103470220350046,0.7552732070864047,2474808.8610871052,3.1912134024894283
295574640.0000259,0.27376716149468516,4.742477980045441,5.1697581182951495,0.7568752163631163,2467375.8520487007,3.18843702827376
295574699.9999821,0.2737950260298493,4.742293717180645,5.236041225432457,0.7584236996445541,2460324.227548944,3.1855693060920838
295574760.0000188,0.27382656136575945,4.742113940862196,5.302310013644834,0.7599155580172697,2453667.5653196317,3.1826227336088952
295574819.99997497,0.27386161304369694,4.741940139807491,5.368555169139831,0.7613479870710486,2447417.6118714567,3.179610033021129
295574880.00005186,0.27389998541172483,4.741773696132881,5.4347676378290295,0.7627184812640453,2441584.2563639637,3.176544088063649
295574940.00000805,0.27394144571196155,4.741615874366594,5.50093866650271,0.7640248363341536,2436175.5146422326,3.1734378823717315
295574999.99996424,0.27398572809226324,4.741467812650954,5.567059840070919,0.7652651499409897,2431197.523004676,3.1703044395228113
295575060.0000009,0.2740325374814485,4.741330515740114,5.633123115200075,0.7664378207279519,2426654.5412333272,3.1671567650268644
295575119.9999571,0.274081553300961,4.741204849391516,5.699120850682619,0.7675415460022591,2422548.9643558552,3.164007790482591
295575180.000034,0.27413243301742324,4.741091535773453,5.765045834886267,0.7685753182167724,2418881.342640507,3.1608703200659236
295575239.99999017,0.2741848155677473,4.74099114956359,5.83089131056699,0.7695384204428175,2415650.4092547884,3.157756979469879
295575300.0000268,0.2742383247099428,4.740904114488383,5.896650997281577,0.7704304210050165,2412853.115050481,3.1546801673707265
295575359.999983,0.27429257236723253,4.740830700144804,5.962319111551863,0.7712511674379247,2410484.669929614,3.1516520094560607
295575420.00001967,0.27434716204006127,4.740771019046052,6.0278903848462955,0.7720007799083899,2408538.590254789,3.1486843150158053
295575480.0000161,0.2744016923599433,4.740725023934714,6.093360079355648,0.7726796442289154,2407006.7517861067,3.1457885360680287
295575540.00005275,0.2744557608511554,4.740692505503126,6.158724001455924,0.773288404568495,2405879.447645222,3.142975728967841
295575600.00000894,0.2745089679520368,4.740673090745424,6.223978512679742,0.7738279559475962,2405145.4508309867,3.1402565184295232
295575659.99996513,0.27456092132795235,4.740666242233515,0.005935230781305953,0.7742994365832911,2404792.0808410244,3.137641063879511
295575720.0000018,0.27461124048438906,4.740671258656536,0.07096226370006277,0.7747042201321129,2404805.273977107,3.1351390280504012
295575779.9999982,0.27465956166251676,4.740687276987504,0.13587236844842043,0.7750439078548462,2405169.656964108,3.1327595477237606
295575840.00003487,0.27470554297236544,4.740713276641049,0.20066417822353785,0.7753203207209285,2405868.6234896104,3.130511206531492
295575899.99999106,0.2747488696921638,4.740748085962149,0.26533688981730613,0.7755354914366916,2406884.413385152,3.1284020097313716
295575959.99994725,0.27478925963750206,4.740790391339593,0.32989025419212875,0.7756916563834475,2408198.194121777,3.1264393608819305
295576019.9999839,0.2748264684822691,4.74083874917096,0.39432456291791945,0.7757912474295192,2409790.1443665605,3.124630040353799
295576079.99998033,0.2748602948957205,4.740891600822312,0.4586406304230179,0.7758368835732821,2411639.539357072,3.1229801856291766
295576140.000017,0.27489058534742117,4.74094729062825,0.522839772107723,0.7758313623654092,2413724.8378780945,3.1214952733568375
295576199.9999732,0.274917238424831,4.741004086871352,0.58692377847012,0.7757776510527667,2416023.770645277,3.120180103147067
