datetime_jd,incl,Omega,w,e,a,M
#Earth
295401600.0,0.18530826203840733,5.02638921713215,0.6686342640915764,0.001087910048997536,6949462.255128278,6.209515199204207
295403399.9999732,0.18579208302945696,5.020876589799682,2.503786886519403,0.0007883488491523065,6945592.567731136,0.06260389027019643
295405200.0000268,0.18674389881607328,5.02001279989084,4.500202588901389,0.0009672552943874295,6948991.578175452,0.03316650100878516
295407000.0,0.1879813986294962,5.014149072181557,0.24879152009265168,0.000873828430537299,6948096.049818882,6.255824034911685
295408799.9999732,0.1883548667199086,5.010725366027522,2.281644436523449,0.0008374457667347956,6945951.302637778,6.19260145155291
295410600.0000268,0.18965544369459686,5.008938603592846,4.050972315228063,0.001121510821447475,6949855.776567558,0.10765926351232392
295412400.0,0.19052621072281153,5.002539072798541,6.143147057251565,0.0006459287498362345,6946529.607429597,6.270620474065238
295414199.9999732,0.19107471229427062,5.0010249149786326,1.9843344465927895,0.0009948881212617788,6947285.37619259,6.114061379841027
295416000.0000268,0.1925074173996824,4.99735428779735,3.6064307598551255,0.001147957931935254,6949555.334580812,0.17793441448247466
295417800.0,0.19302837918657376,4.991924484524656,5.809341909066025,0.0005105663187518897,6945620.996655702,6.229515635082146
295419599.9999732,0.19394443438539458,4.991161242490583,1.6102371908130626,0.001157060945344595,6948863.360957848,6.1123394115422895
295421400.0000268,0.19522243170637615,4.985719258649058,3.1824583452994535,0.001052203096767429,6948254.89459098,0.2277526846990155
295423200.0,0.1956017214454783,4.982245036247989,5.477930687180975,0.0005311769005519504,6945867.403298895,6.185122813235236
295424999.9999732,0.19688008095594686,4.980738148752761,1.1997699743872168,0.001223121434484338,6949819.432321648,6.14742267455106
295426800.0000268,0.19780197363456975,4.9746173101745,2.81238158492848,0.0009023259957080366,6946667.846802182,0.22327012525112794
295428600.0,0.1983263283508188,4.973050315601519,5.070787175868029,0.0006895010047679256,6947134.20588337,6.215917627221855
295430399.9999732,0.1997663575273256,4.969779762487397,0.7799027134531189,0.001142259984112422,6949628.88081774,6.192392390762104
295432200.0000268,0.2003254232984403,4.964440301741175,2.5371886137065047,0.0007992219214078935,6945664.42772263,0.12310250316173833
295434000.0,0.20120460567048412,4.963745709126567,4.617289010224016,0.0009044728162066156,6948728.461725998,0.009862573625818884
295435799.9999732,0.20251911653121202,4.958699261548378,0.36786935032221535,0.0009371288471006115,6948396.702490159,6.229702684990867
295437600.0000268,0.20290698909403712,4.955179740288969,2.3204337908436146,0.0008267396031311093,6945794.572593532,6.246816514065457
295439400.0,0.2041594513953814,4.953913381884532,4.154836216425154,0.001076072311703628,6949777.071569546,0.09634651011609296
295441199.9999732,0.20513072529059065,4.948062782799323,6.268233150936881,0.0006948333464586132,6946799.194620314,6.237481431471265
295443000.0000268,0.20563353044625698,4.946434161506895,2.047769878313227,0.0009771940018032219,6946986.916895114,6.142688656062327
295444800.0,0.20707591282427315,4.943528787557747,3.697590181974643,0.001132555839941859,6949704.95085178,0.17811712620827078
295446599.9999732,0.2076739107491136,4.9382815901353165,5.937964008906302,0.0005260915860516368,6945711.750364161,6.191980163167866
295448400.0000268,0.20851683879446173,4.9376293291734195,1.693537964970822,0.001153497427009386,6948587.589538855,6.120062515500636
295450200.0,0.20986353580974734,4.932957643063772,3.2584680050739823,0.001064717989263765,6948551.337476954,0.24199282393849222
295451999.9999732,0.2102622025088091,4.929393334821108,5.612862656420028,0.0005072769273860477,6945729.4181264555,6.140478478648788
295453800.0000268,0.21148672089008444,4.928330074973751,1.2954637600224,0.001247059409345694,6949718.100237705,6.141640356869502
295455600.0,0.21250529590730338,4.922745657850061,2.866880904990823,0.0009275873485239934,6946948.766927516,0.25809405514127637
295457399.9999732,0.2129881864643367,4.921045065376311,5.201202007178426,0.0006351013562829418,6946842.468327001,6.174955133077094
295459200.0000268,0.21442904890785106,4.918468612629909,0.8840681575546071,0.001193415379164805,6949757.684450783,6.177033480083789
295461000.0,0.21506665675749764,4.913320692741821,2.5680839040864307,0.0008154764225866873,6945775.745875561,0.18074906349552924
295462799.9999732,0.21587281519670035,4.912687281986806,4.732880968206009,0.0008401890674151162,6948441.958276324,6.265980766724103
295464600.0000268,0.21724787419026795,4.908366087142294,0.4787807353482392,0.001001112323302975,6948684.818355771,6.206592014218844
295466400.0,0.2176599669305018,4.90476408186064,2.350686250735215,0.000820570789867093,6945675.006422011,0.02120578625785807
295468199.9999732,0.21885355122577377,4.903872761631025,4.256172933179144,0.001025384604211156,6949651.917022265,0.08252890942528968
295470000.0000268,0.21991743616747758,4.898545689919765,0.10079751415169991,0.0007491391794478414,6947088.459412064,6.208678978780934
295471800.0,0.22038327278441644,4.896769593993973,2.1014984622929584,0.0009588849793803327,6946701.620276498,6.176044594035746
295473599.9999732,0.2218181844259681,4.894492935196959,3.7865703755062947,0.001110520377643724,6949808.636618168,0.17564441991612423
295475400.0000268,0.22249586658964746,4.889445852451476,6.057367278566349,0.0005503424422966185,6945843.433503151,6.158811071605776
295477200.0,0.2232665501578528,4.8888124565357485,1.7685846928765008,0.001144623175246726,6948292.557109897,6.131270695057898
295478999.9999732,0.22466587584325592,4.8848233467687505,3.3339560446644803,0.001071847510260522,6948825.375899317,0.25208332389472954
295480800.0000268,0.22509343748446578,4.881185764736877,5.742765435858471,0.0004927846802236618,6945630.754042385,6.096167721297698
295482600.0,0.22625535239723207,4.880439778546086,3.314458477521013,0.001810654604649135,6933495.955861032,4.210687850983663
295482659.9999562,0.22624870544474765,4.880342510677793,3.558284236895351,0.002478865636185108,6927937.998016268,4.033128463274216
295482719.99999285,0.22624239957361422,4.880222809902156,3.7401104628259776,0.003239317509397477,6921761.440846721,3.917575800231216
295482779.9999893,0.2262370902768811,4.880081060667547,3.888397356459439,0.004077508116776884,6914973.826570661,3.8355685776709865
295482840.0000259,0.22623341616172515,4.879918030260496,4.016739520787511,0.004986841514740884,6907583.4689682,3.7735107460100448
295482899.9999821,0.22623198777928383,4.8797348560118685,4.132234813628078,0.005963834148137076,6899599.402111641,3.7243026576228266
295482960.0000188,0.22623337693710777,4.879533025923476,4.238911913976223,0.007006355095482602,6891031.321553021,3.6839135265978578
295483019.99997497,0.22623810668285857,4.879314353026469,4.339223261900318,0.008112907651648966,6881889.519306486,3.649888520313677
295483080.00005186,0.22624664213636222,4.879080943902767,4.434750128093578,0.00928230857713342,6872184.814051164,3.620643726220993
295483140.00000805,0.22625938233230847,4.878835161914851,4.526561471248563,0.01051353517768509,6861928.478033741,3.5951073350676355
295483199.99996424,0.22627665321808976,4.878579585793827,4.615408819100216,0.01180564936223204,6851132.1621666495,3.5725248040420983
295483260.0000009,0.226298701930764,4.878316964328613,4.701838136329244,0.01315775942955724,6839807.820799949,3.5523470358943516
295483319.9999571,0.22632569245433592,4.878050167977623,4.78625716818956,0.01456900129637377,6827967.6375923455,3.5341630843644243
295483380.000034,0.22635770273385436,4.877782138286344,4.868977680329755,0.01603853007881536,6815623.953822191,3.5176579646024866
295483439.99999017,0.22639472329677932,4.877515836038008,4.950242916806868,0.01756551725255974,6802789.200366244,3.5025852457126243
295483500.0000268,0.22643665740509514,4.877254189089114,5.030246017363658,0.01914915075859941,6789475.834433963,3.4887486834742334
295483559.999983,0.22648332273433705,4.877000040845915,5.109142717016504,0.02078863654091268,6775696.281985001,3.4759895693320373
295483620.00001967,0.22653445454852453,4.876756100322563,5.18706032033132,0.02248320061573983,6761462.886579137,3.464177802445873
295483680.0000161,0.22658971031352806,4.876524894686592,5.264104182911668,0.02423209112423401,6746787.865218038,3.453205451492349
295483740.00005275,0.22664867566606453,4.876308725144299,5.340362484202629,0.02603458003222798,6731683.271541162,3.4429820213936613
295483800.00000894,0.2267108716318265,4.876109626948687,5.4159098031597654,0.02788996427499443,6716160.966538985,3.4334309127798455
295483859.99996513,0.22677576296460453,4.8759293342283785,5.490809838217121,0.02979756623432532,6700232.5967506375,3.4244867321934063
295483920.0000018,0.22684276745896875,4.875769250239121,5.565117504232833,0.03175673349803069,6683909.579725886,3.4160932198975766
295483979.9999982,0.22691126607252343,4.8756304235335,5.638880568033894,0.0337668378981582,6667203.096355671,3.408201633309016
295484040.00003487,0.22698061368011263,4.875513530430956,5.712140936827886,0.03582727385940139,6650124.08951826,3.400769471535282
295484099.99999106,0.22705015027183942,4.8754188640526905,5.784935681623583,0.0379374561166807,6632683.268349759,3.3937594587383115
295484159.99994725,0.22711921239955943,4.875346330066326,5.857297855615668,0.04009681688208248,6614891.1173364045,3.387138726317436
295484219.9999839,0.22718714467259696,4.875295449166095,5.929257151994105,0.04230480255819716,6596757.9093354875,3.380878149538794
295484279.99998033,0.22725331110299754,4.875265366197573,6.0008404345781114,0.04456087010662931,6578293.721574952,3.374951805364044
295484340.000017,0.2273171061035114,4.875254865723792,6.072072166755307,0.04686448318873761,6559508.45364865,3.369336526263746
295484399.9999732,0.2273779649477768,4.875262393723191,6.14297475841696,0.0492151081998816,6540411.846521496,3.364011530669733
295484460.00000983,0.227435373511703,4.875286085010967,6.213568846317993,0.05161221031913669,6521013.5015827045,3.358958115062261
295484519.999966,0.2274888771276507,4.8753237958849525,0.0006882129318515594,0.05405524969386249,6501322.898834856,3.3541593959357967
295484580.0000429,0.22753808839859738,4.875373141416118,0.07072119673083177,0.05654367787279803,6481349.413378562,3.3496000923444256
295484639.9999991,0.22758269383769672,4.875431536733186,0.14049899422343742,0.0590769345929012,6461102.329445617,3.3452663416063735
295484700.00003576,0.22762245921927268,4.875496241590944,0.21003700395609992,0.06165444501439182,6440590.851341283,3.3411455421985097
295484759.99999195,0.2276572335499702,4.875564407463604,0.27934961029994154,0.06427561748559414,6419824.110778562,3.337226219004582
295484819.99994814,0.22768695159309257,4.875633126367938,0.34845025474381586,0.06693984190495002,6398811.170216043,3.333497906973808
295484880.00002503,0.22771163490466872,4.875699480596782,0.4173514914590998,0.06964648873208537,6377561.021945837,3.3299510499576397
295484939.9999812,0.2277313913660355,4.875760592531342,0.48606503051253175,0.07239490868378995,6356082.582812423,3.3265769120636355
295485000.0000179,0.22774641322420244,4.875813673701424,0.5546017716333635,0.07518443313450583,6334384.68457515,3.3233674993286746
295485059.9999741,0.2277569736774711,4.875856072275489,0.6229718310451254,0.07801437522476146,6312476.060052865,3.3203154898923852
295485120.0000107,0.22776342206923453,4.875885318187864,0.6911845635337499,0.08088403166535911,6290365.325306181,3.3174141711641574
295485180.00000715,0.2277661777771242,4.875899165147731,0.7592485816287365,0.08379268521030651,6268060.958218948,3.3146573827355743
295485240.0000438,0.2277657229072289,4.875895628823746,0.8271717735118864,0.08673960775755798,6245571.2739343345,3.312039464006991
295485300.0,0.2277625939236269,4.875873020558817,0.8949613210315024,0.08972406402400437,6222904.397681393,3.3095552056786124
295485359.9999562,0.22775737236156993,4.875829976040878,0.9626237189827697,0.09274531572970517,6200068.2355939895,3.3071998044099082
295485419.99999285,0.227750674788046,4.875765478437088,1.0301647966120846,0.09580262621632814,6177070.444176557,3.304968820082061
295485479.9999893,0.2277431421858467,4.87567887558975,1.0975897421119685,0.09889526541607625,6153918.399109215,3.302858135209232
295485540.0000259,0.2277354289465201,4.875569890971025,1.1649031306915445,0.1020225150801914,6130619.1641088715,3.3008639161403406
295485599.9999821,0.22772819166349115,4.875438628199324,1.2321089566263963,0.1051836741699713,6107179.46057696,3.298982575775456
295485660.0000188,0.2277220779191336,4.875285569030999,1.2992106695412882,0.1083780643096221,6083605.638756606,3.2972107375936517
295485719.99997497,0.22771771525863707,4.87511156485515,1.3662112149860852,0.1116050351957331,6059903.65112087,3.2955452008503214
295485780.00005186,0.22771570053911738,4.874917821834519,1.4331130792422027,0.1148639698579833,6036079.028678019,3.2939829068590414
295485840.00000805,0.2277165898347603,4.874705879949454,1.4999183381299959,0.1181542896643844,6012136.860852962,3.2925209063208483
295485899.99996424,0.2277208890679259,4.874477586312385,1.5666287094570626,0.1214754589658333,5988081.779557304,3.2911563277074594
295485960.0000009,0.22772904552240125,4.874235063224325,1.6332456086201457,0.1248269892771448,5963917.948007388,3.289886346743218
295486019.9999571,0.22774144037860508,4.873980671540675,1.6997702067602931,0.1282084428956754,5939649.054788133,3.2887081570644896
295486080.000034,0.22775838239192644,4.873716969998294,1.7662034907729713,0.131619435863977,5915278.313590484,3.2876189421645567
295486139.99999017,0.2277801028148427,4.873446671227828,1.8325463243934597,0.1350596401897382,5890808.468973429,3.2866158487573895
295486200.0000268,0.2278067516415222,4.8731725952327585,1.8987995095151449,0.1385287852444515,5866241.808418161,3.2856959617144343
295486259.999983,0.2278383952306385,4.872897621158417,1.9649638468544897,0.1420266582718831,5841580.18085303,3.284856280744903
295486320.00001967,0.22787501533856652,4.872624638199567,2.0310401950535324,0.145553103948324,5816825.02173441,3.284093699001649
295486380.0000161,0.22791650957145096,4.872356496503736,2.0970295273078166,0.1491080229488434,5791977.384671621,3.283404983801373
295486440.00005275,0.22796269324120214,4.872095958919425,2.1629329846253005,0.1526913694870557,5767037.979484554,3.2827867596492832
295486500.00000894,0.22801330258766245,4.87184565441443,2.228751924859126,0.1563031478103087,5742007.216482083,3.2822354937544596
295486559.99996513,0.22806799930738375,4.871608033950444,2.294487966712937,0.1599434076473617,5716885.256649034,3.28174748421273
295486620.0000018,0.22812637630888252,4.87138532954752,2.360143027990399,0.1636122386214422,5691672.067330811,3.281318851018971
295486679.9999982,0.2281879645952577,4.871179517207328,2.4257193574486613,0.1673097636578315,5666367.48290906,3.280945530050438
295486740.00003487,0.22825224115779766,4.870992284289143,2.4912195597164706,0.171036131431525,5640971.269870892,3.280623270137425
295486799.99999106,0.2283186377489468,4.870825001849178,2.5566466128494247,0.1747915079168027,5615483.195589443,3.280347633307253
295486859.99994725,0.22838655038984823,4.870678702364191,2.622003878214407,0.1785760671164666,5589903.1000564555,3.2801139982533583
295486919.9999839,0.2284553494567844,4.870554063166004,2.687295102521292,0.1823899810638188,5564230.969739016,3.2799175670434146
295486979.99998033,0.2285243901823184,4.870451395816807,2.7525244119403363,0.1862334092039598,5538467.012680751,3.27975337503938
295487040.000017,0.22859302340085053,4.870370641557327,2.8176962983935283,0.1901064872760578,5512611.7339074,3.2796163039613484
295487099.9999732,0.22866060636470767,4.870311372862908,2.8828155981978356,0.1940093158261933,5486666.010189168,3.2795010979818593
295487160.00000983,0.2287265134558373,4.870272801047573,2.947887463394191,0.1979419484932766,5460631.163170822,3.279402382696563
295487219.999966,0.228790146619666,4.870253789764318,3.0129173261901174,0.2019043802160935,5434509.029891109,3.2793146867745473
295487280.0000429,0.22885094535168335,4.870252874162366,3.077910857056286,0.2058965355154618,5408302.029721046,3.2792324660530876
295487339.9999991,0.2289083960738434,4.870268285379669,3.142873917112588,0.209918257008177,5382013.226779359,3.279150129806125
295487400.00003576,0.22896204074679435,4.870297979971953,3.2078125055241173,0.2139692943098852,5355646.386926225,3.2790620688847762
295487459.99999195,0.22901148457525636,4.870339673809046,3.272732702700433,0.2180492934817441,5329206.028495222,3.278962685402358
295487519.99994814,0.22905640267735602,4.870390879904998,3.337640610151671,0.2221577871710771,5302697.465995423,3.2788464236165313
295487580.00002503,0.22909654560435128,4.8704489495914025,3.402542287902231,0.2262941855890337,5276126.846101006,3.278707801647554
295487639.9999812,0.22913174361466704,4.870511116393274,3.467443690396508,0.2304577684587159,5249501.175343038,3.2785414436645874
295487700.0000179,0.229161909625391,4.870574541924547,3.5323506018520097,0.2346476780556485,5222828.339024002,3.278342112171637
295487759.9999741,0.22918704078506552,4.870636363085743,3.5972685720223647,0.2388629134487908,5196117.1109911455,3.2781047400307677
295487820.0000107,0.2292072186335138,4.8706937398204,3.6622028533275697,0.243102326035151,5169377.154023948,3.277824461872614
295487880.00000715,0.22922260783726672,4.870743902669652,3.7271583402907473,0.24736461644446,5142619.010714923,3.2774966445619724
295487940.0000438,0.22923345351258334,4.870784199356701,3.7921395121905235,0.2516483328728863,5115854.084846916,3.2771169164093807
295488000.0,0.22924007717176878,4.870812139635377,3.857150379796062,0.2559518708865997,5089094.613392603,3.2766811948467076
295488059.9999562,0.22924287135210195,4.8708254376501445,3.9221944369982227,0.2602734747174948,5062353.629381467,3.276185712315326
295488119.99999285,0.22924229300981738,4.870822051079711,3.9872746180855727,0.2646112400560126,5035644.915986003,3.2756270401489345
295488179.9999893,0.2292388557838827,4.870800216372916,4.052393261338253,0.2689631183252066,5008982.952301983,3.2750021102668003
295488240.0000259,0.22923312125529993,4.870758479435096,4.11755207952711,0.2733269224091562,4982382.851353838,3.2743082345305634
295488299.9999821,0.22922568934700077,4.870695721184967,4.182752137809145,0.2777003337855772,4955860.29098518,3.273543121650687
295488360.0000188,0.22921718802663163,4.870611177477372,4.247993839405544,0.2820809110039391,4929431.438325838,3.27270489156494
295488419.99997497,0.22920826248925932,4.870504452974589,4.313276919333984,0.2864660994343593,4903112.868602262,3.271792087243043
295488480.00005186,0.22919956400886732,4.87037552864857,4.3786004463518235,0.2908532422032122,4876921.479087787,3.2708036839027925
295488540.00000805,0.22919173865611916,4.870224762706664,4.443962833121678,0.2952395922191766,4850874.399034483,3.2697390956498604
295488599.99996424,0.22918541608487328,4.870052884852664,4.509361854511002,0.2996223251908245,4824988.896411549,3.2685981795797114
295488660.0000009,0.2291811985911442,4.869860983921253,4.574794673771774,0.3039985535264448,4799282.28230533,3.267381237399892
295488719.9999571,0.2291796506453736,4.869650489054374,4.640257876233405,0.3083653410060645,4773771.813804969,3.266089014649599
295488780.000034,0.22918128909191707,4.869423144719623,4.705747510005556,0.3127197181125491,4748474.596180801,3.2647226976072723
295488839.99999017,0.22918657419859917,4.869180980000105,4.771259133064985,0.31705869790823,4723407.485128791,3.2632839079872604
295488900.0000268,0.2291959017240763,4.86892627270852,4.836787865986542,0.3213792923440633,4698586.989814882,3.261774695533573
295488959.999983,0.22920959615189068,4.8686615089921395,4.902328449477091,0.3256785288900389,4674029.177406632,3.260197528621949
295489020.00001967,0.2292279052177958,4.868389339195601,4.967875305785383,0.3299534673776645,4649749.57973107,3.258555282981692
295489080.0000161,0.22925099583163497,4.868112530832631,5.033422602993719,0.3342012169480817,4625763.102646064,3.256851228645995
295489140.00005275,0.22927895146738808,4.867833919582231,5.098964321150805,0.3384189530019313,4602083.938662025,3.2550890152340854
295489200.00000894,0.229311771065544,4.8675563592678,5.164494319181161,0.3426039340495065,4578725.483301864,3.2532726556611875
295489259.99996513,0.2293493694614705,4.867282671797389,5.230006401506077,0.346753518361652,4555700.255641172,3.251406508363227
295489320.0000018,0.22939157932268092,4.8670155980392344,5.295494383334202,0.3508651803229238,4533019.823430236,3.249495258113004
295489379.9999982,0.22943815454756622,4.8667577505788655,5.360952153626191,0.3549365263889365,4510694.733162973,3.2475438954940214
295489440.00003487,0.22948877504908652,4.86651156925347,5.426373734806082,0.3589653105489874,4488734.445429231,3.2455576950874847
295489499.99999106,0.22954305281971815,4.866279280287709,5.491753338379653,0.3629494491935445,4467147.275862263,3.243542192418404
295489559.99994725,0.22960053914937403,4.8660628597648685,5.557085415725151,0.3668870352836595,4445940.3419755725,3.2415031596982136
295489619.9999839,0.229660732846547,4.86586400206136,5.622364703440069,0.3707763517161858,4425119.516170408,3.2394465803952337
295489679.99998033,0.22972308929511726,4.865684093754354,5.687586262756924,0.3746158837753339,4404689.385185225,3.237378622660576
295489740.000017,0.22978703016546728,4.865524193385362,5.752745512675145,0.378404330557314,4384653.21625334,3.2353056116366754
295489799.9999732,0.22985195358905927,4.8653850173307225,5.817838256601323,0.3821406152534315,4365012.930219944,3.2332340006792437
295489860.00000983,0.22991724460060392,4.865266931897044,5.882860702406502,0.3858238941706881,4345769.0818859385,3.2311703415294297
295489919.999966,0.2299822856514855,4.86516995162899,5.947809475973893,0.3894535643754843,4326920.8477969505,3.2291212534858658
295489980.0000429,0.23004646700201623,4.86509374369263,6.012681628402277,0.3930292698410119,4308466.021716193,3.2270933916397233
295490039.9999991,0.23010919680831166,4.865037638082147,6.0774746371607495,0.3965509059870002,4290401.017975602,3.2250934142556886
295490100.00003576,0.23016991073160725,4.865000643294625,6.1421864015828485,0.4000186225065451,4272720.882874415,3.2231279494034584
295490159.99999195,0.23022808091333363,4.864981467028469,6.206815233170767,0.4034328243854797,4255419.314252001,3.221203560969039
295490219.99994814,0.2302832241775388,4.864978541387841,6.271359841245065,0.4067941710338929,4238488.689309924,3.2193267142011717
295490280.00002503,0.23033490934265663,4.864990052019213,0.052634007342119905,0.4101035734670886,4221920.100695873,3.217503740975171
295490339.9999812,0.2303827635464251,4.865013970566641,0.11700779204710655,0.4133621894943476,4205703.400790285,3.215740804982497
295490400.0000179,0.2304264775101572,4.865048089809824,0.18129566719005735,0.4165714168979787,4189827.2540559415,3.214043867078875
295490459.9999741,0.23046580969081207,4.8650900608415295,0.24549771761383576,0.4197328846118271,4174279.1972234547,3.2124186510449415
295490520.0000107,0.23050058929080747,4.865137431647403,0.3096143054191752,0.4228484419369493,4159045.7069937075,3.2108706100305846
295490580.00000715,0.2305307181155663,4.865187686468781,0.37364604033453325,0.4259201458616456,4144112.274845045,3.2094048939657527
295490640.0000438,0.23055617128709122,4.86523828535596,0.4375937495645882,0.4289502465827896,4129463.488440237,3.2080263182262083
295490700.0,0.2305769968381264,4.8652867033522,0.5014584476087529,0.4319411713541332,4115083.119040513,3.2067393338414725
295490759.9999562,0.23059331422554405,4.865330468785911,0.565241306496861,0.4348955068143203,4100954.214252951,3.205547999524029
295490819.99999285,0.2306053118136207,4.865367200187095,0.6289436268449965,0.4378159799715825,4087059.195366913,3.204455955783514
295490879.9999893,0.2306132433879613,4.865394641383037,0.6925668100918831,0.4407054380429182,4073379.9584765797,3.20346640136767
295490940.0000259,0.23061742376922909,4.865410694366173,0.7561123322373733,0.4435668273620492,4059897.9785430864,3.2025820722436
295490999.9999821,0.23061822360288525,4.865413449563198,0.8195817193690895,0.4464031715824306,4046594.415520962,3.2018052232996226
295491060.0000188,0.23061606340707813,4.865401213168924,0.8829765252319997,0.4492175494084236,4033450.2216618587,3.2011376129105007
295491119.99997497,0.23061140696594462,4.865372531241431,0.9462983110679027,0.4520130720895815,4020446.2491129725,3.2005804904686266
295491180.00005186,0.23060475416011583,4.865326210287234,1.0095486279265555,0.4547928609098331,4007563.356947572,3.2001345869421205
295491240.00000805,0.2305966333302672,4.865261334097424,1.0727290016275124,0.457560024895607,3994782.5167992967,3.1998001084791245
295491299.99996424,0.23058759327329545,4.865177276629045,1.1358409205215656,0.4603176389525843,3982084.916330672,3.1995767330367837
295491360.0000009,0.23057819497406196,4.86507371076126,1.198885826197583,0.4630687226312322,3969452.059793822,3.199463609977398
295491419.9999571,0.23056900317867537,4.864950612793932,1.2618651072174651,0.4658162196907472,3956865.8650670466,3.1994593625372065
295491480.000034,0.23056057791785925,4.86480826259809,1.3247800959697242,0.4685629786208405,3944308.756570316,3.199562093046977
295491539.99999017,0.23055346609098296,4.864647239373534,1.3876320686749213,0.4713117342502405,3931763.753579808,3.199769390757467
295491600.0000268,0.2305481932226283,4.864468413019279,1.4504222485455192,0.4740650905486728,3919214.553534287,3.20007834210511
295491659.999983,0.23054525550401636,4.8642729311771395,1.5131518120578744,0.4768255047039834,3906645.610012555,3.2004855432406134
295491720.00001967,0.23054511223094667,4.864062202067642,1.575821898245763,0.4795952725315538,3894042.2051451174,3.2009871146364883
295491780.0000161,0.23054817874799022,4.863837873299712,1.6384336208722343,0.482376515249861,3881390.516302453,3.201578717588456
295491840.00005275,0.23055482000527852,4.863601806900121,1.7009880832806055,0.4851711676340069,3868677.676977652,3.2022555724297996
295491900.00000894,0.2305653448291845,4.863356050874487,1.7634863956678117,0.487980967539361,3855891.831848436,3.203012478286312
295491959.99996513,0.23058000100136064,4.8631028076766984,1.825929694464916,0.4908074467698455,3843022.1860644463,3.2038438342119573
295492020.0000018,0.23059897123187842,4.862844400026343,1.888319163453392,0.4936519232508506,3830059.0488560973,3.2047436615607925
295492079.9999982,0.2306223701015563,4.862583234572135,1.9506560561926607,0.4965154944548748,3816993.8716032663,3.205705627468125
295492140.00003487,0.23065024203601384,4.862321763951282,2.0129417192873964,0.4993990320191987,3803819.280534151,3.206723069332652
295492199.99999106,0.2306825603596416,4.862062447838369,2.075177615983976,0.5023031774893146,3790529.10424542,3.2077890202100954
295492259.99994725,0.23071922746170467,4.861807713611038,2.13736534955533,0.5052283391187816,3777118.396248502,3.208896235047314
295492319.9999839,0.23076007608944046,4.861559917281972,2.1995066859154546,0.5081746896565503,3763583.4527477915,3.2100372177027485
295492379.99998033,0.23080487176460313,4.861321305356241,2.2616035748978884,0.5111421650549645,3749921.82585313,3.2112042487138797
295492440.000017,0.23085331630077818,4.8610939782696425,2.323658169639707,0.5141304640366693,3736132.332414904,3.212389413784722
295492499.9999732,0.23090505237933423,4.860879856046627,2.3856728435318235,0.5171390484651117,3722215.0586519875,3.213584632975348
295492560.00000983,0.2309596691225456,4.860680646786132,2.44765020422959,0.5201671444713588,3708171.360719382,3.214781690581352
295492619.999966,0.23101670858360582,4.860497818540827,2.509593104263364,0.5232137442994127,3694003.861333487,3.2159722656933156
295492680.0000429,0.23107567305538332,4.860332575100505,2.5715046478382084,0.5262776088389618,3679716.442558164,3.2171479634245523
295492739.9999991,0.23113603308328642,4.860185836125324,2.6333881934983423,0.5293572708320878,3665314.234787728,3.218300346792248
295492800.00003576,0.23119723605283674,4.860058222000204,2.695247352373302,0.5324510387370919,3650803.6019967347,3.219420969226637
295492859.99999195,0.23125871520989463,4.859950043700111,2.7570859818357563,0.5355570012534627,3636192.123242281,3.2205014076746714
295492919.99994814,0.23131989896124983,4.8598612978681865,2.818908174468193,0.5386730325126471,3621488.57041627,3.22153329625019
295492980.00002503,0.23138022029567568,4.859791667217243,2.8807182423297393,0.5417967979477359,3606702.8822174077,3.2225083603682503
295493039.9999812,0.23143912616087922,4.859740526270894,2.9425206966035256,0.5449257608599127,3591846.1343003563,3.2234184512851196
295493100.0000179,0.23149608663013518,4.8597069523658,3.004320222793447,0.5480571897025662,3576930.5055529187,3.2242555809487476
295493159.9999741,0.23155060369388483,4.859689741742651,3.066121651725742,0.5511881661055886,3561969.2404495906,3.2250119570477165
295493220.0000107,0.2316022195163416,4.859687430461736,3.1279299266931173,0.5543155936621752,3546976.6074335817,3.2256800181304057
295493280.00000715,0.23165052400503014,4.8596983197912875,3.1897500671564645,0.5574362074986914,3531967.8532878654,3.226252468650816
295493340.0000438,0.23169516155226286,4.859720505634142,3.2515871294894714,0.5605465846447976,3516959.1534697027,3.2267223137837506
295493400.0,0.23173583682157142,4.859751911482274,3.313446165314402,0.563643155216506,3501967.558400399,3.2270828938400613
295493459.9999562,0.23177231946898375,4.859790324320406,3.3753321780309773,0.5667222144190381,3487010.935723669,3.227327918103065
295493519.99999285,0.2318044477084102,4.859833432840754,3.43725007818435,0.5697799353697492,3472107.908570132,3.227451497899786
295493579.9999893,0.23183213065203795,4.859878867282025,3.499204638351215,0.5728123827341312,3457277.7898917985,3.2274481787159557
295493640.0000259,0.23185534938014682,4.859924240168112,3.5612004482447457,0.5758155271603519,3442540.5129576703,3.227312971161474
295493699.9999821,0.23187415671969394,4.859967187197192,3.6232418707477816,0.5787852604900103,3427916.558130006,3.227041380593349
295493760.0000188,0.23188867573695,4.860005407520429,3.6853329995795954,0.5817174117152153,3413426.87606854,3.2266294352057114
295493819.99997497,0.23189909697583783,4.860036702652956,3.7474776192833903,0.5846077636448397,3399092.807537092,3.226073712401565
295493880.00005186,0.23190567449987579,4.860059013278548,3.8096791681891222,0.5874520702360194,3384936.000012994,3.2253713632675103
295493940.00000805,0.23190872082116024,4.860070453244311,3.8719407049591448,0.5902460745407904,3370978.321324082,3.2245201349812964
295493999.99996424,0.23190860082398437,4.860069340093006,3.9342648792624155,0.5929855272123749,3357241.7705602483,3.223518390991589
295494060.0000009,0.23190572481281793,4.8600542215482365,3.9966539070466784,0.5956662055108327,3343748.3865272966,3.2223651288200466
295494119.9999571,0.23190054083386144,4.860023897451018,4.059109550787838,0.5982839327434166,3330520.1540310024,3.2210599953469377
295494180.000034,0.23189352643548877,4.85997743674442,4.121633105000059,0.6008345980743525,3317578.908283281,3.219603299453179
295494239.99999017,0.2318851800451287,4.85991418921363,4.1842253871584925,0.6033141766272304,3304946.237777827,3.217996021902129
295494300.0000268,0.23187601214788156,4.8598337918103365,4.2468867341005225,0.6057187498153324,3292643.3859282783,3.2162398223570237
295494359.999983,0.23186653645503483,4.859736169518763,4.309617003812463,0.6080445258176338,3280691.151846297,3.2143370434387775
295494420.00001967,0.23185726124837572,4.859621530853042,4.372415582404754,0.6102878601248338,3269109.7906077676,3.2122907117395947
295494480.0000161,0.23184868107858678,4.85949035820715,4.435281395950314,0.6124452760737928,3257918.913383817,3.2101045357166385
295494540.00005275,0.2318412689832534,4.8593433934048615,4.49821292674762,0.6145134852855154,3247137.387827399,3.2077829003984077
295494600.00000894,0.2318354693722855,4.859181618913421,4.561208233469692,0.6164894079175183,3236783.239122968,3.205330858844429
295494659.99996513,0.23183169170645274,4.859006235286198,4.624264974576287,0.6183701926360818,3226873.5521257687,3.2027541203064342
295494720.0000018,0.23183030506892802,4.858818635482075,4.68738043430409,0.6201532362072295,3217424.375039317,3.2000590350469547
295494779.9999982,0.23183163370120521,4.858620376769276,4.750551550512053,0.6218362025976996,3208450.625102867,3.197252575779354
295494840.00003487,0.2318359535445346,4.858413150955859,4.8137749436483,0.6234170414680875,3199965.996787651,3.1943423157025133
295494899.99999106,0.23184348979735825,4.858198753696837,4.87704694612263,0.6248940059303888,3191982.8730286565,3.191336403113849
295494959.99994725,0.23185441546937932,4.85797905360801,4.940363631414646,0.6262656694311165,3184512.240049291,3.1882435325970366
295495019.9999839,0.23186885088507744,4.8577559618707635,5.0037208423203605,0.6275309416098073,3177563.6063664034,3.1850729127958486
295495079.99998033,0.23188686406498896,4.857531402941879,5.067114217837067,0.6286890829709735,3171144.926594216,3.181834230803625
295495140.000017,0.23190847189282046,4.85730728689207,5.130539218302865,0.6297397181963734,3165262.530694341,3.178537613219418
295495199.9999732,0.23193364196143784,4.857085483790661,5.193991148538522,0.6306828479144244,3159921.059344204,3.17519358394695
