datetime_jd,incl,Omega,w,e,a,M
#Earth
-191852999.99997318,0.4459576327689089,1.8751757549393222,5.3967472865927535,0.0970317528395511,6141149.366745939,3.048865723175613
-191851200.0,0.44463262117694624,1.8742877041552575,0.9828712887778429,0.07508891268142112,6311184.689453645,3.1464582916825754
-191849400.00002682,0.44425876228404354,1.8728352491929108,3.0037721279696856,0.04740283939037679,6473854.644528383,3.095227745279033
-191847599.99997318,0.443053679701662,1.870193110649819,5.135673585352414,0.03607477333058318,6622524.968824854,2.9357948839266825
-191845800.0,0.44204635628000116,1.8697928587117114,0.5782895925891861,0.02562980968744646,6731112.819478779,3.182193655545699
-191844000.00002682,0.44158100174787085,1.8674827080735708,2.3917357864021547,0.007129241341872302,6821248.425163718,3.344195347412723
-191842199.99997318,0.44015799651948606,1.8655664110581942,5.610909913147516,0.006452992873538362,6881962.723645648,2.1012745126223327
-191840400.0,0.4395076492466076,1.8650350177264945,0.05129130346166326,0.00497549539365126,6914092.756525784,3.3548485410078763
-191840340.0000438,0.43943950561352696,1.8649859301560363,0.048706286628941664,0.004903856719072086,6914593.164939559,3.4233547453170905
-191840280.00000715,0.43937140446124834,1.864925266294388,0.044439693581767165,0.004833974703161747,6915095.848085249,3.493552261566139
-191840220.00001073,0.43930398612546695,1.8648531272500917,0.038383051361778955,0.004766403266844127,6915603.4729570765,3.565549908960513
-191840159.99997407,0.43923788020283655,1.864769808350751,0.03043240810139779,0.004701889600041041,6916118.167593814,3.639451842436346
-191840100.00001788,0.43917369501709386,1.8646757948441668,0.020501896120975135,0.004641378431433768,6916641.4856783,3.7153439855295076
-191840039.99998122,0.43911200739385503,1.8645717544601006,0.008539552251084166,0.00458600311156201,6917174.380071309,3.7932782084186605
-191839980.00002503,0.4390533529077665,1.8644585269200684,6.277729941127709,0.004537061292820651,6917717.185764985,3.8732550126310255
-191839919.99994814,0.4389982167603726,1.8643371105309918,6.261770399063573,0.004495973538063185,6918269.612616029,3.9552060617490983
-191839859.99999195,0.4389470254394586,1.8642086460468266,6.243998517941973,0.004464224305569285,6918830.748085836,4.038978546344693
-191839800.00003576,0.4389001393007689,1.8640743980293293,6.2246621806770435,0.004443286555362121,6919399.070074876,4.124323927942692
-191839739.9999991,0.4388578462009117,1.8639357339843885,6.204108993855386,0.004434533639791907,6919972.469792795,4.210893823989351
-191839680.00004292,0.43882035629595967,1.8637941015926565,6.182780901780941,0.004439144846949547,6920548.284455546,4.298245406380442
-191839619.99996603,0.43878779810386725,1.8636510043919103,6.161198073057746,0.004458013331331769,6921123.339446477,4.385857529408183
-191839560.00000983,0.43875637608331963,1.8634879302497884,4.917525590673338,0.0154275413322886,7018350.035843764,5.704257237893564
-191839499.99997318,0.43873071507699574,1.8633273134087678,4.851256974118525,0.02938086617309516,7111424.064149541,5.845626892227885
-191839440.000017,0.4387107266866743,1.8631713946572275,4.878283074271457,0.04279535488998618,7199484.408115728,5.894018121639298
-191839379.99998033,0.43869617022864565,1.8630223137139577,4.929810126628261,0.05549153138126821,7281992.539163921,5.91819443600922
-191839319.9999839,0.43868666750656615,1.8628821240362246,4.991500419604835,0.06741810487126802,7358438.91912068,5.932464471336017
-191839259.99994725,0.4386817074644396,1.8627527454771755,5.05852196484621,0.0785491352541621,7428352.716169087,5.941632365186707
-191839199.99999106,0.43868065376722204,1.862635918075435,5.128789458169287,0.08886885965723673,7491311.358353795,5.947756834795821
-191839140.00003487,0.4386827552909773,1.8625331579856461,5.201251478390759,0.09836787724379527,7546949.601655629,5.951864011108281
-191839079.9999982,0.438687159445426,1.8624457165720065,5.275316238716229,0.1070418590101773,7594967.7840055525,5.954521714628421
-191839020.0000018,0.4386929281891171,1.8623745436810424,5.350621102124663,0.1148909963468198,7635138.948915699,5.95606996213637
-191838959.99996513,0.43869905653214,1.8623202560832135,5.426927492166529,0.1219196994323675,7667314.553379646,5.956726073272759
-191838900.00000894,0.43870449325435334,1.8622831120240333,5.504068122773337,0.1281363828966051,7691428.5235041,5.9566374537073195
-191838840.00005275,0.438708163499826,1.862262992752794,5.5819183734886595,0.1335532771969741,7707499.48555629,5.955910228662444
-191838780.0000161,0.438708992842156,1.8622593917996564,5.660379715100422,0.1381862405746035,7715631.075871562,5.954625821844737
-191838720.00001967,0.43870593235240757,1.8622714126490725,5.739369532455219,0.14205456129954,7716010.315375223,5.952851132875634
-191838659.999983,0.4386979841436892,1.8622977753091396,5.818814512348102,0.1451807466460682,7708904.1176581755,5.950645145052894
-191838600.00002682,0.4386842268162283,1.8623368321030926,5.898646092638567,0.1475902984078075,7694654.077914363,5.948063466872252
-191838539.99999017,0.4386638401866015,1.8623865928120371,5.978797133021796,0.1493114766202805,7673669.758306718,5.945161646356727
-191838480.00003397,0.438636128657097,1.8624447590796718,6.0591993174783125,0.1503750542788949,7646420.739244958,5.941997747578398
-191838419.99995708,0.4386005425683886,1.862508767753331,6.139780990734113,0.1508140665737076,7613427.742773381,5.938634486425095
-191838360.0000009,0.43855669688306537,1.8625758425858503,6.220465241228517,0.1506635586739466,7575253.152396625,5.935141112543061
-191838299.99996424,0.4385043865709795,1.8626430534648493,0.017982801558848557,0.1499603364690913,7532491.253560333,5.931595158827784
-191838240.00000805,0.43844359811129524,1.8627073820768678,0.09861152873122449,0.1487427249526123,7485758.502242738,5.928084138892408
-191838180.00005186,0.4383745165915064,1.8627657926608592,0.17906280339225408,0.1470503391421905,7435684.098510247,5.924707245539508
-191838119.99997497,0.43829752797070964,1.8628153062674984,0.25922095932554645,0.1449238725757342,7382901.100912741,5.92157708270076
-191838060.00001878,0.43821321618260983,1.86285307672693,0.3389561217487307,0.1424049085035207,7328038.270040413,5.918821445070968
-191837999.99998212,0.43812235488169876,1.8628764663478528,0.41812230355907876,0.139535758897164,7271712.7791614,5.916585140143265
-191837940.00002593,0.4380258937815166,1.8628831192354047,0.4965554830020948,0.1363593362794495,7214523.879961271,5.915031823095645
-191837879.99998927,0.4379249396936419,1.8628710300345965,0.5740717265514866,0.1329190630794702,7157047.564775538,5.914345782157358
-191837819.99999285,0.4378207325458715,1.862838605889351,0.6504654670313801,0.1292588226240209,7099832.2253993135,5.9147335661205656
-191837759.9999562,0.43771461683273105,1.8627847194634843,0.7255081118705035,0.1254229548131729,7043395.273894855,5.916425281030193
-191837700.0,0.43760800912499204,1.8627087510058526,0.7989472462109577,0.1214562977287638,6988220.66342803,5.9196752934074
-191837640.0000438,0.43750236243034923,1.8626106176616906,0.8705068168704752,0.1174042735030372,6934757.22708982,5.924761956154849
-191837580.00000715,0.4373991283475182,1.8624907885368294,0.9398888405003107,0.1133130122016235,6883417.739475467,5.931985815920014
-191837520.00001073,0.4372997180830025,1.862350284407853,1.006777371356881,0.1092295005801111,6834578.598750599,5.941665568483906
-191837459.99997407,0.4372054634961512,1.86219066143141,1.070845676079523,0.1052017326113899,6788580.025085369,5.954130816530453
-191837400.00001788,0.4371175793968693,1.8620139787267895,1.131767754229237,0.1012788250318737,6745726.673651538,5.969710492452807
-191837339.99998122,0.4370371283355766,1.861822750269589,1.1892354311867122,0.0975110437590895,6706288.565832422,5.988715720586386
-191837280.00002503,0.4369649890924413,1.861619882117919,1.242982091996032,0.09394966717147764,6670502.249940309,6.011416050780291
-191837219.99994814,0.43690182999040866,1.8614085965697307,1.2928135148986855,0.09064659368595769,6638572.111737164,6.038008604527471
-191837159.99999195,0.4368480880244267,1.861192345391763,1.338644967437237,0.08765359134979038,6610671.764720821,6.068580970192242
-191837100.00003576,0.4368039546207238,1.860974714737998,1.3805415966016088,0.08502109808685214,6586945.459920202,6.103070814749619
-191837039.9999991,0.4367693686209542,1.860759324760712,1.418756326256184,0.08279652700011834,6567509.464440725,6.141227997202863
-191836980.00004292,0.4367440168351994,1.8605497271865983,1.4537566779792412,0.08102212204342227,6552453.366935937,6.1825877655456205
-191836919.99996603,0.43672734223607457,1.8603493042656312,1.486230528598242,0.079732540921987,6541841.276396167,6.2264650216765896
-191836860.00000983,0.4367185595861199,1.8601611724912999,1.517062474192093,0.07895248393034054,6535712.888070709,6.271977981998766
-191836799.99997318,0.4367166780156668,1.8599880943349543,1.5472781239673024,0.0786947831827102,6534084.396984011,0.034918600559514346
-191836740.000017,0.4367205298117814,1.8598324009416747,1.5779622890227334,0.07895935492154081,6536949.245431824,0.080575630306158
-191836679.99998033,0.4367288044531064,1.859695928314925,1.6101654057484567,0.07973327052237894,6544278.696155286,0.12471637272145843
-191836619.9999839,0.4367400867410306,1.8595799689951957,1.644816634625275,0.08099195567416849,6556022.227714773,0.16641481666783076
-191836559.99994725,0.4367528977426665,1.859485240641376,1.6826597376186108,0.0827012735411975,6572107.753068776,0.2049304539444385
-191836499.99999106,0.43676573718082623,1.859411872284118,1.7242203082886733,0.08482008343762329,6592441.666644944,0.23974103935522179
-191836440.00003487,0.4367771258824471,1.8593594083697833,1.7698039515466573,0.0873028393928576,6616908.729416662,0.27054439050817
-191836379.9999982,0.4367856469286787,1.8593268300827426,1.8195182868959987,0.09010188367082514,6645371.805790006,0.2972363533327398
-191836320.0000018,0.43678998423308324,1.8593125928500767,1.873308874881721,0.09316923802799307,6677671.470571163,0.3198748338986804
-191836259.99996513,0.4367889574027959,1.8593146784190369,1.9309998535270585,0.09645783863821278,6713625.508999932,0.33863911050584683
-191836200.00000894,0.4367815519029703,1.8593306594711279,1.9923326348535526,0.09992226281157102,6753028.337847041,0.3537910770842636
-191836140.00005275,0.43676694373811886,1.8593577744084393,2.0569989272224682,0.1035190488446337,6795650.38088277,0.36564215362024394
-191836080.0000161,0.4367445180753928,1.859393009723055,2.124666714395465,0.1072067242615509,6841237.4375914605,0.3745272344056102
-191836020.00001967,0.4367138814547974,1.8594331872393253,2.1949993527182348,0.1109456476430316,6889510.089731013,0.38078551456212484
-191835959.999983,0.4366748674508127,1.8594750534964368,2.267668733425404,0.1146977485360919,6940163.196055815,0.3847472497795792
-191835900.00002682,0.4366275358607862,1.8595153686076096,2.3423637233780776,0.1184262273588621,6992865.53104456,0.38672523789260455
-191835839.99999017,0.4365721656909202,1.859550992081517,2.418795064760483,0.1220952572653862,7047259.628358823,0.38700984365227065
-191835780.00003397,0.43650924238510247,1.8595789633091142,2.49669774367205,0.1256697142445767,7102961.894016563,0.38586655848154733
-191835719.99995708,0.43643943989098916,1.8595965746922363,2.575831627353459,0.1291149502685351,7159563.056831278,0.3835352970464178
-191835660.0000009,0.43636359827876553,1.8596014357057293,2.655980971002834,0.1323966164432372,7216629.024771594,0.38023083100524074
-191835599.99996424,0.43628269771916794,1.8595915265296203,2.736953228391845,0.1354805379721228,7273702.214499761,0.37614392678416664
-191835540.00000805,0.43619782968815807,1.8595652402497878,2.818577470178364,0.13833263955762,7330303.417103227,0.3714428842564485
-191835480.00005186,0.43611016629655186,1.8595214129927258,2.90070261662632,0.1409189180223234,7385934.255545169,0.36627527007256877
-191835419.99997497,0.43602092864532827,1.8594593417218341,2.9831956213110318,0.1432054579618581,7440080.278007611,0.3607697092203513
-191835360.00001878,0.4359313550834048,1.8593787897694158,3.0659396931096223,0.1451584858319098,7492214.715994752,0.3550376473644565
-191835299.99998212,0.4358426701972118,1.8592799805013598,3.148832609902057,0.1467444577977596,7541802.916623174,0.34917503010187007
-191835240.00002593,0.43575605529369243,1.8591635798032702,3.2317851546447494,0.1479301767930203,7588307.435176448,0.3432638677699425
-191835179.99998927,0.43567262105413873,1.8590306683311582,3.3147196895933386,0.1486829344511246,7631193.7472316995,0.3373736690985457
-191835119.99999285,0.4355933829394006,1.858882704682433,3.3975688751230066,0.1489706738299149,7669936.5103269415,0.33156273613641224
-191835059.9999562,0.4355192398214873,1.8587214808107309,3.480274534221984,0.148762169110761,7704026.274440595,0.3258793181112515
-191835000.0,0.4354509562062827,1.85854907112953,3.562786661281342,0.1480272186987374,7732976.510051837,0.3203626242440408
-191834940.0000438,0.4353891483006615,1.8583677768249813,3.645062573690412,0.1467368483689007,7756330.79407221,0.3150436956137809
-191834880.00000715,0.4353342740680611,1.8581800669291233,3.7270662068001017,0.1448635212919221,7773669.969488925,0.30994613413339783
-191834820.00001073,0.43528662731232115,1.8579885176938924,3.8087675573036157,0.142381351930371,7784619.076174778,0.30508668228279306
-191834759.99997407,0.43524633573274446,1.8577957517577592,3.890142287829401,0.1392663209286135,7788853.839865903,0.3004756396197666
-191834700.00001788,0.43521336280558726,1.8576043785151666,3.9711715183442604,0.1354964882295581,7786106.505375328,0.2961170894630279
-191834639.99998122,0.43518751326986965,1.8574169369895173,4.051841851113043,0.1310522017486167,7776170.809639036,0.29200888819635823
-191834580.00002503,0.435168441929212,1.8572358423783473,4.132145712008099,0.1259162990282995,7758905.910610939,0.2881423338472571
-191834519.99994814,0.43515566542672196,1.8570633372903445,4.2120821545100595,0.1200742993997435,7734239.118806933,0.28450136731142356
-191834459.99999195,0.43514857660675926,1.8569014485326973,4.291658389783693,0.1135145843104327,7702167.318224461,0.28106104283818933
-191834400.00003576,0.43514646104536275,1.856751950138983,4.370892532517687,0.10622856367656,7662757.01038892,0.2777847783772262
-191834339.9999991,0.4351485153098194,1.8566163331567997,4.449818515129624,0.09821082645779249,7616142.966752918,0.27461943376037656
-191834280.00004292,0.43515386649660187,1.8564957825441877,4.528495134604678,0.0894592743032252,7562525.527537388,0.27148625329632387
-191834219.99996603,0.43516159259506987,1.8563911613584574,4.607023590586351,0.07997523852854165,7502166.636142982,0.268263315253388
-191834160.00000983,0.4351707432311248,1.8563030022628428,4.685584127942735,0.06976358417834315,7435384.744400302,0.2647488763150223
-191834099.99997318,0.4351803603596563,1.8562315062283599,4.764520938217763,0.05883281499237224,7362548.762497054,0.26057645808137847
-191834040.000017,0.4351894984962882,1.8561765481722907,4.844569606761241,0.04719522799477668,7284071.256373727,0.25498739043454943
-191833979.99998033,0.43519724410673316,1.856137689152572,4.927613548043761,0.03486732224864648,7200401.113450813,0.24607437095143675
-191833919.9999839,0.4352027338050948,1.8561141946305524,5.020308981222714,0.0218717071753806,7112015.904318902,0.22715649001417768
-191833859.99994725,0.43520517104971085,1.8561050582236767,5.174864004344605,0.008258826660884665,7019414.163886661,0.14600016492261858
-191833799.99999106,0.43520462586572684,1.8561066336020424,5.77698413592087,0.00172267130444311,6973097.170221623,5.8961084232473
-191833740.00003487,0.435201368553568,1.8561154734928862,5.834011431446396,0.00171884353529936,6972815.646054849,5.904309393365566
-191833679.9999982,0.43519449382536135,1.8561320007628115,5.89087101879746,0.001707514236378118,6972492.349725356,5.912669192327091
-191833620.0000018,0.435183609788041,1.8561550324246237,5.947407343551484,0.001688649354207669,6972128.56156832,5.921343949052886
-191833559.99996513,0.43516839301484844,1.8561832746966227,6.003444462056974,0.00166230378005864,6971726.159158907,5.930510303835264
-191833500.00000894,0.43514859409441714,1.8562153450824102,6.05878151383275,0.001628621060273148,6971287.585626924,5.940369924082175
-191833440.00005275,0.435124041906758,1.8562497959407,6.113186743223138,0.001587832275553429,6970815.808135977,5.95115546895708
-191833380.0000161,0.43509464655248825,1.8562851391430337,6.166389673365174,0.00154025429364467,6970314.267248242,5.9631384000904095
-191833320.00001967,0.4350604008853216,1.8563198714008897,6.218070869048179,0.001486287663810261,6969786.818059195,5.976639202039342
-191833259.999983,0.435021380622322,1.8563524998343273,6.267848499179052,0.001426414507061456,6969237.664133353,5.992040802060557
-191833200.00002682,0.434977743031284,1.8563815673517612,0.03207529601353532,0.001361196874717409,6968671.28539982,6.009806285150706
