{
    "declination": 0.7482103961793654,
    "distance": 962.92,
    "rightascension": 5.022595991285759,
    "stars": [
        {
            "magH": 13.101,
            "magJ": 13.46,
            "magK": 13.052,
            "name": "Kepler-160",
            "planets": [
                {
                    "description": "This planet was discovered by Rowe et al. 2014. The discovery was made with a space based telescope (0.95 m Kepler Telescope). The parameters listed here are those reported by Heller et al. 2020 and were imported into the Open Exoplanet Catalogue from the NASA Exoplanet Archive.",
                    "discoverymethod": "transit",
                    "discoveryyear": "2014",
                    "istransiting": "1",
                    "lastupdate": "20/07/09",
                    "name": "Kepler-160 b",
                    "orbit": {
                        "period": 372331.9008,
                        "semiMajorAxis": 8244338654.276999,
                        "transitTime": 295706764.8000106
                    },
                    "radius": 10938276.0
                },
                {
                    "description": "This planet was discovered by Rowe et al. 2014. The discovery was made with a space based telescope (0.95 m Kepler Telescope). The parameters listed here are those reported by Heller et al. 2020 and were imported into the Open Exoplanet Catalogue from the NASA Exoplanet Archive.",
                    "discoverymethod": "transit",
                    "discoveryyear": "2014",
                    "istransiting": "1",
                    "lastupdate": "20/07/09",
                    "name": "Kepler-160 c",
                    "orbit": {
                        "period": 1183630.6656,
                        "semiMajorAxis": 17832066187.44,
                        "transitTime": 298942315.2000055
                    },
                    "radius": 23949820.0
                },
                {
                    "description": "This planet was discovered by Heller et al. 2020. The discovery was made with a space based telescope (0.95 m Kepler Telescope). The parameters listed here are those reported by Heller et al. 2020 and were imported into the Open Exoplanet Catalogue from the NASA Exoplanet Archive.",
                    "discoverymethod": "timing",
                    "discoveryyear": "2020",
                    "lastupdate": "20/07/09",
                    "mass": 5.972069420598416e+26,
                    "name": "Kepler-160 d",
                    "orbit": {
                        "inclination": 1.5166911199830724,
                        "period": 2592000.0,
                        "semiMajorAxis": 25431638019.0
                    }
                }
            ],
            "radius": 779184000.0000001,
            "temperature": 5471.0
        }
    ]
}