{
    "declination": 0.4292869671325546,
    "distance": 93.0,
    "rightascension": 1.6442147144274362,
    "stars": [
        {
            "age": 1.0,
            "magB": 15.97,
            "magH": 10.762,
            "magJ": 11.35,
            "magK": 10.53,
            "magR": 14.18,
            "magV": 14.53,
            "mass": 1.1135095275909087e+30,
            "metallicity": -0.13,
            "name": "K2-26",
            "planets": [
                {
                    "description": "K2-26b is a temperate sub-Neptune orbiting an M1 dwarf star. The orbit is likely to be eccentric, with a lower limit of 0.14 at 95% confidence.",
                    "discoverymethod": "transit",
                    "discoveryyear": "2016",
                    "istransiting": "1",
                    "lastupdate": "16/01/21",
                    "name": "K2-26 b",
                    "orbit": {
                        "eccentricity": 0.14,
                        "inclination": 1.5428710587629875,
                        "period": 1258545.5999999999,
                        "semiMajorAxis": 14391315161.339998,
                        "transitTime": 451929533.7599918
                    },
                    "radius": 17029394.4
                }
            ],
            "radius": 361764000.0,
            "spectraltype": "M1.0V",
            "temperature": 3785.0
        }
    ]
}