{
    "declination": 0.4286880414008813,
    "distance": 131.0,
    "rightascension": 1.1919166093971538,
    "stars": [
        {
            "age": 0.0022,
            "magB": 13.91,
            "magH": 8.613,
            "magJ": 9.325,
            "magK": 8.422,
            "magR": 11.3,
            "magV": 12.08,
            "mass": 1.988409870698051e+30,
            "name": "V830 Tau",
            "planets": [
                {
                    "description": "V830 Tau is a weak-lined T Tauri star. Further observations are needed to determine whether the radial velocity variations are caused by a planet or some other phenomenon.",
                    "discoverymethod": "RV",
                    "discoveryyear": "2015",
                    "lastupdate": "15/10/02",
                    "mass": 2.6573744362704707e+27,
                    "name": "V830 Tau b",
                    "orbit": {
                        "inclination": 0.9599310885968813,
                        "period": 518400.0,
                        "semiMajorAxis": 9723861595.5
                    }
                }
            ],
            "radius": 1391400000.0,
            "spectraltype": "M0\u20131",
            "temperature": 4250.0
        }
    ]
}