{
    "declination": -0.7277635129871466,
    "distance": 230.0,
    "rightascension": 0.865024701723742,
    "stars": [
        {
            "age": 0.5,
            "mass": 1.829337081042207e+30,
            "metallicity": 0.2,
            "name": "WASP-139",
            "planets": [
                {
                    "description": "Data for this planet was imported from the exoplanet.eu database.",
                    "discoverymethod": "transit",
                    "discoveryyear": "2016",
                    "istransiting": "1",
                    "lastupdate": "16/07/11",
                    "mass": 2.2208057788831793e+26,
                    "name": "WASP-139 b",
                    "orbit": {
                        "eccentricity": 0.0,
                        "inclination": 1.551597705022959,
                        "period": 511856.23679999996,
                        "semiMajorAxis": 9275067983.4
                    },
                    "radius": 57193600.0
                }
            ],
            "radius": 556560000.0,
            "spectraltype": "K0",
            "temperature": 5310.0
        }
    ]
}