{
    "declination": 0.5214885828421068,
    "distance": 300.0,
    "rightascension": 4.665002847588526,
    "stars": [
        {
            "age": 0.6,
            "magB": 14.25,
            "magH": 11.123,
            "magJ": 11.581,
            "magK": 11.037,
            "magR": 12.98,
            "magV": 13.28,
            "mass": 1.94864167328409e+30,
            "metallicity": 0.02,
            "name": "WASP-135",
            "planets": [
                {
                    "description": "WASP-135b is a highly-irradiated and inflated hot Jupiter.",
                    "discoverymethod": "transit",
                    "discoveryyear": "2015",
                    "istransiting": "1",
                    "lastupdate": "15/11/21",
                    "mass": 3.606436734938496e+27,
                    "name": "WASP-135 b",
                    "orbit": {
                        "eccentricity": 0.0,
                        "inclination": 1.4311699866353502,
                        "period": 121079.18015999999,
                        "semiMajorAxis": 3635228258.0099998,
                        "transitTime": 318512753.27998996
                    },
                    "radius": 92939600.0
                }
            ],
            "radius": 667872000.0,
            "spectraltype": "G5",
            "temperature": 5675.0
        }
    ]
}