{
    "binaries": [
        {
            "stars": [
                {
                    "magB": 7.85,
                    "magH": 5.89,
                    "magI": 6.8,
                    "magJ": 6.14,
                    "magK": 5.81,
                    "magR": 7.0,
                    "magV": 7.3,
                    "mass": 1.6702642913863629e+30,
                    "metallicity": -0.71,
                    "name": "HD 114762 A",
                    "orbit": {
                        "positionAngle": 0.5235987755982988,
                        "separationArcsec": 3.26,
                        "separationMeters": 19298125320300.0
                    },
                    "planets": [
                        {
                            "discoverymethod": "RV",
                            "discoveryyear": "1992",
                            "lastupdate": "11/06/09",
                            "mass": 2.0841408078749837e+28,
                            "name": "HD 114762 b",
                            "orbit": {
                                "eccentricity": 0.3354,
                                "period": 7250264.64,
                                "semiMajorAxis": 52808048357.1
                            },
                            "temperature": 486.8
                        }
                    ],
                    "radius": 862668000.0,
                    "spectraltype": "F9V",
                    "temperature": 5934.0
                },
                {
                    "mass": 1.988409870698051e+29,
                    "name": "HD 114762 B",
                    "spectraltype": "M6V"
                }
            ]
        }
    ],
    "declination": 0.3057283554444845,
    "distance": 39.46,
    "rightascension": 3.457133637939934
}