{
    "declination": -0.17246669001489334,
    "distance": 153.86,
    "rightascension": 5.964216139840471,
    "stars": [
        {
            "magH": 11.927,
            "magJ": 12.598,
            "magK": 11.732,
            "mass": 9.544367379350645e+29,
            "name": "K2-71",
            "planets": [
                {
                    "description": "This planet was discovered by Crossfield et al. 2016. The discovery was made with a space based telescope (0.95 m Kepler Telescope). The parameters listed here are those reported by Crossfield et al. 2016 and were imported into the Open Exoplanet Catalogue from the NASA Exoplanet Archive.",
                    "discoverymethod": "transit",
                    "discoveryyear": "2016",
                    "istransiting": "1",
                    "lastupdate": "16/07/18",
                    "name": "K2-71 b",
                    "orbit": {
                        "period": 603539.424,
                        "semiMajorAxis": 8362520972.13,
                        "transitTime": 470264702.40000933
                    },
                    "radius": 13726464.0
                }
            ],
            "radius": 299151000.0,
            "temperature": 4006.0
        }
    ]
}