{
    "declination": 0.35690110804366226,
    "distance": 78.92,
    "rightascension": 0.1949823808130436,
    "stars": [
        {
            "magB": 9.444,
            "magH": 7.11,
            "magI": 7.9,
            "magJ": 7.39,
            "magK": 7.05,
            "magR": 8.2,
            "magV": 8.687,
            "mass": 2.2469031538887973e+30,
            "metallicity": 0.453,
            "name": "HD 4203",
            "planets": [
                {
                    "discoverymethod": "RV",
                    "discoveryyear": "2001",
                    "lastupdate": "17/12/10",
                    "mass": 3.454586767151612e+27,
                    "name": "HD 4203 b",
                    "orbit": {
                        "eccentricity": 0.52,
                        "meanAnomalyAtEpoch": 5.276409269971785,
                        "periapsisArgument": 5.725203545316999,
                        "period": 37761120.0,
                        "semiMajorAxis": 175553101266.45
                    }
                },
                {
                    "discoverymethod": "RV",
                    "discoveryyear": "2014",
                    "lastupdate": "17/12/10",
                    "mass": 2.866168141977436e+27,
                    "name": "HD 4203 c",
                    "orbit": {
                        "eccentricity": 0.182,
                        "meanAnomalyAtEpoch": 4.128657635917168,
                        "periapsisArgument": 4.052654523130833,
                        "period": 609379200.0,
                        "semiMajorAxis": 1121984030250.0
                    }
                }
            ],
            "radius": 925281000.0,
            "spectraltype": "G5",
            "temperature": 5702.0
        }
    ]
}