{
    "declination": 0.7614751835649667,
    "distance": 1712.49,
    "rightascension": 5.136800127360144,
    "stars": [
        {
            "magH": 13.91,
            "magJ": 14.259,
            "magK": 13.9,
            "mass": 2.0301664779827098e+30,
            "name": "Kepler-302",
            "planets": [
                {
                    "description": "Kepler-302 c has been discovered by the Kepler spacecraft and was originally classified as a planet candidate. A new statistical analysis led by a team at NASA Ames Research Center has validated the planet with more than 99 percent confidence. Although many parameters of Kepler-302 c are still unknown, the object is highly unlikely to be a false positive.",
                    "discoverymethod": "transit",
                    "discoveryyear": "2014",
                    "istransiting": "1",
                    "lastupdate": "14/02/26",
                    "name": "Kepler-302 c",
                    "orbit": {
                        "period": 10997180.6976,
                        "transitTime": 298286441.5679991
                    },
                    "radius": 81112678.44000001
                },
                {
                    "description": "Kepler-302 b has been discovered by the Kepler spacecraft and was originally classified as a planet candidate. A new statistical analysis led by a team at NASA Ames Research Center has validated the planet with more than 99 percent confidence. Although many parameters of Kepler-302 b are still unknown, the object is highly unlikely to be a false positive.",
                    "discoverymethod": "transit",
                    "discoveryyear": "2014",
                    "istransiting": "1",
                    "lastupdate": "14/02/26",
                    "name": "Kepler-302 b",
                    "orbit": {
                        "period": 2607906.5856000003,
                        "transitTime": 296796101.1840105
                    },
                    "radius": 26451325.08
                }
            ],
            "radius": 848754000.0,
            "temperature": 5740.0
        }
    ]
}