{
    "declination": -0.13914467485848195,
    "distance": 317.2,
    "rightascension": 5.892538630870335,
    "stars": [
        {
            "magH": 11.72,
            "magJ": 12.258,
            "magK": 11.635,
            "magV": 14.051,
            "mass": 1.411771008195616e+30,
            "name": "EPIC 206317286",
            "planets": [
                {
                    "description": "This planet was discovered by Heller et al. 2019. The discovery was made with a space based telescope (0.95 m Kepler Telescope). The parameters listed here are those reported by Heller et al. 2019 and were imported into the Open Exoplanet Catalogue from the NASA Exoplanet Archive.",
                    "discoverymethod": "transit",
                    "discoveryyear": "2019",
                    "istransiting": "1",
                    "lastupdate": "19/06/13",
                    "name": "EPIC 206317286 b",
                    "orbit": {
                        "period": 136729.728,
                        "transitTime": 472334345.2800125
                    },
                    "radius": 6148311.999999999
                }
            ]
        }
    ]
}