{
    "declination": -0.2781674263483701,
    "distance": 113.53,
    "rightascension": 3.5258553590997677,
    "stars": [
        {
            "magH": 8.748,
            "magJ": 9.081,
            "magK": 8.687,
            "magV": 10.364,
            "mass": 2.028178068112012e+30,
            "metallicity": 0.11,
            "name": "K2-277",
            "planets": [
                {
                    "description": "This planet was discovered by Livingston et al. 2018. The discovery was made with a space based telescope (0.95 m Kepler Telescope). The parameters listed here are those reported by Livingston et al. 2018 and were imported into the Open Exoplanet Catalogue from the NASA Exoplanet Archive.",
                    "discoverymethod": "transit",
                    "discoveryyear": "2018",
                    "istransiting": "1",
                    "lastupdate": "18/10/26",
                    "name": "K2-277 b",
                    "orbit": {
                        "period": 546632.3232,
                        "semiMajorAxis": 10097856272.25,
                        "transitTime": 490469435.7120037
                    },
                    "radius": 13226020.0,
                    "temperature": 958.0
                }
            ],
            "radius": 674829000.0,
            "temperature": 5741.0
        }
    ]
}