{
    "declination": 1.1667626672661606,
    "distance": 53.48,
    "rightascension": 5.271312849160887,
    "stars": [
        {
            "magH": 7.215,
            "magJ": 7.597,
            "magK": 7.18,
            "magV": 8.963,
            "mass": 1.829337081042207e+30,
            "metallicity": -0.16,
            "name": "HD 191939",
            "planets": [
                {
                    "description": "This planet was discovered by Badenas-Agusti et al. 2020. The discovery was made with a space based telescope (0.1 m TESS Telescope). The parameters listed here are those reported by Badenas-Agusti et al. 2020 and were imported into the Open Exoplanet Catalogue from the NASA Exoplanet Archive.",
                    "discoverymethod": "transit",
                    "discoveryyear": "2020",
                    "istransiting": "1",
                    "lastupdate": "20/07/23",
                    "name": "HD 191939 b",
                    "orbit": {
                        "inclination": 1.5390313344086,
                        "period": 767266.8191999999,
                        "semiMajorAxis": 12177266674.98,
                        "transitTime": 619561918.6559916
                    },
                    "radius": 21805060.0,
                    "temperature": 812.0
                },
                {
                    "description": "This planet was discovered by Badenas-Agusti et al. 2020. The discovery was made with a space based telescope (0.1 m TESS Telescope). The parameters listed here are those reported by Badenas-Agusti et al. 2020 and were imported into the Open Exoplanet Catalogue from the NASA Exoplanet Archive.",
                    "discoverymethod": "transit",
                    "discoveryyear": "2020",
                    "istransiting": "1",
                    "lastupdate": "20/07/23",
                    "name": "HD 191939 c",
                    "orbit": {
                        "inclination": 1.5555072425474261,
                        "period": 2469362.9760000003,
                        "semiMajorAxis": 26359144817.34,
                        "transitTime": 620486187.8400117
                    },
                    "radius": 20589696.0,
                    "temperature": 552.0
                },
                {
                    "description": "This planet was discovered by Badenas-Agusti et al. 2020. The discovery was made with a space based telescope (0.1 m TESS Telescope). The parameters listed here are those reported by Badenas-Agusti et al. 2020 and were imported into the Open Exoplanet Catalogue from the NASA Exoplanet Archive.",
                    "discoverymethod": "transit",
                    "discoveryyear": "2020",
                    "istransiting": "1",
                    "lastupdate": "20/07/23",
                    "name": "HD 191939 d",
                    "orbit": {
                        "inclination": 1.5618951476097254,
                        "period": 3313967.04,
                        "semiMajorAxis": 32163542200.5,
                        "transitTime": 621997963.199991
                    },
                    "radius": 20160743.999999996,
                    "temperature": 499.0
                }
            ],
            "radius": 653958000.0,
            "spectraltype": "G8V",
            "temperature": 5427.0
        }
    ]
}