{
    "declination": 0.03305509952983547,
    "distance": 200.0,
    "rightascension": 1.2681677682165533,
    "stars": [
        {
            "magB": 10.49,
            "magH": 8.868,
            "magJ": 9.046,
            "magK": 8.759,
            "magV": 10.1,
            "mass": 3.241108089237823e+30,
            "metallicity": 0.12,
            "name": "WASP-82",
            "planets": [
                {
                    "description": "This hot Jupiter has been discovered by the WASP transit survey and confirmed by radial velocity measurements. It is one of the most irradiated planets known. The host star is evolved and has a post main sequence radius.",
                    "discoverymethod": "transit",
                    "discoveryyear": "2013",
                    "istransiting": "1",
                    "lastupdate": "13/10/22",
                    "mass": 2.3536745006967025e+27,
                    "name": "WASP-82 b",
                    "orbit": {
                        "eccentricity": 0.06,
                        "inclination": 1.5341444125030157,
                        "period": 233779.56480000002,
                        "semiMajorAxis": 6687024820.29,
                        "transitTime": 398605518.72000843
                    },
                    "radius": 119391640.0,
                    "temperature": 2190.0
                }
            ],
            "radius": 1516626000.0,
            "spectraltype": "F5",
            "temperature": 6490.0
        }
    ]
}