{
    "binaries": [
        {
            "name": "Gliese 617",
            "stars": [
                {
                    "magB": 10.01,
                    "magH": 5.136,
                    "magI": 7.1,
                    "magJ": 5.779,
                    "magK": 4.953,
                    "magR": 8.73,
                    "magV": 8.896,
                    "mass": 1.1532777250048695e+30,
                    "metallicity": 0.16,
                    "name": "HD 147379",
                    "orbit": {
                        "positionAngle": 0.24434609527920614,
                        "separationArcsec": 64.4,
                        "separationMeters": 103222530783000.0
                    },
                    "planets": [
                        {
                            "description": "HD 147379 b is a Neptune-sized planet orbiting in the temperate zone of an early-M dwarf.",
                            "discoverymethod": "RV",
                            "discoveryyear": "2017",
                            "istransiting": "0",
                            "lastupdate": "17/12/22",
                            "mass": 1.475032624589845e+26,
                            "name": "HD 147379 b",
                            "orbit": {
                                "eccentricity": 0.01,
                                "periapsisArgument": 1.6231562043547265,
                                "period": 7477056.000000001,
                                "semiMajorAxis": 47766600114.509995,
                                "transitTime": 10419840.000008047
                            }
                        }
                    ],
                    "radius": 396548999.99999994,
                    "spectraltype": "M0.0V",
                    "temperature": 4090.0
                },
                {
                    "magB": 12.2,
                    "magH": 6.3,
                    "magI": 9.0,
                    "magJ": 6.908,
                    "magK": 6.066,
                    "magR": 10.31,
                    "magV": 10.615,
                    "mass": 7.953639482792204e+29,
                    "metallicity": 0.1,
                    "name": "EW Draconis",
                    "radius": 271323000.0,
                    "spectraltype": "M3.0Ve",
                    "temperature": 3516.0
                }
            ]
        }
    ],
    "declination": 1.1735391820067584,
    "distance": 10.735,
    "rightascension": 4.261711966252481
}