{
    "declination": -0.127725867438769,
    "distance": 347.45,
    "rightascension": 3.564341192647592,
    "stars": [
        {
            "magB": 15.963,
            "magH": 12.239,
            "magI": 13.626,
            "magJ": 12.824,
            "magK": 12.16,
            "magR": 14.58,
            "magV": 14.836,
            "mass": 1.372002810781655e+30,
            "metallicity": -0.137,
            "name": "EPIC 212737443",
            "planets": [
                {
                    "description": "This planet was discovered by Herath et al. 2019. The discovery was made with a space based telescope (0.95 m Kepler Telescope). The parameters listed here are those reported by Herath et al. 2019 and were imported into the Open Exoplanet Catalogue from the NASA Exoplanet Archive.",
                    "discoverymethod": "transit",
                    "discoveryyear": "2019",
                    "istransiting": "1",
                    "lastupdate": "19/07/25",
                    "name": "EPIC 212737443 b",
                    "orbit": {
                        "eccentricity": 0.2,
                        "inclination": 1.5545822180438693,
                        "period": 1175299.2,
                        "semiMajorAxis": 14660591328.6,
                        "transitTime": 491656608.0000177
                    },
                    "radius": 16514652.0,
                    "temperature": 536.0
                },
                {
                    "description": "This planet was discovered by Herath et al. 2019. The discovery was made with a space based telescope (0.95 m Kepler Telescope). The parameters listed here are those reported by Herath et al. 2019 and were imported into the Open Exoplanet Catalogue from the NASA Exoplanet Archive.",
                    "discoverymethod": "transit",
                    "discoveryyear": "2019",
                    "istransiting": "1",
                    "lastupdate": "19/07/25",
                    "name": "EPIC 212737443 c",
                    "orbit": {
                        "eccentricity": 0.2,
                        "inclination": 1.5643386085625175,
                        "period": 5663520.0,
                        "semiMajorAxis": 41887403796.00001,
                        "transitTime": 491036256.0000032
                    },
                    "radius": 17158080.0,
                    "temperature": 316.0
                }
            ],
            "radius": 466119000.0,
            "spectraltype": "K3",
            "temperature": 4684.0
        }
    ]
}