{
    "declination": 0.7665308026934708,
    "distance": 401.6,
    "rightascension": 2.925116848471058,
    "stars": [
        {
            "magV": 8.6,
            "mass": 1.908873475870129e+30,
            "metallicity": -0.45,
            "name": "HD 96992",
            "planets": [
                {
                    "description": "The parameters listed here were imported into the Open Exoplanet Catalogue from the exoplanet.eu website.",
                    "discoverymethod": "RV",
                    "discoveryyear": "2021",
                    "lastupdate": "21/01/28",
                    "mass": 2.1638620409630973e+27,
                    "name": "HD 96992 b",
                    "orbit": {
                        "eccentricity": 0.41,
                        "periapsisArgument": 2.600540585471551,
                        "period": 44409600.0,
                        "semiMajorAxis": 185501359668.0
                    }
                }
            ],
            "radius": 5169051000.0,
            "spectraltype": "K0",
            "temperature": 4725.0
        }
    ]
}