{
    "declination": 0.7213691788106223,
    "distance": 794.61,
    "rightascension": 5.065602598478714,
    "stars": [
        {
            "magH": 12.194,
            "magJ": 12.488,
            "magK": 12.144,
            "mass": 2.1017492333278398e+30,
            "name": "Kepler-336",
            "planets": [
                {
                    "description": "Kepler-336 d has been discovered by the Kepler spacecraft and was originally classified as a planet candidate. A new statistical analysis led by a team at NASA Ames Research Center has validated the planet with more than 99 percent confidence. Although many parameters of Kepler-336 d are still unknown, the object is highly unlikely to be a false positive.",
                    "discoverymethod": "transit",
                    "discoveryyear": "2014",
                    "istransiting": "1",
                    "lastupdate": "14/02/26",
                    "name": "Kepler-336 d",
                    "orbit": {
                        "period": 1786645.9008,
                        "transitTime": 297232536.0959843
                    },
                    "radius": 15440842.16
                },
                {
                    "description": "Kepler-336 c has been discovered by the Kepler spacecraft and was originally classified as a planet candidate. A new statistical analysis led by a team at NASA Ames Research Center has validated the planet with more than 99 percent confidence. Although many parameters of Kepler-336 c are still unknown, the object is highly unlikely to be a false positive.",
                    "discoverymethod": "transit",
                    "discoveryyear": "2014",
                    "istransiting": "1",
                    "lastupdate": "14/02/26",
                    "name": "Kepler-336 c",
                    "orbit": {
                        "period": 829440.0864,
                        "transitTime": 295927064.92800415
                    },
                    "radius": 13681424.040000001
                },
                {
                    "description": "Kepler-336 b has been discovered by the Kepler spacecraft and was originally classified as a planet candidate. A new statistical analysis led by a team at NASA Ames Research Center has validated the planet with more than 99 percent confidence. Although many parameters of Kepler-336 b are still unknown, the object is highly unlikely to be a false positive.",
                    "discoverymethod": "transit",
                    "discoveryyear": "2014",
                    "istransiting": "1",
                    "lastupdate": "14/02/26",
                    "name": "Kepler-336 b",
                    "orbit": {
                        "period": 174944.7072,
                        "transitTime": 295561967.90400445
                    },
                    "radius": 6645181.4
                }
            ],
            "radius": 907192800.0,
            "temperature": 5867.0
        }
    ]
}