{
    "declination": -0.009408240966106735,
    "distance": 201.2,
    "rightascension": 3.1822471387274778,
    "stars": [
        {
            "magB": 14.128,
            "magH": 10.765,
            "magJ": 11.31,
            "magK": 10.627,
            "magV": 13.129,
            "mass": 1.64242655319659e+30,
            "metallicity": 0.14,
            "name": "K2-163",
            "planets": [
                {
                    "description": "This planet was announced as part of a batch of 149 validated planets from the K2 mission.",
                    "discoverymethod": "transit",
                    "discoveryyear": "2018",
                    "istransiting": "1",
                    "lastupdate": "18/07/24",
                    "name": "K2-163 b",
                    "orbit": {
                        "inclination": 1.541125729510993,
                        "period": 576557.568,
                        "transitTime": 521713301.7600015
                    },
                    "radius": 15756836.8
                }
            ],
            "radius": 530123400.0
        }
    ]
}