{
    "declination": -0.6656637285738262,
    "distance": 657.0,
    "rightascension": 3.0759973625356727,
    "stars": [
        {
            "magV": 12.7,
            "mass": 2.5849328319074664e+30,
            "metallicity": 0.25,
            "name": "NGTS-13",
            "planets": [
                {
                    "description": "The parameters listed here were imported into the Open Exoplanet Catalogue from the exoplanet.eu website.",
                    "discoverymethod": "transit",
                    "discoveryyear": "2021",
                    "istransiting": "1",
                    "lastupdate": "21/01/13",
                    "mass": 9.186923051106484e+27,
                    "name": "NGTS-13 b",
                    "orbit": {
                        "eccentricity": 0.086,
                        "inclination": 1.5481070465189704,
                        "periapsisArgument": 3.7280232822598878,
                        "period": 355883.9328,
                        "semiMajorAxis": 8212923101.429999
                    },
                    "radius": 81643864.0,
                    "temperature": 1605.0
                }
            ],
            "radius": 1243911600.0,
            "temperature": 5918.0
        }
    ]
}