{
    "declination": 0.7893676122573724,
    "distance": 390.8,
    "rightascension": 5.223212171296751,
    "stars": [
        {
            "magH": 12.85,
            "magJ": 13.51,
            "magK": 12.693,
            "mass": 1.1970227421602267e+30,
            "name": "Kepler-329",
            "planets": [
                {
                    "description": "Kepler-329 c has been discovered by the Kepler spacecraft and was originally classified as a planet candidate. A new statistical analysis led by a team at NASA Ames Research Center has validated the planet with more than 99 percent confidence. Although many parameters of Kepler-329 c are still unknown, the object is highly unlikely to be a false positive.",
                    "discoverymethod": "transit",
                    "discoveryyear": "2014",
                    "istransiting": "1",
                    "lastupdate": "14/02/26",
                    "name": "Kepler-329 c",
                    "orbit": {
                        "period": 1614361.2767999999,
                        "transitTime": 295889622.62399197
                    },
                    "radius": 12574012.96
                },
                {
                    "description": "Kepler-329 b has been discovered by the Kepler spacecraft and was originally classified as a planet candidate. A new statistical analysis led by a team at NASA Ames Research Center has validated the planet with more than 99 percent confidence. Although many parameters of Kepler-329 b are still unknown, the object is highly unlikely to be a false positive.",
                    "discoverymethod": "transit",
                    "discoveryyear": "2014",
                    "istransiting": "1",
                    "lastupdate": "14/02/26",
                    "name": "Kepler-329 b",
                    "orbit": {
                        "period": 640776.7008,
                        "transitTime": 295864129.43999916
                    },
                    "radius": 9120949.36
                }
            ],
            "radius": 363851100.0,
            "temperature": 4257.0
        }
    ]
}