{
    "declination": 0.10363208580717784,
    "distance": 560.0,
    "rightascension": 4.898917400816769,
    "stars": [
        {
            "magB": 13.73,
            "magH": 11.416,
            "magJ": 11.589,
            "magK": 11.248,
            "magV": 12.8,
            "mass": 2.5252805357865246e+30,
            "metallicity": -0.03,
            "name": "CoRoT-11",
            "planets": [
                {
                    "discoverymethod": "transit",
                    "discoveryyear": "2010",
                    "istransiting": "1",
                    "lastupdate": "12/07/02",
                    "mass": 4.726330247366766e+27,
                    "name": "CoRoT-11 b",
                    "orbit": {
                        "eccentricity": 0.0,
                        "inclination": 1.4208725440485837,
                        "period": 258709.68,
                        "semiMajorAxis": 6509003354.157,
                        "transitTime": 263794726.08001828
                    },
                    "radius": 99373880.0,
                    "temperature": 1593.4
                }
            ],
            "radius": 953109000.0000001,
            "spectraltype": "F6V",
            "temperature": 6440.0
        }
    ]
}