{
    "binaries": [
        {
            "stars": [
                {
                    "magV": 11.76,
                    "mass": 5.388590749591718e+29,
                    "name": "Kruger 60 A",
                    "orbit": {
                        "eccentricity": 0.41,
                        "inclination": 2.9181905093345186,
                        "period": 1409647881.6000001
                    },
                    "spectraltype": "M3.0V"
                },
                {
                    "magV": 13.38,
                    "mass": 3.4996013724285695e+29,
                    "name": "Kruger 60 B",
                    "spectraltype": "M4.0V"
                }
            ]
        }
    ],
    "declination": 1.0069822563485618,
    "distance": 4.008016,
    "rightascension": 5.881723218194807
}