{
    "declination": -0.5177975920528783,
    "distance": 16.9,
    "rightascension": 5.573004289558399,
    "stars": [
        {
            "name": "2MASS J2117-2940",
            "planets": [
                {
                    "description": "The parameters listed here were imported into the Open Exoplanet Catalogue from the exoplanet.eu website.",
                    "discoverymethod": "imaging",
                    "discoveryyear": "2022",
                    "lastupdate": "22/01/23",
                    "mass": 1.3286872181352354e+28,
                    "name": "2MASS J2117-2940",
                    "radius": 98658959.99999999,
                    "temperature": 1192.0
                }
            ]
        }
    ]
}