{
    "declination": 0.8361595515882047,
    "distance": 279.57,
    "rightascension": 5.125581841787819,
    "stars": [
        {
            "magH": 12.594,
            "magJ": 13.247,
            "magK": 12.395,
            "mass": 9.34552639228084e+29,
            "name": "Kepler-369",
            "planets": [
                {
                    "description": "Kepler-369 c has been discovered by the Kepler spacecraft and was originally classified as a planet candidate. A new statistical analysis led by a team at NASA Ames Research Center has validated the planet with more than 99 percent confidence. Although many parameters of Kepler-369 c are still unknown, the object is highly unlikely to be a false positive.",
                    "discoverymethod": "transit",
                    "discoveryyear": "2014",
                    "istransiting": "1",
                    "lastupdate": "14/02/26",
                    "name": "Kepler-369 c",
                    "orbit": {
                        "period": 1284903.8208,
                        "transitTime": 296022914.49598074
                    },
                    "radius": 9186007.08
                },
                {
                    "description": "Kepler-369 b has been discovered by the Kepler spacecraft and was originally classified as a planet candidate. A new statistical analysis led by a team at NASA Ames Research Center has validated the planet with more than 99 percent confidence. Although many parameters of Kepler-369 b are still unknown, the object is highly unlikely to be a false positive.",
                    "discoverymethod": "transit",
                    "discoveryyear": "2014",
                    "istransiting": "1",
                    "lastupdate": "14/02/26",
                    "name": "Kepler-369 b",
                    "orbit": {
                        "period": 236110.1184,
                        "transitTime": 314720255.52001745
                    },
                    "radius": 7362246.16
                }
            ],
            "radius": 327674700.0,
            "temperature": 3591.0
        }
    ]
}