{
    "declination": -0.7341099635708289,
    "distance": 269.21,
    "rightascension": 6.170835976134526,
    "stars": [
        {
            "magH": 10.842,
            "magJ": 11.179,
            "magK": 10.746,
            "magV": 12.5,
            "mass": 1.710032488800324e+30,
            "metallicity": -0.07,
            "name": "WASP-4",
            "planets": [
                {
                    "description": "This planet was discovered by Wilson et al. 2008. This was a ground based discovery. The parameters listed here are those reported by Bouma et al. 2019 and were imported into the Open Exoplanet Catalogue from the NASA Exoplanet Archive.",
                    "discoverymethod": "transit",
                    "discoveryyear": "2007",
                    "istransiting": "1",
                    "lastupdate": "19/08/15",
                    "mass": 2.251175772440556e+27,
                    "name": "WASP-4 b",
                    "orbit": {
                        "eccentricity": 0.0,
                        "inclination": 1.55439023182615,
                        "period": 115623.199008,
                        "semiMajorAxis": 3380911877.8199997,
                        "transitTime": 368065360.97278297
                    },
                    "radius": 94440932.0
                }
            ],
            "radius": 619173000.0,
            "spectraltype": "G7V",
            "temperature": 5400.0
        }
    ]
}