{
    "declination": 1.3059813978992458,
    "distance": 48.4809,
    "rightascension": 2.646210034232069,
    "stars": [
        {
            "magH": 11.298,
            "magJ": 11.877,
            "magK": 11.021,
            "magV": 15.92,
            "mass": 4.573342702605517e+29,
            "metallicity": -0.03,
            "name": "TOI-2096",
            "planets": [
                {
                    "description": "This planet was discovered by Pozuelos et al. 2023. The discovery was made with a space based telescope (0.1 m TESS Telescope). The parameters listed here have been imported into the Open Exoplanet Catalogue from the NASA Exoplanet Archive.",
                    "discoverymethod": "transit",
                    "discoveryyear": "2023",
                    "istransiting": "1",
                    "lastupdate": "23/10/15",
                    "mass": 2.5814494523770284e+25,
                    "name": "TOI-2096 c",
                    "orbit": {
                        "eccentricity": 0.1,
                        "inclination": 1.5631168780861215,
                        "periapsisArgument": 3.490658503988659,
                        "period": 551909.3759999999,
                        "semiMajorAxis": 5983914828.0,
                        "transitTime": 656895729.3120056
                    },
                    "radius": 12225132.000000002,
                    "temperature": 349.0
                },
                {
                    "description": "This planet was discovered by Pozuelos et al. 2023. The discovery was made with a space based telescope (0.1 m TESS Telescope). The parameters listed here have been imported into the Open Exoplanet Catalogue from the NASA Exoplanet Archive.",
                    "discoverymethod": "transit",
                    "discoveryyear": "2023",
                    "istransiting": "1",
                    "lastupdate": "23/10/15",
                    "mass": 1.239475362060441e+25,
                    "name": "TOI-2096 b",
                    "orbit": {
                        "eccentricity": 0.15,
                        "inclination": 1.5575318244797396,
                        "periapsisArgument": 4.276056667386108,
                        "period": 269487.06912,
                        "semiMajorAxis": 3739946767.5,
                        "transitTime": 656809216.9919953
                    },
                    "radius": 7935612.0,
                    "temperature": 445.0
                }
            ],
            "radius": 166968000.0,
            "spectraltype": "M4",
            "temperature": 3300.0
        }
    ]
}