{
    "declination": -0.5328204166266833,
    "distance": 5800.0,
    "rightascension": 4.695788717536659,
    "stars": [
        {
            "mass": 3.976819741396102e+29,
            "name": "OGLE-2017-BLG-0482L",
            "planets": [
                {
                    "description": "OGLE-2017-BLG-0482Lb is a Uranus-mass planet orbiting a low-mass star.",
                    "discoverymethod": "microlensing",
                    "discoveryyear": "2018",
                    "lastupdate": "18/09/20",
                    "mass": 5.371692610461022e+25,
                    "name": "OGLE-2017-BLG-0482L b",
                    "orbit": {
                        "separationMeters": 269276167260.0
                    }
                }
            ]
        }
    ]
}