{
    "binaries": [
        {
            "binaries": [
                {
                    "name": "KELT-4BC",
                    "stars": [
                        {
                            "name": "KELT-4B",
                            "orbit": {
                                "period": 927763200.0,
                                "separationArcsec": 0.034,
                                "separationMeters": 1540858068210.0
                            }
                        },
                        {
                            "name": "KELT-4C"
                        }
                    ]
                }
            ],
            "stars": [
                {
                    "magB": 10.47,
                    "magH": 8.79,
                    "magJ": 9.017,
                    "magK": 8.689,
                    "magV": 9.98,
                    "mass": 2.3880802547083595e+30,
                    "metallicity": -0.116,
                    "name": "KELT-4A",
                    "orbit": {
                        "period": 119287728000.0,
                        "separationArcsec": 1.5,
                        "separationMeters": 49068101589600.0
                    },
                    "planets": [
                        {
                            "description": "KELT-4A b is an inflated, transiting Hot Jupiter orbiting the brightest component of a hierarchical triple stellar system.",
                            "discoverymethod": "transit",
                            "discoveryyear": "2015",
                            "istransiting": "1",
                            "lastupdate": "15/09/30",
                            "mass": 1.7121083867971176e+27,
                            "name": "KELT-4A b",
                            "orbit": {
                                "period": 258300.88704,
                                "transitTime": 401655591.64799005
                            },
                            "radius": 121464908.0
                        }
                    ],
                    "radius": 1120077000.0,
                    "spectraltype": "F",
                    "temperature": 6206.0
                }
            ]
        }
    ],
    "declination": 0.44633644330827765,
    "distance": 210.0,
    "rightascension": 2.7412585563561676
}