{
    "declination": 0.43281983787894385,
    "distance": 689.0,
    "rightascension": 1.3426410692100244,
    "stars": [
        {
            "magV": 14.09,
            "mass": 4.9710246767451274e+29,
            "name": "TCP J05074264+2447555L",
            "planets": [
                {
                    "description": "The light curve of the microlensing event TCP J05074264+2447555 indicates the lens system contains a 9.2 Earth mass planet orbiting a red dwarf star. The source star is the F dwarf UCAC4 574-013830.",
                    "discoverymethod": "microlensing",
                    "discoveryyear": "2018",
                    "lastupdate": "18/09/20",
                    "mass": 5.485580086301186e+25,
                    "name": "TCP J05074264+2447555L b",
                    "orbit": {
                        "separationMeters": 74798935350.0
                    }
                }
            ]
        }
    ]
}