{
    "declination": -1.1740039612473099,
    "distance": 184.8,
    "rightascension": 2.3356008485659037,
    "stars": [
        {
            "magH": 5.409,
            "magJ": 5.946,
            "magK": 5.253,
            "magV": 7.817,
            "mass": 2.3264395487167196e+30,
            "metallicity": -0.11,
            "name": "HD 76920",
            "planets": [
                {
                    "description": "This planet was discovered by Wittenmyer et al. 2017. This was a ground based discovery. The parameters listed here are those reported by Wittenmyer et al. 2017 and were imported into the Open Exoplanet Catalogue from the NASA Exoplanet Archive.",
                    "discoverymethod": "RV",
                    "discoveryyear": "2017",
                    "lastupdate": "17/11/30",
                    "mass": 7.459629667530679e+27,
                    "name": "HD 76920 b",
                    "orbit": {
                        "eccentricity": 0.856,
                        "periapsisArgument": 6.1592669302879886,
                        "period": 35890560.0,
                        "semiMajorAxis": 171887953434.30002
                    }
                }
            ],
            "radius": 5196879000.0,
            "spectraltype": "K1III",
            "temperature": 4698.0
        }
    ]
}