{
    "declination": 0.039056590150184214,
    "distance": 515.491,
    "rightascension": 2.758929215090036,
    "stars": [
        {
            "magH": 10.945,
            "magJ": 11.258,
            "magK": 10.93,
            "magV": 12.478,
            "mass": 1.5509596991444798e+30,
            "metallicity": 0.252,
            "name": "K2-399",
            "planets": [
                {
                    "description": "This planet was discovered by Christiansen et al. 2022. The discovery was made with a space based telescope (0.95 m Kepler Telescope). The parameters listed here have been imported into the Open Exoplanet Catalogue from the NASA Exoplanet Archive.",
                    "discoverymethod": "transit",
                    "discoveryyear": "2022",
                    "istransiting": "1",
                    "lastupdate": "22/03/01",
                    "mass": 1.8203014888452726e+26,
                    "name": "K2-399 b",
                    "orbit": {
                        "period": 65662.0992,
                        "transitTime": 549652530.2399888
                    },
                    "radius": 38605680.0,
                    "temperature": 2529.07247265
                }
            ],
            "radius": 1071378000.0,
            "spectraltype": "F9",
            "temperature": 5690.0
        }
    ]
}