{
    "declination": -0.14534578120944971,
    "distance": 91.68,
    "rightascension": 1.5183764971752605,
    "stars": [
        {
            "magB": 9.14,
            "magH": 6.372,
            "magJ": 6.8,
            "magK": 6.279,
            "magV": 8.224,
            "mass": 2.4059759435446416e+30,
            "metallicity": 0.25,
            "name": "HD 38801",
            "planets": [
                {
                    "description": "This planet was discovered by Harakawa et al. 2010. This was a ground based discovery. The parameters listed here are those reported by Barbato et al. 2018 and were imported into the Open Exoplanet Catalogue from the NASA Exoplanet Archive.",
                    "discoverymethod": "RV",
                    "discoveryyear": "2009",
                    "lastupdate": "19/06/27",
                    "mass": 1.8408012344965018e+28,
                    "name": "HD 38801 b",
                    "orbit": {
                        "eccentricity": 0.017,
                        "periapsisArgument": 1.6949765030742932,
                        "period": 59205600.0,
                        "semiMajorAxis": 242797344146.1
                    }
                }
            ],
            "radius": 1412270999.9999998,
            "spectraltype": "K0",
            "temperature": 5338.0
        }
    ]
}