{
    "declination": -0.895804782996523,
    "distance": 50.1677,
    "rightascension": 1.9408788502698608,
    "stars": [
        {
            "magH": 7.875,
            "magJ": 8.371,
            "magK": 7.71,
            "magV": 10.18,
            "mass": 1.5509596991444798e+30,
            "name": "HIP 35965",
            "planets": [
                {
                    "description": "This planet was discovered by Feng et al. 2022. This was a ground based discovery. The parameters listed here have been imported into the Open Exoplanet Catalogue from the NASA Exoplanet Archive.",
                    "discoverymethod": "RV",
                    "discoveryyear": "2022",
                    "lastupdate": "22/09/27",
                    "mass": 1.521451261617698e+28,
                    "name": "HIP 35965 b",
                    "orbit": {
                        "eccentricity": 0.138247,
                        "inclination": 0.7626739765364822,
                        "periapsisArgument": 3.7943143779091364,
                        "period": 2257248813.674976,
                        "semiMajorAxis": 2395874525540.6426
                    },
                    "radius": 80071040.00000001
                }
            ],
            "radius": 486989999.99999994,
            "temperature": 4836.0
        }
    ]
}