{
    "declination": -0.14785921677527736,
    "distance": 435.7,
    "rightascension": 3.498622644987255,
    "stars": [
        {
            "magB": 12.635,
            "magH": 10.686,
            "magJ": 10.95,
            "magK": 10.617,
            "magV": 12.06,
            "mass": 2.310532269751135e+30,
            "metallicity": 0.01,
            "name": "K2-196",
            "planets": [
                {
                    "description": "This planet was announced as part of a batch of 149 validated planets from the K2 mission.",
                    "discoverymethod": "transit",
                    "discoveryyear": "2018",
                    "istransiting": "1",
                    "lastupdate": "18/07/24",
                    "name": "K2-196 b",
                    "orbit": {
                        "inclination": 1.541125729510993,
                        "period": 4175210.88,
                        "transitTime": 491044956.479989
                    },
                    "radius": 22963230.4
                }
            ],
            "radius": 1071378000.0
        }
    ]
}