{
    "declination": -0.5422834948682603,
    "distance": 43.932,
    "rightascension": 0.5678137833154884,
    "stars": [
        {
            "magH": 7.051,
            "magJ": 7.387,
            "magK": 6.967,
            "magV": 8.91,
            "mass": 1.8094529823352264e+30,
            "metallicity": 0.26,
            "name": "TOI-262",
            "planets": [
                {
                    "description": "This planet was discovered by Oddo et al. 2023. The discovery was made with a space based telescope (0.1 m TESS Telescope). The parameters listed here have been imported into the Open Exoplanet Catalogue from the NASA Exoplanet Archive.",
                    "discoverymethod": "transit",
                    "discoveryyear": "2023",
                    "istransiting": "1",
                    "lastupdate": "23/10/15",
                    "mass": 2.9420931258708784e+25,
                    "name": "TOI-262 b",
                    "orbit": {
                        "inclination": 1.5535350204926726,
                        "period": 962953.056,
                        "semiMajorAxis": 24384452924.100002,
                        "transitTime": 655955418.2399824
                    },
                    "radius": 13226020.0,
                    "temperature": 584.0
                }
            ],
            "radius": 591345000.0,
            "spectraltype": "K0V",
            "temperature": 5310.0
        }
    ]
}