{
    "declination": -1.068316035145729,
    "distance": 4.8351959,
    "rightascension": 2.8115242321333405,
    "stars": [
        {
            "magV": 15.51,
            "mass": 2.187250857767856e+29,
            "name": "LHS 288",
            "spectraltype": "M5.5V"
        }
    ]
}