{
    "declination": 0.7013984708893429,
    "distance": 17.9352,
    "rightascension": 2.5691973809878195,
    "stars": [
        {
            "name": "HIP 3206",
            "planets": [
                {
                    "description": "The parameters listed here were imported into the Open Exoplanet Catalogue from the exoplanet.eu website.",
                    "discoverymethod": "RV",
                    "discoveryyear": "2021",
                    "lastupdate": "21/05/27",
                    "mass": 3.283755553391367e+26,
                    "name": "HIP 3206 b",
                    "orbit": {
                        "eccentricity": 0.298,
                        "periapsisArgument": 5.183627878423159,
                        "period": 104630400.0,
                        "semiMajorAxis": 315352311435.60004
                    }
                }
            ],
            "spectraltype": "K2V"
        }
    ]
}