{
    "declination": -0.5204024343901424,
    "distance": 36.6,
    "rightascension": 4.833797248744346,
    "stars": [
        {
            "age": 2.3,
            "magB": 6.406,
            "magH": 4.778,
            "magJ": 4.974,
            "magK": 4.688,
            "magR": 7.01,
            "magV": 5.902,
            "mass": 2.803657917684252e+30,
            "metallicity": 0.21,
            "name": "HD 169830",
            "planets": [
                {
                    "discoverymethod": "RV",
                    "discoveryyear": "2000",
                    "lastupdate": "17/12/10",
                    "mass": 5.466598840327825e+27,
                    "name": "HD 169830 b",
                    "orbit": {
                        "eccentricity": 0.31,
                        "meanAnomalyAtEpoch": 4.257483245109544,
                        "periapsisArgument": 2.5830872929516078,
                        "period": 19493568.0,
                        "semiMajorAxis": 121174275267.00002
                    }
                },
                {
                    "discoverymethod": "RV",
                    "discoveryyear": "2003",
                    "lastupdate": "17/12/10",
                    "mass": 6.719361074569619e+27,
                    "name": "HD 169830 c",
                    "orbit": {
                        "eccentricity": 0.0,
                        "meanAnomalyAtEpoch": 0.46893532603875343,
                        "periapsisArgument": 1.6702800941585734,
                        "period": 158483520.0,
                        "semiMajorAxis": 492176994603.0
                    }
                }
            ],
            "radius": 1280088000.0,
            "spectraltype": "F8 V",
            "temperature": 6300.0
        }
    ]
}