{
    "declination": -0.015747122153785865,
    "distance": 74.8,
    "rightascension": 2.7204133836956927,
    "stars": [
        {
            "age": 2.7,
            "magB": 7.4,
            "magH": 4.486,
            "magJ": 5.292,
            "magK": 4.285,
            "magR": 6.41,
            "magV": 7.38,
            "mass": 3.0621512008749986e+30,
            "metallicity": -0.03,
            "name": "24 Sex",
            "planets": [
                {
                    "description": "24 Sextantis is located in the constellation of Sextans. The two planets in the system are in a 2:1 mean motion resonance.",
                    "discoverymethod": "RV",
                    "discoveryyear": "2010",
                    "lastupdate": "15/09/23",
                    "mass": 3.7772679486987406e+27,
                    "name": "24 Sex b",
                    "orbit": {
                        "eccentricity": 0.09,
                        "meanAnomalyAtEpoch": 0.6646744174335296,
                        "periapsisArgument": 0.16057029118347832,
                        "period": 39121920.0,
                        "semiMajorAxis": 199413961643.1
                    }
                },
                {
                    "description": "24 Sextantis is located in the constellation of Sextans. The two planets in the system are in a 2:1 mean motion resonance.",
                    "discoverymethod": "RV",
                    "discoveryyear": "2010",
                    "lastupdate": "15/09/23",
                    "mass": 1.6323871537090034e+27,
                    "name": "24 Sex c",
                    "orbit": {
                        "eccentricity": 0.29,
                        "meanAnomalyAtEpoch": 5.240731572749451,
                        "periapsisArgument": 3.8484510006474966,
                        "period": 76291200.0,
                        "semiMajorAxis": 311163571056.0
                    }
                }
            ],
            "radius": 3408930000.0000005,
            "spectraltype": "G5",
            "temperature": 5098.0
        }
    ]
}