{
    "declination": -0.06398218212849281,
    "distance": 33.19,
    "rightascension": 1.9031851925806957,
    "stars": [
        {
            "magH": 6.803,
            "magJ": 7.263,
            "magK": 6.674,
            "magV": 9.01,
            "mass": 1.5708437978514603e+30,
            "name": "HIP 35173",
            "planets": [
                {
                    "description": "This planet was discovered by Feng et al. 2019. This was a ground based discovery. The parameters listed here are those reported by Feng et al. 2019 and were imported into the Open Exoplanet Catalogue from the NASA Exoplanet Archive.",
                    "discoverymethod": "RV",
                    "discoveryyear": "2019",
                    "lastupdate": "19/05/23",
                    "mass": 7.5849058909548585e+25,
                    "name": "HIP 35173 b",
                    "orbit": {
                        "eccentricity": 0.16,
                        "periapsisArgument": 0.18727382873899157,
                        "period": 3586982.4,
                        "semiMajorAxis": 32462737941.9
                    }
                }
            ],
            "spectraltype": "K2V",
            "temperature": 4881.0
        }
    ]
}