{
    "declination": 0.7077067709996451,
    "distance": 409.602,
    "rightascension": 5.066109042122207,
    "stars": [
        {
            "magH": 12.156,
            "magI": 13.781,
            "magJ": 12.662,
            "magK": 12.16,
            "magV": 14.271,
            "mass": 1.6106119952654213e+30,
            "metallicity": 0.04,
            "name": "Kepler-1809",
            "planets": [
                {
                    "description": "This planet was discovered by Valizadegan et al. 2022. The discovery was made with a space based telescope (0.95 m Kepler Telescope). The parameters listed here have been imported into the Open Exoplanet Catalogue from the NASA Exoplanet Archive.",
                    "discoverymethod": "transit",
                    "discoveryyear": "2021",
                    "istransiting": "1",
                    "lastupdate": "22/02/01",
                    "mass": 1.731089632770478e+25,
                    "name": "Kepler-1809 b",
                    "orbit": {
                        "eccentricity": 0.0,
                        "inclination": 1.5481070465189704,
                        "period": 324630.71136,
                        "semiMajorAxis": 6507507375.45,
                        "transitTime": 295700575.9679988
                    },
                    "radius": 9651420.0,
                    "temperature": 877.0
                }
            ],
            "radius": 500904000.0,
            "temperature": 4901.0
        }
    ]
}