{
    "declination": -0.6812407921478756,
    "distance": 521.233,
    "rightascension": 5.3654330088392355,
    "stars": [
        {
            "magH": 12.417,
            "magJ": 12.818,
            "magK": 12.324,
            "magV": 14.333,
            "mass": 1.8094529823352264e+30,
            "metallicity": 0.12,
            "name": "NGTS-25",
            "planets": [
                {
                    "description": "This planet was discovered by Jackson et al. 2022. This was a ground based discovery. The parameters listed here have been imported into the Open Exoplanet Catalogue from the NASA Exoplanet Archive.",
                    "discoverymethod": "transit",
                    "discoveryyear": "2022",
                    "istransiting": "1",
                    "lastupdate": "23/01/12",
                    "mass": 1.2129016176977363e+27,
                    "name": "NGTS-25 b",
                    "orbit": {
                        "eccentricity": 0.0,
                        "inclination": 1.559277153731734,
                        "period": 243915.2352,
                        "semiMajorAxis": 5804397383.16,
                        "transitTime": 575403586.2719804
                    },
                    "radius": 73136316.0,
                    "temperature": 1101.0
                }
            ],
            "radius": 598302000.0,
            "spectraltype": "K0V",
            "temperature": 5321.0
        }
    ]
}