{
    "declination": 0.26863157611881744,
    "distance": 30.7,
    "rightascension": 2.0904564396868355,
    "stars": [
        {
            "age": 2.5,
            "magB": 13.5,
            "magH": 8.206,
            "magI": 9.8,
            "magJ": 8.794,
            "magK": 7.989,
            "magR": 11.2,
            "magV": 12.3,
            "mass": 1.014089034056006e+30,
            "metallicity": 0.17,
            "name": "Gliese 3470",
            "planets": [
                {
                    "description": "The planet Gliese 3470 b is a transiting Hot Uranus orbiting a nearby M-dwarf. The planet was originally seen in HARPS radial velocity data and then confirmed to be a transiting planet. Spitzer observations show that it has a very low density.",
                    "discoverymethod": "transit",
                    "discoveryyear": "2012",
                    "istransiting": "1",
                    "lastupdate": "15/04/29",
                    "mass": 8.19989826049174e+25,
                    "name": "Gliese 3470 b",
                    "orbit": {
                        "eccentricity": 0.017,
                        "inclination": 1.5379841368574032,
                        "periapsisArgument": 0.029670597283903602,
                        "period": 288286.44768,
                        "semiMajorAxis": 4637533991.7,
                        "transitTime": 383547287.80798316
                    },
                    "radius": 24736232.0,
                    "temperature": 604.0
                }
            ],
            "radius": 333936000.0,
            "spectraltype": "M1.5",
            "temperature": 3652.0
        }
    ]
}