{
    "declination": 0.8665414292047513,
    "distance": 501.574,
    "rightascension": 4.999859252598589,
    "stars": [
        {
            "magH": 12.337,
            "magI": 13.866,
            "magJ": 12.783,
            "magK": 12.291,
            "magV": 14.222,
            "mass": 1.7299165875073044e+30,
            "metallicity": 0.03,
            "name": "Kepler-324",
            "planets": [
                {
                    "description": "This planet was discovered by Rowe et al. 2014. The discovery was made with a space based telescope (0.95 m Kepler Telescope). The parameters listed here have been imported into the Open Exoplanet Catalogue from the NASA Exoplanet Archive.",
                    "discoverymethod": "transit",
                    "discoveryyear": "2014",
                    "istransiting": "1",
                    "lastupdate": "21/06/17",
                    "mass": 9.281829280973288e+24,
                    "name": "Kepler-324 b",
                    "orbit": {
                        "eccentricity": 0.0,
                        "inclination": 1.5446163880149817,
                        "period": 378891.216,
                        "semiMajorAxis": 7479893535.0,
                        "transitTime": 296155574.7839883
                    },
                    "radius": 7292183.999999999,
                    "temperature": 935.0
                },
                {
                    "description": "This planet was discovered by Jontof-Hutter et al. 2021. The discovery was made with a space based telescope (0.95 m Kepler Telescope). The parameters listed here have been imported into the Open Exoplanet Catalogue from the NASA Exoplanet Archive.",
                    "discoverymethod": "transit",
                    "discoveryyear": "2021",
                    "istransiting": "1",
                    "lastupdate": "21/06/17",
                    "mass": 1.3324834673299074e+25,
                    "name": "Kepler-324 d",
                    "orbit": {
                        "eccentricity": 0.0,
                        "inclination": 1.5641640756373183,
                        "period": 2952201.5999999996,
                        "semiMajorAxis": 29156624999.43,
                        "transitTime": 296982884.1599867
                    },
                    "radius": 7220692.0,
                    "temperature": 475.0
                },
                {
                    "description": "This planet was discovered by Rowe et al. 2014. The discovery was made with a space based telescope (0.95 m Kepler Telescope). The parameters listed here have been imported into the Open Exoplanet Catalogue from the NASA Exoplanet Archive.",
                    "discoverymethod": "transit",
                    "discoveryyear": "2014",
                    "istransiting": "1",
                    "lastupdate": "21/06/17",
                    "mass": 6.01705497355528e+25,
                    "name": "Kepler-324 c",
                    "orbit": {
                        "eccentricity": 0.0,
                        "inclination": 1.5664330036649108,
                        "period": 4476004.876800001,
                        "semiMajorAxis": 38895446382.0,
                        "transitTime": 299937642.3360005
                    },
                    "radius": 20089252.000000004,
                    "temperature": 410.0
                }
            ],
            "radius": 584388000.0,
            "temperature": 5194.0
        }
    ]
}