{
    "declination": -0.30108160102506204,
    "distance": 160.26,
    "rightascension": 5.825070150652101,
    "stars": [
        {
            "magH": 10.615,
            "magJ": 11.23,
            "magK": 10.471,
            "magV": 13.546,
            "mass": 1.3918869094886355e+30,
            "name": "K2-55",
            "planets": [
                {
                    "description": "This planet was discovered by Crossfield et al. 2016. The discovery was made with a space based telescope (0.95 m Kepler Telescope). The parameters listed here are those reported by Crossfield et al. 2016 and were imported into the Open Exoplanet Catalogue from the NASA Exoplanet Archive.",
                    "discoverymethod": "transit",
                    "discoveryyear": "2016",
                    "istransiting": "1",
                    "lastupdate": "16/07/18",
                    "name": "K2-55 b",
                    "orbit": {
                        "period": 246175.89119999998,
                        "semiMajorAxis": 5214981772.602,
                        "transitTime": 469922945.47198266
                    },
                    "radius": 24378772.0
                }
            ],
            "radius": 438291000.0,
            "temperature": 4456.0
        }
    ]
}