{
    "declination": -0.8100460909450571,
    "distance": 840.0,
    "rightascension": 3.3781291931366932,
    "stars": [
        {
            "age": 2.3,
            "magB": 13.24,
            "magH": 11.651,
            "magJ": 11.831,
            "magK": 11.55,
            "magR": 12.75,
            "magV": 12.77,
            "mass": 2.8135999670377424e+30,
            "metallicity": 0.09,
            "name": "HATS-27",
            "planets": [
                {
                    "description": "Data for this planet was imported from the exoplanet.eu database.",
                    "discoverymethod": "transit",
                    "discoveryyear": "2016",
                    "istransiting": "1",
                    "lastupdate": "16/07/28",
                    "mass": 1.0060060365881068e+27,
                    "name": "HATS-27 b",
                    "orbit": {
                        "eccentricity": 0.29,
                        "inclination": 1.5236724369910497,
                        "period": 400640.08320000005,
                        "semiMajorAxis": 9140429899.77
                    },
                    "radius": 107238000.0
                }
            ],
            "radius": 1210518000.0,
            "spectraltype": "F",
            "temperature": 6438.0
        }
    ]
}