{
    "declination": 0.7341313933051613,
    "distance": 58.34,
    "rightascension": 0.6851807105216695,
    "stars": [
        {
            "age": 3.3,
            "magB": 7.92,
            "magH": 5.922,
            "magJ": 6.166,
            "magK": 5.853,
            "magV": 7.291,
            "mass": 2.6644692267353885e+30,
            "metallicity": 0.37,
            "name": "HD 16175",
            "planets": [
                {
                    "description": "HD 16175 b is an eccentric giant planet whose orbit crosses the habitable zone.",
                    "discoverymethod": "RV",
                    "discoveryyear": "2007",
                    "lastupdate": "17/11/27",
                    "mass": 9.054054329292961e+27,
                    "name": "HD 16175 b",
                    "orbit": {
                        "eccentricity": 0.637,
                        "meanAnomalyAtEpoch": 1.7377545861623014,
                        "periapsisArgument": 3.86590429316744,
                        "period": 86002560.0,
                        "semiMajorAxis": 321336226263.60004
                    }
                }
            ],
            "radius": 1300959000.0,
            "spectraltype": "G0",
            "temperature": 6022.0
        }
    ]
}