{
    "declination": -0.21109757302871418,
    "distance": 195.149,
    "rightascension": 3.5412003302443282,
    "stars": [
        {
            "magH": 11.147,
            "magJ": 11.739,
            "magK": 10.994,
            "magV": 14.107,
            "mass": 1.6304960939724016e+30,
            "metallicity": -0.008,
            "name": "K2-377",
            "planets": [
                {
                    "description": "This planet was discovered by Christiansen et al. 2022. The discovery was made with a space based telescope (0.95 m Kepler Telescope). The parameters listed here have been imported into the Open Exoplanet Catalogue from the NASA Exoplanet Archive.",
                    "discoverymethod": "transit",
                    "discoveryyear": "2022",
                    "istransiting": "1",
                    "lastupdate": "22/03/01",
                    "mass": 2.0879370570696554e+25,
                    "name": "K2-377 b",
                    "orbit": {
                        "period": 1108705.104,
                        "transitTime": 491239546.55998796
                    },
                    "radius": 10795292.0
                }
            ],
            "radius": 480032999.99999994,
            "temperature": 4200.0
        }
    ]
}