{
    "declination": 0.7322189507165433,
    "distance": 55.0135,
    "rightascension": 3.7860554798886987,
    "stars": [
        {
            "magH": 7.815,
            "magI": 9.44522,
            "magJ": 8.266,
            "magK": 7.708,
            "magV": 9.91,
            "mass": 1.5907278965584408e+30,
            "metallicity": 0.08,
            "name": "TOI-1416",
            "planets": [
                {
                    "description": "This planet was discovered by Deeg et al. 2023. The discovery was made with a space based telescope (0.1 m TESS Telescope). The parameters listed here have been imported into the Open Exoplanet Catalogue from the NASA Exoplanet Archive.",
                    "discoverymethod": "transit",
                    "discoveryyear": "2023",
                    "istransiting": "1",
                    "lastupdate": "23/10/15",
                    "mass": 2.078446434082975e+25,
                    "name": "TOI-1416 b",
                    "orbit": {
                        "eccentricity": 0.0,
                        "inclination": 1.4957471689591404,
                        "period": 92426.98752,
                        "semiMajorAxis": 2842359543.2999997,
                        "transitTime": 621644725.4400104
                    },
                    "radius": 10366340.0,
                    "temperature": 1517.0
                }
            ],
            "radius": 549603000.0,
            "spectraltype": "G9V",
            "temperature": 4884.0
        }
    ]
}