{
    "declination": -0.5243114517095299,
    "distance": 7100.0,
    "rightascension": 4.681845718474788,
    "stars": [
        {
            "mass": 9.74320836642045e+29,
            "name": "KMT-2016-BLG-1836L",
            "planets": [
                {
                    "description": "This planet was discovered by Yang et al. 2020. This was a ground based discovery. The parameters listed here are those reported by Yang et al. 2020 and were imported into the Open Exoplanet Catalogue from the NASA Exoplanet Archive.",
                    "discoverymethod": "microlensing",
                    "discoveryyear": "2019",
                    "lastupdate": "20/03/19",
                    "mass": 4.1758741141393115e+27,
                    "name": "KMT-2016-BLG-1836L b",
                    "orbit": {
                        "semiMajorAxis": 523592547450.0
                    }
                }
            ]
        }
    ]
}