{
    "declination": 0.6746715667688413,
    "distance": 296.63,
    "rightascension": 5.0889437665024655,
    "stars": [
        {
            "magH": 10.782,
            "magJ": 11.065,
            "magK": 10.706,
            "name": "Kepler-1689",
            "planets": [
                {
                    "description": "This planet was discovered by Armstrong et al. 2020. The discovery was made with a space based telescope (0.95 m Kepler Telescope). The parameters listed here are those reported by Armstrong et al. 2020 and were imported into the Open Exoplanet Catalogue from the NASA Exoplanet Archive.",
                    "discoverymethod": "transit",
                    "discoveryyear": "2020",
                    "istransiting": "1",
                    "lastupdate": "20/09/03",
                    "name": "Kepler-1689 b",
                    "orbit": {
                        "period": 732931.2000000001
                    },
                    "radius": 6005328.0
                }
            ],
            "radius": 667872000.0,
            "temperature": 5806.0
        }
    ]
}