{
    "declination": 0.7405333080284037,
    "distance": 772.8,
    "rightascension": 5.098753280480222,
    "stars": [
        {
            "magH": 12.767,
            "magJ": 13.334,
            "magK": 12.719,
            "mass": 1.4913074030235383e+30,
            "metallicity": 0.34,
            "name": "Kepler-28",
            "planets": [
                {
                    "description": "This planet candidate was discovered with the Kepler spacecraft. Its host star gets periodically fainter whenever the planet is in front of the star. Because there are multiple phenomena that can create a signal that looks similar to a planetary transit, the candidates have to be confirmed with another method. For Kepler-28 the planetary nature of the companions has been confirmed by transit timing variations, caused by other planets in the system, and a stability analysis. However, the mass of the planets is not well constrained yet.",
                    "discoverymethod": "transit",
                    "discoveryyear": "2012",
                    "istransiting": "1",
                    "lastupdate": "12/01/26",
                    "name": "Kepler-28 b",
                    "orbit": {
                        "period": 510624.0,
                        "semiMajorAxis": 9275067983.4,
                        "transitTime": 296449001.2800157
                    },
                    "radius": 23454313.23752,
                    "temperature": 680.0
                },
                {
                    "description": "This planet candidate was discovered with the Kepler spacecraft. Its host star gets periodically fainter whenever the planet is in front of the star. Because there are multiple phenomena that can create a signal that looks similar to a planetary transit, the candidates have to be confirmed with another method. For Kepler-28 the planetary nature of the companions has been confirmed by transit timing variations, caused by other planets in the system, and a stability analysis. However, the mass of the planets is not well constrained yet.",
                    "discoverymethod": "transit",
                    "discoveryyear": "2012",
                    "istransiting": "1",
                    "lastupdate": "12/08/06",
                    "name": "Kepler-28 c",
                    "orbit": {
                        "period": 775872.0,
                        "semiMajorAxis": 12117427526.7,
                        "transitTime": 296976473.2800141
                    },
                    "radius": 22151081.28,
                    "temperature": 595.0
                }
            ],
            "radius": 486989999.99999994,
            "spectraltype": "K4V",
            "temperature": 4590.0
        }
    ]
}