{
    "declination": 0.7848441435329877,
    "distance": 353.6,
    "rightascension": 5.093709787996323,
    "stars": [
        {
            "age": 5.84,
            "magH": 11.035,
            "magJ": 11.34,
            "magK": 10.97,
            "mass": 2.1275985616469148e+30,
            "metallicity": 0.18,
            "name": "Kepler-406",
            "planets": [
                {
                    "description": "This planet has been discovered by the Kepler spacecraft. It was confirmed using a combination of high resolution imaging and spectroscopy and Doppler spectroscopy. This analysis pushes the false probability below 1 percent and puts contraints on the planet's size and mass.",
                    "discoverymethod": "transit",
                    "discoveryyear": "2014",
                    "istransiting": "1",
                    "lastupdate": "14/02/24",
                    "mass": 3.791503883178761e+25,
                    "name": "Kepler-406 b",
                    "orbit": {
                        "period": 209631.45599999998
                    },
                    "radius": 9316551.472
                },
                {
                    "description": "This planet has been discovered by the Kepler spacecraft. It was confirmed using a combination of high resolution imaging and spectroscopy and Doppler spectroscopy. This analysis pushes the false probability below 1 percent and puts contraints on the planet's size and mass.",
                    "discoverymethod": "transit",
                    "discoveryyear": "2014",
                    "istransiting": "1",
                    "lastupdate": "14/02/24",
                    "mass": 1.618151219228983e+25,
                    "name": "Kepler-406 c",
                    "orbit": {
                        "period": 399454.848
                    },
                    "radius": 5537841.812
                }
            ],
            "radius": 744399000.0,
            "temperature": 5538.0
        }
    ]
}