{
    "declination": 0.6564039385265026,
    "distance": 359.31,
    "rightascension": 5.085274313561021,
    "stars": [
        {
            "magH": 11.672,
            "magJ": 12.127,
            "magK": 11.585,
            "mass": 1.7418470467314926e+30,
            "name": "Kepler-261",
            "planets": [
                {
                    "description": "Kepler-261 b has been discovered by the Kepler spacecraft and was originally classified as a planet candidate. A new statistical analysis led by a team at NASA Ames Research Center has validated the planet with more than 99 percent confidence. Although many parameters of Kepler-261 b are still unknown, the object is highly unlikely to be a false positive.",
                    "discoverymethod": "transit",
                    "discoveryyear": "2014",
                    "istransiting": "1",
                    "lastupdate": "14/02/26",
                    "name": "Kepler-261 b",
                    "orbit": {
                        "period": 896938.0128,
                        "transitTime": 307283639.90400285
                    },
                    "radius": 14202600.72
                },
                {
                    "description": "Kepler-261 c has been discovered by the Kepler spacecraft and was originally classified as a planet candidate. A new statistical analysis led by a team at NASA Ames Research Center has validated the planet with more than 99 percent confidence. Although many parameters of Kepler-261 c are still unknown, the object is highly unlikely to be a false positive.",
                    "discoverymethod": "transit",
                    "discoveryyear": "2014",
                    "istransiting": "1",
                    "lastupdate": "14/02/26",
                    "name": "Kepler-261 c",
                    "orbit": {
                        "period": 2122922.1312,
                        "transitTime": 295865920.51199824
                    },
                    "radius": 13030131.92
                }
            ],
            "radius": 552385800.0,
            "temperature": 5098.0
        }
    ]
}