{
    "declination": -0.5022572773558571,
    "distance": 3860.0,
    "rightascension": 4.718861243027501,
    "stars": [
        {
            "mass": 1.5111915017305188e+30,
            "name": "KMT-2019-BLG-1715",
            "planets": [
                {
                    "description": "The parameters listed here were imported into the Open Exoplanet Catalogue from the exoplanet.eu website.",
                    "discoverymethod": "microlensing",
                    "discoveryyear": "2021",
                    "lastupdate": "21/04/02",
                    "mass": 4.859198969180289e+27,
                    "name": "KMT-2019-BLG-1715 b",
                    "orbit": {
                        "semiMajorAxis": 496664930724.0
                    }
                }
            ]
        }
    ]
}