{
    "declination": 0.02489604597814073,
    "distance": 380.0,
    "rightascension": 5.089179575028821,
    "stars": [
        {
            "magB": 16.096,
            "magH": 11.641,
            "magI": 13.26,
            "magJ": 12.154,
            "magK": 11.463,
            "magR": 14.267,
            "magV": 14.797,
            "mass": 1.749800686214285e+30,
            "metallicity": 0.3,
            "name": "CoRoT-8",
            "planets": [
                {
                    "discoverymethod": "transit",
                    "discoveryyear": "2010",
                    "istransiting": "1",
                    "lastupdate": "10/06/14",
                    "mass": 4.175874114139311e+26,
                    "name": "CoRoT-8 b",
                    "orbit": {
                        "eccentricity": 0.0,
                        "inclination": 1.5428710587629875,
                        "period": 536741.856,
                        "semiMajorAxis": 9424665854.1,
                        "transitTime": 232802640.00000805
                    },
                    "radius": 40750440.0,
                    "temperature": 783.1
                }
            ],
            "radius": 535689000.0,
            "spectraltype": "K1V",
            "temperature": 5080.0
        }
    ]
}