{
    "declination": 0.7566826490653304,
    "distance": 1373.83,
    "rightascension": 5.2011538929952685,
    "stars": [
        {
            "magH": 14.066,
            "magI": 15.503,
            "magJ": 14.397,
            "magK": 13.978,
            "magV": 15.875,
            "mass": 1.869105278456168e+30,
            "metallicity": -0.24,
            "name": "Kepler-1954",
            "planets": [
                {
                    "description": "This planet was discovered by Valizadegan et al. 2022. The discovery was made with a space based telescope (0.95 m Kepler Telescope). The parameters listed here have been imported into the Open Exoplanet Catalogue from the NASA Exoplanet Archive.",
                    "discoverymethod": "transit",
                    "discoveryyear": "2021",
                    "istransiting": "1",
                    "lastupdate": "22/02/01",
                    "mass": 2.3346932547233424e+25,
                    "name": "Kepler-1954 b",
                    "orbit": {
                        "eccentricity": 0.0,
                        "inclination": 1.5489797111449675,
                        "period": 508328.35199999996,
                        "semiMajorAxis": 9349866918.75,
                        "transitTime": 295958918.0159837
                    },
                    "radius": 11510212.0,
                    "temperature": 949.0
                }
            ],
            "radius": 591345000.0,
            "temperature": 5840.0
        }
    ]
}