{
    "declination": -0.09498929583037298,
    "distance": 604.0,
    "rightascension": 3.643789569218283,
    "stars": [
        {
            "age": 2.4,
            "magB": 11.75,
            "magH": 9.755,
            "magJ": 10.024,
            "magK": 9.72,
            "magV": 11.15,
            "mass": 3.1814557931168816e+30,
            "metallicity": 0.2,
            "name": "EPIC 212803289",
            "planets": [
                {
                    "description": "Data for this planet was imported from the exoplanet.eu database.",
                    "discoverymethod": "transit",
                    "discoveryyear": "2016",
                    "istransiting": "1",
                    "lastupdate": "16/11/09",
                    "mass": 1.841180859415969e+27,
                    "name": "K2-99 b",
                    "orbit": {
                        "eccentricity": 0.19,
                        "inclination": 1.530653753999027,
                        "period": 1576713.5999999999,
                        "semiMajorAxis": 23786061441.3
                    },
                    "radius": 92224680.0
                }
            ],
            "radius": 2156670000.0,
            "spectraltype": "G0 IV",
            "temperature": 5990.0
        }
    ]
}