{
    "declination": -0.519703271490645,
    "distance": 1431.0,
    "rightascension": 1.7552997580511713,
    "stars": [
        {
            "magH": 12.242,
            "magJ": 12.439,
            "magK": 12.147,
            "magV": 13.377,
            "mass": 3.1019193982889596e+30,
            "metallicity": 0.01,
            "name": "HATS-40",
            "planets": [
                {
                    "description": "This planet was discovered by Bento et al. 2018. This was a ground based discovery. The parameters listed here are those reported by Bento et al. 2018 and were imported into the Open Exoplanet Catalogue from the NASA Exoplanet Archive.",
                    "discoverymethod": "transit",
                    "discoveryyear": "2018",
                    "istransiting": "1",
                    "lastupdate": "18/04/12",
                    "mass": 3.01801810976432e+27,
                    "name": "HATS-40 b",
                    "orbit": {
                        "eccentricity": 0.312,
                        "inclination": 1.4974924982111346,
                        "period": 282033.23904,
                        "semiMajorAxis": 7475405598.879,
                        "transitTime": 468130406.39999807
                    },
                    "radius": 112957360.0,
                    "temperature": 2101.0
                }
            ],
            "radius": 1572281999.9999998,
            "temperature": 6460.0
        }
    ]
}