{
    "declination": 0.7404435733793534,
    "distance": 1216.22,
    "rightascension": 5.16209324980271,
    "stars": [
        {
            "magH": 14.08,
            "magJ": 14.537,
            "magK": 13.97,
            "mass": 1.6583338321621744e+30,
            "name": "Kepler-292",
            "planets": [
                {
                    "description": "Kepler-292 f has been discovered by the Kepler spacecraft and was originally classified as a planet candidate. A new statistical analysis led by a team at NASA Ames Research Center has validated the planet with more than 99 percent confidence. Although many parameters of Kepler-292 f are still unknown, the object is highly unlikely to be a false positive.",
                    "discoverymethod": "transit",
                    "discoveryyear": "2014",
                    "istransiting": "1",
                    "lastupdate": "14/02/26",
                    "name": "Kepler-292 f",
                    "orbit": {
                        "period": 1800078.0768000002,
                        "transitTime": 300199607.1360111
                    },
                    "radius": 15310726.719999999
                },
                {
                    "description": "Kepler-292 d has been discovered by the Kepler spacecraft and was originally classified as a planet candidate. A new statistical analysis led by a team at NASA Ames Research Center has validated the planet with more than 99 percent confidence. Although many parameters of Kepler-292 d are still unknown, the object is highly unlikely to be a false positive.",
                    "discoverymethod": "transit",
                    "discoveryyear": "2014",
                    "istransiting": "1",
                    "lastupdate": "14/02/26",
                    "name": "Kepler-292 d",
                    "orbit": {
                        "period": 609610.6656,
                        "transitTime": 299843400.6719962
                    },
                    "radius": 14528604.24
                },
                {
                    "description": "Kepler-292 e has been discovered by the Kepler spacecraft and was originally classified as a planet candidate. A new statistical analysis led by a team at NASA Ames Research Center has validated the planet with more than 99 percent confidence. Although many parameters of Kepler-292 e are still unknown, the object is highly unlikely to be a false positive.",
                    "discoverymethod": "transit",
                    "discoveryyear": "2014",
                    "istransiting": "1",
                    "lastupdate": "14/02/26",
                    "name": "Kepler-292 e",
                    "orbit": {
                        "period": 1034986.464,
                        "transitTime": 299589096.9599828
                    },
                    "radius": 17395433.44
                },
                {
                    "description": "Kepler-292 c has been discovered by the Kepler spacecraft and was originally classified as a planet candidate. A new statistical analysis led by a team at NASA Ames Research Center has validated the planet with more than 99 percent confidence. Although many parameters of Kepler-292 c are still unknown, the object is highly unlikely to be a false positive.",
                    "discoverymethod": "transit",
                    "discoveryyear": "2014",
                    "istransiting": "1",
                    "lastupdate": "14/02/26",
                    "name": "Kepler-292 c",
                    "orbit": {
                        "period": 321004.944,
                        "transitTime": 298796427.0720184
                    },
                    "radius": 9577068.32
                },
                {
                    "description": "Kepler-292 b has been discovered by the Kepler spacecraft and was originally classified as a planet candidate. A new statistical analysis led by a team at NASA Ames Research Center has validated the planet with more than 99 percent confidence. Although many parameters of Kepler-292 b are still unknown, the object is highly unlikely to be a false positive.",
                    "discoverymethod": "transit",
                    "discoveryyear": "2014",
                    "istransiting": "1",
                    "lastupdate": "14/02/26",
                    "name": "Kepler-292 b",
                    "orbit": {
                        "period": 222983.45280000003,
                        "transitTime": 298949368.89600456
                    },
                    "radius": 8599772.68
                }
            ],
            "radius": 574648200.0,
            "temperature": 5299.0
        }
    ]
}