{
    "declination": -0.5252229014300158,
    "distance": 4600.0,
    "rightascension": 4.699153566890399,
    "stars": [
        {
            "mass": 1.5509596991444798e+30,
            "name": "KMT-2021-BLG-0171L",
            "planets": [
                {
                    "description": "The parameters listed here were imported into the Open Exoplanet Catalogue from the exoplanet.eu website.",
                    "discoverymethod": "microlensing",
                    "discoveryyear": "2022",
                    "lastupdate": "22/05/26",
                    "mass": 6.681398582622898e+25,
                    "name": "KMT-2021-BLG-0171L b",
                    "orbit": {
                        "semiMajorAxis": 523592547450.0
                    }
                }
            ]
        }
    ]
}