{
    "declination": 0.20925439964922565,
    "distance": 841.0,
    "rightascension": 5.513590591104581,
    "stars": [
        {
            "age": 5.46,
            "magB": 13.81,
            "magH": 11.604,
            "magI": 12.46,
            "magJ": 11.892,
            "magK": 11.528,
            "magR": 13.02,
            "magV": 13.16,
            "mass": 2.4099527632860378e+30,
            "metallicity": 0.1,
            "name": "HAT-P-65",
            "planets": [
                {
                    "description": "Data for this planet was imported from the exoplanet.eu database.",
                    "discoverymethod": "transit",
                    "discoveryyear": "2016",
                    "istransiting": "1",
                    "lastupdate": "16/09/12",
                    "mass": 1.0003116627960987e+27,
                    "name": "HAT-P-65 b",
                    "orbit": {
                        "eccentricity": 0.3,
                        "inclination": 1.4695672301792255,
                        "period": 225111.32928,
                        "semiMajorAxis": 5910611871.357
                    },
                    "radius": 135119880.0
                }
            ],
            "radius": 1294002000.0,
            "temperature": 5835.0
        }
    ]
}