{
    "declination": 0.7660136034584631,
    "distance": 476.47,
    "rightascension": 4.928668654128731,
    "stars": [
        {
            "magH": 11.222,
            "magJ": 11.53,
            "magK": 11.167,
            "mass": 2.1554362998366873e+30,
            "name": "Kepler-139",
            "planets": [
                {
                    "description": "Kepler-139 b has been discovered by the Kepler spacecraft and was originally classified as a planet candidate. A new statistical analysis led by a team at NASA Ames Research Center has validated the planet with more than 99 percent confidence. Although many parameters of Kepler-139 b are still unknown, the object is highly unlikely to be a false positive.",
                    "discoverymethod": "transit",
                    "discoveryyear": "2014",
                    "istransiting": "1",
                    "lastupdate": "14/02/26",
                    "name": "Kepler-139 b",
                    "orbit": {
                        "period": 1362618.2016,
                        "transitTime": 300102262.84799874
                    },
                    "radius": 19154136.64
                },
                {
                    "description": "Kepler-139 c has been discovered by the Kepler spacecraft and was originally classified as a planet candidate. A new statistical analysis led by a team at NASA Ames Research Center has validated the planet with more than 99 percent confidence. Although many parameters of Kepler-139 c are still unknown, the object is highly unlikely to be a false positive.",
                    "discoverymethod": "transit",
                    "discoveryyear": "2014",
                    "istransiting": "1",
                    "lastupdate": "14/02/26",
                    "name": "Kepler-139 c",
                    "orbit": {
                        "period": 13571096.6592,
                        "transitTime": 325707493.82400066
                    },
                    "radius": 22020965.84
                }
            ],
            "radius": 904410000.0,
            "temperature": 5594.0
        }
    ]
}