{
    "declination": 0.6525252778157578,
    "distance": 423.348,
    "rightascension": 4.996659482303266,
    "stars": [
        {
            "magH": 12.193,
            "magI": 13.847,
            "magJ": 12.729,
            "magK": 12.146,
            "magV": 14.381,
            "mass": 1.5907278965584408e+30,
            "metallicity": 0.0,
            "name": "Kepler-1854",
            "planets": [
                {
                    "description": "This planet was discovered by Valizadegan et al. 2022. The discovery was made with a space based telescope (0.95 m Kepler Telescope). The parameters listed here have been imported into the Open Exoplanet Catalogue from the NASA Exoplanet Archive.",
                    "discoverymethod": "transit",
                    "discoveryyear": "2021",
                    "istransiting": "1",
                    "lastupdate": "22/02/01",
                    "mass": 4.308742835952835e+25,
                    "name": "Kepler-1854 b",
                    "orbit": {
                        "eccentricity": 0.0,
                        "inclination": 1.568876464617703,
                        "period": 3441407.079744,
                        "semiMajorAxis": 31699788801.33,
                        "transitTime": 297573773.7599999
                    },
                    "radius": 16514652.0,
                    "temperature": 420.0
                }
            ],
            "radius": 528732000.0,
            "temperature": 5026.0
        }
    ]
}