{
    "declination": -0.48924536296855825,
    "distance": 8200.0,
    "rightascension": 4.706499221379729,
    "stars": [
        {
            "mass": 1.988409870698051e+29,
            "name": "OGLE-2015-BLG-0051L",
            "planets": [
                {
                    "description": "OGLE-2015-BLG-0051Lb/KMT-2015-BLG-0048Lb is a giant planet orbiting a low-mass star in the Galactic bulge.",
                    "discoverymethod": "microlensing",
                    "discoveryyear": "2015",
                    "lastupdate": "18/09/20",
                    "mass": 1.3666497100819564e+27,
                    "name": "OGLE-2015-BLG-0051L b",
                    "orbit": {
                        "separationMeters": 109206445611.0
                    }
                }
            ]
        }
    ]
}