{
    "declination": 1.2942577023061979,
    "distance": 40.14,
    "rightascension": 3.886435604722969,
    "stars": [
        {
            "age": 2.95,
            "magB": 3.55,
            "magI": 0.21,
            "magR": 0.97,
            "magV": 2.08,
            "mass": 2.783773818977271e+30,
            "metallicity": -0.27,
            "name": "beta Ursae Minoris",
            "planets": [
                {
                    "description": "This planet is orbiting the brighest star in the bowl of the Little Dipper. The star is K giant, 130 times more luminous than the Sun and about 130 light years away. The planet was found using data collected from the Bohyunsan Observatory.",
                    "discoverymethod": "RV",
                    "discoveryyear": "2014",
                    "lastupdate": "15/11/26",
                    "mass": 1.1578560043749906e+28,
                    "name": "beta Ursae Minoris b",
                    "orbit": {
                        "eccentricity": 0.19,
                        "meanAnomalyAtEpoch": 0.7687067607267987,
                        "periapsisArgument": 5.365142120630568,
                        "period": 45126719.99999999,
                        "semiMajorAxis": 209437018980.0
                    }
                }
            ],
            "radius": 26645309999.999996,
            "spectraltype": "K4IIIvar",
            "temperature": 4126.0
        }
    ]
}