{
    "declination": -0.5096070527614777,
    "distance": 8500.0,
    "rightascension": 4.708243823411203,
    "stars": [
        {
            "mass": 2.1872508577678563e+30,
            "name": "SWEEPS-11",
            "planets": [
                {
                    "discoverymethod": "transit",
                    "discoveryyear": "2006",
                    "istransiting": "1",
                    "lastupdate": "14/05/23",
                    "mass": 1.841180859415969e+28,
                    "name": "SWEEPS-11",
                    "orbit": {
                        "inclination": 1.4660765716752369,
                        "period": 155174.4,
                        "semiMajorAxis": 4487936121.0
                    },
                    "radius": 80785959.99999999
                }
            ],
            "radius": 1008765000.0
        }
    ]
}