{
    "declination": 0.8451446568697125,
    "distance": 89.0,
    "rightascension": 4.9704566069880975,
    "stars": [
        {
            "magB": 9.34,
            "magH": 7.539,
            "magJ": 7.784,
            "magK": 7.486,
            "magV": 8.83,
            "mass": 2.1474826603538953e+30,
            "metallicity": -0.2,
            "name": "KOI-1612",
            "planets": [
                {
                    "discoverymethod": "transit",
                    "discoveryyear": "2014",
                    "istransiting": "1",
                    "lastupdate": "14/01/16",
                    "mass": 3.036999355737681e+25,
                    "name": "KOI-1612.01",
                    "orbit": {
                        "period": 212977.728,
                        "transitTime": 295589889.79198337
                    },
                    "radius": 5218916.0
                }
            ],
            "radius": 855711000.0,
            "temperature": 6104.0
        }
    ]
}