{
    "declination": 1.107478392733398,
    "distance": 116.99,
    "rightascension": 1.5998236538941566,
    "stars": [
        {
            "magH": 4.177,
            "magJ": 4.851,
            "magK": 4.143,
            "magV": 6.423,
            "mass": 3.976819741396102e+30,
            "metallicity": 0.14,
            "name": "HD 40956",
            "planets": [
                {
                    "description": "This planet was discovered by Jeong et al. 2018. This was a ground based discovery. The parameters listed here are those reported by Jeong et al. 2018 and were imported into the Open Exoplanet Catalogue from the NASA Exoplanet Archive.",
                    "discoverymethod": "RV",
                    "discoveryyear": "2017",
                    "lastupdate": "17/11/30",
                    "mass": 5.124936412807336e+27,
                    "name": "HD 40956 b",
                    "orbit": {
                        "eccentricity": 0.24,
                        "periapsisArgument": 5.910033913103199,
                        "period": 49991040.0,
                        "semiMajorAxis": 209437018980.0
                    }
                }
            ],
            "radius": 5955192000.0,
            "spectraltype": "K0",
            "temperature": 4869.0
        }
    ]
}