{
    "declination": 0.3541707047807551,
    "distance": 251.0,
    "rightascension": 0.26421320724347847,
    "stars": [
        {
            "magB": 9.11,
            "magH": 5.725,
            "magJ": 6.239,
            "magK": 5.621,
            "magV": 8.11,
            "mass": 3.797862853033277e+30,
            "metallicity": -0.02,
            "name": "HD 5891",
            "planets": [
                {
                    "description": "The star HD 5891 hosts a Jupiter-like planet. It was discovered as part of a Doppler survey at the Keck Observatory.",
                    "discoverymethod": "RV",
                    "discoveryyear": "2011",
                    "lastupdate": "11/08/23",
                    "mass": 1.4425746939753984e+28,
                    "name": "HD 5891 b",
                    "orbit": {
                        "eccentricity": 0.066,
                        "period": 15302304.000000002,
                        "semiMajorAxis": 113694381732.0
                    },
                    "temperature": 731.8
                }
            ],
            "radius": 6052589999.999999,
            "spectraltype": "G5D",
            "temperature": 4907.0
        }
    ]
}