{
    "declination": 1.2885358231282922,
    "distance": 86.0,
    "rightascension": 1.6544536593954398,
    "stars": [
        {
            "age": 1.88,
            "mass": 2.922962509926135e+30,
            "metallicity": -0.07,
            "name": "XO-6",
            "planets": [
                {
                    "description": "Data for this planet was imported from the exoplanet.eu database.",
                    "discoverymethod": "transit",
                    "discoveryyear": "2016",
                    "istransiting": "1",
                    "lastupdate": "16/12/09",
                    "mass": 3.606436734938496e+27,
                    "name": "XO-6 b",
                    "orbit": {
                        "eccentricity": 0.0,
                        "inclination": 1.5009831567151235,
                        "period": 325296.06048,
                        "semiMajorAxis": 12192226462.050001
                    },
                    "radius": 147988440.0
                }
            ],
            "radius": 1342701000.0,
            "spectraltype": "F5",
            "temperature": 6720.0
        }
    ]
}