{
    "declination": 0.8666097627234763,
    "distance": 109.0,
    "rightascension": 0.7259200913830532,
    "stars": [
        {
            "magB": 9.0,
            "magH": 5.007,
            "magJ": 5.53,
            "magK": 4.807,
            "magV": 7.73,
            "mass": 4.573342702605517e+30,
            "metallicity": 0.18,
            "name": "HD 17092",
            "planets": [
                {
                    "discoverymethod": "RV",
                    "discoveryyear": "2007",
                    "lastupdate": "07/05/07",
                    "mass": 8.731373147745832e+27,
                    "name": "HD 17092 b",
                    "orbit": {
                        "eccentricity": 0.166,
                        "period": 31095359.999999996,
                        "semiMajorAxis": 192981253203.0
                    },
                    "temperature": 513.6
                }
            ],
            "spectraltype": "K0III",
            "temperature": 4650.0
        }
    ]
}