{
    "declination": 1.3097629446119001,
    "distance": 209.309,
    "rightascension": 1.4823663113605172,
    "stars": [
        {
            "magH": 2.588,
            "magJ": 3.316,
            "magK": 2.288,
            "magV": 6.18839,
            "mass": 2.2667872525957778e+30,
            "metallicity": -0.16,
            "name": "HD 36384",
            "planets": [
                {
                    "description": "This planet was discovered by Lee et al. 2023. This was a ground based discovery. The parameters listed here have been imported into the Open Exoplanet Catalogue from the NASA Exoplanet Archive.",
                    "discoverymethod": "RV",
                    "discoveryyear": "2023",
                    "lastupdate": "23/10/15",
                    "mass": 1.2527622342417932e+28,
                    "name": "HD 36384 b",
                    "orbit": {
                        "eccentricity": 0.2,
                        "periapsisArgument": 3.448770601940795,
                        "period": 42336000.0,
                        "semiMajorAxis": 194477231910.0
                    },
                    "radius": 80785959.99999999
                }
            ],
            "radius": 26714880000.0,
            "spectraltype": "M0III",
            "temperature": 3940.0
        }
    ]
}