{
    "declination": 0.7730977542963406,
    "distance": 443.29,
    "rightascension": 4.910462811996354,
    "stars": [
        {
            "magH": 11.867,
            "magJ": 12.246,
            "magK": 11.837,
            "mass": 1.789568883628246e+30,
            "name": "Kepler-322",
            "planets": [
                {
                    "description": "Kepler-322 c has been discovered by the Kepler spacecraft and was originally classified as a planet candidate. A new statistical analysis led by a team at NASA Ames Research Center has validated the planet with more than 99 percent confidence. Although many parameters of Kepler-322 c are still unknown, the object is highly unlikely to be a false positive.",
                    "discoverymethod": "transit",
                    "discoveryyear": "2014",
                    "istransiting": "1",
                    "lastupdate": "14/02/26",
                    "name": "Kepler-322 c",
                    "orbit": {
                        "period": 374737.01759999996,
                        "transitTime": 295604604.57601994
                    },
                    "radius": 10880367.479999999
                },
                {
                    "description": "Kepler-322 b has been discovered by the Kepler spacecraft and was originally classified as a planet candidate. A new statistical analysis led by a team at NASA Ames Research Center has validated the planet with more than 99 percent confidence. Although many parameters of Kepler-322 b are still unknown, the object is highly unlikely to be a false positive.",
                    "discoverymethod": "transit",
                    "discoveryyear": "2014",
                    "istransiting": "1",
                    "lastupdate": "14/02/26",
                    "name": "Kepler-322 b",
                    "orbit": {
                        "period": 142895.9232,
                        "transitTime": 295547763.74399364
                    },
                    "radius": 6580123.68
                }
            ],
            "radius": 619173000.0,
            "temperature": 5388.0
        }
    ]
}