{
    "declination": 0.7825377626789021,
    "distance": 871.096,
    "rightascension": 5.074181189912681,
    "stars": [
        {
            "magH": 12.279,
            "magI": 13.589,
            "magJ": 12.464,
            "magK": 12.201,
            "magV": 13.393,
            "mass": 2.823542016391232e+30,
            "metallicity": 0.1,
            "name": "Kepler-1936",
            "planets": [
                {
                    "description": "This planet was discovered by Valizadegan et al. 2022. The discovery was made with a space based telescope (0.95 m Kepler Telescope). The parameters listed here have been imported into the Open Exoplanet Catalogue from the NASA Exoplanet Archive.",
                    "discoverymethod": "transit",
                    "discoveryyear": "2021",
                    "istransiting": "1",
                    "lastupdate": "22/02/01",
                    "mass": 6.073998711475362e+25,
                    "name": "Kepler-1936 b",
                    "orbit": {
                        "eccentricity": 0.0,
                        "inclination": 1.5468853160425742,
                        "period": 10934524.73088,
                        "semiMajorAxis": 82996898664.36,
                        "transitTime": 296714327.9039964
                    },
                    "radius": 20160743.999999996,
                    "temperature": 524.0
                }
            ],
            "radius": 1287045000.0,
            "temperature": 6501.0
        }
    ]
}