{
    "binaries": [
        {
            "binaries": [
                {
                    "planets": [
                        {
                            "description": "HW Virginis is an eclipsing binary (Algol type). The circumbinary planet HW Vir (AB) has been detected by timing variation. An additional object orbits the binary every 16 years. With almost 20 Jupiter masses it is classified as a brown dwarf.",
                            "discoverymethod": "timing",
                            "discoveryyear": "2008",
                            "lastupdate": "12/11/24",
                            "mass": 2.7143181741905525e+28,
                            "name": "HW Vir (AB) b",
                            "orbit": {
                                "eccentricity": 0.4,
                                "period": 400896000.0,
                                "semiMajorAxis": 701614013583.0
                            }
                        }
                    ],
                    "stars": [
                        {
                            "magB": 10.46,
                            "magH": 11.093,
                            "magJ": 10.974,
                            "magK": 11.122,
                            "magV": 4.22,
                            "mass": 9.643787872885547e+29,
                            "name": "HW Vir A",
                            "orbit": {
                                "period": 10082.88,
                                "semiMajorAxis": 598141654.3559309
                            },
                            "radius": 127313100.0,
                            "spectraltype": "sdB+M",
                            "temperature": 28488.0
                        },
                        {
                            "magV": 15.59,
                            "mass": 2.823542016391232e+29,
                            "name": "HW Vir B",
                            "radius": 121747499.99999999,
                            "spectraltype": "sdB+M",
                            "temperature": 3084.0
                        }
                    ]
                }
            ],
            "stars": [
                {
                    "mass": 3.702108987299942e+28,
                    "name": "HW Vir (AB) C",
                    "orbit": {
                        "period": 499824000.0,
                        "semiMajorAxis": 792868714710.0
                    }
                }
            ]
        }
    ],
    "declination": -0.15134348107162582,
    "distance": 181.0,
    "rightascension": 3.3350505700226973
}