{
    "declination": 1.0197291938791953,
    "distance": 481.0,
    "rightascension": 0.22492675480673813,
    "stars": [
        {
            "age": 1.3,
            "magB": 10.86,
            "magH": 7.246,
            "magJ": 7.734,
            "magK": 7.1,
            "magV": 9.86,
            "mass": 3.7183264582053556e+30,
            "metallicity": -0.08,
            "name": "TYC 3667-1280-1",
            "planets": [
                {
                    "description": "TYC 3667-1280-1 b is on the brink of engulfment by its host star, which is a former A-type star entering the red giant branch.",
                    "discoverymethod": "RV",
                    "discoveryyear": "2016",
                    "lastupdate": "16/04/11",
                    "mass": 1.0249872825614673e+28,
                    "name": "TYC 3667-1280-1 b",
                    "orbit": {
                        "eccentricity": 0.036,
                        "meanAnomalyAtEpoch": 2.6967275612113806,
                        "periapsisArgument": 4.1887902047863905,
                        "period": 2286835.2,
                        "semiMajorAxis": 31415552847.0
                    }
                }
            ],
            "radius": 4355082000.0,
            "temperature": 5130.0
        }
    ]
}