{
    "declination": 0.7957461487800979,
    "distance": 683.4,
    "rightascension": 5.02511562131599,
    "stars": [
        {
            "magH": 12.512,
            "magJ": 12.892,
            "magK": 12.427,
            "mass": 1.7995109329817363e+30,
            "name": "Kepler-192",
            "planets": [
                {
                    "description": "Kepler-192 b has been discovered by the Kepler spacecraft and was originally classified as a planet candidate. A new statistical analysis led by a team at NASA Ames Research Center has validated the planet with more than 99 percent confidence. Although many parameters of Kepler-192 b are still unknown, the object is highly unlikely to be a false positive.",
                    "discoverymethod": "transit",
                    "discoveryyear": "2014",
                    "istransiting": "1",
                    "lastupdate": "14/02/26",
                    "name": "Kepler-192 b",
                    "orbit": {
                        "period": 857670.8544,
                        "transitTime": 299305584.8640114
                    },
                    "radius": 17851552.400000002
                },
                {
                    "description": "Kepler-192 c has been discovered by the Kepler spacecraft and was originally classified as a planet candidate. A new statistical analysis led by a team at NASA Ames Research Center has validated the planet with more than 99 percent confidence. Although many parameters of Kepler-192 c are still unknown, the object is highly unlikely to be a false positive.",
                    "discoverymethod": "transit",
                    "discoveryyear": "2014",
                    "istransiting": "1",
                    "lastupdate": "14/02/26",
                    "name": "Kepler-192 c",
                    "orbit": {
                        "period": 1833701.7600000002,
                        "transitTime": 298846765.4400185
                    },
                    "radius": 18176841.0
                },
                {
                    "description": "This planet was discovered by the NASA Kepler spacecraft and is part of the May 10th 2016 data release. Although not many details are known about this particular system yet, it has a very low probability of being a false positive.",
                    "discoverymethod": "transit",
                    "discoveryyear": "2016",
                    "istransiting": "1",
                    "lastupdate": "16/05/10",
                    "name": "Kepler-192 d",
                    "orbit": {
                        "period": 559031.828256
                    },
                    "radius": 6505772.0
                }
            ],
            "radius": 700569899.9999999,
            "temperature": 5479.0
        }
    ]
}