{
    "binaries": [
        {
            "stars": [
                {
                    "magV": 19.41,
                    "mass": 1.3918869094886358e+29,
                    "name": "SCR 1845-6357 A",
                    "orbit": {
                        "period": 631138521.6
                    },
                    "spectraltype": "M8.5V"
                },
                {
                    "mass": 5.965229612094153e+28,
                    "name": "SCR 1845-6357 B",
                    "spectraltype": "T6"
                }
            ]
        }
    ],
    "declination": -1.1163707672173064,
    "distance": 4.0011481,
    "rightascension": 4.909123948110533
}