{
    "declination": 0.842893279097376,
    "distance": 1188.84,
    "rightascension": 5.073256412664101,
    "stars": [
        {
            "magH": 14.06,
            "magJ": 14.39,
            "magK": 14.12,
            "mass": 2.0480621668189925e+30,
            "name": "Kepler-286",
            "planets": [
                {
                    "description": "Kepler-286 b has been discovered by the Kepler spacecraft and was originally classified as a planet candidate. A new statistical analysis led by a team at NASA Ames Research Center has validated the planet with more than 99 percent confidence. Although many parameters of Kepler-286 b are still unknown, the object is highly unlikely to be a false positive.",
                    "discoverymethod": "transit",
                    "discoveryyear": "2014",
                    "istransiting": "1",
                    "lastupdate": "14/02/26",
                    "name": "Kepler-286 b",
                    "orbit": {
                        "period": 155200.4928,
                        "transitTime": 295646161.24801934
                    },
                    "radius": 8078596.0
                },
                {
                    "description": "Kepler-286 c has been discovered by the Kepler spacecraft and was originally classified as a planet candidate. A new statistical analysis led by a team at NASA Ames Research Center has validated the planet with more than 99 percent confidence. Although many parameters of Kepler-286 c are still unknown, the object is highly unlikely to be a false positive.",
                    "discoverymethod": "transit",
                    "discoveryyear": "2014",
                    "istransiting": "1",
                    "lastupdate": "14/02/26",
                    "name": "Kepler-286 c",
                    "orbit": {
                        "period": 299643.408,
                        "transitTime": 295877074.752
                    },
                    "radius": 8925776.200000001
                },
                {
                    "description": "Kepler-286 d has been discovered by the Kepler spacecraft and was originally classified as a planet candidate. A new statistical analysis led by a team at NASA Ames Research Center has validated the planet with more than 99 percent confidence. Although many parameters of Kepler-286 d are still unknown, the object is highly unlikely to be a false positive.",
                    "discoverymethod": "transit",
                    "discoveryyear": "2014",
                    "istransiting": "1",
                    "lastupdate": "14/02/26",
                    "name": "Kepler-286 d",
                    "orbit": {
                        "period": 510997.50720000005,
                        "transitTime": 295659675.0720039
                    },
                    "radius": 8664830.4
                },
                {
                    "description": "Kepler-286 e has been discovered by the Kepler spacecraft and was originally classified as a planet candidate. A new statistical analysis led by a team at NASA Ames Research Center has validated the planet with more than 99 percent confidence. Although many parameters of Kepler-286 e are still unknown, the object is highly unlikely to be a false positive.",
                    "discoverymethod": "transit",
                    "discoveryyear": "2014",
                    "istransiting": "1",
                    "lastupdate": "14/02/26",
                    "name": "Kepler-286 e",
                    "orbit": {
                        "period": 2524719.3696,
                        "transitTime": 296164526.6879976
                    },
                    "radius": 11531659.6
                }
            ],
            "radius": 600389100.0,
            "temperature": 5580.0
        }
    ]
}