{
    "declination": -0.1557931975147717,
    "distance": 164.0,
    "rightascension": 0.005685410038371527,
    "stars": [
        {
            "age": 3.62,
            "magB": 10.363,
            "magH": 8.792,
            "magJ": 9.016,
            "magK": 8.805,
            "magV": 9.928,
            "mass": 3.002498904754057e+30,
            "name": "WASP-136",
            "planets": [
                {
                    "description": "Data for this planet was imported from the exoplanet.eu database.",
                    "discoverymethod": "transit",
                    "discoveryyear": "2016",
                    "istransiting": "1",
                    "lastupdate": "16/07/27",
                    "mass": 2.866168141977436e+27,
                    "name": "WASP-136 b",
                    "orbit": {
                        "inclination": 1.478293876439197,
                        "period": 450606.8448,
                        "semiMajorAxis": 9888419253.27
                    },
                    "radius": 98658959.99999999
                }
            ],
            "radius": 960065999.9999999,
            "temperature": 6260.0
        }
    ]
}