{
    "binaries": [
        {
            "stars": [
                {
                    "magV": 10.1,
                    "mass": 2.5650487332004857e+30,
                    "metallicity": 0.26,
                    "name": "WASP-94 A",
                    "orbit": {
                        "separationArcsec": 15.0,
                        "separationMeters": 403914250890000.0
                    },
                    "planets": [
                        {
                            "description": "WASP-94 A b is a Hot Jupiter orbiting an F-star in a binary system. The other binary component WASP-94 B also hosts a Hot Jupiter, making this system an ideal test-bed to explore planet formation scenarios. The planet's orbit is misaligned with the host star rotation axis.",
                            "discoverymethod": "transit",
                            "discoveryyear": "2014",
                            "istransiting": "1",
                            "lastupdate": "14/09/29",
                            "mass": 8.579523179958948e+26,
                            "name": "WASP-94 A b",
                            "orbit": {
                                "eccentricity": 0.13,
                                "inclination": 1.5481070465189704,
                                "period": 341296.47648,
                                "semiMajorAxis": 8227882888.5,
                                "transitTime": 420932279.2320147
                            },
                            "radius": 122966240.0,
                            "spinorbitalignment": 2.6354471705114375
                        }
                    ],
                    "radius": 946152000.0000001,
                    "spectraltype": "F8",
                    "temperature": 6170.0
                },
                {
                    "magV": 10.5,
                    "mass": 2.465628239665583e+30,
                    "metallicity": 0.23,
                    "name": "WASP-94 B",
                    "planets": [
                        {
                            "description": "WASP-95 B b is a Hot Jupiter orbiting an F-star in a binary system. The planet was confirmed using radial velocity measurements. No transit has been detected yet. The other binary component, WASP-94 A also hosts a hot Jupiter.",
                            "discoverymethod": "RV",
                            "discoveryyear": "2014",
                            "istransiting": "1",
                            "lastupdate": "14/09/29",
                            "mass": 1.1730410011536792e+27,
                            "name": "WASP-94 B b",
                            "orbit": {
                                "eccentricity": 0.0,
                                "period": 173524.89599999998,
                                "semiMajorAxis": 5011528668.450001
                            }
                        }
                    ],
                    "radius": 939195000.0000001,
                    "spectraltype": "F9",
                    "temperature": 6040.0
                }
            ]
        }
    ],
    "declination": -0.5957778364418865,
    "distance": 180.0,
    "rightascension": 5.47655230454954
}