datetime_jd,incl,Omega,w,e,a,M
#Sun
191635200.0,0.014991020457743639,2.0894811818570815,6.281147364070282,1.032729970828648,-4497563607194.939,0.0007433975844750655
191721600.0,0.014990645354089373,2.0894764231279477,6.28115044442004,1.03268294623257,-4504034949831.165,0.0008459400374689725
191808000.0,0.015044922826220471,2.0902839352773643,6.28050511024518,1.032519180898668,-4526804670839.836,0.0009422879871332608
191894400.0,0.015044655696593138,2.090279663723086,6.280508122290533,1.032489536820771,-4530935256327.858,0.0010442141501605798
191980800.0,0.015188891822661442,2.0928880616641,6.278335794293625,1.032154572649074,-4578425137859.347,0.0011279746966938314
192067200.0,0.015188685976924911,2.09288410709023,6.278338828740259,1.032133911240422,-4581369304988.246,0.0012283998438719912
192153600.0,0.01518856845262932,2.0928816613021306,6.278340643135802,1.032116662525411,-4583830276435.915,0.0013288395786234947
192240000.0,0.015188446712818422,2.0928789026402494,6.278342928475406,1.032101802696464,-4585952690278.568,0.0014292746534342526
192326400.0,0.015188364673942509,2.0928769086511863,6.2783444792865755,1.032089031525601,-4587778420196.9795,0.001529718022298454
192412800.0,0.015188295095000873,2.0928750943901258,6.278345924647326,1.032077888832469,-4589372641940.297,0.001630164111281536
192499200.0,0.015188235543372232,2.0928734352361547,6.278347279457796,1.032068093658245,-4590775090575.048,0.0017306133452539352
192585600.0,0.015188186448045789,2.0928719801868647,6.2783486395007175,1.032059366614091,-4592025594157.864,0.001831060303843835
192672000.0,0.015188147912032157,2.092870765213078,6.278349818577152,1.032051646500922,-4593132513740.165,0.001931515232277962
192758400.0,0.015188112850027968,2.092869596677253,6.2783508446248115,1.03204474755314,-4594122108285.982,0.002031975520934336
192844800.0,0.015188113938394452,2.092869638251954,6.278350855496805,1.032038534598118,-4595013955646.282,0.0021324379803286256
192931200.0,0.015188110092188145,2.0928694870198337,6.278351053785644,1.032032872052534,-4595827171876.728,0.0022328990974129757
193017600.0,0.01518808633397314,2.092868560659628,6.278351952350669,1.032027826770032,-4596551967990.786,0.0023333742525356994
193104000.0,0.015188065155916572,2.092867693863637,6.278352824581765,1.032023254164874,-4597209164225.271,0.0024338552624444394
193190400.0,0.015188046136246289,2.092866878030179,6.278353677347034,1.032019100625198,-4597806401088.318,0.002534342476525384
193276800.0,0.015188028926773414,2.092866105524763,6.2783545168714046,1.032015320593173,-4598350175559.14,0.002634836222442678
193363200.0,0.015188013239637718,2.0928653695922184,6.278355348742372,1.03201187503766,-4598846057349.264,0.0027353368012254108
193449600.0,0.01518802847620826,2.0928661366816548,6.27835495340393,1.032008683337336,-4599306003727.526,0.0028358370334325843
193536000.0,0.015188015162723459,2.0928654568864284,6.2783557840756465,1.032005809999318,-4599719916116.719,0.002936351816474114
193622400.0,0.015188002778852206,2.09286479822353,6.278356619772977,1.032003182410374,-4600098611023.5205,0.0030368741316550976
193708800.0,0.015187991196367824,2.092864157119501,6.278357463199059,1.032000777912082,-4600445328850.449,0.0031374041354434593
193795200.0,0.01518798032880439,2.0928635316482826,6.278358315691544,1.031998578226937,-4600762683334.547,0.003237942218073469
193881600.0,0.015187970095343353,2.0928629196930046,6.278359178347109,1.031996565005123,-4601053301106.496,0.0033384884164352475
193968000.0,0.015187960428264256,2.0928623194848024,6.278360051623732,1.031994720939433,-4601319660851.522,0.003439042590683505
194054400.0,0.015187951287970007,2.092861730648545,6.278360934740236,1.031993031783512,-4601563802681.236,0.0035396047800717026
194140800.0,0.015187942649005234,2.0928611535286925,6.278361826138153,1.031991484819043,-4601787548178.858,0.0036401750156383203
194227200.0,0.015187934496918017,2.092860589101899,6.278362723597382,1.031990068707239,-4601992521504.787,0.003740753330136
194313600.0,0.0151879268252317,2.092860038865343,6.278363624381239,1.031988773358547,-4602180167947.678,0.0038413397669901372
194400000.0,0.015187919632644266,2.092859504709191,6.278364525397807,1.031987589812501,-4602351771074.932,0.003941934387427752
194486400.0,0.015187912920578889,2.092858988784218,6.2783654233623345,1.031986510123005,-4602508469138.438,0.004042537275243106
194572800.0,0.015187906715535495,2.0928584953128784,6.278366314375638,1.031985531116313,-4602650715330.907,0.004143149279828105
194659200.0,0.015187900994189442,2.0928580247061244,6.278367195739694,1.031984642575808,-4602779974641.439,0.004243769810033743
194745600.0,0.015187895755953446,2.0928575791949346,6.278368064391597,1.031983838943543,-4602897043247.405,0.004344399019467982
194832000.0,0.015187890997793494,2.092857160872432,6.278368917518934,1.03198311526551,-4603002630851.57,0.0044450370819615614
194918400.0,0.0151878688522998,2.0928551225674816,6.278371326725646,1.031982411299808,-4603105256580.183,0.004545672815702451
195004800.0,0.015187865034355104,2.092854764133435,6.278372141541974,1.031981834655255,-4603189727160.659,0.00464632890564426
195091200.0,0.015187847574468548,2.0928530858213477,6.278374203120102,1.031981264064569,-4603273178145.636,0.00474698127798906
195177600.0,0.01518784465336616,2.0928527931868213,6.278374971934655,1.031980819904168,-4603338616663.79,0.004847656197713492
195264000.0,0.015193707672623798,2.093463237849298,6.277803601860999,1.031949793328875,-4607931958373.164,0.004940983913393954
195350400.0,0.015193698461752071,2.0934622551870343,6.277805048559308,1.03194946780541,-4607980363693.143,0.005041529871225554
195436800.0,0.01519368901218131,2.0934612164447186,6.277806577842517,1.031949208351285,-4608019292280.501,0.005142088366410891
195523200.0,0.015193682417021107,2.0934604684087033,6.277807840760637,1.031949015332525,-4608048683609.198,0.0052426604329478
195609600.0,0.015193678314503694,2.0934599876920914,6.277808809859231,1.031948838146845,-4608075733254.782,0.005343234718987982
195696000.0,0.015193675406992131,2.0934596356018016,6.2778096886874435,1.031948740763112,-4608091342460.205,0.005443827278114904
195782400.0,0.015193675297512244,2.093459621121779,6.277810245200099,1.031948692151347,-4608099945474.705,0.00554443134831631
195868800.0,0.015193677147397352,2.0934598636086656,6.277810547206359,1.031948686758585,-4608102309520.153,0.005645046247345797
195955200.0,0.015193677270946584,2.093459878472413,6.27781104516543,1.03194870110089,-4608101739919.828,0.005745666535262235
196041600.0,0.015193675834997703,2.093459680374529,6.277811792662509,1.031948781824281,-4608091666527.581,0.005846304731155771
196128000.0,0.015193674686185966,2.0934595166700696,6.277812512623698,1.031948902562206,-4608075826340.491,0.005946954660867616
196214400.0,0.015193675018507975,2.0934595674999934,6.277813113720939,1.031949124393416,-4608045623513.347,0.00604763346064774
196300800.0,0.015193677545262359,2.093459954411516,6.277813572678536,1.031949516855112,-4607991269360.858,0.006148361740464153
196387200.0,0.01519367786917416,2.09346000471548,6.277814176163073,1.0319498040137,-4607951627167.383,0.006249064354814483
196473600.0,0.015193675972924071,2.093459694206942,6.27781498993093,1.031950010116203,-4607923297697.617,0.006349746726729889
196560000.0,0.01519367435673446,2.0934594224071543,6.277815775929415,1.031950260356871,-4607888606877.476,0.006450444182047376
196646400.0,0.01519367313910815,2.0934592106064773,6.277816516107654,1.031950554034269,-4607847665558.51,0.006551157100793153
196732800.0,0.015193672073131633,2.0934590187479674,6.277817238233034,1.031950871056088,-4607803351953.785,0.006651879941920763
196819200.0,0.015193671148959935,2.0934588465785544,6.277817942389695,1.031951210537058,-4607755793093.767,0.006752612757918221
196905600.0,0.015193670359195595,2.0934586951072567,6.277818627692724,1.031951572281157,-4607705016960.351,0.006853355803108694
196992000.0,0.015193670137247829,2.093458650818043,6.2778192318324795,1.031951973291833,-4607648633055.693,0.006954114707606791
197078400.0,0.015193670198291135,2.0934586647763456,6.277819777885602,1.031952412909063,-4607586648020.862,0.007054890052954844
197164800.0,0.015193669450627348,2.093458506686949,6.277820418969315,1.031952808582133,-4607530795591.487,0.007155655446059476
197251200.0,0.015193669106649235,2.0934584300820864,6.277820984542672,1.031953243148543,-4607469315375.488,0.007256437656344594
197337600.0,0.015193668733958908,2.093458343908553,6.277821553800437,1.031953690849789,-4607405911494.5205,0.00735722846566092
197424000.0,0.01519366834143819,2.0934582510498,6.277822124538754,1.03195415217913,-4607340513688.925,0.0074580282287138875
197510400.0,0.015193668728456587,2.09345834879874,6.277822544885081,1.031954671018881,-4607266900401.372,0.007558852228769563
197596800.0,0.015193670076403246,2.0934586995330853,6.2778227586829045,1.031955244912474,-4607185452641.82,0.0076597003205203795
197683200.0,0.015193674069643092,2.0934597721231665,6.277822394489683,1.03195594478671,-4607086209410.116,0.007760598046141486
197769600.0,0.0151936818395488,2.0934619572505486,6.277821189989515,1.031956866207062,-4606955746668.469,0.007861580988345938
197856000.0,0.015193683612857199,2.0934624788041387,6.277821317905411,1.031957561200726,-4606857013563.501,0.007962491513044012
197942400.0,0.015193685419551873,2.093463033511661,6.277821415936733,1.031958278297911,-4606755082431.598,0.008063416807798042
198028800.0,0.015193687251185254,2.0934636212068716,6.277821484189258,1.031959017203824,-4606649995224.089,0.008164357075050116
198115200.0,0.015193689925928346,2.093464517986869,6.2778211992267305,1.031959743457916,-4606546586072.51,0.008265299806945015
198201600.0,0.015193691765586126,2.093465164968383,6.277821212564338,1.031960524868967,-4606435338267.668,0.00836627038004531
198288000.0,0.015193694570204246,2.093466198222351,6.277820823093372,1.03196131023365,-4606323455217.746,0.008467249987141547
198374400.0,0.015193696408515884,2.093466910795229,6.2778207772078805,1.031962133495503,-4606206147236.708,0.008568251868081187
198460800.0,0.01519369823555357,2.0934676560992993,6.2778207017640515,1.031962977360826,-4606085855108.502,0.008669269759056906
198547200.0,0.015193700044484518,2.093468434087121,6.277820596813418,1.031963841650325,-4605962604346.9,0.008770303880235197
198633600.0,0.015193701828638656,2.093469244705648,6.277820462422305,1.031964726210446,-4605836416772.194,0.008871354459084605
198720000.0,0.015193703581499227,2.093470087893754,6.277820298674827,1.031965630912863,-4605707310586.276,0.008972421730763819
198806400.0,0.015193705392158495,2.093471012066732,6.277820004395277,1.031966538693052,-4605577553051.862,0.009073499400860609
198892800.0,0.015193706966028961,2.093471867512397,6.277819793123084,1.031967432493026,-4605449897940.136,0.00917457933736557
198979200.0,0.015193708417353579,2.093472709885689,6.277819585359106,1.031968358207214,-4605317550120.422,0.009275681656725154
199065600.0,0.015193709982656466,2.093473682461781,6.277819305525815,1.031969342688294,-4605176880030.148,0.009376817729554066
199152000.0,0.015193711486113218,2.093474687052419,6.277818997179233,1.031970347038372,-4605033329620.235,0.009477971802083734
199238400.0,0.015193713021789106,2.0934757933989445,6.277818561767812,1.031971344658046,-4604890654885.773,0.009579132587969415
199324800.0,0.015193714384441613,2.093476861376798,6.2778181973555025,1.031972388826624,-4604741331728.608,0.00968032342179373
199411200.0,0.015193715860463877,2.0934781195861807,6.277817627108827,1.031973438219565,-4604591180149.824,0.00978152665174506
199497600.0,0.015193717283676474,2.093479457536973,6.277816988447803,1.031974510520839,-4604437736801.451,0.00988275018418117
199584000.0,0.015193718394147182,2.0934806181221166,6.277816543513987,1.031975614996197,-4604279671483.873,0.00998399861735827
199670400.0,0.015193719410157408,2.0934818085936993,6.2778160731174895,1.031976739831846,-4604118655437.053,0.010085266984243085
199756800.0,0.015193720326771024,2.0934830282777983,6.277815578181695,1.031977885201081,-4603954664091.728,0.01018655565573215
199843200.0,0.015193721136401323,2.0934842719951154,6.277815063906256,1.031979051329307,-4603787664249.169,0.01028786503472867
199929600.0,0.01519372193448905,2.0934857250800603,6.277814347170732,1.031980234064598,-4603618272183.054,0.01038919335590893
200016000.0,0.015193722593975788,2.0934871851057077,6.277813628910271,1.031981441738435,-4603445263709.117,0.010490544989812915
200102400.0,0.01519372306666447,2.0934885077772982,6.277813052767672,1.031982671540078,-4603269046170.909,0.010591918903977593
200188800.0,0.015193723405939,2.0934898046379926,6.2778125116004135,1.031983923140689,-4603089687860.642,0.01069331517932548
200275200.0,0.015193723635656459,2.0934911722038247,6.277811904267164,1.031985196838871,-4602907123193.26,0.010794734354250324
200361600.0,0.0151937237397902,2.093492559101486,6.277811285321519,1.031986492970094,-4602721317926.478,0.010896176865234196
200448000.0,0.015193723716428562,2.0934939628581932,6.2778106578955635,1.031987811865416,-4602532226675.233,0.010997643193180693
200534400.0,0.015193723600266162,2.093495046164416,6.277810344010447,1.031989148288843,-4602340541450.254,0.011099131189372058
200620800.0,0.015193723385445222,2.093496138180576,6.277810031200994,1.031990508082201,-4602145487863.211,0.01120064390337533
200707200.0,0.015193723072482958,2.0934972358476123,6.277809723344933,1.031991891520851,-4601947029632.299,0.011302181800758038
200793600.0,0.01519372266285213,2.093498335659875,6.277809424774719,1.031993298823034,-4601745138942.954,0.01140374532105698
200880000.0,0.015193722158970387,2.0934994340097033,6.277809139919988,1.031994730134245,-4601539798673.841,0.011505334868155803
200966400.0,0.01519372156414409,2.0935005273143643,6.277808873148775,1.031996185506882,-4601331005217.625,0.011606950797993674
201052800.0,0.015193720882439638,2.0935016121755328,6.277808628570197,1.031997664881164,-4601118771083.44,0.011708593406530963
201139200.0,0.015193720118468552,2.0935026855659733,6.277808409805921,1.031999168069636,-4600903126949.6875,0.011810262919278778
201225600.0,0.01519371927708806,2.0935037450306933,6.277808219746397,1.032000694747864,-4600684122802.932,0.011911959483914212
201312000.0,0.015193718363025317,2.0935047888851583,6.277808060313661,1.032002244453839,-4600461827813.948,0.012013683167542645
201398400.0,0.01519371738045317,2.093505816387596,6.277807932258681,1.032003816597998,-4600236328699.232,0.012115433959881572
201484800.0,0.015193716332555075,2.0935068278622055,6.277807835021353,1.032005410484626,-4600007726481.906,0.012217211783053518
201571200.0,0.015193715221128027,2.093507824752273,6.277807766677851,1.032007025343802,-4599776131794.195,0.012319016507803315
201657600.0,0.015193714046272662,2.093508809590625,6.277807723989576,1.032008660371391,-4599541659098.586,0.012420847974972836
201744000.0,0.015193712806211398,2.093509785885446,6.277807702554627,1.032010314773137,-4599304420403.483,0.012522706020166528
201830400.0,0.015193711497256764,2.0935107579326453,6.277807697046926,1.032011987808148,-4599064519144.951,0.012624590498998499
201916800.0,0.015193710113933195,2.0935117305757434,6.277807701516229,1.032013678827171,-4598822044879.885,0.01272650131024561
202003200.0,0.015193708649229743,2.0935127089415073,6.277807709714146,1.032015387301988,-4598577069296.945,0.012828438414624332
202089600.0,0.015193707094947918,2.0935136981798177,6.277807715411298,1.032017112843792,-4598329643822.141,0.012930401847733143
202176000.0,0.0151937054420966,2.0935147032329486,6.277807712675472,1.032018855210131,-4598079798855.27,0.01303239172663462
202262400.0,0.015193703681292109,2.0935157286510844,6.2778076960909575,1.032020614301526,-4597827544458.037,0.013134408250460694
202348800.0,0.015193701803123094,2.0935167784625976,6.277807660909659,1.032022390149886,-4597572872174.219,0.013236451696053309
202435200.0,0.015193699798456736,2.0935178560992003,6.277807603134761,1.032024182901406,-4597315757595.73,0.013338522410042021
202521600.0,0.015193697667264569,2.0935189599195874,6.277807524047904,1.032025993033641,-4597056128852.337,0.013440620947807456
202608000.0,0.015193695393164987,2.0935200966504506,6.277807416586883,1.032027820619142,-4596793973512.541,0.013542747615402029
202694400.0,0.01519369296895949,2.093521267925247,6.277807278978289,1.032029666025734,-4596529236939.718,0.013644902906140066
202780800.0,0.015193690388256896,2.093522474866004,6.277807110071019,1.032031529657744,-4596261859753.548,0.013747087341824893
202867200.0,0.015193687645458517,2.0935237181553568,6.277806909245756,1.032033411940967,-4595991779942.542,0.013849301464123775
202953600.0,0.015193684735717538,2.0935249981077546,6.277806676325799,1.032035313310664,-4595718934530.965,0.013951545827523006
203040000.0,0.0151936816548783,2.093526314737865,6.277806411492161,1.032037234202315,-4595443260850.839,0.014053820993737589
203126400.0,0.015193678399404111,2.0935276678234405,6.27780611520609,1.032039175044803,-4595164697465.399,0.014156127527454153
203212800.0,0.015193674966300606,2.0935290569610174,6.277805788140912,1.032041136255687,-4594883184795.739,0.014258465993254478
203299200.0,0.015193671353040113,2.0935304816135236,6.277805431124036,1.032043118238167,-4594598665511.81,0.014360836953502211
203385600.0,0.015193667557488464,2.093531941150523,6.277805045088296,1.032045121379373,-4594311084737.738,0.014463240967016733
203472000.0,0.015193663577839385,2.093533434880927,6.2778046310325495,1.032047146049657,-4594020390119.683,0.014565678588351783
203558400.0,0.015193659412554338,2.0935349620794583,6.27780418999004,1.032049192602616,-4593726531793.679,0.014668150367532887
203644800.0,0.01519365506030916,2.0935365220076547,6.27780372300344,1.032051261375636,-4593429462284.586,0.014770656850129018
203731200.0,0.01519365051994805,2.0935381139300526,6.277803231105763,1.032053352690765,-4593129136361.092,0.014873198577554592
203817600.0,0.01519364579044362,2.093539737126565,6.277802715305901,1.032055466855809,-4592825510863.116,0.01497577608753631
203904000.0,0.015193640870862415,2.09354139090181,6.277802176577855,1.032057604165535,-4592518544517.133,0.015078389914670365
203990400.0,0.015193635760335824,2.0935430745916914,6.277801615853221,1.03205976490292,-4592208197746.675,0.015181040591041752
204076800.0,0.015193630458035061,2.0935447875682254,6.277801034015833,1.032061949340399,-4591894432486.18,0.015283728646865282
204163200.0,0.015193624963150163,2.093546529242578,6.277800431898452,1.032064157741073,-4591577212001.314,0.015386454611130805
204249600.0,0.015193619274871928,2.093548299067114,6.277799810280701,1.032066390359865,-4591256500718.793,0.015489219012238821
204336000.0,0.01519361339237656,2.093550096536395,6.277799169888168,1.03206864744461,-4590932264066.794,0.015592022378615124
204422400.0,0.0151936073148127,2.0935519211874913,6.27779851139232,1.03207092923707,-4590604468326.282,0.015694865239303635
204508800.0,0.015193601041290108,2.093553772599894,6.277797835410893,1.03207323597388,-4590273080494.107,0.015797748124529276
204595200.0,0.0151935945708706,2.0935556503948782,6.277797142508855,1.03207556788742,-4589938068155.73,0.015900671566237982
204681600.0,0.015193587902558613,2.0935575542348843,6.2777964331994065,1.032077925206629,-4589599399367.974,0.016003636098611496
204768000.0,0.015193581035294711,2.093559483822467,6.27779570794539,1.032080308157753,-4589257042550.968,0.016106642258558127
204854400.0,0.01519357396794871,2.093561438899306,6.277794967160672,1.032082716965043,-4588910966387.716,0.016209690586183764
204940800.0,0.015193566699313888,2.093563419245095,6.277794211211601,1.032085151851401,-4588561139730.81,0.01631278162524985
205027200.0,0.015193559228101831,2.093565424676427,6.277793440418506,1.032087613038991,-4588207531514.416,0.016415915923617075
205113600.0,0.015193551560578469,2.093567453024303,6.277792656982134,1.032090101122079,-4587850055453.199,0.0165190943268636
205200000.0,0.015193543687629662,2.0935695062276665,6.277791859164088,1.032092615945922,-4587488736243.308,0.016622317099509846
205286400.0,0.01519353560768781,2.0935715842079263,6.277791047155109,1.03209515773365,-4587123542612.441,0.016725584804097974
205372800.0,0.01519352731909305,2.093573686917444,6.277790221107114,1.032097726710087,-4586754443019.543,0.016828898009212116
205459200.0,0.015193518820085402,2.0935758143397485,6.27778938113333,1.032100323101966,-4586381405626.094,0.016932257289695215
205545600.0,0.015193510108802528,2.0935779664884016,6.277788527309768,1.032102947138421,-4586004398225.185,0.017035663227093437
205632000.0,0.015193501183277109,2.0935801434058527,6.277787659676685,1.032105599051486,-4585623388171.181,0.017139116410122505
205718400.0,0.01519349204143819,2.093582345161859,6.277786778240494,1.032108279076589,-4585238342308.355,0.017242617435144936
205804800.0,0.015193482681109963,2.0935845718521735,6.277785882975453,1.032110987453071,-4584849226897.828,0.01734616690667906
205891200.0,0.015193473100014551,2.093586823596744,6.2777849738258364,1.032113724424713,-4584456007542.171,0.0174497654379322
205977600.0,0.015193463295774262,2.093589100537918,6.2777840507082034,1.032116490240303,-4584058649106.072,0.01755341365137203
206064000.0,0.015193453265918255,2.093591402838053,6.277783113514253,1.032119285154212,-4583657115634.306,0.017657112179333016
206150400.0,0.01519344300788876,2.093593730677074,6.277782162113866,1.032122109427032,-4583251370262.93,0.017760861664675734
206236800.0,0.01519343251905151,2.093596084249305,6.277781196358924,1.032124963326242,-4582841375125.715,0.01786466276149345
206323200.0,0.01519342179670965,2.0935984637598843,6.277780216087677,1.032127847126939,-4582427091252.848,0.017968516135885404
206409600.0,0.015193410838121438,2.093600869420353,6.2777792211300705,1.032130761112616,-4582008478462.79,0.01807242246678841
206496000.0,0.01519339964052364,2.093603301443472,6.277778211314019,1.032133705576026,-4581585495244.181,0.01817638244689319
206582400.0,0.015193388201158767,2.093605760037201,6.277777186472705,1.032136680820107,-4581158098628.623,0.01828039678363735
206668800.0,0.015193376517312515,2.0936082453970917,6.2777761464536965,1.032139687158994,-4580726244053.56,0.018384466200286106
206755200.0,0.015193364586356053,2.0936107576977587,6.277775091129275,1.032142724919119,-4580289885214.02,0.018488591437110343
206841600.0,0.015193352405801412,2.0936132970824,6.277774020409019,1.032145794440401,-4579848973903.289,0.01859277325266119
206928000.0,0.015193339973365817,2.093615863650623,6.277772934254462,1.032148896077524,-4579403459843.582,0.01869701242514138
207014400.0,0.015193327287050242,2.0936184574440446,6.277771832696394,1.032152030201303,-4578953290507.055,0.01880130975387439
207100800.0,0.015193314345233177,2.093621078429593,6.277770715854929,1.032155197200121,-4578498410929.491,0.018905666060854587
207187200.0,0.015193301146781777,2.0936237264799344,6.277769583962993,1.032158397481421,-4578038763521.088,0.019010082192360785
207273600.0,0.015193287691179667,2.093626401351386,6.277768437392877,1.032161631473208,-4577574287878.264,0.019114559020606048
207360000.0,0.015193273978677702,2.0936291026584053,6.277767276686818,1.032164899625519,-4577104920606.441,0.019219097445360378
207446400.0,0.015193260010464463,2.09363182984533,6.277766102590922,1.032168202411774,-4576630595164.566,0.019323698395484472
207532800.0,0.015193245788855005,2.0936345821553384,6.277764916092435,1.032171540329897,-4576151241746.461,0.01942836283026511
207619200.0,0.015193231317502462,2.093637358597004,6.277763718459851,1.032174913903082,-4575666787220.276,0.01953309174041929
207705600.0,0.015193216601619717,2.0936401579095634,6.277762511284581,1.032178323679984,-4575177155153.564,0.019637886148570767
207792000.0,0.015193201656237266,2.0936429770140172,6.277761298120578,1.032181770610934,-4574682211231.728,0.01974274745722887
207878400.0,0.01519318648231551,2.0936458155416116,6.277760079696012,1.032185254912024,-4574181928196.616,0.01984767640348784
207964800.0,0.015193171091058246,2.093648671233224,6.277758858800183,1.032188777199759,-4573676221273.444,0.019952674099374013
208051200.0,0.015193155496017673,2.0936515414530783,6.277757638674153,1.032192338106047,-4573165004041.214,0.020057741680460813
208137600.0,0.015193139713143575,2.0936544231912393,6.277756423008099,1.032195938270813,-4572648189522.62,0.020162880299125326
208224000.0,0.015193123760707892,2.093657313088033,6.277755215912296,1.032199578332408,-4572125691567.72,0.020268091115646807
208310400.0,0.01519310765905606,2.093660207488865,6.277754021851746,1.032203258915342,-4571597426588.621,0.020373375286687426
208396800.0,0.015193091430135416,2.093663102536345,6.277752845536146,1.032206980615372,-4571063315626.839,0.02047873395118666
208483200.0,0.015193075096756797,2.093665994306223,6.277751691757486,1.032210743982356,-4570523286688.974,0.02058416821400521
208569600.0,0.015193058681566769,2.093668878989018,6.277750565172921,1.032214549501708,-4569977277217.914,0.020689679128130755
208656000.0,0.01519304220572837,2.0936717531157285,6.277749470034913,1.032218397575873,-4569425236498.295,0.020795267676763044
208742400.0,0.015193025687360818,2.093674613817349,6.277748409880874,1.032222288507731,-4568867127723.509,0.020900934757130344
208828800.0,0.01519300913982837,2.093677459101174,6.277747387202638,1.032226222488264,-4568302929410.025,0.02100668116826144
208915200.0,0.015192992570027139,2.0936802881179895,6.277746403126813,1.032230199590902,-4567732635836.246,0.02111250760508699
209001600.0,0.01519297597685667,2.0936831013889177,6.2777454571432685,1.032234219774622,-4567156256248.212,0.021218414660897245
209088000.0,0.015192959350078219,2.09368590095995,6.277744546920082,1.032238282897044,-4566573812694.858,0.021324402839433265
209174400.0,0.015192942669738368,2.0936886904570065,6.27774366823747,1.032242388737483,-4565985336540.843,0.021430472576643655
209260800.0,0.015192925906282519,2.0936914750253472,6.277742815059974,1.0322465370284,-4565390863909.808,0.021536624270693132
209347200.0,0.015192909021379044,2.093694261154032,6.27774197974626,1.032250727492316,-4564790430490.798,0.021642858317482028
209433600.0,0.015192891969383471,2.0936970564018993,6.27774115337675,1.032254959880352,-4564184066254.079,0.021749175147986792
209520000.0,0.015192874699268862,2.093699869056806,6.277740326161253,1.032259234008285,-4563571790633.531,0.02185557526350389
209606400.0,0.015192857156799085,2.0937027077669206,6.277739487880108,1.032263549786593,-4562953608639.596,0.021962059265364167
209692800.0,0.015192839286699237,2.093705581184109,6.2777386283110435,1.032267907242078,-4562329508201.131,0.02206862787673047
209779200.0,0.015192821034616355,2.093708497652261,6.277737737602362,1.032272306530065,-4561699458834.034,0.02217528195544982
209865600.0,0.015192802348714632,2.0937114649632593,6.277736806565364,1.032276747937533,-4561063411550.833,0.022282022498224363
209952000.0,0.015192783180827002,2.0937144901901275,6.2777358268745,1.032281231878566,-4560421299789.848,0.022388850637384553
210038400.0,0.015192763487157724,2.0937175795957295,6.277734791177103,1.032285758884123,-4559773041073.293,0.0224957676321158
210124800.0,0.015192743228567734,2.0937207386087326,6.27773369312281,1.032290329588255,-4559118539089.688,0.022602774856190503
210211200.0,0.015192722370529323,2.0937239718515275,6.277732527330681,1.032294944712739,-4558457685933.658,0.022709873784059927
210297600.0,0.015192700882828983,2.093727283205795,6.277731289311332,1.032299605051685,-4557790364291.35,0.022817065976842462
210384000.0,0.015192678739108807,2.0937306759005723,6.2777299753620515,1.032304311457262,-4557116449429.808,0.022924353069276933
210470400.0,0.01519265591925039,2.0937341521646196,6.277728583366915,1.032309065148221,-4556435767378.903,0.02303173708446233
210556800.0,0.015192632400000239,2.093737714669763,6.277727109905854,1.032313866734003,-4555748227186.14,0.02313921944704933
210643200.0,0.01519260816319996,2.0937413652813275,6.277725552927934,1.032318717174118,-4555053690906.265,0.0232468019519208
210729600.0,0.01519258319233344,2.0937451055938308,6.2777239107139895,1.032323617448911,-4554352018144.947,0.023354486434093595
210816000.0,0.015192557472051716,2.0937489370077684,6.2777221817848154,1.032328568554832,-4553643066651.086,0.023462274764683985
210902400.0,0.015192530987764305,2.093752860794641,6.277720364823689,1.032333571501432,-4552926692671.694,0.023570168848570206
210988800.0,0.015192503725291632,2.0937568781511056,6.277718458611854,1.032338627309603,-4552202751141.556,0.02367817062325461
211075200.0,0.015192475670574704,2.093760990243186,6.277716461975945,1.03234373701077,-4551471095745.648,0.023786282058675546
211161600.0,0.015192446809438253,2.0937651982416052,6.277714373746006,1.032348901646835,-4550731578884.801,0.023894505157762702
211248000.0,0.01519241712740003,2.093769503349475,6.277712192722613,1.032354122270674,-4549984051571.117,0.024002841957555688
211334400.0,0.015192386609516545,2.0937739068239063,6.277709917651374,1.03235939994704,-4549228363273.78,0.02411129453074435
211420800.0,0.015192355240264627,2.093778409992108,6.277707547203905,1.032364735753736,-4548464361730.952,0.024219864987511826
211507200.0,0.01519232300344642,2.0937830142636082,6.277705079963569,1.032370130782996,-4547691892740.623,0.024328555477596707
211593600.0,0.015192289882116652,2.0937877211389817,6.2777025144153145,1.032375586142981,-4546910799938.411,0.02443736819250974
211680000.0,0.01519225585852791,2.093792532216055,6.277699848938598,1.032381102959338,-4546120924569.718,0.0245463053678513
211766400.0,0.015192220914087538,2.093797449194077,6.277697081802722,1.032386682376812,-4545322105259.447,0.024655369285704987
211852800.0,0.015192185029324842,2.0938024738765133,6.277694211163838,1.032392325560857,-4544514177783.336,0.024764562277077302
211939200.0,0.01519214818386773,2.0938076081724857,6.277691235063573,1.032398033699249,-4543696974841.041,0.024873886724378395
212025600.0,0.015192110356421831,2.093812854097797,6.2776881514282,1.032403808003693,-4542870325834.157,0.024983345063922358
212112000.0,0.01519207152475682,2.0938182137749672,6.277684958068941,1.032409649711401,-4542034056647.007,0.025092939788459064
212198400.0,0.015192031665693391,2.0938236894332056,6.277681652682404,1.032415560086666,-4541187989431.385,0.025202673449731382
212284800.0,0.015191990755092366,2.0938292834081147,6.2776782328513585,1.032421540422413,-4540331942395.137,0.025312548661055253
212371200.0,0.015191948767846328,2.0938349981411366,6.2776746960457785,1.032427592041747,-4539465729592.391,0.025422568099942873
212457600.0,0.015191905677869409,2.0938408361791816,6.277671039623755,1.032433716299484,-4538589160716.724,0.02553273451075533
212544000.0,0.015191861458088984,2.093846800174085,6.277667260832553,1.032439914583692,-4537702040894.246,0.02564305070741164
212630400.0,0.015191816080435521,2.093852892882273,6.2776633568094935,1.032446188317225,-4536804170477.661,0.025753519576146026
212716800.0,0.015191769515833483,2.0938591171644982,6.277659324582729,1.032452538959284,-4535895344838.954,0.025864144078332384
212803200.0,0.015191721734189895,2.0938654759856226,6.277655161071982,1.032458968006976,-4534975354160.545,0.025974927253377918
212889600.0,0.015191672704383978,2.0938719724145876,6.277650863089088,1.032465476996921,-4534043983223.641,0.02608587222170134
212976000.0,0.015191622394254244,2.0938786096244613,6.277646427338447,1.032472067506865,-4533101011193.126,0.026196982187796654
213062400.0,0.015191570776216226,2.0938853901530585,6.277641851994871,1.032478741384417,-4532146184897.962,0.02630826067495107
213148800.0,0.015191517810355912,2.093892318125469,6.277637131955406,1.032485500066589,-4531179298182.353,0.02641971083518403
213235200.0,0.015191463461309519,2.0938993970288133,6.277632263603011,1.032492345264529,-4530200112040.417,0.026531336144493777
213321600.0,0.015191407692624588,2.0939066304547724,6.277627243215422,1.032499278737649,-4529208380912.526,0.02664314017651275
213408000.0,0.015191350466742673,2.0939140221003596,6.27762206696427,1.032506302295348,-4528203852457.259,0.026755126606011717
213494400.0,0.01519129174498753,2.0939215757681007,6.277616730915474,1.032513417798979,-4527186267293.571,0.02686729921273467
213580800.0,0.015191231487551157,2.0939292953662885,6.277611231029574,1.032520627163907,-4526155358731.971,0.026979661885411184
213667200.0,0.01519116965348638,2.0939371849086568,6.277605563162717,1.032527932361663,-4525110852493.78,0.02709221862595057
213753600.0,0.01519110620069825,2.0939452485140855,6.277599723067677,1.032535335422188,-4524052466418.052,0.02720497355383312
213840000.0,0.015191041085940112,2.093953490405801,6.277593706395485,1.032542838436221,-4522979910152.414,0.02731793091073036
213926400.0,0.01519097426481253,2.0939619149101376,6.2775875086975645,1.032550443557789,-4521892884829.939,0.02743109506534897
214012800.0,0.015190905691769143,2.093970526454644,6.277581125428753,1.032558153006843,-4520791082727.564,0.027544470518534585
214099200.0,0.015190835320128986,2.0939793295652116,6.2775745519513535,1.032565969072052,-4519674186907.335,0.02765806190863989
214185600.0,0.015190763102095555,2.0939883288626238,6.2775677835401025,1.032573894113755,-4518541870835.827,0.027771874017200594
214272000.0,0.015190688988789922,2.0939975290574666,6.2775608153889175,1.032581930567087,-4517393797984.346,0.027885911774904914
214358400.0,0.01519061293028973,2.094006934944048,6.277553642619018,1.032590080945302,-4516229621405.236,0.028000180267907685
214444800.0,0.015190534875690677,2.0940165513922206,6.2775462602894425,1.032598347843291,-4515048983285.134,0.02811468474449026
214531200.0,0.015190454773178635,2.0940263833376256,6.277538663409601,1.032606733941312,-4513851514473.963,0.028229430622086493
214617600.0,0.015190372570125057,2.0940364357694574,6.277530846954749,1.032615242008935,-4512636833990.279,0.02834442349467931
214704000.0,0.015190288213206275,2.094046713715575,6.277522805884702,1.032623874909204,-4511404548501.935,0.02845966914058728
214790400.0,0.015190201648546297,2.094057222224986,6.277514535165782,1.03263263560301,-4510154251786.26,0.028575173530612834
214876800.0,0.015190112821887577,2.0940679663472026,6.277506029796573,1.032641527153653,-4508885524171.356,0.028690942836546607
214963200.0,0.015190021678793486,2.094078951108269,6.2774972848377555,1.032650552731565,-4507597931964.773,0.02880698343998063
215049600.0,0.015189928164878996,2.0940901814837503,6.27748829544574,1.03265971561913,-4506291026878.298,0.0289233019413505
215136000.0,0.015189832226069342,2.0941016623688657,6.2774790569099,1.032669019215542,-4504964345460.077,0.02903990516911415
215222400.0,0.015189733808879651,2.0941133985465847,6.27746956469252,1.032678467041546,-4503617408550.834,0.029156800188899157
215308800.0,0.015189632860707923,2.09412539465474,6.277459814470225,1.032688062743958,-4502249720784.945,0.029273994312428546
215395200.0,0.015189529330123672,2.0941376551542685,6.277449802174466,1.032697810099706,-4500860770164.806,0.02939149510593219
215481600.0,0.015189423167119095,2.09415018430211,6.277439524027058,1.032707713019174,-4499450027740.179,0.029509310397724874
215568000.0,0.015189314323302096,2.09416298613176,6.277428976567087,1.032717775548525,-4498016947432.215,0.02962744828453461
215654400.0,0.015189202751964856,2.094176064448386,6.277418156661277,1.032728001870653,-4496560966043.08,0.029745917136137667
215740800.0,0.015189088412827111,2.0941894222780255,6.277407063222583,1.032738396431801,-4495081494769.915,0.029864725692325296
215827200.0,0.015188971257136107,2.094203063613144,6.277395691955192,1.032748963556768,-4493577945786.064,0.029983882780891258
215913600.0,0.015188851241514,2.0942169917929587,6.277384040482336,1.032759707825384,-4492049707038.328,0.03010339759492548
216000000.0,0.015188728322013402,2.094231210199807,6.277372106458465,1.032770633938054,-4490496151917.236,0.030223279594243365
216086400.0,0.015188602452526704,2.0942457224422055,6.277359887358577,1.032781746706079,-4488916640535.178,0.030343538497069944
216172800.0,0.015188473582687448,2.0942605325933528,6.277347380202421,1.03279305104066,-4487310521111.016,0.030464184270341706
216259200.0,0.015188341655275222,2.094275645482525,6.277334581215225,1.032804551941657,-4485677131297.571,0.030585227120220156
216345600.0,0.015188206603222627,2.0942910670276214,6.277321485438427,1.032816254487833,-4484015799218.475,0.030706677485182854
216432000.0,0.015188068346415604,2.094306804585961,6.277308086316787,1.032828163830705,-4482325843938.609,0.03082854603458501
216518400.0,0.01518792678855045,2.094322867293211,6.277294375297289,1.032840285194313,-4480606575080.552,0.03095084367581724
216604800.0,0.015187781814394688,2.094339266351782,6.277280341485381,1.03285262388306,-4478857291344.592,0.031073581572846398
216691200.0,0.015187633287792102,2.094356015230882,6.277265971403608,1.032865185299032,-4477077277790.9,0.031196771177985905
216777600.0,0.015187481050719856,2.09437312974565,6.277251248891782,1.032877974969184,-4475265801896.398,0.03132042427723187
216864000.0,0.015187324923567806,2.0943906279982403,6.277236155170073,1.032890998581368,-4473422108575.453,0.031444553047652264
216950400.0,0.015187164706654724,2.0944085301819966,6.277220669064817,1.032904262026858,-4471545414514.217,0.03156917012358489
217036800.0,0.015187000182803733,2.094426858270865,6.277204767372097,1.032917771446101,-4469634902274.206,0.03169428866714291
217123200.0,0.015186831120644595,2.0944456356328076,6.2771884253142085,1.032931533274013,-4467689714641.181,0.03181992243812909
217209600.0,0.015186657278222127,2.0944648866153526,6.2771716170326,1.032945554281523,-4465708949624.554,0.031946085859013595
217296000.0,0.015186478406483904,2.094484636150774,6.277154316061244,1.032959841610945,-4463691656378.364,0.032072794071883015
217382400.0,0.015186294252279279,2.094504909420796,6.277136495732833,1.032974402804011,-4461636832144.544,0.03220006298597755
217468800.0,0.015186104560624065,2.0945257316069528,6.277118129486337,1.032989245822606,-4459543420161.19,0.03232790931608447
217555200.0,0.015185909076115549,2.0945471277375005,6.277099191062218,1.033004379063276,-4457410308356.945,0.03245635061338781
217641600.0,0.015185707543504054,2.0945691226286898,6.2770796545871,1.033019811367166,-4455236328586.513,0.032585405291165
217728000.0,0.015185499707507159,2.0945917409091237,6.277059494560752,1.033035552027331,-4453020256144.342,0.03271509264802509
217814400.0,0.015185285312018373,2.094615007109593,6.277038685765644,1.033051610795223,-4450760809318.188,0.03284543289121595
217900800.0,0.01518506409886515,2.0946389458003583,6.277017203120249,1.033067997887928,-4448456648789.535,0.032976447162141334
217987200.0,0.015184835806270577,2.0946635817585735,6.276995021496445,1.033084723997314,-4446106376741.729,0.03310815756571439
218073600.0,0.015184600167140851,2.094688940152061,6.276972115517482,1.033101800301904,-4443708535587.784,0.033240587204669554
218160000.0,0.015184356907279465,2.094715046728593,6.276948459349459,1.033119238481952,-4441261606271.044,0.03337376021953981
218246400.0,0.015184105743592248,2.0947419280035926,6.276924026494845,1.033137050737971,-4438764006121.78,0.033507701834695196
218332800.0,0.015183846374679035,2.094769612258033,6.276898790067409,1.033155249944097,-4436214078824.271,0.03364243850564592
218419200.0,0.015183578502075306,2.094798127260322,6.276872721174027,1.033173849273369,-4433610114602.82,0.033777997683824605
218505600.0,0.015183301805590936,2.094827502892172,6.276845790166902,1.033192862633412,-4430950322742.222,0.0339144081840846
218592000.0,0.015183015949348237,2.0948577704891336,6.276817965993469,1.033212304561344,-4428232836065.999,0.03405170015248332
218678400.0,0.015182720580182692,2.094888962996555,6.276789216031125,1.033232190259519,-4425455706732.357,0.03418990514419523
218764800.0,0.01518241532604523,2.094921115123711,6.27675950592682,1.033252535634778,-4422616901641.253,0.03432905620825072
218851200.0,0.01518209979439028,2.094954263497522,6.276728799438887,1.033273357341184,-4419714297456.379,0.034469187979308424
218937600.0,0.015181773570519709,2.0949884468191953,6.2766970582775965,1.033294672826311,-4416745675233.802,0.034610336776817414
219024000.0,0.015181436215878317,2.0950237060244503,6.276664241943554,1.033316500381306,-4413708714642.253,0.034752540712039204
219110400.0,0.015181087266256294,2.095060084451385,6.2766303075596985,1.033338859194906,-4410600987754.453,0.034895839803476054
219196800.0,0.01518072622989769,2.095097628016749,6.2765952096960556,1.033361769411696,-4407419952382.897,0.035040276101358896
219283200.0,0.0151803525854779,2.095136385403643,6.27655890018402,1.033385252194929,-4404162944927.391,0.03518589382195086
219369600.0,0.015179965779939693,2.095176408262218,6.276521327918633,1.033409329794277,-4400827172697.366,0.03533273949251265
219456000.0,0.0151795652261589,2.095217751425792,6.276482438646271,1.033434025618952,-4397409705664.6777,0.035480862107911175
219542400.0,0.015179150300417353,2.095260473144821,6.27644217473539,1.033459364316682,-4393907467598.2695,0.03563031329995187
219628800.0,0.015178720339662307,2.09530463534044,6.276400474928576,1.03348537185909,-4390317226524.2456,0.03578114752067408
219715200.0,0.015178274638520724,2.0953503038806782,6.276357274072826,1.033512075634139,-4386635584446.874,0.035933422241008595
219801600.0,0.015177812446041635,2.0953975488819614,6.27631250282566,1.033539504546456,-4382858966241.7734,0.03608719816657079
219888000.0,0.015177332962135996,2.0954464450384727,6.2762660873346565,1.033567689126527,-4378983607619.323,0.03624253947261863
219974400.0,0.015176835333682992,2.0954970719826638,6.276217948886303,1.03359666164811,-4375005542272.738,0.036399514057677565
220060800.0,0.015176318650260789,2.095549514680376,6.276168003520758,1.033626456254814,-4370920588119.7275,0.03655819381786713
220147200.0,0.015175781939451734,2.09560386386556,6.276116161609714,1.033657109100016,-4366724332120.509,0.03671865494934395
220233600.0,0.015175224161684247,2.095660216518124,6.27606232739284,1.033688658499495,-4362412113802.08,0.03688097827861508
220320000.0,0.015174644204542505,2.0957186763909834,6.276006398466685,1.03372114509765,-4357979007424.839,0.03704524962292699
220406400.0,0.01517404087650123,2.095779354590696,6.275948265222024,1.033754612049078,-4353419802612.4604,0.037211560184545696
220492800.0,0.015173412899998216,2.095842370219536,6.275887810222196,1.033789105217311,-4348728983272.5728,0.03738000698289023
220579200.0,0.015172758903771837,2.095907851085825,6.275824907515988,1.033824673392692,-4343900704625.3247,0.03755069332888028
220665600.0,0.015172077414370459,2.0959759344912006,6.275759421876769,1.033861368531556,-4338928768136.639,0.0377237293464147
220752000.0,0.01517136684673026,2.096046768104634,6.275691207958622,1.03389924601925,-4333806594126.6997,0.037899232546563466
220838400.0,0.015170625493702293,2.096120510934101,6.2756201093591,1.033938364959776,-4328527191798.4653,0.03807732846079648
220924800.0,0.015169295601116503,2.096309788434743,6.275434561962082,1.03397606254394,-4323446128443.9585,0.03825338930214977
221011200.0,0.015168487962063713,2.0963898053494527,6.275357240446353,1.034017852864375,-4317829247020.968,0.03843705690136173
221097600.0,0.015167655296176386,2.0964721292676116,6.275277622102098,1.034061041525878,-4312037309959.468,0.03862367050342585
221184000.0,0.015166794128186632,2.096557093474429,6.2751954543073865,1.034105800089975,-4306049329477.977,0.03881355270812803
221270400.0,0.015165889387507485,2.0966461729323744,6.275109128018149,1.03415213658305,-4299864583564.699,0.03900676342531851
221356800.0,0.015164953534938859,2.0967381285506184,6.275020136241251,1.034200186519297,-4293468810968.105,0.039203549205912826
221443200.0,0.0151639625927027,2.0968353006380815,6.27492586241056,1.034250006843102,-4286853781254.8975,0.039404076106902
221529600.0,0.015162922371817295,2.0969371023385026,6.274827040209613,1.034301740004897,-4280003786322.213,0.03960862076879789
221616000.0,0.015161794896028152,2.0970472254533434,6.274720074709477,1.034355490132033,-4272908025111.8267,0.03981740023772231
221702400.0,0.015160544975470432,2.097169075341924,6.274601534542195,1.034411383015308,-4265551992423.7637,0.04003068716704438
221788800.0,0.015159263313883734,2.0972937853723246,6.274480119424781,1.034469524029902,-4257922927409.26,0.04024873659022765
221875200.0,0.015157924976761541,2.0974237678117955,6.274353528441268,1.034530073363611,-4250003590460.638,0.04047187691406307
221961600.0,0.015156565739140766,2.0975555356467295,6.2742251280740335,1.034593140221981,-4241781746780.67,0.04070037394748295
222048000.0,0.015155079432148298,2.097699364025729,6.2740848996685985,1.034658957065925,-4233232730528.6196,0.04093468210621376
222134400.0,0.015153443899587126,2.0978573486522833,6.273930782037073,1.034727696193347,-4224338294229.7295,0.04117517671421479
222220800.0,0.015151701273579328,2.0980253912168934,6.27376678717246,1.034799541051981,-4215078174808.229,0.041422273414157815
222307200.0,0.015149945274690895,2.0981944388631493,6.27360181559559,1.034874677644118,-4205431743583.138,0.04167640704025699
222393600.0,0.015148081439626628,2.0983735699383774,6.273427016715521,1.034953405927534,-4195367670772.197,0.041938189048698726
222480000.0,0.015146150016684162,2.09855888923689,6.273246163980537,1.035035937006227,-4184863765835.7354,0.04220811484981525
222566400.0,0.015144048839147271,2.098760175779369,6.273049706934092,1.035122615274985,-4173884700846.056,0.04248689876213196
222652800.0,0.015141769104133314,2.098978228617371,6.2728368308203795,1.035213708244505,-4162403812192.1577,0.04277515070958416
222739200.0,0.015139360583465725,2.0992082617234655,6.27261236322098,1.035309655482585,-4150374309972.071,0.043073811653887566
222825600.0,0.015136794174858297,2.0994530251095247,6.272373527849206,1.035410728701317,-4137771269609.3057,0.043383527764269805
222912000.0,0.01513406122434238,2.099713308619208,6.27211969653387,1.035517487221769,-4124536840361.127,0.04370548615797065
222998400.0,0.015131097133555907,2.099995234805574,6.2718448160835925,1.035630362537706,-4110630198908.976,0.044040661676060466
223084800.0,0.015127972122111252,2.100292090053181,6.271555616274129,1.035749919456507,-4095995563163.811,0.044390312943769494
223171200.0,0.01512457739592269,2.100614182945487,6.2712419751226545,1.035876798246482,-4080571830196.272,0.04475584999157068
223257600.0,0.015120909416300976,2.100961814527851,6.270903745730904,1.03601168186991,-4064295310878.0127,0.04513879948815659
223344000.0,0.015116883538165022,2.1013387299153163,6.270537363416574,1.0361553856851,-4047090118609.3296,0.045540974690412635
223430400.0,0.015112569827377154,2.1017467619890393,6.270141069859186,1.036308763098388,-4028878248671.1895,0.04596432694209065
223516800.0,0.015107861646023008,2.102191739535912,6.26970934362611,1.036472877962122,-4009564049982.435,0.04641123118825463
223603200.0,0.015102699831521172,2.102679247657009,6.269237066255766,1.036648971690982,-3989038014073.9277,0.0468844551526768
223689600.0,0.015097036590215608,2.1032138092584582,6.268719806466984,1.036838321982142,-3967190290813.2935,0.04738695693938456
223776000.0,0.015090794784571277,2.103802737646653,6.268150805328206,1.037042571486418,-3943881098952.51,0.047922446630912496
223862400.0,0.01508388684175559,2.1044543601492123,6.267522162007851,1.037263499799385,-3918964501210.397,0.04849502871958156
223948800.0,0.015076209489403844,2.1051785309447877,6.2668247366333265,1.037503343673505,-3892258088847.967,0.04910981875551901
224035200.0,0.015067633418400415,2.1059876263276736,6.266046941421539,1.03776463442266,-3863563542739.952,0.04977267793713202
224121600.0,0.015058005786731435,2.1068963463317574,6.265175097491315,1.03805042977333,-3832646654737.283,0.05049070740202065
224208000.0,0.015047137244113763,2.107922987831576,6.264192225911375,1.03836438855732,-3799236170076.805,0.051272452509175226
224294400.0,0.015034764865549192,2.109093029154417,6.263074442460549,1.038710910431767,-3763016838414.768,0.05212827276927279
224380800.0,0.015020641344368145,2.110430812099941,6.261799765322251,1.039095454835615,-3723611003444.0127,0.05307104330503964
224467200.0,0.015004359017737124,2.1119763797367352,6.260331123922422,1.039524718065902,-3680574738263.774,0.05411669757242488
224553600.0,0.014985434454562737,2.113777792212133,6.258624213754085,1.040006934483065,-3633389309466.7837,0.055285040197029074
224640000.0,0.014963230254486846,2.1158990613535456,6.256620534979887,1.040552843506789,-3581402771255.7666,0.0566019656732696
224726400.0,0.014936905112154588,2.11842575419624,6.254241750715933,1.041175982299945,-3523845971895.3857,0.05810052984313643
224812800.0,0.014905254274005238,2.1214818340979966,6.251374342362427,1.041894149434245,-3459767869277.8555,0.05982453939926836
