{
    "binaries": [
        {
            "stars": [
                {
                    "magB": 13.302,
                    "magH": 11.09,
                    "magJ": 11.44,
                    "magK": 11.07,
                    "magV": 12.654,
                    "mass": 1.9287575745771094e+30,
                    "metallicity": -0.14,
                    "name": "EPIC 201384232",
                    "orbit": {
                        "separationArcsec": 24.14
                    },
                    "planets": [
                        {
                            "description": "This planet was discovered by the Kepler spacecraft during its extended K2 mission, Campaign 1.",
                            "discoverymethod": "transit",
                            "discoveryyear": "2015",
                            "istransiting": "1",
                            "lastupdate": "18/07/24",
                            "name": "EPIC 201384232 b",
                            "orbit": {
                                "inclination": 1.5606734171333294,
                                "period": 2673381.024,
                                "semiMajorAxis": 28393675858.86,
                                "transitTime": 456451320.9599957
                            },
                            "radius": 16443160.0,
                            "temperature": 615.0
                        }
                    ],
                    "radius": 667872000.0,
                    "temperature": 5850.0
                },
                {
                    "name": "EPIC 201384232 B"
                }
            ]
        }
    ],
    "declination": -0.02091738323420715,
    "distance": 343.0,
    "rightascension": 3.11004160948097
}