{
    "declination": 0.8722410748272413,
    "distance": 356.41,
    "rightascension": 5.004522917804023,
    "stars": [
        {
            "magH": 12.51,
            "magJ": 13.153,
            "magK": 12.36,
            "mass": 1.1473124953927753e+30,
            "name": "Kepler-52",
            "planets": [
                {
                    "description": "Kepler-52 c has been discovered by the Kepler spacecraft and was originally classified as a planet candidate. A new statistical analysis led by a team at NASA Ames Research Center has validated the planet with more than 99 percent confidence. Although many parameters of Kepler-52 c are still unknown, the object is highly unlikely to be a false positive.",
                    "discoverymethod": "transit",
                    "discoveryyear": "2014",
                    "istransiting": "1",
                    "lastupdate": "14/02/26",
                    "name": "Kepler-52 c",
                    "orbit": {
                        "period": 1415654.3232,
                        "transitTime": 299050094.01601106
                    },
                    "radius": 11140598.36
                },
                {
                    "description": "Kepler-52 b has been discovered by the Kepler spacecraft and was originally classified as a planet candidate. A new statistical analysis led by a team at NASA Ames Research Center has validated the planet with more than 99 percent confidence. Although many parameters of Kepler-52 b are still unknown, the object is highly unlikely to be a false positive.",
                    "discoverymethod": "transit",
                    "discoveryyear": "2014",
                    "istransiting": "1",
                    "lastupdate": "14/02/26",
                    "name": "Kepler-52 b",
                    "orbit": {
                        "period": 680607.9648,
                        "transitTime": 299365293.3119863
                    },
                    "radius": 15244954.08
                },
                {
                    "description": "Kepler-52 d has been discovered by the Kepler spacecraft and was originally classified as a planet candidate. A new statistical analysis led by a team at NASA Ames Research Center has validated the planet with more than 99 percent confidence. Although many parameters of Kepler-52 d are still unknown, the object is highly unlikely to be a false positive.",
                    "discoverymethod": "transit",
                    "discoveryyear": "2014",
                    "istransiting": "1",
                    "lastupdate": "14/02/26",
                    "name": "Kepler-52 d",
                    "orbit": {
                        "period": 3148862.7744,
                        "transitTime": 297224739.3600002
                    },
                    "radius": 12704128.4
                }
            ],
            "radius": 386809200.00000006,
            "temperature": 4263.0
        }
    ]
}