{
    "declination": -0.5287072573561501,
    "distance": 6300.0,
    "rightascension": 4.679690964069098,
    "stars": [
        {
            "mass": 9.146685405211035e+29,
            "name": "OGLE-2013-BLG-1721L",
            "planets": [
                {
                    "description": "OGLE-2013-BLG-1721Lb is a Saturn-mass planet orbiting a low-mass star.",
                    "discoverymethod": "microlensing",
                    "discoveryyear": "2017",
                    "lastupdate": "18/09/20",
                    "mass": 1.2147997422950723e+27,
                    "name": "OGLE-2013-BLG-1721L b",
                    "orbit": {
                        "separationMeters": 388954463820.0
                    }
                }
            ]
        }
    ]
}